{
  "0": {
    "test_acc": 0.9791666666666666,
    "tp": 16,
    "tn": 31,
    "fp": 0,
    "fn": 1,
    "tpr": 0.9411764705882353,
    "fpr": 0.0,
    "tnr": 1.0,
    "fnr": 0.058823529411764705,
    "f1_score": 0.9696969696969697,
    "precision": 1.0,
    "recall": 0.9411764705882353
  },
  "1": {
    "test_acc": 1.0,
    "tp": 17,
    "tn": 31,
    "fp": 0,
    "fn": 0,
    "tpr": 1.0,
    "fpr": 0.0,
    "tnr": 1.0,
    "fnr": 0.0,
    "f1_score": 1.0,
    "precision": 1.0,
    "recall": 1.0
  },
  "2": {
    "test_acc": 0.9791666666666666,
    "tp": 16,
    "tn": 31,
    "fp": 0,
    "fn": 1,
    "tpr": 0.9411764705882353,
    "fpr": 0.0,
    "tnr": 1.0,
    "fnr": 0.058823529411764705,
    "f1_score": 0.9696969696969697,
    "precision": 1.0,
    "recall": 0.9411764705882353
  },
  "3": {
    "test_acc": 1.0,
    "tp": 17,
    "tn": 31,
    "fp": 0,
    "fn": 0,
    "tpr": 1.0,
    "fpr": 0.0,
    "tnr": 1.0,
    "fnr": 0.0,
    "f1_score": 1.0,
    "precision": 1.0,
    "recall": 1.0
  },
  "4": {
    "test_acc": 0.9795918367346939,
    "tp": 17,
    "tn": 31,
    "fp": 0,
    "fn": 1,
    "tpr": 0.9444444444444444,
    "fpr": 0.0,
    "tnr": 1.0,
    "fnr": 0.05555555555555555,
    "f1_score": 0.9714285714285714,
    "precision": 1.0,
    "recall": 0.9444444444444444
  },
  "sum": {
    "tp": 83.0,
    "fp": 0.0,
    "tn": 155.0,
    "fn": 3.0,
    "tpr": 0.9651162790697675,
    "tnr": 1.0,
    "fpr": 0.0,
    "fnr": 0.03488372093023256
  },
  "avg": {
    "test_acc": 0.9875850340136054,
    "tp": 16.6,
    "tn": 31.0,
    "fp": 0.0,
    "fn": 0.6,
    "tpr": 0.9653594771241829,
    "fpr": 0.0,
    "tnr": 1.0,
    "fnr": 0.034640522875816995,
    "f1_score": 0.9821645021645022,
    "precision": 1.0,
    "recall": 0.9653594771241829
  }
}