{
  "results": {
    "Vanilla Verifier": [
      1.0,
      1.0,
      2.0,
      2.0,
      1.0,
      1.0,
      2.0,
      1.0,
      0.0,
      2.0,
      2.0,
      2.0,
      2.0,
      0.0,
      1.0,
      2.0,
      2.0,
      1.0,
      2.0,
      2.0,
      2.0,
      2.0,
      2.0,
      0.0,
      2.0,
      2.0,
      1.0,
      2.0,
      2.0,
      2.0,
      2.0,
      2.0,
      1.0,
      1.0,
      1.0,
      2.0,
      1.0,
      2.0,
      1.0,
      2.0,
      2.0,
      1.0,
      2.0,
      1.0,
      2.0,
      2.0,
      0.0,
      2.0,
      2.0,
      1.0,
      2.0,
      2.0,
      2.0,
      0.0,
      2.0,
      1.0,
      2.0,
      0.0,
      1.0,
      1.0,
      0.0,
      1.0,
      0.0,
      2.0,
      1.0,
      2.0,
      2.0,
      2.0,
      2.0,
      2.0,
      2.0,
      2.0,
      2.0,
      2.0,
      2.0,
      2.0,
      2.0,
      1.0,
      1.0,
      2.0,
      1.0,
      0.0,
      0.0,
      2.0,
      2.0,
      2.0,
      0.0,
      2.0,
      2.0,
      2.0,
      0.0,
      2.0,
      2.0,
      1.0,
      1.0,
      1.0,
      2.0,
      2.0,
      2.0,
      2.0,
      2.0,
      1.0,
      0.0,
      2.0,
      1.0,
      2.0,
      2.0,
      1.0,
      2.0,
      2.0,
      2.0,
      1.0,
      2.0,
      2.0,
      2.0,
      0.0,
      2.0,
      2.0,
      2.0,
      2.0,
      1.0,
      2.0,
      2.0,
      0.0,
      2.0,
      1.0,
      1.0,
      2.0,
      2.0,
      2.0,
      1.0,
      2.0,
      2.0,
      1.0,
      2.0,
      2.0,
      2.0,
      2.0,
      0.0,
      2.0,
      2.0,
      0.0,
      2.0,
      1.0,
      1.0,
      1.0,
      2.0,
      0.0,
      2.0,
      2.0,
      0.0,
      0.0,
      2.0,
      0.0,
      1.0,
      2.0,
      2.0,
      2.0,
      1.0,
      1.0,
      0.0,
      0.0,
      1.0,
      2.0,
      1.0,
      2.0,
      2.0,
      2.0,
      2.0,
      2.0,
      2.0,
      2.0,
      2.0,
      1.0,
      2.0,
      2.0,
      1.0,
      2.0,
      2.0,
      1.0,
      2.0,
      1.0,
      2.0,
      2.0,
      2.0,
      0.0,
      2.0,
      0.0,
      2.0,
      1.0,
      2.0,
      0.0,
      2.0,
      2.0,
      1.0,
      1.0,
      2.0,
      2.0,
      1.0,
      2.0,
      2.0,
      1.0,
      0.0,
      2.0,
      2.0,
      2.0,
      2.0,
      2.0,
      1.0,
      2.0,
      2.0,
      2.0,
      2.0,
      1.0,
      2.0,
      2.0,
      2.0,
      2.0,
      0.0,
      1.0,
      1.0,
      2.0,
      2.0,
      2.0,
      2.0,
      2.0,
      2.0,
      1.0,
      2.0,
      1.0,
      0.0,
      1.0,
      2.0,
      0.0,
      1.0,
      1.0,
      1.0,
      1.0,
      2.0,
      0.0,
      2.0,
      2.0,
      2.0,
      0.0,
      1.0,
      2.0,
      2.0,
      2.0,
      2.0,
      2.0,
      2.0,
      1.0,
      2.0,
      1.0,
      2.0,
      2.0,
      2.0,
      2.0,
      2.0,
      2.0,
      2.0,
      2.0,
      1.0,
      2.0,
      0.0,
      2.0,
      2.0,
      1.0,
      0.0,
      2.0,
      0.0,
      1.0,
      2.0,
      1.0,
      1.0,
      2.0,
      0.0,
      2.0,
      0.0,
      2.0,
      2.0,
      1.0,
      1.0,
      2.0,
      1.0,
      2.0,
      0.0,
      2.0,
      2.0,
      0.0,
      2.0,
      2.0,
      2.0,
      2.0,
      1.0,
      2.0,
      2.0,
      1.0,
      0.0,
      2.0,
      0.0,
      2.0,
      1.0,
      2.0,
      2.0,
      0.0,
      2.0,
      2.0,
      2.0,
      0.0,
      2.0,
      1.0,
      1.0,
      1.0,
      1.0,
      2.0,
      2.0,
      0.0,
      2.0,
      2.0,
      2.0,
      0.0,
      2.0,
      1.0,
      2.0,
      2.0,
      2.0,
      2.0,
      2.0,
      1.0,
      2.0,
      2.0,
      2.0,
      2.0,
      1.0,
      2.0,
      1.0,
      2.0,
      1.0,
      1.0,
      2.0,
      2.0,
      1.0,
      0.0,
      1.0,
      0.0,
      2.0,
      2.0,
      2.0,
      2.0,
      1.0,
      2.0,
      1.0,
      2.0,
      2.0,
      2.0,
      1.0,
      2.0,
      2.0,
      2.0,
      2.0,
      2.0,
      0.0,
      2.0,
      0.0,
      1.0,
      2.0,
      0.0,
      2.0,
      2.0,
      2.0,
      2.0,
      0.0,
      2.0,
      1.0,
      2.0,
      2.0,
      2.0,
      1.0,
      2.0,
      2.0,
      1.0,
      2.0,
      2.0,
      2.0,
      0.0,
      1.0,
      1.0,
      1.0,
      1.0,
      2.0,
      2.0,
      2.0,
      2.0,
      2.0,
      1.0,
      0.0,
      2.0,
      2.0,
      1.0,
      1.0,
      2.0,
      2.0,
      2.0,
      2.0,
      0.0,
      2.0,
      2.0,
      1.0,
      2.0,
      2.0,
      1.0,
      2.0,
      0.0,
      1.0,
      1.0,
      0.0,
      2.0,
      1.0,
      1.0,
      2.0,
      2.0,
      0.0,
      2.0,
      2.0,
      0.0,
      2.0,
      1.0,
      2.0,
      1.0,
      2.0,
      2.0,
      2.0,
      2.0,
      2.0,
      2.0,
      2.0,
      0.0,
      2.0,
      2.0,
      1.0,
      2.0,
      2.0,
      2.0,
      1.0,
      2.0,
      2.0,
      2.0,
      0.0,
      2.0,
      1.0,
      2.0,
      2.0,
      1.0,
      1.0,
      0.0,
      2.0,
      1.0,
      2.0,
      2.0,
      2.0,
      2.0,
      1.0,
      2.0,
      2.0,
      2.0,
      0.0,
      2.0,
      2.0,
      2.0,
      1.0,
      2.0,
      2.0,
      1.0,
      2.0,
      0.0,
      2.0,
      1.0,
      1.0,
      2.0,
      2.0,
      2.0,
      1.0,
      2.0,
      1.0,
      2.0,
      1.0,
      2.0,
      0.0,
      1.0,
      1.0,
      2.0,
      2.0,
      2.0,
      1.0,
      2.0,
      1.0,
      2.0,
      1.0,
      2.0
    ],
    "Timeout Prediction": [
      1.0,
      1.0,
      2.0,
      2.0,
      1.0,
      1.0,
      2.0,
      2.0,
      0.0,
      2.0,
      2.0,
      2.0,
      2.0,
      0.0,
      1.0,
      2.0,
      2.0,
      1.0,
      2.0,
      2.0,
      2.0,
      2.0,
      2.0,
      0.0,
      2.0,
      2.0,
      1.0,
      2.0,
      2.0,
      2.0,
      2.0,
      2.0,
      1.0,
      1.0,
      2.0,
      2.0,
      1.0,
      2.0,
      1.0,
      2.0,
      2.0,
      2.0,
      2.0,
      1.0,
      2.0,
      2.0,
      0.0,
      2.0,
      2.0,
      1.0,
      2.0,
      2.0,
      2.0,
      0.0,
      2.0,
      1.0,
      2.0,
      0.0,
      1.0,
      1.0,
      0.0,
      1.0,
      0.0,
      2.0,
      1.0,
      2.0,
      2.0,
      2.0,
      2.0,
      2.0,
      2.0,
      2.0,
      2.0,
      2.0,
      2.0,
      2.0,
      2.0,
      1.0,
      1.0,
      2.0,
      1.0,
      0.0,
      0.0,
      2.0,
      2.0,
      2.0,
      0.0,
      2.0,
      2.0,
      2.0,
      0.0,
      2.0,
      2.0,
      1.0,
      1.0,
      1.0,
      2.0,
      2.0,
      2.0,
      2.0,
      2.0,
      1.0,
      0.0,
      2.0,
      2.0,
      2.0,
      2.0,
      1.0,
      2.0,
      2.0,
      2.0,
      1.0,
      2.0,
      2.0,
      2.0,
      0.0,
      2.0,
      2.0,
      2.0,
      2.0,
      1.0,
      2.0,
      2.0,
      0.0,
      2.0,
      1.0,
      1.0,
      2.0,
      2.0,
      2.0,
      1.0,
      2.0,
      2.0,
      1.0,
      2.0,
      2.0,
      2.0,
      2.0,
      0.0,
      2.0,
      2.0,
      0.0,
      2.0,
      1.0,
      1.0,
      1.0,
      2.0,
      0.0,
      2.0,
      2.0,
      0.0,
      0.0,
      2.0,
      0.0,
      1.0,
      2.0,
      2.0,
      2.0,
      1.0,
      1.0,
      0.0,
      0.0,
      2.0,
      2.0,
      1.0,
      2.0,
      2.0,
      2.0,
      2.0,
      2.0,
      2.0,
      2.0,
      2.0,
      1.0,
      2.0,
      2.0,
      1.0,
      2.0,
      2.0,
      2.0,
      2.0,
      1.0,
      2.0,
      2.0,
      2.0,
      0.0,
      2.0,
      0.0,
      2.0,
      1.0,
      2.0,
      0.0,
      2.0,
      2.0,
      1.0,
      1.0,
      2.0,
      2.0,
      1.0,
      2.0,
      2.0,
      1.0,
      0.0,
      2.0,
      2.0,
      2.0,
      2.0,
      2.0,
      2.0,
      2.0,
      2.0,
      2.0,
      2.0,
      1.0,
      2.0,
      2.0,
      2.0,
      2.0,
      0.0,
      1.0,
      1.0,
      2.0,
      2.0,
      2.0,
      2.0,
      2.0,
      2.0,
      1.0,
      2.0,
      2.0,
      0.0,
      1.0,
      2.0,
      0.0,
      1.0,
      1.0,
      1.0,
      1.0,
      2.0,
      0.0,
      2.0,
      2.0,
      2.0,
      0.0,
      1.0,
      2.0,
      2.0,
      2.0,
      2.0,
      2.0,
      2.0,
      1.0,
      2.0,
      1.0,
      2.0,
      2.0,
      2.0,
      2.0,
      2.0,
      2.0,
      2.0,
      2.0,
      2.0,
      2.0,
      0.0,
      2.0,
      2.0,
      1.0,
      0.0,
      2.0,
      0.0,
      1.0,
      2.0,
      1.0,
      1.0,
      2.0,
      0.0,
      2.0,
      0.0,
      2.0,
      2.0,
      1.0,
      1.0,
      2.0,
      1.0,
      2.0,
      0.0,
      2.0,
      2.0,
      0.0,
      2.0,
      2.0,
      2.0,
      2.0,
      1.0,
      2.0,
      2.0,
      1.0,
      0.0,
      2.0,
      0.0,
      2.0,
      1.0,
      2.0,
      2.0,
      0.0,
      2.0,
      2.0,
      2.0,
      2.0,
      2.0,
      1.0,
      1.0,
      1.0,
      1.0,
      2.0,
      2.0,
      0.0,
      2.0,
      2.0,
      2.0,
      0.0,
      2.0,
      1.0,
      2.0,
      2.0,
      2.0,
      2.0,
      2.0,
      2.0,
      2.0,
      2.0,
      2.0,
      2.0,
      1.0,
      2.0,
      1.0,
      2.0,
      1.0,
      1.0,
      2.0,
      2.0,
      1.0,
      0.0,
      1.0,
      0.0,
      2.0,
      2.0,
      2.0,
      2.0,
      1.0,
      2.0,
      1.0,
      2.0,
      2.0,
      2.0,
      2.0,
      2.0,
      2.0,
      2.0,
      2.0,
      2.0,
      0.0,
      2.0,
      0.0,
      1.0,
      2.0,
      0.0,
      2.0,
      2.0,
      2.0,
      2.0,
      0.0,
      2.0,
      2.0,
      2.0,
      2.0,
      2.0,
      1.0,
      2.0,
      2.0,
      1.0,
      2.0,
      2.0,
      2.0,
      0.0,
      1.0,
      1.0,
      1.0,
      1.0,
      2.0,
      2.0,
      2.0,
      2.0,
      2.0,
      1.0,
      0.0,
      2.0,
      2.0,
      1.0,
      1.0,
      2.0,
      2.0,
      2.0,
      2.0,
      0.0,
      2.0,
      2.0,
      1.0,
      2.0,
      2.0,
      1.0,
      2.0,
      0.0,
      1.0,
      1.0,
      0.0,
      2.0,
      1.0,
      2.0,
      2.0,
      2.0,
      0.0,
      2.0,
      2.0,
      0.0,
      2.0,
      1.0,
      2.0,
      2.0,
      2.0,
      2.0,
      2.0,
      2.0,
      2.0,
      2.0,
      2.0,
      0.0,
      2.0,
      2.0,
      1.0,
      2.0,
      2.0,
      2.0,
      1.0,
      2.0,
      2.0,
      2.0,
      0.0,
      2.0,
      1.0,
      2.0,
      2.0,
      1.0,
      1.0,
      0.0,
      2.0,
      2.0,
      2.0,
      2.0,
      2.0,
      2.0,
      1.0,
      2.0,
      2.0,
      2.0,
      0.0,
      2.0,
      2.0,
      2.0,
      1.0,
      2.0,
      2.0,
      1.0,
      2.0,
      0.0,
      2.0,
      1.0,
      1.0,
      2.0,
      2.0,
      2.0,
      1.0,
      2.0,
      1.0,
      2.0,
      1.0,
      2.0,
      0.0,
      1.0,
      1.0,
      2.0,
      2.0,
      2.0,
      1.0,
      2.0,
      1.0,
      2.0,
      1.0,
      2.0
    ]
  },
  "running_times": {
    "Vanilla Verifier": [
      -0.07262963696097648,
      0.7429999142824847,
      2.7804385087621792,
      2.7798084646818624,
      1.6759679605214086,
      1.5764415604470334,
      2.780520151589305,
      1.6154860657153924,
      0.06863106371431665,
      2.7802323175071306,
      2.778842241965083,
      2.7816394276740186,
      2.7808940437354703,
      0.5258607729318538,
      0.019905199804613985,
      2.779096692981045,
      2.779205594643071,
      -0.0637879556797512,
      2.781056423913244,
      2.778738670517941,
      2.7807434030569866,
      2.7792510104101646,
      2.780415035408674,
      0.5029321374315509,
      2.7791760610156757,
      2.7800869237194576,
      1.63574103028328,
      2.77958018687322,
      2.780175116839704,
      2.7800975164866126,
      2.779069607757235,
      2.7797917355965454,
      1.536649331905237,
      -0.04905128560059965,
      2.063539759305635,
      2.778880252922426,
      0.7327073037382198,
      2.78037182960091,
      1.753782160628439,
      2.781470225956216,
      2.7800338839385392,
      1.981952633585423,
      2.778570070163099,
      -0.15273589822923547,
      2.78017792662022,
      2.780227779190293,
      0.5174334408977742,
      2.780723975670232,
      2.7787747390238016,
      0.011528153857539481,
      2.7804792600987978,
      2.778938346892921,
      2.7800872840219046,
      0.5381588447830807,
      2.779452832896819,
      1.7998097475630845,
      2.7799403999691377,
      0.5310316189267458,
      0.13519627960660124,
      1.572783340877837,
      0.5344449600889468,
      0.696723243167566,
      0.5269463481579993,
      2.7798476168755024,
      2.0962914848522995,
      2.7792778677387173,
      2.7790408594584637,
      2.7798192084528677,
      2.780594221615618,
      2.7800609811576824,
      2.778992820994077,
      2.7798507892743594,
      2.779835648071178,
      2.7796371774064093,
      2.7810838168860594,
      2.778956192609641,
      2.781072169691436,
      1.569901531870062,
      2.2780529075851854,
      2.7788764230717367,
      1.582440648638487,
      0.5043757014787995,
      0.542514216281654,
      2.7789802506541,
      2.77966242398639,
      2.780783262455711,
      0.5382846105901403,
      2.7794282236590724,
      2.779184654136438,
      2.779115037746459,
      0.5095788374345916,
      2.7804072586804867,
      2.779642226839818,
      1.562353542460102,
      2.569303199312577,
      0.7229545898169885,
      2.780642515091321,
      2.7806018510464527,
      2.780838800499665,
      2.7820063315198067,
      2.7797765202223106,
      0.5904628595147674,
      0.5211380837040362,
      2.779769525297947,
      1.939816168589074,
      2.7795984390858504,
      2.7805052496786202,
      0.047352760753934194,
      2.781958476473479,
      2.7798828003661336,
      2.780460828872471,
      0.6581259207597151,
      2.7795809083191103,
      2.7789470169683423,
      2.7792668939771863,
      0.47430369711656056,
      2.7801924795514683,
      2.7791968575199535,
      2.779295049782034,
      2.7801992515413314,
      1.5492963732075073,
      2.779583289082045,
      2.7808018238875145,
      0.5139363884142836,
      2.78012388919264,
      1.5266183769986592,
      1.5185902637161417,
      2.778664933990625,
      2.78035497817075,
      2.7798569177065278,
      2.333658828162338,
      2.7796949538441407,
      2.7789603107478253,
      -0.06940751155740173,
      2.7801813127418153,
      2.779504933484904,
      2.7795741266804277,
      2.7798379553362302,
      0.5670734416002102,
      2.7799940277755155,
      2.780254143987492,
      0.5445888852864612,
      2.780726206266207,
      0.7931894977206959,
      1.5485650660902868,
      -0.11435612816423608,
      2.77907220801202,
      0.495516586213687,
      2.7802853330606476,
      2.7803466962453465,
      0.5443533441358603,
      0.5137235380850075,
      2.780193344066692,
      -0.012959713020733253,
      1.5793616689271104,
      2.7796280161416265,
      2.7806499997395404,
      2.780190390299239,
      0.6508415614643832,
      2.294987947856181,
      0.5899049414992605,
      0.5853027755217065,
      1.850782198911975,
      2.779768299371765,
      1.550578094507233,
      2.7819175766776296,
      2.7788687632690348,
      2.779023161695051,
      2.779928649982013,
      2.781070300359506,
      2.778752332088017,
      2.7790769751053572,
      2.779906302503476,
      1.5623678184054568,
      2.7796490795484,
      2.779296710195578,
      0.6283684921820331,
      2.7799746389162676,
      2.7801612838090395,
      1.8959852171056357,
      2.780376726475096,
      -0.02507401391023757,
      2.7813332938002984,
      2.7795027687649774,
      2.780474868354136,
      0.48501121457857305,
      2.7805159762262806,
      0.4909552282005233,
      2.7785880756382046,
      2.52433899141892,
      2.780479332094242,
      0.4917397856894971,
      2.7809690568277614,
      2.780991924972922,
      1.5594194156152044,
      1.5554535910179392,
      2.7797968553419463,
      2.7795045005417816,
      1.9196407408375402,
      2.7788281496051535,
      2.780664896684341,
      0.03382569395331033,
      0.5460735695945912,
      2.7791993848050396,
      2.779985450654582,
      2.779218591691082,
      2.779852231266179,
      2.778783267811721,
      2.2809374025772278,
      2.778690670906723,
      2.779231155134442,
      2.780404378375448,
      2.7803389903120443,
      -0.11013827874181155,
      2.7798070946516873,
      2.7807073537717155,
      2.7799452296262572,
      2.779330638995173,
      0.48749189155849165,
      1.5292711865633137,
      1.660167011096882,
      2.7796073845542244,
      2.780311766387478,
      2.778732526285477,
      2.7795322801841493,
      2.779782361258398,
      2.7803236500564927,
      1.580960310534559,
      2.778941092435532,
      1.8929367623530136,
      0.5813693017101067,
      0.10445296732229115,
      2.7795677778163235,
      -0.05948351506743278,
      0.6994387892781468,
      1.9531268710897272,
      2.059660337676418,
      1.563176022861695,
      2.7792785896869914,
      0.09892047872233012,
      2.7799739902034095,
      2.7802792106710115,
      2.780059395728661,
      0.5468386724514693,
      1.9034806762418537,
      2.781292550664843,
      2.7799225946497965,
      2.7796575911832333,
      2.7791876869619947,
      2.7801519894940916,
      2.780839160178875,
      1.5469755083971175,
      2.780935399631435,
      -0.08565684288055925,
      2.7800913193888905,
      2.7789061938521065,
      2.781560580406593,
      2.7813410539641796,
      2.7820787856464717,
      2.7806091204737813,
      2.780510145048672,
      2.78095086212886,
      1.5790835900840037,
      2.779506087997786,
      0.5159268032242017,
      2.779115615521759,
      2.780934968111983,
      1.6312874760564136,
      0.534026106056135,
      2.7789605997385123,
      0.5457770385001214,
      1.622661561306399,
      2.779257363906683,
      0.8036346211376484,
      0.7655269948954133,
      2.7794022417188455,
      0.5014563846965155,
      2.780599763762656,
      0.47612122693798276,
      2.779259385454265,
      2.7795895655763134,
      1.5652053431447508,
      1.5392793913958176,
      2.77975315529234,
      -0.1250545639144681,
      2.7795649640855054,
      0.4943633392673082,
      2.780010100411551,
      2.7806517269477347,
      0.5437825570203395,
      2.7797885627662873,
      2.779700218980036,
      2.779429667054621,
      2.7806928900436896,
      0.7224858423544257,
      2.7796075288344624,
      2.780154367128477,
      1.6065629998145134,
      0.5836521085420439,
      2.7797205576725816,
      1.1621161410623684,
      2.7806258181035317,
      0.12323077669851039,
      2.7795972126766304,
      2.7798588643668833,
      0.5132176000679389,
      2.78328240843747,
      2.7807774348658167,
      2.779901688687275,
      0.5253558319834664,
      2.779580547596315,
      1.5223842367311693,
      1.5494826841518976,
      0.7904188808065318,
      0.14553823571223318,
      2.7808052051481984,
      2.780313783033008,
      0.5279777126274044,
      2.77915851319055,
      2.781055345414396,
      2.7796095487527626,
      0.47190750293956124,
      2.779358068852831,
      1.5584517569948118,
      2.780283748450432,
      2.7797821449251288,
      2.778839929404047,
      2.780837074035312,
      2.779606302450911,
      2.1347252098088534,
      2.7802139478369408,
      2.7799770175217904,
      2.7812186715277343,
      2.780629200734806,
      0.6875735476816827,
      2.7794715956015876,
      1.5664893451569732,
      2.778910601488381,
      0.029748918566836823,
      1.5665682911869607,
      2.7803385581995865,
      2.7797173843222733,
      1.542058201240125,
      0.5599664410932146,
      2.3705441756070145,
      0.5680021375046146,
      2.7812246369439366,
      2.77918256003024,
      2.779075674994182,
      2.7810337029713823,
      -0.008685301823389197,
      2.779311798010334,
      0.647373188597217,
      2.7799119255257,
      2.7802419702772982,
      2.7798060851530035,
      1.7929538069619517,
      2.7792079774643246,
      2.7802117146083773,
      2.78051360057078,
      2.7787449592305626,
      2.7795065209393255,
      0.5320916062789354,
      2.780174540472223,
      0.522744093118784,
      1.653851903410559,
      2.7809149019839254,
      0.510437763760357,
      2.778990653720038,
      2.7791018209265714,
      2.7796935834558356,
      2.7802907350974753,
      0.4925369002881332,
      2.779829230925796,
      1.9128435510932769,
      2.778715538837452,
      2.7799249735403793,
      2.7791593797664578,
      1.569478080972052,
      2.779043748820741,
      2.780185635411871,
      1.6842024172644048,
      2.779206966572056,
      2.780128716809674,
      2.780113729405369,
      0.5405171695925721,
      1.10874087062807,
      0.80698674047767,
      -0.09990609845660166,
      1.566166341811416,
      2.7801552317195712,
      2.7791660234576403,
      2.780112216225227,
      2.7821551722042175,
      2.7796314065534813,
      2.5808381080921907,
      0.5432234514864356,
      2.780663745247892,
      2.77902438972641,
      1.546341508944295,
      2.744597899461065,
      2.7799373003101526,
      2.780838728563787,
      2.7798384600488264,
      2.779533218167035,
      0.5259513412480125,
      2.780294912626548,
      2.781409380532747,
      0.8331598663358314,
      2.780666192046697,
      2.7801630129619683,
      1.6180449572225626,
      2.779353954484625,
      0.5184744567666367,
      1.548234592505439,
      0.6667332024996186,
      0.4755404445547436,
      2.7791684064960163,
      1.5402831642646766,
      2.7018151948820277,
      2.7805711165782867,
      2.77995532127374,
      0.4870534887814274,
      2.78041906773143,
      2.779397766894456,
      0.4843995020539068,
      2.7792624899554443,
      2.387811101184782,
      2.780391056716157,
      1.5694675479254352,
      2.7786791039421215,
      2.7801859956324333,
      2.7804066106135186,
      2.77902438972641,
      2.7798088252154005,
      2.778790350915054,
      2.779992658330596,
      0.4862037080213181,
      2.779649800879855,
      2.779697550357491,
      1.5636115914477875,
      2.7798366575011464,
      2.7811455705572494,
      2.7788491073081145,
      1.6972712004516108,
      2.7799969108033364,
      2.778791579604895,
      2.7786561136853174,
      0.5469249704113962,
      2.779939030355105,
      1.54760489134693,
      2.7796627125102504,
      2.781715747959718,
      0.8604098838472845,
      1.557492765284043,
      0.5270754027417088,
      2.7794924501183624,
      1.629135274886467,
      2.7792982262197916,
      2.7804362766880573,
      2.779663505949878,
      2.780307444972668,
      1.6072812706690809,
      2.7801997558342246,
      2.7801880849058045,
      2.7803129907805237,
      0.4919077209148307,
      2.779038331250702,
      2.778801408998482,
      2.779548442067522,
      0.1404766168301335,
      2.7804979785124306,
      2.779616257699695,
      1.697288639965963,
      2.780549737925529,
      0.5500325705737424,
      2.7801032811492914,
      0.8630312495057593,
      1.8449503547824975,
      2.779667473126274,
      2.779374381578218,
      2.7789087950854814,
      1.0353496765229881,
      2.7802272749299393,
      2.2304185197004696,
      2.7798564130153816,
      -0.008818242332126823,
      2.780527710334045,
      0.5750607721022473,
      1.56365903847287,
      0.0047081965443362675,
      2.7803170960731913,
      2.779687236337819,
      2.7797447176475854,
      0.7137760587448221,
      2.7793572026732902,
      0.06911285138712091,
      2.7787232736302245,
      -0.14880282382583934,
      2.779867299794263
    ],
    "Timeout Prediction": [
      -0.07262963696097648,
      0.7429999142824847,
      1.3010299956639813,
      1.3010299956639813,
      1.6759679605214086,
      1.5764415604470334,
      1.3010299956639813,
      1.3010299956639813,
      0.06863106371431665,
      1.3010299956639813,
      1.3010299956639813,
      1.3010299956639813,
      1.3010299956639813,
      0.5258607729318538,
      0.019905199804613985,
      2.779096692981045,
      1.3010299956639813,
      -0.0637879556797512,
      1.3010299956639813,
      1.3010299956639813,
      1.3010299956639813,
      1.3010299956639813,
      1.3010299956639813,
      0.5029321374315509,
      2.7791760610156757,
      1.3010299956639813,
      1.63574103028328,
      2.77958018687322,
      1.3010299956639813,
      1.3010299956639813,
      1.3010299956639813,
      1.3010299956639813,
      1.536649331905237,
      -0.04905128560059965,
      1.3010299956639813,
      1.3010299956639813,
      0.7327073037382198,
      1.3010299956639813,
      1.753782160628439,
      1.3010299956639813,
      1.3010299956639813,
      1.3010299956639813,
      2.778570070163099,
      -0.15273589822923547,
      1.3010299956639813,
      1.3010299956639813,
      0.5174334408977742,
      1.3010299956639813,
      1.3010299956639813,
      0.011528153857539481,
      1.3010299956639813,
      1.3010299956639813,
      1.3010299956639813,
      0.5381588447830807,
      1.3010299956639813,
      1.7998097475630845,
      1.3010299956639813,
      0.5310316189267458,
      0.13519627960660124,
      1.572783340877837,
      0.5344449600889468,
      0.696723243167566,
      0.5269463481579993,
      1.3010299956639813,
      2.0962914848522995,
      1.3010299956639813,
      1.3010299956639813,
      1.3010299956639813,
      1.3010299956639813,
      1.3010299956639813,
      1.3010299956639813,
      1.3010299956639813,
      1.3010299956639813,
      1.3010299956639813,
      1.3010299956639813,
      1.3010299956639813,
      1.3010299956639813,
      1.569901531870062,
      2.2780529075851854,
      1.3010299956639813,
      1.582440648638487,
      0.5043757014787995,
      0.542514216281654,
      1.3010299956639813,
      1.3010299956639813,
      1.3010299956639813,
      0.5382846105901403,
      1.3010299956639813,
      1.3010299956639813,
      1.3010299956639813,
      0.5095788374345916,
      1.3010299956639813,
      1.3010299956639813,
      1.562353542460102,
      2.569303199312577,
      0.7229545898169885,
      1.3010299956639813,
      1.3010299956639813,
      1.3010299956639813,
      1.3010299956639813,
      1.3010299956639813,
      0.5904628595147674,
      0.5211380837040362,
      1.3010299956639813,
      1.3010299956639813,
      1.3010299956639813,
      1.3010299956639813,
      0.047352760753934194,
      1.3010299956639813,
      1.3010299956639813,
      1.3010299956639813,
      0.6581259207597151,
      1.3010299956639813,
      1.3010299956639813,
      1.3010299956639813,
      0.47430369711656056,
      1.3010299956639813,
      1.3010299956639813,
      1.3010299956639813,
      1.3010299956639813,
      1.5492963732075073,
      1.3010299956639813,
      1.3010299956639813,
      0.5139363884142836,
      1.3010299956639813,
      1.5266183769986592,
      1.5185902637161417,
      1.3010299956639813,
      2.78035497817075,
      1.3010299956639813,
      2.333658828162338,
      1.3010299956639813,
      1.3010299956639813,
      -0.06940751155740173,
      1.3010299956639813,
      1.3010299956639813,
      1.3010299956639813,
      1.3010299956639813,
      0.5670734416002102,
      1.3010299956639813,
      1.3010299956639813,
      0.5445888852864612,
      1.3010299956639813,
      0.7931894977206959,
      1.5485650660902868,
      -0.11435612816423608,
      1.3010299956639813,
      0.495516586213687,
      1.3010299956639813,
      1.3010299956639813,
      0.5443533441358603,
      0.5137235380850075,
      1.3010299956639813,
      -0.012959713020733253,
      1.5793616689271104,
      1.3010299956639813,
      1.3010299956639813,
      1.3010299956639813,
      0.6508415614643832,
      2.294987947856181,
      0.5899049414992605,
      0.5853027755217065,
      1.3010299956639813,
      1.3010299956639813,
      1.550578094507233,
      1.3010299956639813,
      1.3010299956639813,
      1.3010299956639813,
      1.3010299956639813,
      1.3010299956639813,
      1.3010299956639813,
      1.3010299956639813,
      1.3010299956639813,
      1.5623678184054568,
      1.3010299956639813,
      1.3010299956639813,
      0.6283684921820331,
      1.3010299956639813,
      1.3010299956639813,
      1.3010299956639813,
      2.780376726475096,
      -0.02507401391023757,
      1.3010299956639813,
      2.7795027687649774,
      1.3010299956639813,
      0.48501121457857305,
      1.3010299956639813,
      0.4909552282005233,
      1.3010299956639813,
      2.52433899141892,
      1.3010299956639813,
      0.4917397856894971,
      1.3010299956639813,
      1.3010299956639813,
      1.5594194156152044,
      1.5554535910179392,
      1.3010299956639813,
      2.7795045005417816,
      1.9196407408375402,
      1.3010299956639813,
      1.3010299956639813,
      0.03382569395331033,
      0.5460735695945912,
      1.3010299956639813,
      1.3010299956639813,
      1.3010299956639813,
      1.3010299956639813,
      1.3010299956639813,
      1.3010299956639813,
      1.3010299956639813,
      1.3010299956639813,
      1.3010299956639813,
      1.3010299956639813,
      -0.11013827874181155,
      1.3010299956639813,
      1.3010299956639813,
      1.3010299956639813,
      2.779330638995173,
      0.48749189155849165,
      1.5292711865633137,
      1.660167011096882,
      1.3010299956639813,
      1.3010299956639813,
      1.3010299956639813,
      1.3010299956639813,
      1.3010299956639813,
      1.3010299956639813,
      1.580960310534559,
      1.3010299956639813,
      1.3010299956639813,
      0.5813693017101067,
      0.10445296732229115,
      1.3010299956639813,
      -0.05948351506743278,
      0.6994387892781468,
      1.9531268710897272,
      2.059660337676418,
      1.563176022861695,
      2.7792785896869914,
      0.09892047872233012,
      1.3010299956639813,
      1.3010299956639813,
      1.3010299956639813,
      0.5468386724514693,
      1.9034806762418537,
      1.3010299956639813,
      1.3010299956639813,
      1.3010299956639813,
      1.3010299956639813,
      1.3010299956639813,
      1.3010299956639813,
      1.5469755083971175,
      1.3010299956639813,
      -0.08565684288055925,
      1.3010299956639813,
      2.7789061938521065,
      1.3010299956639813,
      1.3010299956639813,
      1.3010299956639813,
      1.3010299956639813,
      2.780510145048672,
      1.3010299956639813,
      1.3010299956639813,
      1.3010299956639813,
      0.5159268032242017,
      1.3010299956639813,
      1.3010299956639813,
      1.6312874760564136,
      0.534026106056135,
      1.3010299956639813,
      0.5457770385001214,
      1.622661561306399,
      1.3010299956639813,
      0.8036346211376484,
      0.7655269948954133,
      1.3010299956639813,
      0.5014563846965155,
      1.3010299956639813,
      0.47612122693798276,
      1.3010299956639813,
      1.3010299956639813,
      1.5652053431447508,
      1.5392793913958176,
      1.3010299956639813,
      -0.1250545639144681,
      1.3010299956639813,
      0.4943633392673082,
      2.780010100411551,
      1.3010299956639813,
      0.5437825570203395,
      1.3010299956639813,
      1.3010299956639813,
      1.3010299956639813,
      1.3010299956639813,
      0.7224858423544257,
      1.3010299956639813,
      1.3010299956639813,
      1.6065629998145134,
      0.5836521085420439,
      1.3010299956639813,
      1.1621161410623684,
      1.3010299956639813,
      0.12323077669851039,
      2.7795972126766304,
      1.3010299956639813,
      0.5132176000679389,
      1.3010299956639813,
      1.3010299956639813,
      1.3010299956639813,
      1.3010299956639813,
      1.3010299956639813,
      1.5223842367311693,
      1.5494826841518976,
      0.7904188808065318,
      0.14553823571223318,
      1.3010299956639813,
      1.3010299956639813,
      0.5279777126274044,
      1.3010299956639813,
      1.3010299956639813,
      1.3010299956639813,
      0.47190750293956124,
      1.3010299956639813,
      1.5584517569948118,
      1.3010299956639813,
      1.3010299956639813,
      1.3010299956639813,
      1.3010299956639813,
      1.3010299956639813,
      1.3010299956639813,
      1.3010299956639813,
      1.3010299956639813,
      1.3010299956639813,
      1.3010299956639813,
      0.6875735476816827,
      1.3010299956639813,
      1.5664893451569732,
      2.778910601488381,
      0.029748918566836823,
      1.5665682911869607,
      1.3010299956639813,
      1.3010299956639813,
      1.542058201240125,
      0.5599664410932146,
      2.3705441756070145,
      0.5680021375046146,
      1.3010299956639813,
      1.3010299956639813,
      1.3010299956639813,
      1.3010299956639813,
      -0.008685301823389197,
      1.3010299956639813,
      0.647373188597217,
      1.3010299956639813,
      1.3010299956639813,
      2.7798060851530035,
      1.3010299956639813,
      1.3010299956639813,
      1.3010299956639813,
      1.3010299956639813,
      2.7787449592305626,
      1.3010299956639813,
      0.5320916062789354,
      1.3010299956639813,
      0.522744093118784,
      1.653851903410559,
      1.3010299956639813,
      0.510437763760357,
      1.3010299956639813,
      1.3010299956639813,
      1.3010299956639813,
      1.3010299956639813,
      0.4925369002881332,
      1.3010299956639813,
      1.3010299956639813,
      2.778715538837452,
      1.3010299956639813,
      1.3010299956639813,
      1.569478080972052,
      2.779043748820741,
      1.3010299956639813,
      1.6842024172644048,
      1.3010299956639813,
      1.3010299956639813,
      1.3010299956639813,
      0.5405171695925721,
      1.10874087062807,
      0.80698674047767,
      -0.09990609845660166,
      1.566166341811416,
      1.3010299956639813,
      1.3010299956639813,
      1.3010299956639813,
      1.3010299956639813,
      1.3010299956639813,
      2.5808381080921907,
      0.5432234514864356,
      1.3010299956639813,
      1.3010299956639813,
      1.546341508944295,
      2.744597899461065,
      1.3010299956639813,
      1.3010299956639813,
      2.7798384600488264,
      1.3010299956639813,
      0.5259513412480125,
      1.3010299956639813,
      1.3010299956639813,
      0.8331598663358314,
      1.3010299956639813,
      1.3010299956639813,
      1.6180449572225626,
      1.3010299956639813,
      0.5184744567666367,
      1.548234592505439,
      0.6667332024996186,
      0.4755404445547436,
      1.3010299956639813,
      1.5402831642646766,
      1.3010299956639813,
      1.3010299956639813,
      2.77995532127374,
      0.4870534887814274,
      1.3010299956639813,
      1.3010299956639813,
      0.4843995020539068,
      1.3010299956639813,
      2.387811101184782,
      1.3010299956639813,
      1.3010299956639813,
      2.7786791039421215,
      1.3010299956639813,
      1.3010299956639813,
      1.3010299956639813,
      1.3010299956639813,
      1.3010299956639813,
      1.3010299956639813,
      0.4862037080213181,
      1.3010299956639813,
      1.3010299956639813,
      1.5636115914477875,
      1.3010299956639813,
      1.3010299956639813,
      1.3010299956639813,
      1.6972712004516108,
      1.3010299956639813,
      1.3010299956639813,
      1.3010299956639813,
      0.5469249704113962,
      1.3010299956639813,
      1.54760489134693,
      1.3010299956639813,
      1.3010299956639813,
      0.8604098838472845,
      1.557492765284043,
      0.5270754027417088,
      1.3010299956639813,
      1.3010299956639813,
      1.3010299956639813,
      1.3010299956639813,
      1.3010299956639813,
      1.3010299956639813,
      1.6072812706690809,
      1.3010299956639813,
      1.3010299956639813,
      1.3010299956639813,
      0.4919077209148307,
      1.3010299956639813,
      1.3010299956639813,
      1.3010299956639813,
      0.1404766168301335,
      1.3010299956639813,
      1.3010299956639813,
      1.697288639965963,
      1.3010299956639813,
      0.5500325705737424,
      1.3010299956639813,
      0.8630312495057593,
      1.8449503547824975,
      1.3010299956639813,
      2.779374381578218,
      2.7789087950854814,
      1.0353496765229881,
      1.3010299956639813,
      2.2304185197004696,
      1.3010299956639813,
      -0.008818242332126823,
      1.3010299956639813,
      0.5750607721022473,
      1.56365903847287,
      0.0047081965443362675,
      1.3010299956639813,
      1.3010299956639813,
      1.3010299956639813,
      0.7137760587448221,
      1.3010299956639813,
      0.06911285138712091,
      1.3010299956639813,
      -0.14880282382583934,
      1.3010299956639813
    ]
  }
}