{
  "results": {
    "Vanilla Verifier": [
      1.0,
      1.0,
      1.0,
      1.0,
      1.0,
      1.0,
      2.0,
      1.0,
      2.0,
      1.0,
      1.0,
      1.0,
      1.0,
      1.0,
      1.0,
      1.0,
      1.0,
      2.0,
      2.0,
      1.0,
      1.0,
      1.0,
      1.0,
      1.0,
      2.0,
      2.0,
      1.0,
      1.0,
      2.0,
      1.0,
      2.0,
      1.0,
      2.0,
      2.0,
      1.0,
      1.0,
      1.0,
      2.0,
      1.0,
      1.0,
      1.0,
      1.0,
      1.0,
      1.0,
      1.0,
      1.0,
      2.0,
      1.0,
      1.0,
      1.0,
      2.0,
      1.0,
      1.0,
      2.0,
      1.0,
      1.0,
      1.0,
      1.0,
      2.0,
      2.0,
      2.0,
      2.0,
      1.0,
      1.0,
      2.0,
      1.0,
      2.0,
      1.0,
      2.0,
      2.0,
      1.0,
      1.0,
      1.0,
      1.0,
      1.0,
      2.0,
      1.0,
      1.0,
      2.0,
      1.0,
      1.0,
      1.0,
      1.0,
      1.0,
      1.0,
      1.0,
      2.0,
      1.0,
      1.0,
      1.0,
      1.0,
      1.0,
      2.0,
      1.0,
      2.0,
      2.0,
      1.0,
      1.0,
      1.0,
      1.0,
      1.0,
      1.0,
      1.0,
      1.0,
      1.0,
      1.0,
      2.0,
      1.0,
      1.0,
      2.0,
      1.0,
      1.0,
      1.0,
      1.0,
      1.0,
      1.0,
      2.0,
      2.0,
      1.0,
      2.0,
      1.0,
      1.0,
      2.0,
      1.0,
      1.0,
      1.0,
      1.0,
      2.0,
      1.0,
      1.0,
      2.0,
      1.0,
      1.0,
      1.0,
      1.0,
      1.0,
      1.0,
      1.0,
      1.0,
      1.0,
      2.0,
      1.0,
      1.0,
      1.0,
      1.0,
      2.0,
      2.0,
      2.0,
      1.0,
      1.0,
      1.0,
      1.0,
      2.0,
      1.0,
      1.0,
      2.0,
      1.0,
      1.0,
      1.0,
      2.0,
      1.0,
      2.0,
      1.0,
      1.0,
      1.0,
      1.0,
      1.0,
      1.0,
      1.0,
      1.0,
      2.0,
      2.0,
      2.0,
      1.0,
      1.0,
      1.0,
      1.0,
      2.0,
      1.0,
      1.0,
      1.0,
      2.0,
      1.0,
      1.0,
      1.0,
      1.0,
      2.0,
      1.0,
      2.0,
      1.0,
      2.0,
      1.0,
      1.0,
      2.0,
      1.0,
      2.0,
      2.0,
      1.0,
      1.0,
      2.0,
      1.0,
      1.0,
      1.0,
      1.0,
      1.0,
      1.0,
      1.0,
      2.0,
      1.0,
      1.0,
      1.0,
      1.0,
      1.0,
      1.0,
      1.0,
      2.0,
      1.0,
      1.0,
      1.0,
      2.0,
      1.0,
      1.0,
      1.0,
      2.0,
      1.0,
      1.0,
      2.0,
      1.0,
      1.0,
      1.0,
      1.0,
      2.0,
      2.0,
      1.0,
      1.0,
      1.0,
      2.0,
      2.0,
      2.0,
      1.0,
      1.0,
      2.0,
      2.0,
      1.0,
      1.0,
      2.0,
      2.0,
      1.0,
      1.0,
      1.0,
      1.0,
      2.0,
      1.0,
      1.0,
      1.0,
      2.0,
      1.0,
      1.0,
      2.0,
      2.0,
      2.0,
      2.0,
      1.0,
      1.0,
      1.0,
      1.0,
      1.0,
      1.0,
      1.0,
      1.0,
      1.0,
      1.0,
      1.0,
      1.0,
      1.0,
      1.0,
      1.0,
      1.0,
      2.0,
      1.0,
      1.0,
      1.0,
      1.0,
      1.0,
      1.0,
      2.0,
      1.0,
      1.0,
      2.0,
      1.0,
      1.0,
      1.0,
      1.0,
      2.0,
      2.0,
      2.0,
      1.0,
      2.0,
      1.0,
      2.0,
      1.0,
      1.0,
      1.0,
      2.0,
      1.0,
      1.0,
      2.0,
      1.0,
      1.0,
      2.0,
      1.0,
      2.0,
      2.0,
      1.0,
      2.0,
      1.0,
      1.0,
      1.0,
      1.0,
      2.0,
      1.0,
      1.0,
      1.0,
      1.0,
      1.0,
      1.0,
      2.0,
      1.0,
      2.0,
      1.0,
      1.0,
      1.0,
      2.0,
      1.0,
      1.0,
      1.0,
      1.0,
      1.0,
      1.0,
      2.0,
      1.0,
      1.0,
      1.0,
      1.0,
      2.0,
      1.0,
      2.0,
      1.0,
      1.0,
      2.0,
      1.0,
      1.0,
      1.0,
      1.0,
      1.0,
      1.0,
      2.0,
      2.0,
      1.0,
      1.0,
      1.0,
      1.0,
      1.0,
      2.0,
      1.0,
      1.0,
      2.0,
      2.0,
      1.0,
      2.0,
      2.0,
      2.0,
      1.0,
      1.0,
      1.0,
      2.0,
      1.0,
      1.0,
      1.0,
      1.0,
      2.0,
      1.0,
      1.0,
      2.0,
      1.0,
      1.0,
      1.0,
      1.0,
      1.0,
      1.0,
      1.0,
      2.0,
      1.0,
      2.0,
      1.0,
      2.0,
      1.0,
      1.0,
      1.0,
      1.0,
      2.0,
      2.0,
      1.0,
      1.0,
      1.0,
      2.0,
      2.0,
      1.0,
      1.0,
      2.0,
      1.0,
      1.0,
      1.0,
      1.0,
      1.0,
      2.0,
      1.0,
      2.0,
      1.0,
      1.0,
      1.0,
      1.0,
      1.0,
      1.0,
      1.0,
      1.0,
      1.0,
      1.0,
      2.0,
      1.0,
      1.0,
      1.0,
      2.0,
      1.0,
      1.0,
      1.0,
      1.0,
      1.0,
      1.0,
      2.0,
      2.0,
      1.0,
      1.0,
      1.0,
      2.0,
      2.0,
      2.0,
      1.0,
      2.0,
      2.0,
      1.0,
      2.0,
      1.0,
      1.0,
      2.0,
      1.0,
      1.0,
      1.0,
      1.0,
      1.0,
      1.0,
      1.0,
      2.0,
      1.0,
      1.0,
      2.0,
      1.0,
      2.0,
      1.0,
      1.0,
      1.0,
      1.0,
      1.0,
      2.0,
      1.0,
      1.0,
      1.0,
      1.0,
      1.0,
      2.0,
      1.0,
      2.0,
      1.0,
      1.0,
      1.0,
      1.0,
      1.0,
      1.0,
      2.0,
      1.0,
      1.0,
      2.0,
      2.0,
      1.0,
      1.0,
      1.0,
      1.0,
      2.0,
      1.0,
      1.0
    ],
    "Timeout Prediction": [
      1.0,
      1.0,
      1.0,
      1.0,
      1.0,
      1.0,
      2.0,
      1.0,
      2.0,
      1.0,
      1.0,
      1.0,
      1.0,
      1.0,
      1.0,
      1.0,
      1.0,
      2.0,
      2.0,
      1.0,
      2.0,
      1.0,
      1.0,
      1.0,
      2.0,
      2.0,
      1.0,
      1.0,
      2.0,
      2.0,
      2.0,
      1.0,
      2.0,
      2.0,
      1.0,
      1.0,
      1.0,
      2.0,
      1.0,
      1.0,
      1.0,
      1.0,
      1.0,
      1.0,
      1.0,
      1.0,
      2.0,
      1.0,
      2.0,
      1.0,
      2.0,
      1.0,
      1.0,
      2.0,
      1.0,
      1.0,
      1.0,
      1.0,
      2.0,
      2.0,
      2.0,
      2.0,
      1.0,
      1.0,
      2.0,
      2.0,
      2.0,
      1.0,
      2.0,
      2.0,
      1.0,
      1.0,
      1.0,
      1.0,
      1.0,
      2.0,
      1.0,
      1.0,
      2.0,
      1.0,
      1.0,
      1.0,
      2.0,
      1.0,
      1.0,
      1.0,
      2.0,
      1.0,
      1.0,
      1.0,
      1.0,
      1.0,
      2.0,
      1.0,
      2.0,
      2.0,
      1.0,
      1.0,
      1.0,
      1.0,
      2.0,
      2.0,
      1.0,
      1.0,
      1.0,
      1.0,
      2.0,
      1.0,
      1.0,
      2.0,
      1.0,
      2.0,
      1.0,
      1.0,
      1.0,
      1.0,
      2.0,
      2.0,
      1.0,
      2.0,
      1.0,
      1.0,
      2.0,
      1.0,
      1.0,
      1.0,
      1.0,
      2.0,
      1.0,
      1.0,
      2.0,
      1.0,
      1.0,
      1.0,
      1.0,
      1.0,
      1.0,
      1.0,
      1.0,
      1.0,
      2.0,
      1.0,
      1.0,
      1.0,
      1.0,
      2.0,
      2.0,
      2.0,
      1.0,
      1.0,
      1.0,
      1.0,
      2.0,
      1.0,
      1.0,
      2.0,
      1.0,
      1.0,
      1.0,
      2.0,
      1.0,
      2.0,
      1.0,
      1.0,
      1.0,
      1.0,
      1.0,
      1.0,
      1.0,
      1.0,
      2.0,
      2.0,
      2.0,
      1.0,
      1.0,
      1.0,
      1.0,
      2.0,
      1.0,
      1.0,
      1.0,
      2.0,
      1.0,
      1.0,
      1.0,
      1.0,
      2.0,
      1.0,
      2.0,
      1.0,
      2.0,
      1.0,
      2.0,
      2.0,
      2.0,
      2.0,
      2.0,
      1.0,
      1.0,
      2.0,
      2.0,
      2.0,
      1.0,
      1.0,
      1.0,
      1.0,
      1.0,
      2.0,
      1.0,
      1.0,
      1.0,
      2.0,
      1.0,
      1.0,
      1.0,
      2.0,
      1.0,
      1.0,
      1.0,
      2.0,
      1.0,
      1.0,
      1.0,
      2.0,
      1.0,
      1.0,
      2.0,
      1.0,
      1.0,
      1.0,
      1.0,
      2.0,
      2.0,
      1.0,
      1.0,
      1.0,
      2.0,
      2.0,
      2.0,
      1.0,
      1.0,
      2.0,
      2.0,
      1.0,
      1.0,
      2.0,
      2.0,
      1.0,
      1.0,
      1.0,
      1.0,
      2.0,
      1.0,
      1.0,
      1.0,
      2.0,
      1.0,
      1.0,
      2.0,
      2.0,
      2.0,
      2.0,
      1.0,
      1.0,
      1.0,
      1.0,
      1.0,
      1.0,
      2.0,
      1.0,
      1.0,
      1.0,
      1.0,
      1.0,
      1.0,
      1.0,
      1.0,
      1.0,
      2.0,
      1.0,
      1.0,
      1.0,
      1.0,
      1.0,
      1.0,
      2.0,
      1.0,
      1.0,
      2.0,
      1.0,
      1.0,
      1.0,
      1.0,
      2.0,
      2.0,
      2.0,
      1.0,
      2.0,
      1.0,
      2.0,
      1.0,
      1.0,
      1.0,
      2.0,
      1.0,
      1.0,
      2.0,
      1.0,
      1.0,
      2.0,
      1.0,
      2.0,
      2.0,
      1.0,
      2.0,
      1.0,
      1.0,
      1.0,
      1.0,
      2.0,
      1.0,
      1.0,
      1.0,
      1.0,
      1.0,
      1.0,
      2.0,
      1.0,
      2.0,
      1.0,
      1.0,
      1.0,
      2.0,
      1.0,
      1.0,
      1.0,
      1.0,
      1.0,
      1.0,
      2.0,
      1.0,
      1.0,
      1.0,
      1.0,
      2.0,
      1.0,
      2.0,
      1.0,
      1.0,
      2.0,
      1.0,
      1.0,
      1.0,
      1.0,
      1.0,
      1.0,
      2.0,
      2.0,
      1.0,
      1.0,
      2.0,
      1.0,
      1.0,
      2.0,
      1.0,
      1.0,
      2.0,
      2.0,
      1.0,
      2.0,
      2.0,
      2.0,
      2.0,
      1.0,
      1.0,
      2.0,
      1.0,
      1.0,
      1.0,
      1.0,
      2.0,
      1.0,
      1.0,
      2.0,
      1.0,
      1.0,
      1.0,
      1.0,
      1.0,
      1.0,
      1.0,
      2.0,
      1.0,
      2.0,
      1.0,
      2.0,
      1.0,
      1.0,
      1.0,
      2.0,
      2.0,
      2.0,
      1.0,
      1.0,
      1.0,
      2.0,
      2.0,
      1.0,
      1.0,
      2.0,
      1.0,
      1.0,
      2.0,
      1.0,
      1.0,
      2.0,
      1.0,
      2.0,
      1.0,
      1.0,
      1.0,
      1.0,
      1.0,
      1.0,
      1.0,
      1.0,
      1.0,
      1.0,
      2.0,
      1.0,
      1.0,
      1.0,
      2.0,
      1.0,
      1.0,
      1.0,
      1.0,
      1.0,
      1.0,
      2.0,
      2.0,
      1.0,
      1.0,
      1.0,
      2.0,
      2.0,
      2.0,
      1.0,
      2.0,
      2.0,
      1.0,
      2.0,
      1.0,
      1.0,
      2.0,
      1.0,
      1.0,
      1.0,
      1.0,
      1.0,
      1.0,
      1.0,
      2.0,
      1.0,
      1.0,
      2.0,
      1.0,
      2.0,
      2.0,
      1.0,
      1.0,
      1.0,
      1.0,
      2.0,
      1.0,
      1.0,
      1.0,
      1.0,
      2.0,
      2.0,
      1.0,
      2.0,
      1.0,
      1.0,
      1.0,
      1.0,
      1.0,
      1.0,
      2.0,
      1.0,
      1.0,
      2.0,
      2.0,
      1.0,
      1.0,
      1.0,
      1.0,
      2.0,
      1.0,
      1.0
    ]
  },
  "running_times": {
    "Vanilla Verifier": [
      0.20512312920365433,
      0.5709630216317906,
      1.6845464570249875,
      1.050897661584833,
      0.9694951219347903,
      1.069490495567012,
      2.780595805093417,
      0.8110921881644972,
      2.779849347277752,
      1.066020134062204,
      1.116298846799877,
      1.133784726105633,
      0.8282989084039472,
      1.3865382018833379,
      1.4493611315603845,
      1.1044529673222911,
      1.2594409650225131,
      2.779407799097851,
      2.780967546624846,
      1.1143006630457628,
      1.908036015889165,
      1.1129131876260219,
      1.303392633810052,
      1.5618250023118,
      2.7793014748252864,
      2.7786550292091836,
      1.488490080245796,
      1.2770450673508122,
      2.78149400148536,
      2.528577484067063,
      2.778708309934624,
      1.3230519278493686,
      2.7821903126809273,
      2.7808368582267855,
      1.193091189801662,
      1.130195415624884,
      1.121819096074422,
      2.779754813955362,
      1.285206131107542,
      1.2673970335735523,
      1.2702734607398918,
      0.8083932978044356,
      1.0816820824458915,
      1.4022115002238629,
      0.9954114094906067,
      1.148096505606318,
      2.779555296256076,
      1.3872652157841754,
      2.2096849459233665,
      0.7504621087811492,
      2.77883075130602,
      1.2270275455377644,
      1.1183474094751462,
      2.7798978678336304,
      1.1147877348002877,
      0.8435504383451866,
      0.8465845028980461,
      0.9086833550131092,
      2.7799188460684943,
      2.7808295206730693,
      2.778946294468668,
      2.778633411419902,
      0.7862259770957573,
      1.0279690040031655,
      2.7787890499455514,
      2.6398489141292796,
      2.779169200839236,
      0.8385972528166564,
      2.778953158167044,
      2.7808111043059367,
      0.860559589976318,
      1.1942839520804218,
      1.0982836831802287,
      1.1012073064290724,
      1.1568640066708231,
      2.7803531057492585,
      1.7687253952828599,
      1.1161127381568756,
      2.779328978711342,
      1.1553451484425394,
      1.5324779218037576,
      1.1325414411437067,
      2.2142449563206905,
      0.9064158583202704,
      1.1225893747610427,
      1.1156138395886135,
      2.779882728271731,
      0.9287951376322439,
      1.18663713316636,
      1.1151110355043476,
      1.5391501484749406,
      1.2123101487461678,
      2.7803425912324746,
      0.8952291148413944,
      2.781063757634386,
      2.78093317010965,
      0.874476019336568,
      1.3538643201110612,
      1.1346328456923018,
      1.2264607024732483,
      2.5673977703599813,
      2.357145352002989,
      1.0107238653917732,
      0.7814322255046482,
      1.2491616548981488,
      0.9911551646821483,
      2.780011181509216,
      1.3776868206277924,
      1.1190842496428042,
      2.7802139478369408,
      0.8518634924662495,
      2.6262247454637784,
      1.0932605460283897,
      1.1689627601705819,
      1.1018844871675422,
      1.2082962090300209,
      2.7814799230814704,
      2.7790367420840045,
      1.155651773198273,
      2.779309343568992,
      1.2117584266979329,
      1.1429554322025446,
      2.779209421592055,
      1.114487549673971,
      1.1328965718879223,
      1.314804368931693,
      1.9200230929213742,
      2.780563198681453,
      1.1921965558122247,
      1.12321769632739,
      2.7805323175044037,
      1.1278366481939577,
      1.1166143845258882,
      1.1183341811912375,
      1.1769040762837941,
      1.1717001319779055,
      1.4202578331005973,
      1.1383500731620817,
      1.1469152560469547,
      0.898637436467081,
      2.7793372800670264,
      0.9633674912927179,
      0.6918238458196512,
      1.5616212712348476,
      0.865406038990774,
      2.779137570413598,
      2.7786346405538294,
      2.77924956642072,
      1.0826130540272287,
      1.5706655057050072,
      0.8215135284047731,
      1.1096696480791226,
      2.7797956294929094,
      1.1699946008489377,
      1.0773824420946516,
      2.7786093341538356,
      1.1120013954861887,
      1.142179777679243,
      0.8766565335849591,
      2.781154699866042,
      1.1266086415069128,
      2.779588194855422,
      0.603912643010643,
      1.6551730232599766,
      0.7602414896794366,
      0.7168710651660261,
      0.7675639853126701,
      0.7747431778790547,
      1.2106154404071114,
      1.0950158387033797,
      2.7802793547282296,
      2.7800364063574317,
      2.7789595882702667,
      1.2181493524034834,
      1.1476083155100139,
      1.1086529560805567,
      1.095190280781987,
      2.7790152877644174,
      1.145149772134299,
      1.8060557751480693,
      1.1311982794393534,
      2.78054304338355,
      1.3335077289174548,
      1.1412302188965806,
      1.2652990566918074,
      1.1221339281863671,
      2.778729201135188,
      1.5594098335378237,
      2.778874977836284,
      1.3848156030130383,
      2.7794890586215373,
      1.210767834287433,
      2.1714611166581697,
      2.7810672806524677,
      2.5302568317129452,
      2.7788619705007838,
      2.781069437588209,
      1.1598077329694305,
      1.3903432867624888,
      2.779120598801815,
      1.6871988790149495,
      2.7377253209006676,
      1.3578415017519723,
      0.712169692552654,
      0.7409623912615559,
      1.0421815945157662,
      0.9966911317820922,
      2.778612515610873,
      1.0460188571753208,
      1.039144336542999,
      1.0549155000494805,
      2.2949465502802564,
      1.25426522233333,
      1.1235282487594964,
      1.0890391906376555,
      2.778589738756879,
      1.4135344544311421,
      1.0890887183640956,
      1.091199003825585,
      2.780528430207635,
      1.2609795926275038,
      0.86542380094089,
      0.9154209425720904,
      2.779706205289879,
      1.1758335011873535,
      1.603893182514713,
      2.7815636685015233,
      1.053485643809411,
      1.3841185484246705,
      0.7891645489630058,
      0.7556919563301785,
      2.7796844955081803,
      2.780868149343636,
      1.4655033068416246,
      1.0215944515446236,
      0.9902189409847157,
      2.7800968679572726,
      2.780130806358615,
      2.78019716232168,
      1.026255357894863,
      1.575587304488375,
      2.780713973824844,
      2.779823102102918,
      0.8229652979122818,
      0.8339244470595326,
      2.7804174116034,
      2.780508777230242,
      0.8500700607474498,
      1.2285158471977426,
      1.1429585570391734,
      1.5214832890719594,
      2.780267974060762,
      1.0869681286998758,
      1.0841507111136914,
      1.188844146546897,
      2.780186499940719,
      1.105455681650409,
      1.4594980326196918,
      2.778881336836301,
      2.780336109554203,
      2.7786872008496903,
      2.77879880712183,
      0.9029108035590342,
      1.035837823235939,
      2.1983529743652617,
      0.7192069482468264,
      1.1413306004423296,
      1.1113162929275264,
      2.5431151503124805,
      0.8754953408710187,
      1.391213954670616,
      0.8669840146759522,
      0.863257413555167,
      1.0971774560449077,
      1.1761433712668394,
      0.8972971220594965,
      0.880653559569096,
      1.130507451553471,
      2.77955948086538,
      1.4166371793984658,
      0.8790270294750542,
      1.3774683525607396,
      1.5818222739379937,
      0.9098180244551642,
      1.1463544302103557,
      2.778825403348441,
      1.1429929287582374,
      1.5759391248122925,
      2.7807326101716354,
      1.1614099320918188,
      0.8663523306740739,
      1.1195099234401311,
      1.1117160674168598,
      2.7832572283545276,
      2.779506953880434,
      2.7797507033440945,
      1.5608149411970518,
      2.778792230086345,
      0.8702809743497061,
      2.7805634146260085,
      0.6662370958958044,
      0.662417815976578,
      1.3347029968176105,
      2.7787882549067144,
      1.1307903418683447,
      0.7588513593318914,
      2.7847650987525197,
      1.0287094892326893,
      1.8945879655485032,
      2.7795711686984723,
      1.5860300152231042,
      2.78314991049554,
      2.7791346816754503,
      1.0510212491661108,
      2.779315912777935,
      1.107121744620574,
      1.1247943096807596,
      1.495095936438157,
      1.121730508405792,
      2.780246940649899,
      1.5928792794387412,
      1.177172752261943,
      1.1220060551654916,
      1.18004554907361,
      1.2437918257236205,
      1.2518911810837405,
      2.77927368041506,
      1.1217403523724856,
      2.7789434044579515,
      0.9189734304929542,
      1.2869277849592553,
      0.7489628612561614,
      2.7802972894786024,
      0.6463449013162947,
      0.971452129092936,
      1.053197569877794,
      0.8266966300094027,
      0.8286856699237671,
      1.1275680147590432,
      2.7811899213849376,
      1.2044374444379935,
      1.0922573372904316,
      1.0897002738726762,
      1.094876234574143,
      2.781104809805991,
      1.5415168408310338,
      2.7807639088002376,
      1.4299459741178182,
      1.0200752503151695,
      2.780133832584086,
      0.877365585957813,
      1.069738377384421,
      0.9973033624265889,
      1.1735417197358926,
      0.9831976439294998,
      1.0063804585496932,
      2.779736784669669,
      2.781036435299421,
      1.9003250628770172,
      1.110121497278811,
      2.5497673893460626,
      1.4490570140295136,
      0.8984948128216683,
      2.77927483554286,
      1.15732376964209,
      1.1433770819122675,
      2.779266532993478,
      2.7798670835033,
      1.1526643662088938,
      2.780482787861525,
      2.7815083667331892,
      2.779664227257373,
      1.9651969957514317,
      1.1403477455966942,
      1.1959743335738489,
      2.7802517668992945,
      1.1399986582747943,
      1.391843350465294,
      1.5907259480384097,
      1.1621041809807995,
      2.7789749045371694,
      1.1291934561230883,
      1.3438397198403493,
      2.7808403830859594,
      1.1371863121396335,
      1.1482230982194153,
      1.6216892358404593,
      1.1244161832455961,
      1.2665444830836892,
      1.2756199740936103,
      1.1199582444753424,
      2.779115687743617,
      1.121077026481405,
      2.779141470179618,
      0.9576408035327213,
      2.7805667257624176,
      1.1319136534508432,
      1.1285543461991554,
      1.1226745132061984,
      2.2609450631516834,
      2.778771992429326,
      2.7796327050020757,
      2.211824030376105,
      1.0408356415043962,
      1.1076677732318068,
      2.779283498903429,
      2.780336253592549,
      0.8637807101338566,
      1.3706573986818729,
      2.780571908360031,
      1.1239104136868732,
      1.10752878760637,
      2.649360857177592,
      1.114530922570613,
      0.858073783168892,
      2.7788659450057414,
      1.1761867933333148,
      2.7789754102537514,
      1.5092347906913202,
      1.2068069932525731,
      1.6823554009340187,
      1.1199516548707251,
      1.2033157937601013,
      1.1460411680948095,
      1.1190050084647647,
      1.3959149568110454,
      1.114257267145905,
      1.5076710549105252,
      2.781957830717156,
      0.9077981835362798,
      1.1753610307624234,
      2.1453266438410803,
      2.7799713953422867,
      0.9469530851514908,
      1.1149577476486083,
      0.9898189890146177,
      0.9642360522233964,
      1.0039126867384836,
      0.905353267973997,
      2.7796665354333054,
      2.778925558215732,
      1.1562492210530777,
      0.9774720988299018,
      1.0055022518556258,
      2.780874695016272,
      2.7803959533735543,
      2.778843831843652,
      1.0683268917537445,
      2.7802596184441577,
      2.7800104607777385,
      1.0928609433388174,
      2.7792437904149305,
      1.123649140697355,
      1.0893221301692417,
      2.7800217761239185,
      0.8600144115341141,
      1.2862430875739528,
      1.0956748619335581,
      1.095911726405534,
      0.8606972740520389,
      0.9601995561095054,
      1.0751234090401756,
      2.7793377131768806,
      1.261112922074941,
      0.8677090227674826,
      2.7788530096652506,
      1.0330697416616534,
      2.7806515830139804,
      2.653041368031548,
      1.110576243594899,
      1.1069248703356724,
      1.1938700538588796,
      1.1761462662063429,
      2.778934734310411,
      1.1015752462559336,
      0.8853272894496828,
      1.1028588728195234,
      1.1570576504069054,
      2.4745057458102786,
      2.7788617537085583,
      1.124468358193365,
      2.7790123259737447,
      1.1375977796998373,
      1.492180477231123,
      1.1210277291747577,
      1.1423112360038983,
      1.1219404646496218,
      1.511871334195927,
      2.781113292958353,
      1.2836155260574722,
      1.1169330109846796,
      2.7789285205981984,
      2.779999793812019,
      1.7941428440628564,
      1.170349739139184,
      1.11622906540451,
      1.152190464174866,
      2.783540348659116,
      1.1420795922406701,
      1.474254153888232
    ],
    "Timeout Prediction": [
      0.20512312920365433,
      0.5709630216317906,
      1.6845464570249875,
      1.050897661584833,
      0.9694951219347903,
      1.069490495567012,
      1.4771212547196624,
      0.8110921881644972,
      1.4771212547196624,
      1.066020134062204,
      1.116298846799877,
      1.133784726105633,
      0.8282989084039472,
      1.3865382018833379,
      1.4493611315603845,
      1.1044529673222911,
      1.2594409650225131,
      1.4771212547196624,
      1.4771212547196624,
      1.1143006630457628,
      1.4771212547196624,
      1.1129131876260219,
      1.303392633810052,
      1.5618250023118,
      1.4771212547196624,
      1.4771212547196624,
      1.488490080245796,
      1.2770450673508122,
      1.4771212547196624,
      1.4771212547196624,
      1.4771212547196624,
      1.3230519278493686,
      1.4771212547196624,
      1.4771212547196624,
      1.193091189801662,
      1.130195415624884,
      1.121819096074422,
      1.4771212547196624,
      1.285206131107542,
      1.2673970335735523,
      1.2702734607398918,
      0.8083932978044356,
      1.0816820824458915,
      1.4022115002238629,
      0.9954114094906067,
      1.148096505606318,
      1.6020599913279623,
      1.3872652157841754,
      1.4771212547196624,
      0.7504621087811492,
      1.4771212547196624,
      1.2270275455377644,
      1.1183474094751462,
      1.4771212547196624,
      1.1147877348002877,
      0.8435504383451866,
      0.8465845028980461,
      0.9086833550131092,
      1.4771212547196624,
      1.4771212547196624,
      1.4771212547196624,
      1.4771212547196624,
      0.7862259770957573,
      1.0279690040031655,
      1.4771212547196624,
      1.4771212547196624,
      1.4771212547196624,
      0.8385972528166564,
      1.4771212547196624,
      1.4771212547196624,
      0.860559589976318,
      1.1942839520804218,
      1.0982836831802287,
      1.1012073064290724,
      1.1568640066708231,
      1.4771212547196624,
      1.7687253952828599,
      1.1161127381568756,
      1.4771212547196624,
      1.1553451484425394,
      1.5324779218037576,
      1.1325414411437067,
      1.4771212547196624,
      0.9064158583202704,
      1.1225893747610427,
      1.1156138395886135,
      1.4771212547196624,
      0.9287951376322439,
      1.18663713316636,
      1.1151110355043476,
      1.5391501484749406,
      1.2123101487461678,
      1.4771212547196624,
      0.8952291148413944,
      1.4771212547196624,
      1.4771212547196624,
      0.874476019336568,
      1.3538643201110612,
      1.1346328456923018,
      1.2264607024732483,
      1.4771212547196624,
      1.6989700043360187,
      1.0107238653917732,
      0.7814322255046482,
      1.2491616548981488,
      0.9911551646821483,
      1.4771212547196624,
      1.3776868206277924,
      1.1190842496428042,
      1.4771212547196624,
      0.8518634924662495,
      1.4771212547196624,
      1.0932605460283897,
      1.1689627601705819,
      1.1018844871675422,
      1.2082962090300209,
      1.4771212547196624,
      1.4771212547196624,
      1.155651773198273,
      1.4771212547196624,
      1.2117584266979329,
      1.1429554322025446,
      1.4771212547196624,
      1.114487549673971,
      1.1328965718879223,
      1.314804368931693,
      1.9200230929213742,
      1.4771212547196624,
      1.1921965558122247,
      1.12321769632739,
      1.4771212547196624,
      1.1278366481939577,
      1.1166143845258882,
      1.1183341811912375,
      1.1769040762837941,
      1.1717001319779055,
      1.4202578331005973,
      1.1383500731620817,
      1.1469152560469547,
      0.898637436467081,
      1.4771212547196624,
      0.9633674912927179,
      0.6918238458196512,
      1.5616212712348476,
      0.865406038990774,
      1.4771212547196624,
      1.4771212547196624,
      1.4771212547196624,
      1.0826130540272287,
      1.5706655057050072,
      0.8215135284047731,
      1.1096696480791226,
      1.4771212547196624,
      1.1699946008489377,
      1.0773824420946516,
      1.4771212547196624,
      1.1120013954861887,
      1.142179777679243,
      0.8766565335849591,
      1.4771212547196624,
      1.1266086415069128,
      1.845098040014257,
      0.603912643010643,
      1.6551730232599766,
      0.7602414896794366,
      0.7168710651660261,
      0.7675639853126701,
      0.7747431778790547,
      1.2106154404071114,
      1.0950158387033797,
      1.4771212547196624,
      1.4771212547196624,
      1.4771212547196624,
      1.2181493524034834,
      1.1476083155100139,
      1.1086529560805567,
      1.095190280781987,
      1.4771212547196624,
      1.145149772134299,
      1.8060557751480693,
      1.1311982794393534,
      1.4771212547196624,
      1.3335077289174548,
      1.1412302188965806,
      1.2652990566918074,
      1.1221339281863671,
      1.4771212547196624,
      1.5594098335378237,
      1.4771212547196624,
      1.3848156030130383,
      1.4771212547196624,
      1.210767834287433,
      1.4771212547196624,
      1.4771212547196624,
      1.845098040014257,
      1.4771212547196624,
      1.4771212547196624,
      1.1598077329694305,
      1.3903432867624888,
      1.4771212547196624,
      1.4771212547196624,
      1.4771212547196624,
      1.3578415017519723,
      0.712169692552654,
      0.7409623912615559,
      1.0421815945157662,
      0.9966911317820922,
      1.4771212547196624,
      1.0460188571753208,
      1.039144336542999,
      1.0549155000494805,
      1.4771212547196624,
      1.25426522233333,
      1.1235282487594964,
      1.0890391906376555,
      1.4771212547196624,
      1.4135344544311421,
      1.0890887183640956,
      1.091199003825585,
      1.4771212547196624,
      1.2609795926275038,
      0.86542380094089,
      0.9154209425720904,
      1.4771212547196624,
      1.1758335011873535,
      1.603893182514713,
      1.4771212547196624,
      1.053485643809411,
      1.3841185484246705,
      0.7891645489630058,
      0.7556919563301785,
      1.4771212547196624,
      1.4771212547196624,
      1.4655033068416246,
      1.0215944515446236,
      0.9902189409847157,
      1.4771212547196624,
      1.4771212547196624,
      1.4771212547196624,
      1.026255357894863,
      1.575587304488375,
      1.4771212547196624,
      1.4771212547196624,
      0.8229652979122818,
      0.8339244470595326,
      1.4771212547196624,
      1.4771212547196624,
      0.8500700607474498,
      1.2285158471977426,
      1.1429585570391734,
      1.5214832890719594,
      1.4771212547196624,
      1.0869681286998758,
      1.0841507111136914,
      1.188844146546897,
      1.4771212547196624,
      1.105455681650409,
      1.4594980326196918,
      1.4771212547196624,
      1.4771212547196624,
      1.4771212547196624,
      1.4771212547196624,
      0.9029108035590342,
      1.035837823235939,
      2.1983529743652617,
      0.7192069482468264,
      1.1413306004423296,
      1.1113162929275264,
      1.4771212547196624,
      0.8754953408710187,
      1.391213954670616,
      0.8669840146759522,
      0.863257413555167,
      1.0971774560449077,
      1.1761433712668394,
      0.8972971220594965,
      0.880653559569096,
      1.130507451553471,
      1.4771212547196624,
      1.4166371793984658,
      0.8790270294750542,
      1.3774683525607396,
      1.5818222739379937,
      0.9098180244551642,
      1.1463544302103557,
      1.4771212547196624,
      1.1429929287582374,
      1.5759391248122925,
      1.4771212547196624,
      1.1614099320918188,
      0.8663523306740739,
      1.1195099234401311,
      1.1117160674168598,
      1.4771212547196624,
      1.4771212547196624,
      1.4771212547196624,
      1.5608149411970518,
      1.4771212547196624,
      0.8702809743497061,
      1.4771212547196624,
      0.6662370958958044,
      0.662417815976578,
      1.3347029968176105,
      1.4771212547196624,
      1.1307903418683447,
      0.7588513593318914,
      1.4771212547196624,
      1.0287094892326893,
      1.8945879655485032,
      1.4771212547196624,
      1.5860300152231042,
      1.4771212547196624,
      1.4771212547196624,
      1.0510212491661108,
      1.4771212547196624,
      1.107121744620574,
      1.1247943096807596,
      1.495095936438157,
      1.121730508405792,
      1.4771212547196624,
      1.5928792794387412,
      1.177172752261943,
      1.1220060551654916,
      1.18004554907361,
      1.2437918257236205,
      1.2518911810837405,
      1.4771212547196624,
      1.1217403523724856,
      1.4771212547196624,
      0.9189734304929542,
      1.2869277849592553,
      0.7489628612561614,
      1.4771212547196624,
      0.6463449013162947,
      0.971452129092936,
      1.053197569877794,
      0.8266966300094027,
      0.8286856699237671,
      1.1275680147590432,
      1.4771212547196624,
      1.2044374444379935,
      1.0922573372904316,
      1.0897002738726762,
      1.094876234574143,
      1.6989700043360187,
      1.5415168408310338,
      1.4771212547196624,
      1.4299459741178182,
      1.0200752503151695,
      1.4771212547196624,
      0.877365585957813,
      1.069738377384421,
      0.9973033624265889,
      1.1735417197358926,
      0.9831976439294998,
      1.0063804585496932,
      1.4771212547196624,
      1.4771212547196624,
      1.9003250628770172,
      1.110121497278811,
      1.4771212547196624,
      1.4490570140295136,
      0.8984948128216683,
      1.4771212547196624,
      1.15732376964209,
      1.1433770819122675,
      1.4771212547196624,
      1.4771212547196624,
      1.1526643662088938,
      1.4771212547196624,
      1.4771212547196624,
      1.4771212547196624,
      1.6020599913279623,
      1.1403477455966942,
      1.1959743335738489,
      1.4771212547196624,
      1.1399986582747943,
      1.391843350465294,
      1.5907259480384097,
      1.1621041809807995,
      1.4771212547196624,
      1.1291934561230883,
      1.3438397198403493,
      1.4771212547196624,
      1.1371863121396335,
      1.1482230982194153,
      1.6216892358404593,
      1.1244161832455961,
      1.2665444830836892,
      1.2756199740936103,
      1.1199582444753424,
      1.9030899869919435,
      1.121077026481405,
      1.4771212547196624,
      0.9576408035327213,
      1.4771212547196624,
      1.1319136534508432,
      1.1285543461991554,
      1.1226745132061984,
      1.6020599913279623,
      1.4771212547196624,
      1.4771212547196624,
      2.211824030376105,
      1.0408356415043962,
      1.1076677732318068,
      1.4771212547196624,
      1.4771212547196624,
      0.8637807101338566,
      1.3706573986818729,
      1.4771212547196624,
      1.1239104136868732,
      1.10752878760637,
      1.4771212547196624,
      1.114530922570613,
      0.858073783168892,
      1.4771212547196624,
      1.1761867933333148,
      1.4771212547196624,
      1.5092347906913202,
      1.2068069932525731,
      1.6823554009340187,
      1.1199516548707251,
      1.2033157937601013,
      1.1460411680948095,
      1.1190050084647647,
      1.3959149568110454,
      1.114257267145905,
      1.5076710549105252,
      1.4771212547196624,
      0.9077981835362798,
      1.1753610307624234,
      2.1453266438410803,
      1.4771212547196624,
      0.9469530851514908,
      1.1149577476486083,
      0.9898189890146177,
      0.9642360522233964,
      1.0039126867384836,
      0.905353267973997,
      1.4771212547196624,
      1.4771212547196624,
      1.1562492210530777,
      0.9774720988299018,
      1.0055022518556258,
      1.4771212547196624,
      1.4771212547196624,
      1.4771212547196624,
      1.0683268917537445,
      1.4771212547196624,
      1.4771212547196624,
      1.0928609433388174,
      1.4771212547196624,
      1.123649140697355,
      1.0893221301692417,
      1.4771212547196624,
      0.8600144115341141,
      1.2862430875739528,
      1.0956748619335581,
      1.095911726405534,
      0.8606972740520389,
      0.9601995561095054,
      1.0751234090401756,
      1.4771212547196624,
      1.261112922074941,
      0.8677090227674826,
      1.4771212547196624,
      1.0330697416616534,
      1.4771212547196624,
      1.6989700043360187,
      1.110576243594899,
      1.1069248703356724,
      1.1938700538588796,
      1.1761462662063429,
      1.4771212547196624,
      1.1015752462559336,
      0.8853272894496828,
      1.1028588728195234,
      1.1570576504069054,
      1.7781512503836436,
      1.4771212547196624,
      1.124468358193365,
      1.845098040014257,
      1.1375977796998373,
      1.492180477231123,
      1.1210277291747577,
      1.1423112360038983,
      1.1219404646496218,
      1.511871334195927,
      1.4771212547196624,
      1.2836155260574722,
      1.1169330109846796,
      1.4771212547196624,
      1.4771212547196624,
      1.7941428440628564,
      1.170349739139184,
      1.11622906540451,
      1.152190464174866,
      1.4771212547196624,
      1.1420795922406701,
      1.474254153888232
    ]
  }
}