{
  "0": {
    "test_acc": 1.0,
    "tp": 28,
    "tn": 11,
    "fp": 0,
    "fn": 0,
    "tpr": 1.0,
    "fpr": 0.0,
    "tnr": 1.0,
    "fnr": 0.0,
    "f1_score": 1.0,
    "precision": 1.0,
    "recall": 1.0
  },
  "1": {
    "test_acc": 1.0,
    "tp": 28,
    "tn": 11,
    "fp": 0,
    "fn": 0,
    "tpr": 1.0,
    "fpr": 0.0,
    "tnr": 1.0,
    "fnr": 0.0,
    "f1_score": 1.0,
    "precision": 1.0,
    "recall": 1.0
  },
  "2": {
    "test_acc": 0.9487179487179487,
    "tp": 27,
    "tn": 10,
    "fp": 1,
    "fn": 1,
    "tpr": 0.9642857142857143,
    "fpr": 0.09090909090909091,
    "tnr": 0.9090909090909091,
    "fnr": 0.03571428571428571,
    "f1_score": 0.9642857142857143,
    "precision": 0.9642857142857143,
    "recall": 0.9642857142857143
  },
  "3": {
    "test_acc": 1.0,
    "tp": 28,
    "tn": 11,
    "fp": 0,
    "fn": 0,
    "tpr": 1.0,
    "fpr": 0.0,
    "tnr": 1.0,
    "fnr": 0.0,
    "f1_score": 1.0,
    "precision": 1.0,
    "recall": 1.0
  },
  "4": {
    "test_acc": 0.9743589743589743,
    "tp": 27,
    "tn": 11,
    "fp": 0,
    "fn": 1,
    "tpr": 0.9642857142857143,
    "fpr": 0.0,
    "tnr": 1.0,
    "fnr": 0.03571428571428571,
    "f1_score": 0.9818181818181818,
    "precision": 1.0,
    "recall": 0.9642857142857143
  },
  "sum": {
    "tp": 138.0,
    "fp": 1.0,
    "tn": 54.0,
    "fn": 2.0,
    "tpr": 0.9857142857142858,
    "tnr": 0.9818181818181818,
    "fpr": 0.01818181818181818,
    "fnr": 0.014285714285714285
  },
  "avg": {
    "test_acc": 0.9846153846153847,
    "tp": 27.6,
    "tn": 10.8,
    "fp": 0.2,
    "fn": 0.4,
    "tpr": 0.9857142857142858,
    "fpr": 0.01818181818181818,
    "tnr": 0.9818181818181818,
    "fnr": 0.014285714285714285,
    "f1_score": 0.9892207792207792,
    "precision": 0.9928571428571429,
    "recall": 0.9857142857142858
  }
}