{
  "0": {
    "sbs": "ABCROWN",
    "sbs_running_time": 51067.55680000001,
    "sbs_solved": 118,
    "vbs_running_time": 49241.77557924629,
    "vbs_solved": 118,
    "algo_select_running_time": 53686.047296151584,
    "algo_select_solved": 114,
    "algo_select_acc": 0.8095238095238095,
    "timeout_acc": 0.9305555555555556,
    "percentage_ran_in_portfolio": 0.009433962264150943,
    "percentage_ran_with_selected_algo": 0.9905660377358491
  },
  "1": {
    "sbs": "ABCROWN",
    "sbs_running_time": 51606.54540000001,
    "sbs_solved": 117,
    "vbs_running_time": 49697.90835647379,
    "vbs_solved": 118,
    "algo_select_running_time": 54635.204620694945,
    "algo_select_solved": 112,
    "algo_select_acc": 0.8431372549019608,
    "timeout_acc": 0.9583333333333334,
    "percentage_ran_in_portfolio": 0.009708737864077669,
    "percentage_ran_with_selected_algo": 0.9902912621359223
  },
  "2": {
    "sbs": "ABCROWN",
    "sbs_running_time": 50968.088,
    "sbs_solved": 117,
    "vbs_running_time": 49534.82042985779,
    "vbs_solved": 117,
    "algo_select_running_time": 54864.85934018617,
    "algo_select_solved": 110,
    "algo_select_acc": 0.8269230769230769,
    "timeout_acc": 0.9583333333333334,
    "percentage_ran_in_portfolio": 0.0,
    "percentage_ran_with_selected_algo": 1.0
  },
  "3": {
    "sbs": "ABCROWN",
    "sbs_running_time": 51375.12949999995,
    "sbs_solved": 117,
    "vbs_running_time": 49616.584539033436,
    "vbs_solved": 117,
    "algo_select_running_time": 55122.68086408838,
    "algo_select_solved": 109,
    "algo_select_acc": 0.7961165048543689,
    "timeout_acc": 0.9444444444444444,
    "percentage_ran_in_portfolio": 0.009615384615384616,
    "percentage_ran_with_selected_algo": 0.9903846153846154
  },
  "4": {
    "sbs": "ABCROWN",
    "sbs_running_time": 49918.219499999985,
    "sbs_solved": 116,
    "vbs_running_time": 47807.49114768256,
    "vbs_solved": 116,
    "algo_select_running_time": 51410.027280457514,
    "algo_select_solved": 115,
    "algo_select_acc": 0.87,
    "timeout_acc": 0.958904109589041,
    "percentage_ran_in_portfolio": 0.0,
    "percentage_ran_with_selected_algo": 1.0
  },
  "avg": {
    "sbs_running_time": 50987.10783999999,
    "sbs_solved": 117.0,
    "vbs_running_time": 49179.71601045878,
    "vbs_solved": 117.2,
    "algo_select_running_time": 53943.76388031572,
    "algo_select_solved": 112.0,
    "algo_select_acc": 0.8291401292406432,
    "timeout_acc": 0.9501141552511416,
    "percentage_ran_in_portfolio": 0.005751616948722646,
    "percentage_ran_with_selected_algo": 0.9942483830512774
  },
  "sum": {
    "sbs_running_time": 254935.53919999994,
    "sbs_solved": 585,
    "vbs_running_time": 245898.5800522939,
    "vbs_solved": 586,
    "algo_select_running_time": 269718.81940157857,
    "algo_select_solved": 560,
    "algo_select_acc": 4.145700646203216,
    "timeout_acc": 4.750570776255708,
    "percentage_ran_in_portfolio": 0.02875808474361323,
    "percentage_ran_with_selected_algo": 4.971241915256387
  }
}