{
  "0": {
    "test_acc": 1.0,
    "tp": 64,
    "tn": 1,
    "fp": 0,
    "fn": 0,
    "tpr": 1.0,
    "fpr": 0.0,
    "tnr": 1.0,
    "fnr": 0.0,
    "f1_score": 1.0,
    "precision": 1.0,
    "recall": 1.0
  },
  "1": {
    "test_acc": 0.9692307692307692,
    "tp": 63,
    "tn": 0,
    "fp": 1,
    "fn": 1,
    "tpr": 0.984375,
    "fpr": 1.0,
    "tnr": 0.0,
    "fnr": 0.015625,
    "f1_score": 0.984375,
    "precision": 0.984375,
    "recall": 0.984375
  },
  "2": {
    "test_acc": 0.9230769230769231,
    "tp": 60,
    "tn": 0,
    "fp": 1,
    "fn": 4,
    "tpr": 0.9375,
    "fpr": 1.0,
    "tnr": 0.0,
    "fnr": 0.0625,
    "f1_score": 0.96,
    "precision": 0.9836065573770492,
    "recall": 0.9375
  },
  "3": {
    "test_acc": 1.0,
    "tp": 63,
    "tn": 1,
    "fp": 0,
    "fn": 0,
    "tpr": 1.0,
    "fpr": 0.0,
    "tnr": 1.0,
    "fnr": 0.0,
    "f1_score": 1.0,
    "precision": 1.0,
    "recall": 1.0
  },
  "4": {
    "test_acc": 1.0,
    "tp": 63,
    "tn": 2,
    "fp": 0,
    "fn": 0,
    "tpr": 1.0,
    "fpr": 0.0,
    "tnr": 1.0,
    "fnr": 0.0,
    "f1_score": 1.0,
    "precision": 1.0,
    "recall": 1.0
  },
  "sum": {
    "tp": 313.0,
    "fp": 2.0,
    "tn": 4.0,
    "fn": 5.0,
    "tpr": 0.9842767295597484,
    "tnr": 0.6666666666666666,
    "fpr": 0.3333333333333333,
    "fnr": 0.015723270440251572
  },
  "avg": {
    "test_acc": 0.9784615384615385,
    "tp": 62.6,
    "tn": 0.8,
    "fp": 0.4,
    "fn": 1.0,
    "tpr": 0.984375,
    "fpr": 0.4,
    "tnr": 0.6,
    "fnr": 0.015625,
    "f1_score": 0.988875,
    "precision": 0.9935963114754098,
    "recall": 0.984375
  }
}