{
  "results": {
    "Vanilla Verifier": [
      2.0,
      0.0,
      2.0,
      1.0,
      1.0,
      0.0,
      1.0,
      2.0,
      1.0,
      1.0,
      1.0,
      2.0,
      1.0,
      0.0,
      1.0,
      1.0,
      2.0,
      2.0,
      1.0,
      2.0,
      1.0,
      1.0,
      2.0,
      1.0,
      1.0,
      2.0,
      1.0,
      1.0,
      1.0,
      1.0,
      1.0,
      1.0,
      0.0,
      2.0,
      2.0,
      0.0,
      1.0,
      1.0,
      2.0,
      0.0,
      1.0,
      1.0,
      1.0,
      2.0,
      2.0,
      1.0,
      2.0,
      1.0,
      1.0,
      2.0,
      1.0,
      1.0,
      2.0,
      1.0,
      2.0,
      0.0,
      1.0,
      2.0,
      2.0,
      1.0,
      2.0,
      1.0,
      2.0,
      2.0,
      1.0,
      2.0,
      1.0,
      1.0,
      1.0,
      1.0,
      2.0,
      0.0,
      1.0,
      2.0,
      0.0,
      1.0,
      2.0,
      1.0,
      2.0,
      2.0,
      2.0,
      2.0,
      2.0,
      2.0,
      1.0,
      2.0,
      2.0,
      1.0,
      0.0,
      2.0,
      2.0,
      2.0,
      2.0,
      1.0,
      1.0,
      1.0,
      2.0,
      2.0,
      0.0,
      2.0,
      2.0,
      0.0,
      1.0,
      2.0,
      0.0,
      2.0,
      1.0,
      1.0,
      1.0,
      2.0,
      1.0,
      1.0,
      1.0,
      2.0,
      2.0,
      2.0,
      1.0,
      1.0,
      2.0,
      2.0,
      2.0,
      1.0,
      1.0,
      1.0,
      2.0,
      1.0,
      0.0,
      1.0,
      2.0,
      2.0,
      1.0,
      0.0,
      1.0,
      1.0,
      1.0,
      2.0,
      2.0,
      2.0,
      2.0,
      2.0,
      0.0,
      1.0,
      1.0,
      2.0,
      1.0,
      2.0,
      1.0,
      2.0,
      2.0,
      1.0,
      1.0,
      1.0,
      2.0,
      1.0,
      0.0,
      1.0,
      1.0,
      2.0,
      2.0,
      1.0,
      2.0,
      1.0,
      1.0,
      2.0,
      1.0,
      1.0,
      1.0,
      0.0,
      1.0,
      1.0,
      0.0,
      2.0,
      0.0,
      1.0,
      2.0,
      1.0,
      2.0,
      1.0,
      2.0,
      2.0,
      1.0,
      1.0,
      2.0,
      1.0,
      1.0,
      2.0,
      2.0,
      1.0,
      1.0,
      1.0,
      1.0,
      1.0,
      2.0,
      1.0,
      2.0,
      1.0,
      2.0,
      1.0,
      1.0,
      2.0,
      2.0,
      2.0,
      2.0,
      0.0,
      2.0,
      2.0,
      1.0,
      1.0,
      2.0,
      2.0,
      1.0,
      1.0,
      1.0,
      2.0,
      0.0,
      0.0,
      1.0,
      1.0,
      2.0,
      2.0,
      1.0,
      0.0,
      2.0,
      2.0,
      1.0,
      2.0,
      1.0,
      2.0,
      1.0,
      2.0,
      2.0,
      2.0,
      1.0,
      2.0,
      2.0,
      2.0,
      2.0,
      1.0,
      2.0,
      2.0,
      2.0,
      1.0,
      2.0,
      1.0,
      2.0,
      1.0,
      1.0,
      2.0,
      2.0,
      1.0,
      1.0,
      1.0,
      1.0,
      2.0,
      1.0,
      1.0,
      2.0,
      1.0,
      2.0,
      0.0,
      0.0,
      2.0,
      1.0,
      1.0,
      2.0,
      1.0,
      1.0,
      1.0,
      2.0,
      0.0,
      1.0,
      1.0,
      1.0,
      1.0,
      2.0,
      1.0,
      1.0,
      1.0,
      0.0,
      1.0,
      2.0,
      1.0,
      1.0,
      2.0,
      2.0,
      1.0,
      1.0,
      2.0,
      1.0,
      1.0,
      1.0,
      2.0,
      2.0,
      2.0,
      2.0,
      1.0,
      1.0,
      2.0,
      1.0,
      2.0,
      1.0,
      1.0,
      0.0,
      0.0,
      2.0,
      2.0,
      2.0,
      1.0,
      1.0,
      2.0,
      1.0,
      1.0,
      2.0,
      0.0,
      1.0,
      1.0,
      2.0,
      0.0,
      1.0,
      2.0,
      2.0,
      1.0,
      1.0,
      1.0,
      0.0,
      1.0,
      1.0,
      2.0,
      1.0,
      0.0,
      1.0,
      1.0,
      1.0,
      2.0,
      2.0,
      1.0,
      2.0,
      2.0,
      0.0,
      1.0,
      1.0,
      2.0,
      1.0,
      1.0,
      1.0,
      1.0,
      1.0,
      2.0,
      1.0,
      1.0,
      1.0,
      2.0,
      2.0,
      1.0,
      1.0,
      2.0,
      1.0,
      2.0,
      2.0,
      2.0,
      2.0,
      0.0,
      2.0,
      0.0,
      1.0,
      1.0,
      1.0,
      0.0,
      2.0,
      0.0,
      1.0,
      2.0,
      1.0,
      1.0,
      0.0,
      2.0,
      1.0,
      2.0,
      1.0,
      1.0,
      1.0,
      2.0,
      0.0,
      1.0,
      2.0,
      2.0,
      2.0,
      1.0,
      1.0,
      2.0,
      1.0,
      1.0,
      2.0,
      2.0,
      2.0,
      2.0,
      2.0,
      0.0,
      2.0,
      1.0,
      1.0,
      1.0,
      2.0,
      2.0,
      1.0,
      1.0,
      1.0,
      1.0,
      2.0,
      2.0,
      2.0,
      1.0,
      2.0,
      0.0,
      1.0,
      2.0,
      2.0,
      0.0,
      1.0,
      2.0,
      2.0,
      2.0,
      2.0,
      1.0,
      1.0,
      2.0,
      1.0,
      0.0,
      2.0,
      1.0,
      1.0,
      1.0,
      1.0,
      2.0,
      1.0,
      2.0,
      2.0,
      1.0,
      1.0,
      2.0,
      0.0,
      0.0,
      1.0,
      2.0,
      1.0,
      2.0,
      1.0,
      1.0,
      1.0,
      2.0,
      0.0,
      1.0,
      1.0,
      0.0,
      2.0,
      0.0,
      1.0,
      2.0,
      2.0,
      1.0,
      2.0,
      1.0,
      2.0,
      2.0,
      1.0,
      1.0,
      1.0,
      1.0,
      0.0,
      2.0,
      1.0,
      2.0,
      2.0,
      2.0,
      1.0,
      0.0,
      0.0,
      1.0,
      2.0,
      1.0,
      2.0,
      2.0,
      2.0,
      1.0,
      1.0,
      0.0,
      0.0,
      2.0,
      1.0,
      2.0,
      2.0,
      0.0,
      2.0,
      0.0,
      2.0,
      1.0,
      1.0,
      1.0,
      0.0,
      1.0,
      1.0,
      2.0,
      2.0,
      1.0,
      2.0,
      0.0,
      0.0,
      2.0,
      1.0,
      2.0,
      1.0,
      0.0,
      1.0,
      2.0,
      1.0,
      1.0,
      1.0,
      1.0,
      0.0,
      2.0,
      1.0,
      1.0,
      2.0,
      1.0,
      1.0,
      1.0,
      1.0,
      1.0,
      1.0,
      2.0,
      1.0,
      1.0,
      1.0,
      2.0,
      1.0,
      1.0,
      1.0,
      1.0,
      2.0,
      0.0,
      1.0,
      1.0,
      1.0,
      2.0,
      0.0,
      2.0,
      1.0,
      2.0,
      2.0,
      2.0,
      2.0,
      0.0,
      1.0,
      2.0,
      2.0,
      1.0,
      1.0,
      2.0,
      1.0,
      1.0,
      1.0,
      0.0,
      2.0,
      2.0,
      2.0,
      0.0,
      2.0,
      1.0,
      1.0,
      1.0,
      2.0,
      1.0,
      1.0,
      2.0,
      2.0,
      1.0,
      2.0,
      1.0,
      1.0,
      2.0,
      1.0,
      2.0,
      2.0,
      1.0,
      2.0,
      0.0,
      1.0,
      2.0,
      1.0,
      2.0,
      2.0,
      1.0,
      1.0,
      2.0,
      2.0,
      1.0,
      1.0,
      2.0,
      2.0,
      2.0,
      1.0,
      2.0,
      0.0,
      1.0,
      1.0,
      1.0,
      2.0,
      2.0,
      1.0,
      1.0,
      2.0,
      2.0,
      0.0,
      1.0,
      2.0,
      0.0,
      1.0,
      1.0,
      0.0,
      1.0,
      1.0,
      1.0,
      2.0,
      2.0,
      1.0,
      2.0,
      0.0,
      2.0,
      2.0,
      2.0,
      1.0,
      1.0,
      0.0,
      2.0,
      1.0,
      2.0,
      2.0,
      2.0,
      2.0,
      1.0,
      1.0,
      1.0,
      0.0,
      2.0,
      0.0,
      2.0,
      1.0,
      0.0,
      2.0,
      1.0,
      0.0,
      1.0,
      2.0,
      0.0,
      2.0,
      2.0,
      2.0,
      2.0,
      1.0,
      2.0,
      1.0,
      1.0,
      1.0,
      2.0,
      2.0,
      1.0,
      1.0,
      0.0,
      2.0,
      1.0,
      2.0,
      1.0,
      2.0,
      2.0,
      1.0,
      0.0,
      1.0,
      1.0,
      1.0,
      0.0,
      2.0,
      2.0,
      1.0,
      2.0,
      1.0,
      2.0,
      1.0,
      1.0,
      1.0,
      1.0,
      1.0,
      1.0,
      0.0,
      0.0,
      2.0,
      2.0,
      1.0,
      0.0,
      1.0,
      1.0,
      1.0,
      1.0,
      1.0,
      1.0,
      1.0,
      2.0,
      2.0,
      2.0,
      0.0,
      1.0,
      1.0,
      2.0,
      2.0,
      1.0,
      1.0,
      1.0,
      2.0,
      2.0,
      2.0,
      1.0,
      1.0,
      0.0,
      2.0,
      0.0,
      0.0,
      2.0,
      2.0,
      1.0,
      1.0,
      0.0,
      1.0,
      1.0,
      1.0,
      2.0,
      2.0,
      1.0,
      1.0,
      2.0,
      0.0,
      1.0,
      2.0,
      1.0,
      2.0,
      1.0,
      1.0,
      2.0,
      1.0,
      1.0,
      2.0,
      1.0,
      2.0,
      0.0,
      1.0,
      0.0,
      1.0,
      0.0,
      1.0,
      2.0,
      2.0,
      2.0,
      2.0,
      0.0,
      1.0,
      0.0,
      2.0,
      2.0,
      1.0,
      2.0,
      1.0,
      1.0,
      0.0,
      0.0,
      0.0,
      1.0,
      1.0,
      1.0,
      1.0,
      2.0,
      2.0,
      2.0,
      2.0,
      1.0,
      2.0,
      1.0,
      1.0,
      2.0,
      1.0,
      2.0,
      1.0,
      1.0,
      0.0,
      1.0,
      1.0,
      2.0,
      1.0,
      1.0,
      2.0,
      1.0,
      0.0,
      1.0,
      1.0,
      1.0,
      2.0,
      2.0,
      1.0,
      2.0,
      1.0,
      2.0,
      1.0,
      2.0,
      1.0,
      2.0,
      2.0,
      2.0,
      1.0,
      2.0,
      2.0,
      1.0,
      1.0,
      2.0,
      0.0,
      1.0,
      2.0,
      1.0,
      2.0,
      1.0,
      0.0,
      1.0,
      1.0,
      2.0,
      2.0,
      1.0,
      2.0,
      2.0,
      1.0,
      1.0,
      2.0,
      2.0,
      2.0,
      0.0,
      1.0,
      1.0,
      1.0,
      1.0,
      1.0,
      0.0,
      2.0,
      2.0,
      0.0,
      1.0,
      1.0,
      2.0,
      1.0,
      2.0,
      2.0,
      1.0,
      2.0,
      1.0,
      2.0,
      0.0,
      2.0,
      0.0,
      1.0,
      2.0,
      1.0,
      2.0,
      2.0,
      2.0,
      1.0,
      2.0,
      1.0,
      1.0,
      1.0,
      2.0,
      2.0,
      0.0,
      1.0,
      2.0,
      2.0,
      2.0,
      0.0,
      1.0,
      1.0,
      2.0,
      2.0,
      2.0,
      1.0,
      0.0,
      1.0,
      2.0,
      1.0,
      2.0,
      1.0,
      1.0,
      1.0,
      1.0,
      2.0,
      0.0,
      1.0,
      1.0,
      1.0,
      2.0,
      1.0,
      1.0,
      2.0,
      2.0,
      1.0,
      2.0,
      2.0,
      0.0,
      0.0,
      2.0,
      1.0,
      2.0,
      1.0,
      2.0,
      1.0,
      2.0,
      2.0,
      1.0,
      2.0,
      0.0,
      1.0,
      0.0,
      1.0,
      2.0,
      1.0,
      1.0,
      1.0,
      2.0,
      0.0,
      1.0,
      1.0,
      1.0,
      2.0,
      2.0,
      1.0,
      1.0,
      1.0,
      1.0,
      2.0,
      1.0,
      2.0,
      0.0,
      2.0,
      0.0,
      1.0,
      2.0,
      1.0,
      2.0,
      1.0,
      2.0,
      0.0,
      2.0,
      2.0,
      1.0,
      1.0,
      1.0,
      2.0,
      1.0
    ],
    "Timeout Prediction": [
      2.0,
      0.0,
      2.0,
      1.0,
      1.0,
      0.0,
      2.0,
      2.0,
      1.0,
      1.0,
      1.0,
      2.0,
      1.0,
      0.0,
      1.0,
      1.0,
      2.0,
      2.0,
      1.0,
      2.0,
      1.0,
      1.0,
      2.0,
      1.0,
      1.0,
      2.0,
      1.0,
      1.0,
      1.0,
      1.0,
      1.0,
      1.0,
      0.0,
      2.0,
      2.0,
      0.0,
      1.0,
      1.0,
      2.0,
      0.0,
      2.0,
      1.0,
      1.0,
      2.0,
      2.0,
      1.0,
      2.0,
      1.0,
      1.0,
      2.0,
      1.0,
      1.0,
      2.0,
      1.0,
      2.0,
      0.0,
      1.0,
      2.0,
      2.0,
      1.0,
      2.0,
      1.0,
      2.0,
      2.0,
      1.0,
      2.0,
      1.0,
      1.0,
      1.0,
      1.0,
      2.0,
      0.0,
      1.0,
      2.0,
      0.0,
      1.0,
      2.0,
      1.0,
      2.0,
      2.0,
      2.0,
      2.0,
      2.0,
      2.0,
      1.0,
      2.0,
      2.0,
      1.0,
      0.0,
      2.0,
      2.0,
      2.0,
      2.0,
      1.0,
      1.0,
      1.0,
      2.0,
      2.0,
      0.0,
      2.0,
      2.0,
      0.0,
      1.0,
      2.0,
      0.0,
      2.0,
      1.0,
      1.0,
      1.0,
      2.0,
      1.0,
      1.0,
      1.0,
      2.0,
      2.0,
      2.0,
      1.0,
      1.0,
      2.0,
      2.0,
      2.0,
      1.0,
      1.0,
      1.0,
      2.0,
      1.0,
      0.0,
      1.0,
      2.0,
      2.0,
      1.0,
      0.0,
      1.0,
      1.0,
      1.0,
      2.0,
      2.0,
      2.0,
      2.0,
      2.0,
      0.0,
      1.0,
      1.0,
      2.0,
      1.0,
      2.0,
      1.0,
      2.0,
      2.0,
      1.0,
      1.0,
      1.0,
      2.0,
      1.0,
      0.0,
      1.0,
      1.0,
      2.0,
      2.0,
      1.0,
      2.0,
      1.0,
      1.0,
      2.0,
      1.0,
      1.0,
      1.0,
      0.0,
      1.0,
      1.0,
      0.0,
      2.0,
      0.0,
      1.0,
      2.0,
      1.0,
      2.0,
      1.0,
      2.0,
      2.0,
      1.0,
      1.0,
      2.0,
      1.0,
      1.0,
      2.0,
      2.0,
      1.0,
      2.0,
      1.0,
      1.0,
      2.0,
      2.0,
      1.0,
      2.0,
      1.0,
      2.0,
      1.0,
      1.0,
      2.0,
      2.0,
      2.0,
      2.0,
      0.0,
      2.0,
      2.0,
      1.0,
      1.0,
      2.0,
      2.0,
      1.0,
      1.0,
      1.0,
      2.0,
      0.0,
      0.0,
      1.0,
      1.0,
      2.0,
      2.0,
      1.0,
      0.0,
      2.0,
      2.0,
      1.0,
      2.0,
      1.0,
      2.0,
      1.0,
      2.0,
      2.0,
      2.0,
      1.0,
      2.0,
      2.0,
      2.0,
      2.0,
      1.0,
      2.0,
      2.0,
      2.0,
      1.0,
      2.0,
      1.0,
      2.0,
      1.0,
      1.0,
      2.0,
      2.0,
      1.0,
      1.0,
      1.0,
      1.0,
      2.0,
      1.0,
      1.0,
      2.0,
      1.0,
      2.0,
      0.0,
      0.0,
      2.0,
      1.0,
      1.0,
      2.0,
      1.0,
      1.0,
      1.0,
      2.0,
      0.0,
      1.0,
      1.0,
      1.0,
      2.0,
      2.0,
      1.0,
      1.0,
      1.0,
      0.0,
      1.0,
      2.0,
      1.0,
      1.0,
      2.0,
      2.0,
      1.0,
      1.0,
      2.0,
      1.0,
      1.0,
      1.0,
      2.0,
      2.0,
      2.0,
      2.0,
      1.0,
      2.0,
      2.0,
      1.0,
      2.0,
      1.0,
      1.0,
      0.0,
      0.0,
      2.0,
      2.0,
      2.0,
      1.0,
      1.0,
      2.0,
      1.0,
      1.0,
      2.0,
      0.0,
      1.0,
      1.0,
      2.0,
      0.0,
      1.0,
      2.0,
      2.0,
      1.0,
      1.0,
      1.0,
      0.0,
      1.0,
      1.0,
      2.0,
      1.0,
      0.0,
      1.0,
      1.0,
      1.0,
      2.0,
      2.0,
      1.0,
      2.0,
      2.0,
      0.0,
      1.0,
      1.0,
      2.0,
      1.0,
      1.0,
      1.0,
      1.0,
      1.0,
      2.0,
      1.0,
      1.0,
      2.0,
      2.0,
      2.0,
      1.0,
      1.0,
      2.0,
      1.0,
      2.0,
      2.0,
      2.0,
      2.0,
      0.0,
      2.0,
      0.0,
      1.0,
      1.0,
      1.0,
      0.0,
      2.0,
      0.0,
      1.0,
      2.0,
      1.0,
      1.0,
      0.0,
      2.0,
      1.0,
      2.0,
      1.0,
      1.0,
      1.0,
      2.0,
      0.0,
      1.0,
      2.0,
      2.0,
      2.0,
      1.0,
      1.0,
      2.0,
      1.0,
      1.0,
      2.0,
      2.0,
      2.0,
      2.0,
      2.0,
      0.0,
      2.0,
      1.0,
      1.0,
      1.0,
      2.0,
      2.0,
      1.0,
      1.0,
      1.0,
      1.0,
      2.0,
      2.0,
      2.0,
      1.0,
      2.0,
      0.0,
      1.0,
      2.0,
      2.0,
      0.0,
      1.0,
      2.0,
      2.0,
      2.0,
      2.0,
      1.0,
      1.0,
      2.0,
      1.0,
      0.0,
      2.0,
      1.0,
      1.0,
      1.0,
      1.0,
      2.0,
      1.0,
      2.0,
      2.0,
      1.0,
      1.0,
      2.0,
      0.0,
      0.0,
      1.0,
      2.0,
      1.0,
      2.0,
      1.0,
      1.0,
      1.0,
      2.0,
      0.0,
      1.0,
      1.0,
      0.0,
      2.0,
      0.0,
      1.0,
      2.0,
      2.0,
      1.0,
      2.0,
      1.0,
      2.0,
      2.0,
      1.0,
      1.0,
      1.0,
      1.0,
      0.0,
      2.0,
      1.0,
      2.0,
      2.0,
      2.0,
      1.0,
      0.0,
      0.0,
      1.0,
      2.0,
      1.0,
      2.0,
      2.0,
      2.0,
      1.0,
      1.0,
      0.0,
      0.0,
      2.0,
      1.0,
      2.0,
      2.0,
      0.0,
      2.0,
      0.0,
      2.0,
      1.0,
      1.0,
      1.0,
      0.0,
      1.0,
      1.0,
      2.0,
      2.0,
      1.0,
      2.0,
      0.0,
      0.0,
      2.0,
      1.0,
      2.0,
      1.0,
      0.0,
      1.0,
      2.0,
      1.0,
      1.0,
      1.0,
      1.0,
      0.0,
      2.0,
      1.0,
      1.0,
      2.0,
      1.0,
      1.0,
      1.0,
      1.0,
      1.0,
      1.0,
      2.0,
      1.0,
      1.0,
      1.0,
      2.0,
      1.0,
      1.0,
      1.0,
      1.0,
      2.0,
      0.0,
      1.0,
      1.0,
      1.0,
      2.0,
      0.0,
      2.0,
      1.0,
      2.0,
      2.0,
      2.0,
      2.0,
      0.0,
      1.0,
      2.0,
      2.0,
      1.0,
      1.0,
      2.0,
      1.0,
      1.0,
      1.0,
      0.0,
      2.0,
      2.0,
      2.0,
      0.0,
      2.0,
      1.0,
      1.0,
      1.0,
      2.0,
      1.0,
      1.0,
      2.0,
      2.0,
      1.0,
      2.0,
      1.0,
      1.0,
      2.0,
      1.0,
      2.0,
      2.0,
      1.0,
      2.0,
      0.0,
      1.0,
      2.0,
      1.0,
      2.0,
      2.0,
      1.0,
      1.0,
      2.0,
      2.0,
      1.0,
      1.0,
      2.0,
      2.0,
      2.0,
      2.0,
      2.0,
      0.0,
      1.0,
      1.0,
      1.0,
      2.0,
      2.0,
      1.0,
      1.0,
      2.0,
      2.0,
      0.0,
      1.0,
      2.0,
      0.0,
      1.0,
      1.0,
      0.0,
      1.0,
      1.0,
      1.0,
      2.0,
      2.0,
      1.0,
      2.0,
      0.0,
      2.0,
      2.0,
      2.0,
      1.0,
      1.0,
      0.0,
      2.0,
      1.0,
      2.0,
      2.0,
      2.0,
      2.0,
      1.0,
      1.0,
      1.0,
      0.0,
      2.0,
      0.0,
      2.0,
      1.0,
      0.0,
      2.0,
      1.0,
      0.0,
      1.0,
      2.0,
      0.0,
      2.0,
      2.0,
      2.0,
      2.0,
      1.0,
      2.0,
      1.0,
      1.0,
      1.0,
      2.0,
      2.0,
      1.0,
      1.0,
      0.0,
      2.0,
      1.0,
      2.0,
      1.0,
      2.0,
      2.0,
      1.0,
      0.0,
      1.0,
      1.0,
      1.0,
      0.0,
      2.0,
      2.0,
      1.0,
      2.0,
      1.0,
      2.0,
      1.0,
      1.0,
      1.0,
      1.0,
      1.0,
      1.0,
      0.0,
      0.0,
      2.0,
      2.0,
      1.0,
      0.0,
      1.0,
      1.0,
      1.0,
      1.0,
      1.0,
      1.0,
      1.0,
      2.0,
      2.0,
      2.0,
      0.0,
      1.0,
      1.0,
      2.0,
      2.0,
      1.0,
      1.0,
      1.0,
      2.0,
      2.0,
      2.0,
      1.0,
      1.0,
      0.0,
      2.0,
      0.0,
      0.0,
      2.0,
      2.0,
      1.0,
      1.0,
      0.0,
      1.0,
      1.0,
      1.0,
      2.0,
      2.0,
      1.0,
      1.0,
      2.0,
      0.0,
      1.0,
      2.0,
      1.0,
      2.0,
      1.0,
      1.0,
      2.0,
      1.0,
      1.0,
      2.0,
      1.0,
      2.0,
      0.0,
      1.0,
      0.0,
      1.0,
      0.0,
      1.0,
      2.0,
      2.0,
      2.0,
      2.0,
      0.0,
      1.0,
      0.0,
      2.0,
      2.0,
      1.0,
      2.0,
      1.0,
      1.0,
      0.0,
      0.0,
      0.0,
      1.0,
      1.0,
      1.0,
      1.0,
      2.0,
      2.0,
      2.0,
      2.0,
      1.0,
      2.0,
      1.0,
      1.0,
      2.0,
      1.0,
      2.0,
      1.0,
      1.0,
      0.0,
      1.0,
      2.0,
      2.0,
      1.0,
      1.0,
      2.0,
      1.0,
      0.0,
      1.0,
      1.0,
      1.0,
      2.0,
      2.0,
      1.0,
      2.0,
      1.0,
      2.0,
      1.0,
      2.0,
      1.0,
      2.0,
      2.0,
      2.0,
      1.0,
      2.0,
      2.0,
      1.0,
      2.0,
      2.0,
      0.0,
      1.0,
      2.0,
      1.0,
      2.0,
      1.0,
      0.0,
      1.0,
      1.0,
      2.0,
      2.0,
      1.0,
      2.0,
      2.0,
      1.0,
      1.0,
      2.0,
      2.0,
      2.0,
      0.0,
      1.0,
      1.0,
      1.0,
      1.0,
      2.0,
      0.0,
      2.0,
      2.0,
      0.0,
      1.0,
      1.0,
      2.0,
      1.0,
      2.0,
      2.0,
      1.0,
      2.0,
      1.0,
      2.0,
      0.0,
      2.0,
      0.0,
      1.0,
      2.0,
      1.0,
      2.0,
      2.0,
      2.0,
      1.0,
      2.0,
      1.0,
      1.0,
      2.0,
      2.0,
      2.0,
      0.0,
      1.0,
      2.0,
      2.0,
      2.0,
      0.0,
      1.0,
      1.0,
      2.0,
      2.0,
      2.0,
      1.0,
      0.0,
      1.0,
      2.0,
      1.0,
      2.0,
      1.0,
      1.0,
      1.0,
      1.0,
      2.0,
      0.0,
      1.0,
      1.0,
      1.0,
      2.0,
      1.0,
      1.0,
      2.0,
      2.0,
      1.0,
      2.0,
      2.0,
      0.0,
      0.0,
      2.0,
      1.0,
      2.0,
      1.0,
      2.0,
      1.0,
      2.0,
      2.0,
      1.0,
      2.0,
      0.0,
      1.0,
      0.0,
      1.0,
      2.0,
      1.0,
      1.0,
      1.0,
      2.0,
      0.0,
      1.0,
      1.0,
      1.0,
      2.0,
      2.0,
      1.0,
      1.0,
      1.0,
      1.0,
      2.0,
      1.0,
      2.0,
      0.0,
      2.0,
      0.0,
      1.0,
      2.0,
      1.0,
      2.0,
      1.0,
      2.0,
      0.0,
      2.0,
      2.0,
      1.0,
      1.0,
      1.0,
      2.0,
      1.0
    ]
  },
  "running_times": {
    "Vanilla Verifier": [
      2.778264152272329,
      0.3886339693517892,
      2.7782257978712273,
      0.4117880045438689,
      0.42143939022004967,
      -2.0457574905606752,
      2.495524911799714,
      2.778270664947417,
      0.3836358683618797,
      0.4211101297934343,
      0.6388884247050756,
      2.7784320033815857,
      0.39357520326958756,
      -1.7695510786217261,
      0.3896975482063857,
      0.3543005623453597,
      2.7783075682615985,
      2.778209876181548,
      1.0101727032867787,
      2.778279348362282,
      0.46448954743397136,
      0.3896975482063857,
      2.778303950428262,
      0.519171463821659,
      0.3928727454020794,
      2.7782127710776336,
      2.635183054665021,
      0.4024333462193119,
      0.5394524915494608,
      0.4329692908744057,
      0.5690225860295637,
      0.7483431044875494,
      -1.2924298239020637,
      2.778334339291647,
      2.7783169744872316,
      -1.6777807052660807,
      0.38129562300382597,
      1.1512472374623706,
      2.778204086331487,
      -1.7958800173440752,
      2.5694991462989356,
      0.3981136917305025,
      0.44824241263443915,
      2.7782330348099435,
      2.77827355943833,
      2.6866845215240955,
      2.7782048100669656,
      0.40739090447073156,
      1.5027138235713362,
      2.7782105999073785,
      0.5298151966446303,
      0.39915433395821653,
      2.778274283058044,
      0.44544851426604987,
      2.7783111860647978,
      -1.5228787452803376,
      0.5293019977879806,
      2.778368343355874,
      2.7782033625948017,
      0.41077723337720984,
      2.778277901138528,
      0.4462264017781631,
      2.778305397565213,
      2.7783082918246493,
      0.7767011839884109,
      2.778369790278274,
      0.4560622244549514,
      0.38381536598043126,
      0.8105685292164129,
      0.3886339693517892,
      2.7782569158521295,
      -1.3187587626244128,
      0.5621738633646483,
      2.778322039293575,
      -1.8860566476931633,
      0.6786094165589261,
      2.7782279689655045,
      0.5628873812938793,
      2.7782156659544226,
      2.7783075682615985,
      2.7782055338012386,
      2.778309015386495,
      2.7782663231748765,
      2.778285137209072,
      0.41713940972732566,
      2.778329274628747,
      2.7782836900046086,
      0.37474834601010387,
      -1.6989700043360187,
      2.7782019151178137,
      2.7782511266291534,
      2.778309015386495,
      2.7783372333582146,
      2.2577073669190875,
      0.7606486195813561,
      0.40807028588718547,
      2.7783256569762282,
      2.7783495329259775,
      -1.275724130399211,
      2.778240271628068,
      2.778386429539402,
      -1.8860566476931633,
      1.101231386790699,
      2.778200467636001,
      -1.3010299956639813,
      2.778271388571954,
      0.49651451869774504,
      0.3972445810103864,
      1.0754739645889464,
      2.778285137209072,
      0.3336487565147011,
      2.0231824728934686,
      0.38381536598043126,
      2.7782214556501117,
      2.7782967146711735,
      2.7783777482653074,
      1.347954169894016,
      1.5352308071945058,
      2.7783111860647978,
      2.7783763013694203,
      2.7782091524545116,
      0.3654879848908996,
      0.38003024796783064,
      0.49009900506330495,
      2.778200467636001,
      0.8587176148602916,
      -1.6020599913279623,
      0.3611609951950261,
      2.7782902023867178,
      2.7782655995419,
      0.3821972103774537,
      -1.2441251443275085,
      2.2125684441882973,
      0.3581252852766486,
      1.1854854917344693,
      2.778222179356646,
      2.778227245268618,
      2.778280071972351,
      2.7782192845232734,
      2.7782388242740903,
      -1.3187587626244128,
      0.4022613824546802,
      0.46938013584992516,
      2.7782822427953224,
      1.6506668575628127,
      2.778361108671562,
      1.2127733735199129,
      2.778275006676552,
      2.7782728358174102,
      0.4261858252445114,
      1.3603472309757654,
      0.43071988786328225,
      2.77825908679085,
      2.1124173028700084,
      -1.2839966563652008,
      0.4287825114969545,
      0.4255342204982635,
      2.778369790278274,
      2.778209876181548,
      0.40671045860979005,
      2.7782026388569108,
      2.4900638779162882,
      0.3932241163612973,
      2.7782149422370344,
      0.874655732598101,
      1.8543364109827232,
      0.8243211248507712,
      -2.0,
      0.36417563277061943,
      0.4082399653118496,
      -1.4685210829577449,
      2.7782084287262694,
      -1.5686362358410126,
      0.36530074863798734,
      2.7782055338012386,
      0.8710472613054995,
      2.778217837099351,
      0.37712404234645613,
      2.778285137209072,
      2.7783574912842104,
      0.3783979009481377,
      0.5729877081982051,
      2.7782655995419,
      1.2502735862322463,
      1.527423658682064,
      2.7784298333070656,
      2.7783169744872316,
      0.47377883464672477,
      2.7161536503269543,
      0.3979400086720376,
      0.4877038631637263,
      2.636847820421626,
      2.7783806420426207,
      0.3928727454020794,
      2.7782048100669656,
      0.39199307225971286,
      2.7782381005952925,
      2.5194919744301303,
      0.930031614950973,
      2.7783169744872316,
      2.7782583631458153,
      2.7784276632217026,
      2.7782337584971826,
      -1.431798275933005,
      2.7783336157719916,
      2.77827355943833,
      0.38435341413750623,
      0.362670929725667,
      2.77825546855362,
      2.7783394038954845,
      0.3796680340336538,
      0.38435341413750623,
      0.38129562300382597,
      2.7783061211318807,
      -1.2441251443275085,
      -1.2291479883578558,
      0.48798633112939344,
      0.44216608578472016,
      2.7783365098433808,
      2.7783061211318807,
      0.4534712337229359,
      -2.221848749616356,
      2.778237376915289,
      2.778285137209072,
      0.9480215331411036,
      2.7782048100669656,
      1.8124387141645122,
      2.7782655995419,
      1.1303659372652073,
      2.7782236267660965,
      2.778278624751008,
      2.7782163896706047,
      0.4268364538035081,
      2.7784001745351614,
      2.778264152272329,
      2.778240271628068,
      2.778328551100654,
      0.5970366649776535,
      2.77824461366106,
      2.778209876181548,
      2.778235205868043,
      0.3879234669734367,
      2.778301056139893,
      0.5301996982030822,
      2.7782337584971826,
      2.0247975252743564,
      0.4935974490005269,
      2.778279348362282,
      2.778345191941836,
      0.6191977157929472,
      0.6939906104607767,
      0.4424797690644486,
      1.9310966560155438,
      2.778200467636001,
      0.40294882934440474,
      1.5862158578414658,
      2.7782807955812134,
      0.5005109105263371,
      2.778211323632003,
      -2.0969100130080562,
      -2.0457574905606752,
      2.778290925978702,
      0.5213996281153757,
      0.39984671271292244,
      2.7782105999073785,
      0.3967222785037734,
      0.39689644914252387,
      0.44824241263443915,
      2.778292373159053,
      -1.4436974992327127,
      0.3592661646067485,
      0.37657695705651195,
      0.3718064585074159,
      2.545340522448834,
      2.778217113385581,
      0.3632358044836938,
      0.49665293925091786,
      0.9673139182870835,
      -1.5528419686577808,
      1.0191578477392822,
      2.778332892251131,
      0.41713940972732566,
      0.5408298141110799,
      2.778297438252307,
      2.77822941635566,
      0.8432327780980095,
      1.5454184597511162,
      2.7783480859360847,
      0.351216345339342,
      0.3754807146185724,
      0.49968708261840383,
      2.7783061211318807,
      2.778346638941371,
      2.7782026388569108,
      2.7783668964286528,
      0.5487578285737043,
      2.6839183566649463,
      2.7782930967474204,
      0.7791634237644988,
      2.7784168126322304,
      0.3895204658463774,
      2.006701310497626,
      -1.2291479883578558,
      -1.8239087409443189,
      2.7782504029708552,
      2.778334339291647,
      2.778295991088834,
      0.3798491787628299,
      0.4834446480985352,
      2.7782967146711735,
      0.48798633112939344,
      0.8309733973226505,
      2.7783097389471347,
      -1.6575773191777938,
      0.3573630306151428,
      1.3733901996274698,
      2.7781990201493643,
      -1.5086383061657274,
      0.3879234669734367,
      2.778315527388856,
      2.778239547951682,
      0.37254380075907034,
      0.9660478210764538,
      2.438116547346096,
      -1.3467874862246563,
      2.7632062970448,
      1.3398686405846514,
      2.7782019151178137,
      0.4174716932032931,
      -1.6777807052660807,
      0.3937506403480804,
      0.6544653335201458,
      2.0094678932931442,
      2.778252573942132,
      2.7782062575343054,
      0.36567514045591776,
      2.7782576394995755,
      2.778332892251131,
      -1.1804560644581312,
      0.8744818176994665,
      0.5453071164658241,
      2.7782084287262694,
      1.5899272719865474,
      1.1068026275996503,
      0.760874638052189,
      0.6124659639531423,
      0.5784099703312358,
      2.7783082918246493,
      0.6909045540549666,
      0.4197905861063627,
      2.237028210244414,
      2.778232311121499,
      2.7784189827718127,
      0.986592606822211,
      0.44075170047918544,
      2.778225074170723,
      2.40732630792405,
      2.778309015386495,
      2.7782243504690127,
      2.778360385196502,
      2.778217837099351,
      -1.8860566476931633,
      2.778270664947417,
      -1.3187587626244128,
      0.38381536598043126,
      0.4586378490256493,
      0.3979400086720376,
      -1.6777807052660807,
      2.7783914935358194,
      -1.3979400086720375,
      0.37748838337613266,
      2.778353150379617,
      0.6474807731736759,
      1.186221536270829,
      -1.2518119729937995,
      2.7782619813589298,
      0.8375253094496012,
      2.778230863740991,
      1.4678447944548931,
      0.424718337331567,
      0.4367985102318035,
      2.7782504029708552,
      -1.2291479883578558,
      0.39146441183910324,
      2.778248231988726,
      2.778251850286246,
      2.7783198686695174,
      0.3554515201265174,
      0.38578495884333575,
      2.778248231988726,
      0.6382895354142569,
      1.58594551500909,
      2.7783025032864885,
      2.7782583631458153,
      2.778196848910363,
      2.7782692176947266,
      2.77830467399734,
      -1.4202164033831899,
      2.7782598104346783,
      0.6335694425540919,
      0.7126497016272114,
      0.7031193462360779,
      2.7783820889240465,
      2.7782200082334256,
      0.3889887851247141,
      0.4184670209466005,
      0.5236164190543707,
      0.39022836246913006,
      2.778327104040852,
      2.7782084287262694,
      2.778384259237147,
      1.1740888954636854,
      2.7782424426499905,
      -1.2518119729937995,
      0.5459253293558428,
      2.778277901138528,
      2.7783408509143044,
      -1.3767507096020994,
      0.9980848879365556,
      2.7782569158521295,
      2.7782091524545116,
      2.778297438252307,
      2.7782388242740903,
      0.4360035356698965,
      0.4041492492096951,
      2.7782279689655045,
      0.623766000133931,
      -1.1804560644581312,
      2.7782236267660965,
      1.458683164346481,
      0.8800128383667718,
      0.4410664066392632,
      0.4015728456764459,
      2.7783068446973425,
      0.3877456596088637,
      2.778260534077301,
      2.7783140802856585,
      1.1063609088067503,
      0.9786825651569446,
      2.77831480383786,
      -1.2291479883578558,
      -2.154901959985743,
      1.4428715548211977,
      2.7782019151178137,
      0.6856521841155244,
      2.778332892251131,
      0.3960248966085932,
      0.371990911464915,
      0.3796680340336538,
      2.778286584408713,
      -1.7958800173440752,
      0.4769764657595271,
      0.3807537708039001,
      -1.6382721639824072,
      2.7782077049968206,
      -1.5686362358410126,
      0.4910814134231872,
      2.7782771775248425,
      2.778256192203478,
      2.293240979444369,
      2.778288755199133,
      0.3805730030668873,
      2.7784095787553045,
      2.7782981618322355,
      0.3830969299490942,
      0.33525725643453186,
      0.3550682063488507,
      0.6527296960692476,
      -1.2291479883578558,
      2.7783198686695174,
      1.4165406580489797,
      2.778332892251131,
      2.778384982672437,
      2.778321315753428,
      1.0147304950017535,
      -1.6197887582883939,
      -1.4202164033831899,
      0.4024333462193119,
      2.778200467636001,
      0.9670328821587023,
      2.77821421851844,
      2.778285137209072,
      2.778230863740991,
      0.4159744113765659,
      1.4751916019520432,
      -1.2441251443275085,
      -1.3010299956639813,
      2.778310462506569,
      0.34869419026554116,
      2.7783097389471347,
      2.7782236267660965,
      -1.537602002101044,
      2.778218560811915,
      -1.6777807052660807,
      2.7782026388569108,
      0.4034637013453175,
      2.45253008407699,
      0.36455099535397195,
      -1.2924298239020637,
      0.4689378056654612,
      2.1248985625106434,
      2.7782019151178137,
      2.7782200082334256,
      2.546802915415189,
      2.7783082918246493,
      -2.154901959985743,
      -1.744727494896694,
      2.7782077049968206,
      1.5091352888791685,
      2.7782684940665723,
      0.6536947953150818,
      -1.3665315444204136,
      2.011274328904725,
      2.7783017797137934,
      1.792055331292281,
      0.505421327583281,
      1.30999192878118,
      0.37106786227173627,
      -1.2518119729937995,
      2.778315527388856,
      1.8713393810998609,
      0.7055216134226672,
      2.7782163896706047,
      0.7074850119674736,
      0.38703370128236314,
      1.4716436990413861,
      0.508395033133053,
      0.4084095784684297,
      0.5118833609788743,
      2.778332892251131,
      0.4583356259919475,
      0.6240757311456827,
      0.9902944461284388,
      2.778297438252307,
      0.5609820555862354,
      0.62797998982998,
      0.38881141347352355,
      0.3937506403480804,
      2.7784414069125387,
      -1.6777807052660807,
      0.4652340949880144,
      0.4041492492096951,
      0.3986343245383921,
      2.7782612577187185,
      -1.1674910872937636,
      2.7782091524545116,
      2.4570412458861677,
      2.7782916495694803,
      2.778217113385581,
      2.778358938242767,
      2.77821349479864,
      -2.0969100130080562,
      2.2049849952560368,
      2.7782330348099435,
      2.778305397565213,
      0.6962689967455328,
      0.36097188372593586,
      2.778226521570526,
      0.36642295722597273,
      0.3932241163612973,
      0.37291200297010657,
      -1.3467874862246563,
      2.7783372333582146,
      2.7782229030619745,
      2.7783545973526356,
      -1.2676062401770316,
      2.7782540212502878,
      0.5733358400660676,
      0.3951515915045426,
      2.303921436108169,
      2.7782757302938546,
      0.6022770843001926,
      0.3996737214810381,
      2.7783234863702524,
      2.778293820334582,
      0.6376898191184012,
      2.7782655995419,
      0.3787611753163732,
      0.8328919447597906,
      2.7782019151178137,
      0.52608069180203,
      2.7781997438932855,
      2.7782033625948017,
      0.4022613824546802,
      2.7783068446973425,
      -1.6575773191777938,
      0.45545396877862815,
      2.778231587431848,
      0.5308397786165205,
      2.7782200082334256,
      2.778241718977222,
      0.4746532533620627,
      1.652352725284198,
      2.778295267505289,
      2.77821349479864,
      2.6636811414593815,
      0.4652340949880144,
      2.778246784661277,
      2.7783625556180658,
      2.7782764539099514,
      2.58522603428061,
      2.7783234863702524,
      -2.0969100130080562,
      0.4967913157000424,
      0.9411634601584733,
      1.56184048673096,
      2.778254744902557,
      2.7782033625948017,
      0.4189638307036227,
      0.933234128714808,
      2.7783408509143044,
      2.778298885410958,
      -1.6382721639824072,
      0.40602894496361513,
      2.7783545973526356,
      -1.207608310501746,
      0.393926006585837,
      1.3752245260657996,
      -1.5086383061657274,
      0.3886339693517892,
      0.4471580313422192,
      0.6844862921887344,
      2.7783712371958535,
      2.778264152272329,
      0.39984671271292244,
      2.7782055338012386,
      -1.2365720064370627,
      2.778392940381093,
      2.7782091524545116,
      2.7782048100669656,
      0.3877456596088637,
      0.3905818785504353,
      -1.6575773191777938,
      2.7782301400489287,
      0.41111441855090475,
      2.7782388242740903,
      2.778285137209072,
      2.77824461366106,
      2.7782055338012386,
      2.0094211485825513,
      0.39164070349238783,
      2.6911283686307805,
      -1.6382721639824072,
      2.7782366532340794,
      -1.2291479883578558,
      2.7783068446973425,
      0.5046067706419538,
      -1.6575773191777938,
      2.7782062575343054,
      0.40053798939194624,
      -1.2518119729937995,
      1.150357257998519,
      2.7783198686695174,
      -1.2518119729937995,
      2.7782337584971826,
      2.7782771775248425,
      2.7782699413216747,
      2.7782576394995755,
      0.3809344633307019,
      2.7782156659544226,
      0.36716948853468073,
      0.3895204658463774,
      0.36455099535397195,
      2.7782149422370344,
      2.778209876181548,
      1.3602903997857119,
      0.653983907374069,
      -1.431798275933005,
      2.7783567678031247,
      0.3859635706006973,
      2.778335062810097,
      0.8630848253203598,
      2.7782055338012386,
      2.778235205868043,
      1.745777217889759,
      -1.214670164989233,
      0.4095950193968157,
      0.37785241900675454,
      0.4085791254086675,
      -1.537602002101044,
      2.778330721681317,
      2.7783372333582146,
      0.3930484664167782,
      2.778206981266166,
      0.9828137621318624,
      2.778284413607443,
      0.38003024796783064,
      1.2348208798074012,
      0.3637999454791093,
      0.569490954348783,
      0.5817221599490988,
      0.6178387477170033,
      -1.337242168318426,
      -1.2291479883578558,
      2.778303950428262,
      2.7783314452057937,
      1.6073155976695013,
      -1.494850021680094,
      0.3975924340381167,
      0.38542751480513054,
      1.9513472344474634,
      1.6424744129422484,
      2.2700426471121906,
      0.3948017771627111,
      2.3711029740232217,
      2.778235205868043,
      2.7782084287262694,
      2.7782902023867178,
      -1.2218487496163564,
      0.362105319293773,
      1.141136090120739,
      2.778232311121499,
      2.778289478793528,
      0.4363217001397333,
      0.45560611258186684,
      0.48201557645071164,
      2.7782475083256046,
      2.778279348362282,
      2.7782388242740903,
      2.568840957429907,
      2.1166143845258882,
      -1.4436974992327127,
      2.77830467399734,
      -1.214670164989233,
      -1.8860566476931633,
      2.778230863740991,
      2.778326380509143,
      0.5652573434202137,
      0.4452927694259718,
      -2.154901959985743,
      1.2856023112856134,
      2.3858171143812954,
      0.45697301363581794,
      2.7782033625948017,
      2.7783256569762282,
      1.8533087536338069,
      0.3694014136966244,
      2.7783205922120753,
      -2.154901959985743,
      0.6977522741677546,
      2.778322039293575,
      0.3632358044836938,
      2.7783408509143044,
      0.4082399653118496,
      0.585799009013001,
      2.778303226857978,
      0.37106786227173627,
      0.3820170425748684,
      2.7783705137376664,
      0.41145134213793755,
      2.778324209906783,
      -1.2218487496163564,
      0.5782953051208263,
      -1.2441251443275085,
      0.4148062795010126,
      -2.0969100130080562,
      0.9151887051731563,
      2.7782062575343054,
      2.7782496793113514,
      2.7783770248179667,
      2.7782236267660965,
      -1.3467874862246563,
      0.4119562379304015,
      -1.6777807052660807,
      2.7782091524545116,
      2.778253297596813,
      0.38703370128236314,
      2.7782055338012386,
      0.455910240382743,
      0.5199591807520684,
      -1.2676062401770316,
      -1.3979400086720375,
      -1.5686362358410126,
      1.2541128395760675,
      1.0435587469147327,
      0.3961993470957364,
      0.39357520326958756,
      2.7782771775248425,
      2.7783061211318807,
      2.7783191451257543,
      2.7781982964042364,
      0.5538830266438743,
      2.778321315753428,
      0.8558824300360357,
      0.42813479402878885,
      2.7783299981556344,
      0.5763413502057929,
      2.7782511266291534,
      0.3930484664167782,
      0.44059426183983097,
      -1.4685210829577449,
      0.930949031167523,
      2.0076837809750225,
      2.7783495329259775,
      0.38147609027503,
      1.7048451754733864,
      2.7782692176947266,
      0.6447339274471926,
      -1.4685210829577449,
      0.4068806700491247,
      0.5508396050657851,
      0.43964842956347366,
      2.778285137209072,
      2.778200467636001,
      0.4095950193968157,
      2.778252573942132,
      0.4174716932032931,
      2.7782156659544226,
      0.38165648258578694,
      2.778209876181548,
      0.41413736218447667,
      2.7783676198928657,
      2.7782127710776336,
      2.778206981266166,
      0.3866772839608377,
      2.7783372333582146,
      2.778263428635735,
      0.3900514964589873,
      2.7428986573574083,
      2.778228692661185,
      -1.3872161432802645,
      1.3066394410242617,
      2.7783082918246493,
      0.4079005401426351,
      2.77825546855362,
      0.3895204658463774,
      -2.0457574905606752,
      1.9694671672617547,
      0.3889887851247141,
      2.77822941635566,
      2.7782062575343054,
      1.616853453415137,
      2.7783191451257543,
      2.77821421851844,
      0.4255342204982635,
      0.4753805931433612,
      2.7782084287262694,
      2.7782019151178137,
      2.778251850286246,
      -1.4202164033831899,
      0.40363518979054797,
      0.4480876666923411,
      1.6388485244356825,
      0.3886339693517892,
      2.5428129828129333,
      -2.0969100130080562,
      2.7783133567322515,
      2.7783871529710766,
      -1.2518119729937995,
      0.4097641042663462,
      0.5587085705331657,
      2.77824461366106,
      1.9661370376381735,
      2.778332892251131,
      2.7782120473554213,
      0.4007106367732313,
      2.7783140802856585,
      1.9047371783379818,
      2.778334339291647,
      -1.3979400086720375,
      2.7783205922120753,
      -1.5528419686577808,
      1.4670010009054872,
      2.778240271628068,
      0.6394864892685861,
      2.7782880316035317,
      2.778412472320534,
      2.7782612577187185,
      0.3825573219087858,
      2.7783560443208337,
      1.2217531943188695,
      0.36754227352057667,
      2.105690677513617,
      2.7781982964042364,
      2.778294543920538,
      -1.5528419686577808,
      0.4085791254086675,
      2.778322039293575,
      2.778346638941371,
      2.778260534077301,
      -1.2924298239020637,
      0.41995574848975786,
      2.283656209804792,
      2.778231587431848,
      2.778206981266166,
      2.778239547951682,
      0.41547416810923576,
      -1.2365720064370627,
      0.3773062510681988,
      2.778204086331487,
      0.36995760734605304,
      2.7782301400489287,
      0.3508292735829677,
      0.36172783601759284,
      0.36361197989214433,
      0.413132050434872,
      2.7782011913775104,
      -1.5528419686577808,
      0.4451369687133042,
      0.38273726576133044,
      0.35850591149023525,
      2.778240995303248,
      1.506234359612126,
      0.38273726576133044,
      2.7783162509386465,
      2.7783321687290647,
      1.1640552918934517,
      2.778204086331487,
      2.7782055338012386,
      -1.8239087409443189,
      -1.2676062401770316,
      2.778218560811915,
      0.41279642871654343,
      2.778230863740991,
      0.557988148224913,
      2.778326380509143,
      2.0410253536114813,
      2.77821349479864,
      2.778293820334582,
      0.4387005329007363,
      2.778256192203478,
      -1.5686362358410126,
      1.83905045598111,
      -1.585026652029182,
      0.4187982905903536,
      2.7782156659544226,
      0.4197905861063627,
      0.4747988188006312,
      0.4471580313422192,
      2.7782062575343054,
      -1.2596373105057561,
      0.657629431388952,
      0.4817291969600159,
      2.2111979915469755,
      2.778289478793528,
      2.778262704997935,
      0.8517474191332639,
      1.4026224277485275,
      0.8867726430544381,
      0.34811006848023773,
      2.7782381005952925,
      0.48657215051835634,
      2.778217113385581,
      -2.221848749616356,
      2.7782663231748765,
      -1.6575773191777938,
      0.3684728384403618,
      2.778292373159053,
      0.4077307280263354,
      2.7782670468066475,
      0.379305517750582,
      2.7782655995419,
      -1.6777807052660807,
      2.778262704997935,
      2.778281519188871,
      0.39932753215867883,
      0.3960248966085932,
      0.3889887851247141,
      2.7782930967474204,
      0.3667963832867299
    ],
    "Timeout Prediction": [
      1.3010299956639813,
      0.3886339693517892,
      1.3010299956639813,
      0.4117880045438689,
      0.42143939022004967,
      -2.0457574905606752,
      1.3010299956639813,
      1.3010299956639813,
      0.3836358683618797,
      0.4211101297934343,
      0.6388884247050756,
      1.3010299956639813,
      0.39357520326958756,
      -1.7695510786217261,
      0.3896975482063857,
      0.3543005623453597,
      1.3010299956639813,
      2.778209876181548,
      1.0101727032867787,
      1.3010299956639813,
      0.46448954743397136,
      0.3896975482063857,
      1.3010299956639813,
      0.519171463821659,
      0.3928727454020794,
      1.3010299956639813,
      2.635183054665021,
      0.4024333462193119,
      0.5394524915494608,
      0.4329692908744057,
      0.5690225860295637,
      0.7483431044875494,
      -1.2924298239020637,
      1.3010299956639813,
      1.3010299956639813,
      -1.6777807052660807,
      0.38129562300382597,
      1.1512472374623706,
      1.3010299956639813,
      -1.7958800173440752,
      1.3010299956639813,
      0.3981136917305025,
      0.44824241263443915,
      1.3010299956639813,
      1.3010299956639813,
      2.6866845215240955,
      1.3010299956639813,
      0.40739090447073156,
      1.5027138235713362,
      1.3010299956639813,
      0.5298151966446303,
      0.39915433395821653,
      1.3010299956639813,
      0.44544851426604987,
      1.3010299956639813,
      -1.5228787452803376,
      0.5293019977879806,
      1.3010299956639813,
      1.3010299956639813,
      0.41077723337720984,
      1.3010299956639813,
      0.4462264017781631,
      1.3010299956639813,
      1.3010299956639813,
      0.7767011839884109,
      1.3010299956639813,
      0.4560622244549514,
      0.38381536598043126,
      0.8105685292164129,
      0.3886339693517892,
      1.3010299956639813,
      -1.3187587626244128,
      0.5621738633646483,
      1.3010299956639813,
      -1.8860566476931633,
      0.6786094165589261,
      1.3010299956639813,
      0.5628873812938793,
      1.3010299956639813,
      1.3010299956639813,
      1.3010299956639813,
      1.3010299956639813,
      1.3010299956639813,
      1.3010299956639813,
      0.41713940972732566,
      1.3010299956639813,
      1.3010299956639813,
      0.37474834601010387,
      -1.6989700043360187,
      1.3010299956639813,
      1.3010299956639813,
      1.3010299956639813,
      1.3010299956639813,
      2.2577073669190875,
      0.7606486195813561,
      0.40807028588718547,
      1.3010299956639813,
      1.3010299956639813,
      -1.275724130399211,
      1.3010299956639813,
      1.3010299956639813,
      -1.8860566476931633,
      1.101231386790699,
      1.3010299956639813,
      -1.3010299956639813,
      1.3010299956639813,
      0.49651451869774504,
      0.3972445810103864,
      1.0754739645889464,
      1.3010299956639813,
      0.3336487565147011,
      2.0231824728934686,
      0.38381536598043126,
      2.7782214556501117,
      1.3010299956639813,
      1.3010299956639813,
      1.347954169894016,
      1.5352308071945058,
      1.3010299956639813,
      1.3010299956639813,
      1.3010299956639813,
      0.3654879848908996,
      0.38003024796783064,
      0.49009900506330495,
      1.3010299956639813,
      0.8587176148602916,
      -1.6020599913279623,
      0.3611609951950261,
      1.3010299956639813,
      1.3010299956639813,
      0.3821972103774537,
      -1.2441251443275085,
      2.2125684441882973,
      0.3581252852766486,
      1.1854854917344693,
      1.3010299956639813,
      1.3010299956639813,
      1.3010299956639813,
      2.7782192845232734,
      1.3010299956639813,
      -1.3187587626244128,
      0.4022613824546802,
      0.46938013584992516,
      1.3010299956639813,
      1.6506668575628127,
      1.3010299956639813,
      1.2127733735199129,
      1.3010299956639813,
      1.3010299956639813,
      0.4261858252445114,
      1.3603472309757654,
      0.43071988786328225,
      1.3010299956639813,
      2.1124173028700084,
      -1.2839966563652008,
      0.4287825114969545,
      0.4255342204982635,
      1.3010299956639813,
      1.3010299956639813,
      0.40671045860979005,
      1.3010299956639813,
      2.4900638779162882,
      0.3932241163612973,
      1.3010299956639813,
      0.874655732598101,
      1.8543364109827232,
      0.8243211248507712,
      -2.0,
      0.36417563277061943,
      0.4082399653118496,
      -1.4685210829577449,
      1.3010299956639813,
      -1.5686362358410126,
      0.36530074863798734,
      1.3010299956639813,
      0.8710472613054995,
      1.3010299956639813,
      0.37712404234645613,
      1.3010299956639813,
      1.3010299956639813,
      0.3783979009481377,
      0.5729877081982051,
      1.3010299956639813,
      1.2502735862322463,
      1.527423658682064,
      1.3010299956639813,
      1.3010299956639813,
      0.47377883464672477,
      1.3010299956639813,
      0.3979400086720376,
      0.4877038631637263,
      1.3010299956639813,
      1.3010299956639813,
      0.3928727454020794,
      1.3010299956639813,
      0.39199307225971286,
      1.3010299956639813,
      2.5194919744301303,
      0.930031614950973,
      1.3010299956639813,
      1.3010299956639813,
      1.3010299956639813,
      1.3010299956639813,
      -1.431798275933005,
      1.3010299956639813,
      1.3010299956639813,
      0.38435341413750623,
      0.362670929725667,
      1.3010299956639813,
      1.3010299956639813,
      0.3796680340336538,
      0.38435341413750623,
      0.38129562300382597,
      1.3010299956639813,
      -1.2441251443275085,
      -1.2291479883578558,
      0.48798633112939344,
      0.44216608578472016,
      1.3010299956639813,
      1.3010299956639813,
      0.4534712337229359,
      -2.221848749616356,
      1.3010299956639813,
      1.3010299956639813,
      0.9480215331411036,
      1.3010299956639813,
      1.8124387141645122,
      1.3010299956639813,
      1.1303659372652073,
      1.3010299956639813,
      1.3010299956639813,
      1.3010299956639813,
      0.4268364538035081,
      1.3010299956639813,
      1.3010299956639813,
      1.3010299956639813,
      1.3010299956639813,
      0.5970366649776535,
      1.3010299956639813,
      1.3010299956639813,
      1.3010299956639813,
      0.3879234669734367,
      1.3010299956639813,
      0.5301996982030822,
      1.3010299956639813,
      2.0247975252743564,
      0.4935974490005269,
      1.3010299956639813,
      1.3010299956639813,
      0.6191977157929472,
      0.6939906104607767,
      0.4424797690644486,
      1.9310966560155438,
      1.3010299956639813,
      0.40294882934440474,
      1.5862158578414658,
      1.3010299956639813,
      0.5005109105263371,
      1.3010299956639813,
      -2.0969100130080562,
      -2.0457574905606752,
      1.3010299956639813,
      0.5213996281153757,
      0.39984671271292244,
      2.7782105999073785,
      0.3967222785037734,
      0.39689644914252387,
      0.44824241263443915,
      1.3010299956639813,
      -1.4436974992327127,
      0.3592661646067485,
      0.37657695705651195,
      0.3718064585074159,
      1.3010299956639813,
      1.3010299956639813,
      0.3632358044836938,
      0.49665293925091786,
      0.9673139182870835,
      -1.5528419686577808,
      1.0191578477392822,
      1.3010299956639813,
      0.41713940972732566,
      0.5408298141110799,
      1.3010299956639813,
      1.3010299956639813,
      0.8432327780980095,
      1.5454184597511162,
      1.3010299956639813,
      0.351216345339342,
      0.3754807146185724,
      0.49968708261840383,
      1.3010299956639813,
      1.3010299956639813,
      1.3010299956639813,
      1.3010299956639813,
      0.5487578285737043,
      1.3010299956639813,
      1.3010299956639813,
      0.7791634237644988,
      1.3010299956639813,
      0.3895204658463774,
      2.006701310497626,
      -1.2291479883578558,
      -1.8239087409443189,
      1.3010299956639813,
      1.3010299956639813,
      1.3010299956639813,
      0.3798491787628299,
      0.4834446480985352,
      1.3010299956639813,
      0.48798633112939344,
      0.8309733973226505,
      1.3010299956639813,
      -1.6575773191777938,
      0.3573630306151428,
      1.3733901996274698,
      1.3010299956639813,
      -1.5086383061657274,
      0.3879234669734367,
      1.3010299956639813,
      1.3010299956639813,
      0.37254380075907034,
      0.9660478210764538,
      2.438116547346096,
      -1.3467874862246563,
      2.7632062970448,
      1.3398686405846514,
      1.3010299956639813,
      0.4174716932032931,
      -1.6777807052660807,
      0.3937506403480804,
      0.6544653335201458,
      2.0094678932931442,
      1.3010299956639813,
      1.3010299956639813,
      0.36567514045591776,
      1.3010299956639813,
      1.3010299956639813,
      -1.1804560644581312,
      0.8744818176994665,
      0.5453071164658241,
      1.3010299956639813,
      1.5899272719865474,
      1.1068026275996503,
      0.760874638052189,
      0.6124659639531423,
      0.5784099703312358,
      1.3010299956639813,
      0.6909045540549666,
      0.4197905861063627,
      1.3010299956639813,
      1.3010299956639813,
      1.3010299956639813,
      0.986592606822211,
      0.44075170047918544,
      1.3010299956639813,
      2.40732630792405,
      1.3010299956639813,
      1.3010299956639813,
      1.3010299956639813,
      1.3010299956639813,
      -1.8860566476931633,
      1.3010299956639813,
      -1.3187587626244128,
      0.38381536598043126,
      0.4586378490256493,
      0.3979400086720376,
      -1.6777807052660807,
      1.3010299956639813,
      -1.3979400086720375,
      0.37748838337613266,
      1.3010299956639813,
      0.6474807731736759,
      1.186221536270829,
      -1.2518119729937995,
      1.3010299956639813,
      0.8375253094496012,
      1.3010299956639813,
      1.4678447944548931,
      0.424718337331567,
      0.4367985102318035,
      1.3010299956639813,
      -1.2291479883578558,
      0.39146441183910324,
      1.3010299956639813,
      1.3010299956639813,
      1.3010299956639813,
      0.3554515201265174,
      0.38578495884333575,
      1.3010299956639813,
      0.6382895354142569,
      1.58594551500909,
      1.3010299956639813,
      1.3010299956639813,
      1.3010299956639813,
      1.3010299956639813,
      1.3010299956639813,
      -1.4202164033831899,
      1.3010299956639813,
      0.6335694425540919,
      0.7126497016272114,
      0.7031193462360779,
      1.3010299956639813,
      1.3010299956639813,
      0.3889887851247141,
      0.4184670209466005,
      0.5236164190543707,
      0.39022836246913006,
      1.3010299956639813,
      1.3010299956639813,
      1.3010299956639813,
      1.1740888954636854,
      1.3010299956639813,
      -1.2518119729937995,
      0.5459253293558428,
      2.778277901138528,
      1.3010299956639813,
      -1.3767507096020994,
      0.9980848879365556,
      1.3010299956639813,
      1.3010299956639813,
      2.778297438252307,
      1.3010299956639813,
      0.4360035356698965,
      0.4041492492096951,
      1.3010299956639813,
      0.623766000133931,
      -1.1804560644581312,
      1.3010299956639813,
      1.458683164346481,
      0.8800128383667718,
      0.4410664066392632,
      0.4015728456764459,
      1.3010299956639813,
      0.3877456596088637,
      1.3010299956639813,
      1.3010299956639813,
      1.1063609088067503,
      0.9786825651569446,
      1.3010299956639813,
      -1.2291479883578558,
      -2.154901959985743,
      1.4428715548211977,
      1.3010299956639813,
      0.6856521841155244,
      1.3010299956639813,
      0.3960248966085932,
      0.371990911464915,
      0.3796680340336538,
      1.3010299956639813,
      -1.7958800173440752,
      0.4769764657595271,
      0.3807537708039001,
      -1.6382721639824072,
      1.3010299956639813,
      -1.5686362358410126,
      0.4910814134231872,
      1.3010299956639813,
      1.3010299956639813,
      2.293240979444369,
      2.778288755199133,
      0.3805730030668873,
      1.3010299956639813,
      1.3010299956639813,
      0.3830969299490942,
      0.33525725643453186,
      0.3550682063488507,
      0.6527296960692476,
      -1.2291479883578558,
      1.3010299956639813,
      1.4165406580489797,
      1.3010299956639813,
      1.3010299956639813,
      1.3010299956639813,
      1.0147304950017535,
      -1.6197887582883939,
      -1.4202164033831899,
      0.4024333462193119,
      1.3010299956639813,
      0.9670328821587023,
      1.3010299956639813,
      1.3010299956639813,
      1.3010299956639813,
      0.4159744113765659,
      1.4751916019520432,
      -1.2441251443275085,
      -1.3010299956639813,
      1.3010299956639813,
      0.34869419026554116,
      1.3010299956639813,
      1.3010299956639813,
      -1.537602002101044,
      1.3010299956639813,
      -1.6777807052660807,
      1.3010299956639813,
      0.4034637013453175,
      2.45253008407699,
      0.36455099535397195,
      -1.2924298239020637,
      0.4689378056654612,
      2.1248985625106434,
      1.3010299956639813,
      1.3010299956639813,
      2.546802915415189,
      1.3010299956639813,
      -2.154901959985743,
      -1.744727494896694,
      1.3010299956639813,
      1.5091352888791685,
      1.3010299956639813,
      0.6536947953150818,
      -1.3665315444204136,
      2.011274328904725,
      1.3010299956639813,
      1.792055331292281,
      0.505421327583281,
      1.30999192878118,
      0.37106786227173627,
      -1.2518119729937995,
      1.3010299956639813,
      1.8713393810998609,
      0.7055216134226672,
      1.3010299956639813,
      0.7074850119674736,
      0.38703370128236314,
      1.4716436990413861,
      0.508395033133053,
      0.4084095784684297,
      0.5118833609788743,
      1.3010299956639813,
      0.4583356259919475,
      0.6240757311456827,
      0.9902944461284388,
      1.3010299956639813,
      0.5609820555862354,
      0.62797998982998,
      0.38881141347352355,
      0.3937506403480804,
      1.3010299956639813,
      -1.6777807052660807,
      0.4652340949880144,
      0.4041492492096951,
      0.3986343245383921,
      1.3010299956639813,
      -1.1674910872937636,
      1.3010299956639813,
      2.4570412458861677,
      1.3010299956639813,
      1.3010299956639813,
      1.3010299956639813,
      1.3010299956639813,
      -2.0969100130080562,
      2.2049849952560368,
      1.3010299956639813,
      1.3010299956639813,
      0.6962689967455328,
      0.36097188372593586,
      1.3010299956639813,
      0.36642295722597273,
      0.3932241163612973,
      0.37291200297010657,
      -1.3467874862246563,
      1.3010299956639813,
      1.3010299956639813,
      1.3010299956639813,
      -1.2676062401770316,
      2.7782540212502878,
      0.5733358400660676,
      0.3951515915045426,
      2.303921436108169,
      1.3010299956639813,
      0.6022770843001926,
      0.3996737214810381,
      1.3010299956639813,
      1.3010299956639813,
      0.6376898191184012,
      1.3010299956639813,
      0.3787611753163732,
      0.8328919447597906,
      1.3010299956639813,
      0.52608069180203,
      1.3010299956639813,
      1.3010299956639813,
      0.4022613824546802,
      1.3010299956639813,
      -1.6575773191777938,
      0.45545396877862815,
      1.3010299956639813,
      0.5308397786165205,
      1.3010299956639813,
      1.3010299956639813,
      0.4746532533620627,
      1.652352725284198,
      1.3010299956639813,
      1.3010299956639813,
      2.6636811414593815,
      0.4652340949880144,
      1.3010299956639813,
      1.3010299956639813,
      1.3010299956639813,
      1.3010299956639813,
      1.3010299956639813,
      -2.0969100130080562,
      0.4967913157000424,
      0.9411634601584733,
      1.56184048673096,
      1.3010299956639813,
      1.3010299956639813,
      0.4189638307036227,
      0.933234128714808,
      1.3010299956639813,
      1.3010299956639813,
      -1.6382721639824072,
      0.40602894496361513,
      1.3010299956639813,
      -1.207608310501746,
      0.393926006585837,
      1.3752245260657996,
      -1.5086383061657274,
      0.3886339693517892,
      0.4471580313422192,
      0.6844862921887344,
      1.3010299956639813,
      1.3010299956639813,
      0.39984671271292244,
      2.7782055338012386,
      -1.2365720064370627,
      1.3010299956639813,
      1.3010299956639813,
      1.3010299956639813,
      0.3877456596088637,
      0.3905818785504353,
      -1.6575773191777938,
      1.3010299956639813,
      0.41111441855090475,
      1.3010299956639813,
      1.3010299956639813,
      1.3010299956639813,
      1.3010299956639813,
      2.0094211485825513,
      0.39164070349238783,
      2.6911283686307805,
      -1.6382721639824072,
      1.3010299956639813,
      -1.2291479883578558,
      1.3010299956639813,
      0.5046067706419538,
      -1.6575773191777938,
      1.3010299956639813,
      0.40053798939194624,
      -1.2518119729937995,
      1.150357257998519,
      1.3010299956639813,
      -1.2518119729937995,
      1.3010299956639813,
      1.3010299956639813,
      1.3010299956639813,
      1.3010299956639813,
      0.3809344633307019,
      1.3010299956639813,
      0.36716948853468073,
      0.3895204658463774,
      0.36455099535397195,
      1.3010299956639813,
      1.3010299956639813,
      1.3602903997857119,
      0.653983907374069,
      -1.431798275933005,
      1.3010299956639813,
      0.3859635706006973,
      1.3010299956639813,
      0.8630848253203598,
      1.3010299956639813,
      1.3010299956639813,
      1.745777217889759,
      -1.214670164989233,
      0.4095950193968157,
      0.37785241900675454,
      0.4085791254086675,
      -1.537602002101044,
      1.3010299956639813,
      1.3010299956639813,
      0.3930484664167782,
      1.3010299956639813,
      0.9828137621318624,
      1.3010299956639813,
      0.38003024796783064,
      1.2348208798074012,
      0.3637999454791093,
      0.569490954348783,
      0.5817221599490988,
      0.6178387477170033,
      -1.337242168318426,
      -1.2291479883578558,
      1.3010299956639813,
      1.3010299956639813,
      1.6073155976695013,
      -1.494850021680094,
      0.3975924340381167,
      0.38542751480513054,
      1.9513472344474634,
      1.6424744129422484,
      2.2700426471121906,
      0.3948017771627111,
      2.3711029740232217,
      1.3010299956639813,
      2.7782084287262694,
      1.3010299956639813,
      -1.2218487496163564,
      0.362105319293773,
      1.141136090120739,
      1.3010299956639813,
      1.3010299956639813,
      0.4363217001397333,
      0.45560611258186684,
      0.48201557645071164,
      1.3010299956639813,
      1.3010299956639813,
      1.3010299956639813,
      2.568840957429907,
      2.1166143845258882,
      -1.4436974992327127,
      1.3010299956639813,
      -1.214670164989233,
      -1.8860566476931633,
      1.3010299956639813,
      1.3010299956639813,
      0.5652573434202137,
      0.4452927694259718,
      -2.154901959985743,
      1.2856023112856134,
      2.3858171143812954,
      0.45697301363581794,
      2.7782033625948017,
      1.3010299956639813,
      1.8533087536338069,
      0.3694014136966244,
      1.3010299956639813,
      -2.154901959985743,
      0.6977522741677546,
      1.3010299956639813,
      0.3632358044836938,
      1.3010299956639813,
      0.4082399653118496,
      0.585799009013001,
      1.3010299956639813,
      0.37106786227173627,
      0.3820170425748684,
      1.3010299956639813,
      0.41145134213793755,
      1.3010299956639813,
      -1.2218487496163564,
      0.5782953051208263,
      -1.2441251443275085,
      0.4148062795010126,
      -2.0969100130080562,
      0.9151887051731563,
      1.3010299956639813,
      1.3010299956639813,
      1.3010299956639813,
      1.3010299956639813,
      -1.3467874862246563,
      0.4119562379304015,
      -1.6777807052660807,
      1.3010299956639813,
      1.3010299956639813,
      0.38703370128236314,
      1.3010299956639813,
      0.455910240382743,
      0.5199591807520684,
      -1.2676062401770316,
      -1.3979400086720375,
      -1.5686362358410126,
      1.2541128395760675,
      1.0435587469147327,
      0.3961993470957364,
      0.39357520326958756,
      1.3010299956639813,
      1.3010299956639813,
      1.3010299956639813,
      1.3010299956639813,
      0.5538830266438743,
      1.3010299956639813,
      0.8558824300360357,
      0.42813479402878885,
      1.3010299956639813,
      0.5763413502057929,
      1.3010299956639813,
      0.3930484664167782,
      0.44059426183983097,
      -1.4685210829577449,
      0.930949031167523,
      1.3010299956639813,
      1.3010299956639813,
      0.38147609027503,
      1.7048451754733864,
      1.3010299956639813,
      0.6447339274471926,
      -1.4685210829577449,
      0.4068806700491247,
      0.5508396050657851,
      0.43964842956347366,
      1.3010299956639813,
      1.3010299956639813,
      0.4095950193968157,
      1.3010299956639813,
      0.4174716932032931,
      1.3010299956639813,
      0.38165648258578694,
      1.3010299956639813,
      0.41413736218447667,
      1.3010299956639813,
      1.3010299956639813,
      1.3010299956639813,
      0.3866772839608377,
      1.3010299956639813,
      1.3010299956639813,
      0.3900514964589873,
      1.3010299956639813,
      1.3010299956639813,
      -1.3872161432802645,
      1.3066394410242617,
      1.3010299956639813,
      0.4079005401426351,
      1.3010299956639813,
      0.3895204658463774,
      -2.0457574905606752,
      1.9694671672617547,
      0.3889887851247141,
      1.3010299956639813,
      1.3010299956639813,
      1.616853453415137,
      1.3010299956639813,
      1.3010299956639813,
      0.4255342204982635,
      0.4753805931433612,
      1.3010299956639813,
      1.3010299956639813,
      1.3010299956639813,
      -1.4202164033831899,
      0.40363518979054797,
      0.4480876666923411,
      1.6388485244356825,
      0.3886339693517892,
      1.3010299956639813,
      -2.0969100130080562,
      1.3010299956639813,
      1.3010299956639813,
      -1.2518119729937995,
      0.4097641042663462,
      0.5587085705331657,
      1.3010299956639813,
      1.9661370376381735,
      1.3010299956639813,
      1.3010299956639813,
      0.4007106367732313,
      1.3010299956639813,
      1.9047371783379818,
      1.3010299956639813,
      -1.3979400086720375,
      1.3010299956639813,
      -1.5528419686577808,
      1.4670010009054872,
      1.3010299956639813,
      0.6394864892685861,
      1.3010299956639813,
      1.3010299956639813,
      1.3010299956639813,
      0.3825573219087858,
      1.3010299956639813,
      1.2217531943188695,
      0.36754227352057667,
      1.3010299956639813,
      2.7781982964042364,
      1.3010299956639813,
      -1.5528419686577808,
      0.4085791254086675,
      1.3010299956639813,
      1.3010299956639813,
      1.3010299956639813,
      -1.2924298239020637,
      0.41995574848975786,
      2.283656209804792,
      1.3010299956639813,
      1.3010299956639813,
      1.3010299956639813,
      0.41547416810923576,
      -1.2365720064370627,
      0.3773062510681988,
      1.3010299956639813,
      0.36995760734605304,
      1.3010299956639813,
      0.3508292735829677,
      0.36172783601759284,
      0.36361197989214433,
      0.413132050434872,
      1.3010299956639813,
      -1.5528419686577808,
      0.4451369687133042,
      0.38273726576133044,
      0.35850591149023525,
      1.3010299956639813,
      1.506234359612126,
      0.38273726576133044,
      1.3010299956639813,
      1.3010299956639813,
      1.1640552918934517,
      1.3010299956639813,
      1.3010299956639813,
      -1.8239087409443189,
      -1.2676062401770316,
      1.3010299956639813,
      0.41279642871654343,
      1.3010299956639813,
      0.557988148224913,
      1.3010299956639813,
      2.0410253536114813,
      1.3010299956639813,
      1.3010299956639813,
      0.4387005329007363,
      1.3010299956639813,
      -1.5686362358410126,
      1.83905045598111,
      -1.585026652029182,
      0.4187982905903536,
      2.7782156659544226,
      0.4197905861063627,
      0.4747988188006312,
      0.4471580313422192,
      1.3010299956639813,
      -1.2596373105057561,
      0.657629431388952,
      0.4817291969600159,
      2.2111979915469755,
      1.3010299956639813,
      1.3010299956639813,
      0.8517474191332639,
      1.4026224277485275,
      0.8867726430544381,
      0.34811006848023773,
      1.3010299956639813,
      0.48657215051835634,
      1.3010299956639813,
      -2.221848749616356,
      1.3010299956639813,
      -1.6575773191777938,
      0.3684728384403618,
      2.778292373159053,
      0.4077307280263354,
      1.3010299956639813,
      0.379305517750582,
      1.3010299956639813,
      -1.6777807052660807,
      1.3010299956639813,
      1.3010299956639813,
      0.39932753215867883,
      0.3960248966085932,
      0.3889887851247141,
      1.3010299956639813,
      0.3667963832867299
    ]
  }
}