{
  "results": {
    "Vanilla Verifier": [
      2.0,
      0.0,
      0.0,
      2.0,
      2.0,
      0.0,
      2.0,
      2.0,
      0.0,
      0.0,
      0.0,
      2.0,
      2.0,
      0.0,
      2.0,
      2.0,
      2.0,
      2.0,
      2.0,
      0.0,
      2.0,
      2.0,
      0.0,
      2.0,
      2.0,
      0.0,
      2.0,
      2.0,
      2.0,
      2.0,
      2.0,
      2.0,
      2.0,
      2.0,
      0.0,
      0.0,
      2.0,
      0.0,
      2.0,
      2.0,
      2.0,
      2.0,
      2.0,
      0.0,
      2.0,
      0.0,
      0.0,
      0.0,
      2.0,
      0.0,
      2.0,
      0.0,
      0.0,
      2.0,
      2.0,
      0.0,
      2.0,
      2.0,
      2.0,
      2.0,
      2.0,
      1.0,
      2.0,
      2.0,
      0.0,
      2.0,
      2.0,
      0.0,
      2.0,
      2.0,
      2.0,
      0.0,
      2.0,
      2.0,
      0.0,
      2.0,
      2.0,
      2.0,
      2.0,
      0.0,
      0.0,
      2.0,
      2.0,
      2.0,
      2.0,
      0.0,
      2.0,
      0.0,
      2.0,
      2.0,
      1.0,
      0.0,
      2.0,
      2.0,
      2.0,
      2.0,
      0.0,
      2.0,
      0.0,
      2.0,
      0.0,
      2.0,
      2.0,
      2.0,
      0.0,
      2.0,
      2.0,
      2.0,
      2.0,
      0.0,
      0.0,
      2.0,
      0.0,
      2.0,
      0.0,
      2.0,
      2.0,
      2.0,
      2.0,
      0.0,
      2.0,
      2.0,
      2.0,
      2.0,
      0.0,
      2.0,
      2.0,
      2.0,
      2.0,
      0.0,
      2.0,
      0.0,
      2.0,
      2.0,
      1.0,
      2.0,
      2.0,
      2.0,
      2.0,
      2.0,
      2.0,
      2.0,
      2.0,
      2.0,
      0.0,
      2.0,
      2.0,
      1.0,
      2.0,
      2.0,
      0.0,
      2.0,
      0.0,
      0.0,
      2.0,
      2.0,
      2.0,
      2.0,
      2.0,
      2.0,
      2.0,
      2.0,
      0.0,
      0.0,
      2.0,
      2.0,
      0.0,
      2.0,
      2.0,
      2.0,
      2.0,
      0.0,
      2.0,
      0.0,
      0.0,
      0.0,
      2.0,
      2.0,
      0.0,
      0.0,
      2.0,
      2.0,
      2.0,
      2.0,
      0.0,
      0.0,
      0.0,
      0.0,
      0.0,
      0.0,
      0.0,
      2.0,
      2.0,
      2.0,
      2.0,
      2.0,
      2.0,
      0.0,
      1.0,
      2.0,
      0.0,
      2.0,
      2.0,
      0.0,
      2.0,
      2.0,
      2.0,
      2.0,
      0.0,
      0.0,
      2.0,
      2.0,
      2.0,
      2.0,
      0.0,
      0.0,
      0.0,
      2.0,
      0.0,
      0.0,
      2.0,
      0.0,
      0.0,
      2.0,
      2.0,
      2.0,
      2.0,
      2.0,
      0.0,
      2.0,
      2.0,
      2.0,
      0.0,
      0.0,
      2.0,
      0.0,
      2.0,
      0.0,
      2.0,
      2.0,
      2.0,
      2.0,
      2.0,
      0.0,
      2.0,
      2.0,
      2.0,
      0.0,
      2.0,
      2.0,
      0.0,
      0.0,
      2.0,
      2.0,
      2.0,
      0.0,
      2.0,
      0.0,
      0.0,
      2.0,
      2.0,
      0.0,
      2.0,
      1.0,
      2.0,
      2.0,
      2.0,
      2.0,
      0.0,
      2.0,
      2.0,
      2.0,
      2.0,
      2.0,
      0.0,
      2.0,
      0.0,
      2.0,
      2.0,
      2.0,
      0.0,
      0.0,
      0.0,
      2.0,
      2.0,
      0.0,
      0.0,
      2.0,
      2.0,
      2.0,
      2.0,
      2.0,
      2.0,
      2.0,
      0.0,
      2.0,
      2.0,
      2.0,
      2.0,
      0.0,
      2.0,
      2.0,
      2.0,
      2.0,
      2.0,
      1.0,
      0.0,
      0.0,
      0.0,
      2.0,
      2.0,
      2.0,
      0.0,
      0.0,
      0.0,
      2.0,
      2.0,
      2.0,
      0.0,
      0.0,
      2.0,
      2.0,
      2.0,
      2.0,
      2.0,
      2.0,
      2.0,
      2.0,
      2.0,
      2.0,
      2.0,
      0.0,
      2.0,
      2.0,
      0.0,
      2.0,
      0.0,
      2.0,
      0.0,
      2.0,
      1.0,
      2.0,
      0.0,
      2.0,
      2.0,
      2.0,
      2.0,
      0.0,
      0.0,
      2.0,
      2.0,
      0.0,
      2.0,
      0.0,
      0.0,
      2.0,
      2.0,
      2.0,
      2.0,
      0.0,
      2.0,
      2.0,
      2.0,
      2.0,
      0.0,
      2.0,
      2.0,
      0.0,
      2.0,
      0.0,
      0.0,
      2.0,
      2.0,
      2.0,
      0.0,
      2.0,
      0.0,
      0.0,
      0.0,
      2.0,
      2.0,
      2.0,
      2.0,
      2.0,
      2.0,
      0.0,
      2.0,
      2.0,
      0.0,
      2.0,
      2.0,
      2.0,
      0.0,
      2.0,
      2.0,
      0.0,
      2.0,
      0.0,
      2.0,
      0.0,
      0.0,
      2.0,
      2.0,
      2.0,
      2.0,
      0.0,
      2.0,
      2.0,
      2.0,
      0.0,
      0.0,
      0.0,
      2.0,
      0.0,
      2.0,
      0.0,
      2.0,
      0.0,
      2.0,
      2.0,
      2.0,
      2.0,
      0.0,
      1.0,
      0.0,
      2.0,
      2.0,
      0.0,
      2.0,
      0.0,
      0.0,
      2.0,
      2.0,
      2.0,
      0.0,
      2.0,
      2.0,
      2.0,
      2.0,
      2.0,
      0.0,
      2.0,
      0.0,
      2.0,
      0.0,
      2.0,
      2.0,
      2.0,
      2.0,
      2.0,
      2.0,
      2.0,
      2.0,
      0.0,
      0.0,
      2.0,
      0.0,
      0.0,
      2.0,
      2.0,
      2.0,
      2.0,
      2.0,
      2.0,
      2.0,
      2.0,
      2.0,
      0.0,
      0.0,
      0.0,
      2.0,
      2.0,
      2.0,
      2.0,
      2.0,
      2.0,
      0.0,
      2.0,
      0.0,
      0.0,
      2.0,
      2.0,
      0.0,
      2.0,
      2.0,
      2.0,
      2.0,
      0.0,
      2.0,
      0.0,
      2.0,
      1.0,
      0.0,
      0.0,
      0.0,
      2.0,
      2.0,
      2.0,
      2.0,
      2.0
    ],
    "Timeout Prediction": [
      2.0,
      0.0,
      0.0,
      2.0,
      2.0,
      0.0,
      2.0,
      2.0,
      0.0,
      0.0,
      0.0,
      2.0,
      2.0,
      0.0,
      2.0,
      2.0,
      2.0,
      2.0,
      2.0,
      0.0,
      2.0,
      2.0,
      0.0,
      2.0,
      2.0,
      0.0,
      2.0,
      2.0,
      2.0,
      2.0,
      2.0,
      2.0,
      2.0,
      2.0,
      0.0,
      0.0,
      2.0,
      0.0,
      2.0,
      2.0,
      2.0,
      2.0,
      2.0,
      2.0,
      2.0,
      0.0,
      0.0,
      0.0,
      2.0,
      0.0,
      2.0,
      0.0,
      0.0,
      2.0,
      2.0,
      0.0,
      2.0,
      2.0,
      2.0,
      2.0,
      2.0,
      2.0,
      2.0,
      2.0,
      0.0,
      2.0,
      2.0,
      0.0,
      2.0,
      2.0,
      2.0,
      0.0,
      2.0,
      2.0,
      0.0,
      2.0,
      2.0,
      2.0,
      2.0,
      0.0,
      2.0,
      2.0,
      2.0,
      2.0,
      2.0,
      0.0,
      2.0,
      0.0,
      2.0,
      2.0,
      1.0,
      0.0,
      2.0,
      2.0,
      2.0,
      2.0,
      0.0,
      2.0,
      0.0,
      2.0,
      0.0,
      2.0,
      2.0,
      2.0,
      0.0,
      2.0,
      2.0,
      2.0,
      2.0,
      0.0,
      0.0,
      2.0,
      0.0,
      2.0,
      0.0,
      2.0,
      2.0,
      2.0,
      2.0,
      0.0,
      2.0,
      2.0,
      2.0,
      2.0,
      0.0,
      2.0,
      2.0,
      2.0,
      2.0,
      2.0,
      2.0,
      0.0,
      2.0,
      2.0,
      2.0,
      2.0,
      2.0,
      2.0,
      2.0,
      2.0,
      2.0,
      2.0,
      2.0,
      2.0,
      0.0,
      2.0,
      2.0,
      2.0,
      2.0,
      2.0,
      0.0,
      2.0,
      0.0,
      0.0,
      2.0,
      2.0,
      2.0,
      2.0,
      2.0,
      2.0,
      2.0,
      2.0,
      0.0,
      0.0,
      2.0,
      2.0,
      0.0,
      2.0,
      2.0,
      2.0,
      2.0,
      0.0,
      2.0,
      0.0,
      0.0,
      0.0,
      2.0,
      2.0,
      0.0,
      0.0,
      2.0,
      2.0,
      2.0,
      2.0,
      0.0,
      0.0,
      0.0,
      0.0,
      0.0,
      0.0,
      0.0,
      2.0,
      2.0,
      2.0,
      2.0,
      2.0,
      2.0,
      0.0,
      1.0,
      2.0,
      0.0,
      2.0,
      2.0,
      0.0,
      2.0,
      2.0,
      2.0,
      2.0,
      0.0,
      0.0,
      2.0,
      2.0,
      2.0,
      2.0,
      0.0,
      0.0,
      0.0,
      2.0,
      2.0,
      0.0,
      2.0,
      0.0,
      0.0,
      2.0,
      2.0,
      2.0,
      2.0,
      2.0,
      0.0,
      2.0,
      2.0,
      2.0,
      0.0,
      0.0,
      2.0,
      0.0,
      2.0,
      0.0,
      2.0,
      2.0,
      2.0,
      2.0,
      2.0,
      2.0,
      2.0,
      2.0,
      2.0,
      0.0,
      2.0,
      2.0,
      0.0,
      0.0,
      2.0,
      2.0,
      2.0,
      0.0,
      2.0,
      0.0,
      0.0,
      2.0,
      2.0,
      0.0,
      2.0,
      2.0,
      2.0,
      2.0,
      2.0,
      2.0,
      0.0,
      2.0,
      2.0,
      2.0,
      2.0,
      2.0,
      0.0,
      2.0,
      0.0,
      2.0,
      2.0,
      2.0,
      0.0,
      0.0,
      0.0,
      2.0,
      2.0,
      0.0,
      0.0,
      2.0,
      2.0,
      2.0,
      2.0,
      2.0,
      2.0,
      2.0,
      0.0,
      2.0,
      2.0,
      2.0,
      2.0,
      0.0,
      2.0,
      2.0,
      2.0,
      2.0,
      2.0,
      1.0,
      0.0,
      0.0,
      0.0,
      2.0,
      2.0,
      2.0,
      0.0,
      0.0,
      2.0,
      2.0,
      2.0,
      2.0,
      0.0,
      0.0,
      2.0,
      2.0,
      2.0,
      2.0,
      2.0,
      2.0,
      2.0,
      2.0,
      2.0,
      2.0,
      2.0,
      0.0,
      2.0,
      2.0,
      0.0,
      2.0,
      0.0,
      2.0,
      0.0,
      2.0,
      2.0,
      2.0,
      0.0,
      2.0,
      2.0,
      2.0,
      2.0,
      0.0,
      0.0,
      2.0,
      2.0,
      0.0,
      2.0,
      0.0,
      0.0,
      2.0,
      2.0,
      2.0,
      2.0,
      0.0,
      2.0,
      2.0,
      2.0,
      2.0,
      0.0,
      2.0,
      2.0,
      0.0,
      2.0,
      0.0,
      0.0,
      2.0,
      2.0,
      2.0,
      0.0,
      2.0,
      0.0,
      0.0,
      0.0,
      2.0,
      2.0,
      2.0,
      2.0,
      2.0,
      2.0,
      0.0,
      2.0,
      2.0,
      0.0,
      2.0,
      2.0,
      2.0,
      0.0,
      2.0,
      2.0,
      2.0,
      2.0,
      0.0,
      2.0,
      0.0,
      0.0,
      2.0,
      2.0,
      2.0,
      2.0,
      0.0,
      2.0,
      2.0,
      2.0,
      0.0,
      0.0,
      0.0,
      2.0,
      0.0,
      2.0,
      0.0,
      2.0,
      0.0,
      2.0,
      2.0,
      2.0,
      2.0,
      0.0,
      1.0,
      0.0,
      2.0,
      2.0,
      0.0,
      2.0,
      0.0,
      0.0,
      2.0,
      2.0,
      2.0,
      0.0,
      2.0,
      2.0,
      2.0,
      2.0,
      2.0,
      0.0,
      2.0,
      0.0,
      2.0,
      0.0,
      2.0,
      2.0,
      2.0,
      2.0,
      2.0,
      2.0,
      2.0,
      2.0,
      0.0,
      0.0,
      2.0,
      2.0,
      2.0,
      2.0,
      2.0,
      2.0,
      2.0,
      2.0,
      2.0,
      2.0,
      2.0,
      2.0,
      0.0,
      0.0,
      0.0,
      2.0,
      2.0,
      2.0,
      2.0,
      2.0,
      2.0,
      0.0,
      2.0,
      0.0,
      0.0,
      2.0,
      2.0,
      2.0,
      2.0,
      2.0,
      2.0,
      2.0,
      0.0,
      2.0,
      2.0,
      2.0,
      1.0,
      0.0,
      0.0,
      0.0,
      2.0,
      2.0,
      2.0,
      2.0,
      2.0
    ]
  },
  "running_times": {
    "Vanilla Verifier": [
      2.778556402858329,
      0.7315887651867387,
      0.7024305364455253,
      2.778701008620629,
      2.7786070203522604,
      0.7489628612561614,
      2.7786937794759377,
      2.778729923996112,
      0.7041505168397991,
      0.6989700043360189,
      0.693726948923647,
      2.7786142509412524,
      2.7785925588131195,
      0.7007037171450193,
      2.7786865502109097,
      2.7786793208255416,
      2.7785780967924087,
      2.7791778663072546,
      2.7786865502109097,
      0.7234556720351858,
      2.7787443809619394,
      2.778766065508379,
      0.7520484478194386,
      2.778715466549019,
      2.778556402858329,
      0.7101173651118162,
      2.778773293449927,
      2.778939502912978,
      2.7786793208255416,
      2.7788238856728076,
      2.778556402858329,
      2.7785997896428842,
      2.7788672457449186,
      2.7787371525391817,
      0.7481880270062004,
      0.7299742856995556,
      2.778816658573221,
      0.7275412570285564,
      2.7788600193668573,
      2.7786504020805856,
      2.7790334192621184,
      2.778563634290096,
      2.778838339511192,
      2.006380458549693,
      2.7788672457449186,
      0.7032913781186614,
      0.7075701760979364,
      0.7283537820212285,
      2.7786865502109097,
      0.7092699609758307,
      2.778888924157677,
      0.6910814921229684,
      0.693726948923647,
      2.778925052441096,
      2.778766065508379,
      0.7201593034059569,
      2.7788022040132385,
      2.77883111265213,
      2.7785997896428842,
      2.7786937794759377,
      2.778773293449927,
      2.2301678163461913,
      2.7786793208255416,
      2.7789611777193093,
      0.7067177823367587,
      2.778715466549019,
      2.778773293449927,
      0.7339992865383869,
      2.7786359419859616,
      2.778758837446534,
      2.778925052441096,
      0.7024305364455253,
      2.778946727968617,
      2.778563634290096,
      0.7307822756663892,
      2.778794976552835,
      2.7786720913198293,
      2.778520243893227,
      2.7788672457449186,
      0.7558748556724915,
      1.737749073891557,
      2.778939502912978,
      2.7788744720027396,
      2.779047866128773,
      2.7788744720027396,
      0.7442929831226762,
      2.779120093254271,
      0.7752462597402364,
      2.778520243893227,
      2.7786214814098638,
      0.7283537820212285,
      0.7176705030022621,
      2.7786142509412524,
      2.778845566249998,
      2.7790984263778564,
      2.7787443809619394,
      0.6972293427597176,
      2.7786504020805856,
      0.6954816764901974,
      2.7786793208255416,
      0.7363965022766424,
      2.779011748061014,
      2.778556402858329,
      2.7785130117389247,
      0.7363965022766424,
      2.778816658573221,
      2.7789828514439465,
      2.7786865502109097,
      2.7786070203522604,
      0.7275412570285564,
      0.7032913781186614,
      2.7788672457449186,
      0.714329759745233,
      2.7785708656014547,
      0.7267272090265723,
      2.7787877489721513,
      2.7785708656014547,
      2.7786504020805856,
      2.7786937794759377,
      0.7032913781186614,
      2.7787371525391817,
      2.778766065508379,
      2.778541939633554,
      2.778925052441096,
      0.6812412373755872,
      2.7790984263778564,
      2.778816658573221,
      2.778563634290096,
      2.7786070203522604,
      1.0849335749367162,
      2.778845566249998,
      0.7201593034059569,
      2.7788094313533658,
      2.7788022040132385,
      1.6585837154070628,
      2.7786504020805856,
      2.7786865502109097,
      2.7789611777193093,
      2.7787877489721513,
      2.778505779464186,
      2.7786793208255416,
      2.7786865502109097,
      2.778939502912978,
      2.7788672457449186,
      0.7379873263334308,
      2.7789322777371392,
      2.7785708656014547,
      1.544811911757776,
      2.779004524086998,
      2.778910601488381,
      0.7371926427047373,
      2.778975626989249,
      0.7118072290411911,
      0.7291647896927701,
      2.7785708656014547,
      2.7786576319473553,
      2.7786648616937684,
      2.7785347078405374,
      2.7786504020805856,
      2.779170645095913,
      2.7789611777193093,
      2.778766065508379,
      0.7299742856995556,
      0.7267272090265723,
      2.7788238856728076,
      2.7786070203522604,
      0.7234556720351858,
      2.7789684024143715,
      2.7786504020805856,
      2.778628711758099,
      2.7788238856728076,
      0.7395723444500919,
      2.778838339511192,
      0.7387805584843692,
      0.741151598851785,
      0.7134905430939426,
      2.7789611777193093,
      2.7788600193668573,
      0.7435097647284298,
      0.9344984512435677,
      2.77883111265213,
      2.778838339511192,
      2.778838339511192,
      2.7788094313533658,
      0.7395723444500919,
      0.741151598851785,
      0.7109631189952758,
      0.7134905430939426,
      0.7387805584843692,
      0.7339992865383869,
      0.7275412570285564,
      2.779004524086998,
      2.7787082376449885,
      2.7786937794759377,
      2.7787371525391817,
      2.7789684024143715,
      2.779156202313008,
      0.7015679850559274,
      0.7109631189952758,
      2.778729923996112,
      0.7307822756663892,
      2.7784913145533836,
      2.7787226953327258,
      0.7419390777291989,
      2.7788744720027396,
      2.778585327862962,
      2.7789322777371392,
      2.778845566249998,
      0.7371926427047373,
      0.7024305364455253,
      2.7787877489721513,
      2.778628711758099,
      2.778541939633554,
      2.7786720913198293,
      0.7118072290411911,
      0.9360107957152096,
      0.7160033436347992,
      2.778541939633554,
      1.5748411950633847,
      0.69284691927723,
      2.778563634290096,
      0.7209857441537391,
      0.7134905430939426,
      2.7788672457449186,
      2.7790189719148706,
      2.7786214814098638,
      2.7789684024143715,
      2.7787371525391817,
      0.6757783416740851,
      2.7790767584204317,
      2.778939502912978,
      2.778946727968617,
      0.7185016888672743,
      0.6866362692622934,
      2.7789972999928167,
      0.7134905430939426,
      2.7788672457449186,
      0.7218106152125465,
      2.7785347078405374,
      2.7786937794759377,
      2.7786142509412524,
      2.7789972999928167,
      2.778888924157677,
      1.1172712956557642,
      2.7786720913198293,
      2.778628711758099,
      2.779091203845499,
      0.8102325179950841,
      2.7785347078405374,
      2.7789828514439465,
      0.7299742856995556,
      0.7218106152125465,
      2.778990075778468,
      2.7787082376449885,
      2.779004524086998,
      0.7291647896927701,
      2.7786793208255416,
      0.7307822756663892,
      0.7267272090265723,
      2.778541939633554,
      2.7788022040132385,
      0.7109631189952758,
      2.7786504020805856,
      1.4545399849648188,
      2.778939502912978,
      2.778541939633554,
      2.778455150168456,
      2.7789684024143715,
      0.7363965022766424,
      2.7786793208255416,
      2.7788094313533658,
      2.779206749951978,
      2.778896150054801,
      2.7790334192621184,
      0.7331972651065695,
      2.7788238856728076,
      0.7267272090265723,
      2.7787877489721513,
      2.778563634290096,
      2.778758837446534,
      0.7450747915820575,
      0.714329759745233,
      0.7075701760979364,
      2.7786865502109097,
      2.778888924157677,
      0.7355988996981799,
      0.8536982117761743,
      2.7786142509412524,
      2.778838339511192,
      2.7786214814098638,
      2.778903375831701,
      2.7787082376449885,
      2.778426216492103,
      2.778701008620629,
      0.7067177823367587,
      2.7785925588131195,
      2.7784985470690073,
      2.779055089381888,
      2.778773293449927,
      0.7363965022766424,
      2.7786142509412524,
      2.7789178270248445,
      2.7785997896428842,
      2.7786431720934557,
      2.7786359419859616,
      0.7442929831226762,
      0.7015679850559274,
      0.7299742856995556,
      0.741151598851785,
      2.77883111265213,
      2.778990075778468,
      2.7788816981403244,
      0.7134905430939426,
      0.69284691927723,
      1.2662316966898932,
      2.778852792868552,
      2.778794976552835,
      2.7786070203522604,
      0.7218106152125465,
      0.693726948923647,
      2.7788672457449186,
      2.778888924157677,
      2.778701008620629,
      2.7786865502109097,
      2.7786576319473553,
      2.7786720913198293,
      2.7787371525391817,
      2.7784985470690073,
      2.779120093254271,
      2.778975626989249,
      2.7786431720934557,
      0.714329759745233,
      2.7785491713061496,
      2.779055089381888,
      0.8055008581584001,
      2.7787877489721513,
      0.7723217067229198,
      2.7788672457449186,
      0.696356388733332,
      2.7787443809619394,
      2.0249369680374434,
      2.7786937794759377,
      0.7283537820212285,
      2.778910601488381,
      2.778845566249998,
      2.7788022040132385,
      2.778773293449927,
      0.7315887651867387,
      0.7299742856995556,
      2.7786142509412524,
      2.7786793208255416,
      0.7323937598229685,
      2.778563634290096,
      0.7176705030022621,
      0.7387805584843692,
      2.778701008620629,
      2.7789972999928167,
      2.7788094313533658,
      2.7789684024143715,
      0.7134905430939426,
      2.7785997896428842,
      2.7786431720934557,
      2.7789611777193093,
      2.7786214814098638,
      0.6848453616444125,
      2.7785997896428842,
      2.7789322777371392,
      0.6857417386022636,
      2.7786142509412524,
      0.7387805584843692,
      0.7355988996981799,
      2.778896150054801,
      2.7788238856728076,
      2.779120093254271,
      0.7745169657285496,
      2.778910601488381,
      0.725094521081469,
      0.909020854211156,
      0.7497363155690611,
      2.778925052441096,
      2.7787443809619394,
      2.7788600193668573,
      2.779040642755518,
      2.7786359419859616,
      2.7791923083697374,
      0.7403626894942439,
      2.7786937794759377,
      2.7784985470690073,
      0.8750612633917001,
      2.7786142509412524,
      2.7787805212711834,
      2.778628711758099,
      0.7339992865383869,
      2.778556402858329,
      2.7787877489721513,
      1.9045532629767727,
      2.7789972999928167,
      0.7193312869837266,
      2.7786865502109097,
      0.7331972651065695,
      0.92272545799326,
      2.7786865502109097,
      2.778816658573221,
      2.7787371525391817,
      2.7790261956485707,
      0.7671558660821804,
      2.7786865502109097,
      2.778556402858329,
      2.778715466549019,
      0.7267272090265723,
      0.7176705030022621,
      0.7299742856995556,
      2.778845566249998,
      0.9339931638312423,
      2.7786070203522604,
      0.6893088591236202,
      2.779011748061014,
      0.7234556720351858,
      2.778773293449927,
      2.7788238856728076,
      2.778455150168456,
      2.778701008620629,
      0.7109631189952758,
      0.9148718175400504,
      0.6893088591236202,
      2.778816658573221,
      2.7786070203522604,
      0.705007959333336,
      2.7787082376449885,
      0.7015679850559274,
      0.7474118078864233,
      2.7786070203522604,
      2.7788744720027396,
      2.7788672457449186,
      0.8254261177678232,
      2.7787226953327258,
      2.77883111265213,
      2.7790767584204317,
      2.778838339511192,
      2.7788022040132385,
      0.8215135284047731,
      2.779047866128773,
      0.7218106152125465,
      2.7785347078405374,
      0.7339992865383869,
      2.7785708656014547,
      2.779055089381888,
      2.778563634290096,
      2.778816658573221,
      2.7786720913198293,
      2.7786865502109097,
      2.778715466549019,
      2.7786648616937684,
      0.7176705030022621,
      0.7058637122839193,
      2.7787443809619394,
      1.0799044676667207,
      2.6908691577892556,
      2.7789322777371392,
      2.778939502912978,
      2.7784913145533836,
      2.7786070203522604,
      2.77883111265213,
      2.778838339511192,
      2.778563634290096,
      2.778715466549019,
      2.778541939633554,
      0.7275412570285564,
      0.725094521081469,
      0.7307822756663892,
      2.778563634290096,
      2.7785997896428842,
      2.778903375831701,
      2.7786142509412524,
      2.7785274759270964,
      2.7785347078405374,
      0.7226339225338123,
      2.778751609264389,
      0.7355988996981799,
      0.8796692056320535,
      2.7786070203522604,
      2.7788094313533658,
      1.5714759036819437,
      2.778715466549019,
      2.7787877489721513,
      2.7790334192621184,
      2.7788744720027396,
      0.7209857441537391,
      2.778975626989249,
      1.1878026387184193,
      2.778563634290096,
      0.9647309210536293,
      0.7226339225338123,
      0.7226339225338123,
      0.7363965022766424,
      2.7789684024143715,
      2.7786793208255416,
      2.778910601488381,
      2.7786431720934557,
      2.778729923996112
    ],
    "Timeout Prediction": [
      1.0,
      0.7315887651867387,
      0.7024305364455253,
      1.0,
      1.0,
      0.7489628612561614,
      1.0,
      1.0,
      0.7041505168397991,
      0.6989700043360189,
      0.693726948923647,
      1.0,
      1.0,
      0.7007037171450193,
      1.0,
      1.0,
      1.0,
      1.0,
      1.0,
      0.7234556720351858,
      1.0,
      1.0,
      0.7520484478194386,
      1.0,
      1.0,
      0.7101173651118162,
      1.0,
      1.0,
      1.0,
      1.0,
      1.0,
      1.0,
      1.0,
      1.0,
      0.7481880270062004,
      0.7299742856995556,
      1.0,
      0.7275412570285564,
      1.0,
      1.0,
      1.0,
      1.0,
      1.0,
      1.0,
      1.0,
      0.7032913781186614,
      0.7075701760979364,
      0.7283537820212285,
      1.0,
      0.7092699609758307,
      1.0,
      0.6910814921229684,
      0.693726948923647,
      1.0,
      1.0,
      0.7201593034059569,
      1.0,
      1.0,
      1.0,
      1.0,
      1.0,
      1.0,
      1.0,
      1.0,
      0.7067177823367587,
      1.0,
      1.0,
      0.7339992865383869,
      1.0,
      1.0,
      1.0,
      0.7024305364455253,
      1.0,
      1.0,
      0.7307822756663892,
      1.0,
      1.0,
      1.0,
      1.0,
      0.7558748556724915,
      1.0,
      1.0,
      1.0,
      1.0,
      1.0,
      0.7442929831226762,
      1.0,
      0.7752462597402364,
      1.0,
      1.0,
      0.7283537820212285,
      0.7176705030022621,
      1.0,
      1.0,
      1.0,
      1.0,
      0.6972293427597176,
      1.0,
      0.6954816764901974,
      1.0,
      0.7363965022766424,
      1.0,
      1.0,
      1.0,
      0.7363965022766424,
      1.0,
      1.0,
      1.0,
      1.0,
      0.7275412570285564,
      0.7032913781186614,
      1.0,
      0.714329759745233,
      1.0,
      0.7267272090265723,
      1.0,
      1.0,
      1.0,
      1.0,
      0.7032913781186614,
      1.0,
      1.0,
      1.0,
      1.0,
      0.6812412373755872,
      1.0,
      1.0,
      1.0,
      1.0,
      1.0,
      1.0,
      0.7201593034059569,
      1.0,
      1.0,
      1.0,
      1.0,
      1.0,
      1.0,
      1.0,
      1.0,
      1.0,
      1.0,
      1.0,
      1.0,
      0.7379873263334308,
      1.0,
      1.0,
      1.0,
      1.0,
      1.0,
      0.7371926427047373,
      1.0,
      0.7118072290411911,
      0.7291647896927701,
      1.0,
      1.0,
      1.0,
      1.0,
      1.0,
      1.0,
      1.0,
      1.0,
      0.7299742856995556,
      0.7267272090265723,
      1.0,
      1.0,
      0.7234556720351858,
      1.0,
      1.0,
      1.0,
      1.0,
      0.7395723444500919,
      1.0,
      0.7387805584843692,
      0.741151598851785,
      0.7134905430939426,
      1.0,
      1.0,
      0.7435097647284298,
      0.9344984512435677,
      1.0,
      1.0,
      1.0,
      1.0,
      0.7395723444500919,
      0.741151598851785,
      0.7109631189952758,
      0.7134905430939426,
      0.7387805584843692,
      0.7339992865383869,
      0.7275412570285564,
      1.0,
      1.0,
      1.0,
      1.0,
      1.0,
      1.0,
      0.7015679850559274,
      0.7109631189952758,
      1.0,
      0.7307822756663892,
      1.0,
      1.0,
      0.7419390777291989,
      1.0,
      1.0,
      1.0,
      1.0,
      0.7371926427047373,
      0.7024305364455253,
      1.0,
      1.0,
      1.0,
      1.0,
      0.7118072290411911,
      0.9360107957152096,
      0.7160033436347992,
      1.0,
      1.0,
      0.69284691927723,
      1.0,
      0.7209857441537391,
      0.7134905430939426,
      1.0,
      1.0,
      1.0,
      1.0,
      1.0,
      0.6757783416740851,
      1.0,
      1.0,
      1.0,
      0.7185016888672743,
      0.6866362692622934,
      1.0,
      0.7134905430939426,
      1.0,
      0.7218106152125465,
      1.0,
      1.0,
      1.0,
      1.0,
      1.0,
      1.0,
      1.0,
      1.0,
      1.0,
      0.8102325179950841,
      1.0,
      1.0,
      0.7299742856995556,
      0.7218106152125465,
      1.0,
      1.0,
      1.0,
      0.7291647896927701,
      1.0,
      0.7307822756663892,
      0.7267272090265723,
      1.0,
      1.0,
      0.7109631189952758,
      1.0,
      1.0,
      1.0,
      1.0,
      1.0,
      1.0,
      0.7363965022766424,
      1.0,
      1.0,
      1.0,
      1.0,
      1.0,
      0.7331972651065695,
      1.0,
      0.7267272090265723,
      1.0,
      1.0,
      1.0,
      0.7450747915820575,
      0.714329759745233,
      0.7075701760979364,
      1.0,
      1.0,
      0.7355988996981799,
      0.8536982117761743,
      1.0,
      1.0,
      1.0,
      1.0,
      1.0,
      1.0,
      1.0,
      0.7067177823367587,
      1.0,
      1.0,
      1.0,
      1.0,
      0.7363965022766424,
      1.0,
      1.0,
      1.0,
      1.0,
      1.0,
      0.7442929831226762,
      0.7015679850559274,
      0.7299742856995556,
      0.741151598851785,
      1.0,
      1.0,
      1.0,
      0.7134905430939426,
      0.69284691927723,
      1.0,
      1.0,
      1.0,
      1.0,
      0.7218106152125465,
      0.693726948923647,
      1.0,
      1.0,
      1.0,
      1.0,
      1.0,
      1.0,
      1.0,
      1.0,
      1.0,
      1.0,
      1.0,
      0.714329759745233,
      1.0,
      1.0,
      0.8055008581584001,
      1.0,
      0.7723217067229198,
      1.0,
      0.696356388733332,
      1.0,
      1.0,
      1.0,
      0.7283537820212285,
      1.0,
      1.0,
      1.0,
      1.0,
      0.7315887651867387,
      0.7299742856995556,
      1.0,
      1.0,
      0.7323937598229685,
      1.0,
      0.7176705030022621,
      0.7387805584843692,
      1.0,
      1.0,
      1.0,
      1.0,
      0.7134905430939426,
      1.0,
      1.0,
      1.0,
      1.0,
      0.6848453616444125,
      1.0,
      1.0,
      0.6857417386022636,
      1.0,
      0.7387805584843692,
      0.7355988996981799,
      1.0,
      1.0,
      1.0,
      0.7745169657285496,
      1.0,
      0.725094521081469,
      0.909020854211156,
      0.7497363155690611,
      1.0,
      1.0,
      1.0,
      1.0,
      1.0,
      1.0,
      0.7403626894942439,
      1.0,
      1.0,
      0.8750612633917001,
      1.0,
      1.0,
      1.0,
      0.7339992865383869,
      1.0,
      1.0,
      1.0,
      1.0,
      0.7193312869837266,
      1.0,
      0.7331972651065695,
      0.92272545799326,
      1.0,
      1.0,
      1.0,
      1.0,
      0.7671558660821804,
      1.0,
      1.0,
      1.0,
      0.7267272090265723,
      0.7176705030022621,
      0.7299742856995556,
      1.0,
      0.9339931638312423,
      1.0,
      0.6893088591236202,
      1.0,
      0.7234556720351858,
      1.0,
      1.0,
      1.0,
      1.0,
      0.7109631189952758,
      0.9148718175400504,
      0.6893088591236202,
      1.0,
      1.0,
      0.705007959333336,
      1.0,
      0.7015679850559274,
      0.7474118078864233,
      1.0,
      1.0,
      1.0,
      0.8254261177678232,
      1.0,
      1.0,
      1.0,
      1.0,
      1.0,
      0.8215135284047731,
      1.0,
      0.7218106152125465,
      1.0,
      0.7339992865383869,
      1.0,
      1.0,
      1.0,
      1.0,
      1.0,
      1.0,
      1.0,
      1.0,
      0.7176705030022621,
      0.7058637122839193,
      1.0,
      1.0,
      1.0,
      1.0,
      1.0,
      1.0,
      1.0,
      1.0,
      1.0,
      1.0,
      1.0,
      1.0,
      0.7275412570285564,
      0.725094521081469,
      0.7307822756663892,
      1.0,
      1.0,
      1.0,
      1.0,
      1.0,
      1.0,
      0.7226339225338123,
      1.0,
      0.7355988996981799,
      0.8796692056320535,
      1.0,
      1.0,
      1.0,
      1.0,
      1.0,
      1.0,
      1.0,
      0.7209857441537391,
      1.0,
      1.0,
      1.0,
      0.9647309210536293,
      0.7226339225338123,
      0.7226339225338123,
      0.7363965022766424,
      1.0,
      1.0,
      1.0,
      1.0,
      1.0
    ]
  }
}