{
  "results": {
    "Vanilla Verifier": [
      1.0,
      1.0,
      1.0,
      1.0,
      1.0,
      1.0,
      0.0,
      1.0,
      1.0,
      1.0,
      1.0,
      0.0,
      1.0,
      1.0,
      1.0,
      1.0,
      0.0,
      1.0,
      1.0,
      1.0,
      1.0,
      1.0,
      1.0,
      1.0,
      1.0,
      1.0,
      2.0,
      0.0,
      1.0,
      1.0,
      0.0,
      1.0,
      1.0,
      2.0,
      1.0,
      1.0,
      1.0,
      1.0,
      1.0,
      1.0,
      1.0,
      1.0,
      1.0,
      1.0,
      1.0,
      1.0,
      1.0,
      1.0,
      1.0,
      1.0,
      0.0,
      1.0,
      1.0,
      1.0,
      1.0,
      1.0,
      1.0,
      1.0,
      0.0,
      1.0,
      1.0,
      1.0,
      1.0,
      1.0,
      1.0,
      1.0,
      2.0,
      2.0,
      2.0,
      1.0,
      1.0,
      1.0,
      1.0,
      1.0,
      1.0,
      0.0,
      1.0,
      1.0,
      1.0,
      1.0,
      2.0,
      0.0,
      0.0,
      1.0,
      1.0,
      1.0,
      0.0,
      1.0,
      2.0,
      1.0,
      1.0,
      1.0,
      0.0,
      1.0,
      2.0,
      1.0,
      1.0,
      1.0,
      1.0,
      1.0,
      1.0,
      1.0,
      1.0,
      1.0,
      0.0,
      1.0,
      2.0,
      1.0,
      1.0,
      1.0,
      1.0,
      1.0,
      1.0,
      1.0,
      1.0,
      2.0,
      1.0,
      1.0,
      1.0,
      0.0,
      1.0,
      1.0,
      1.0,
      1.0,
      1.0,
      1.0,
      1.0,
      1.0,
      1.0,
      0.0,
      1.0,
      1.0,
      1.0,
      1.0,
      0.0,
      1.0,
      1.0,
      1.0,
      0.0,
      0.0,
      2.0,
      1.0,
      1.0,
      1.0,
      2.0,
      1.0,
      1.0,
      1.0,
      1.0,
      2.0,
      1.0,
      1.0,
      1.0,
      1.0,
      1.0,
      1.0,
      2.0,
      1.0,
      1.0,
      1.0,
      0.0,
      1.0,
      1.0,
      1.0,
      1.0,
      1.0,
      1.0,
      1.0,
      1.0,
      1.0,
      1.0,
      1.0,
      1.0,
      2.0,
      2.0,
      0.0,
      1.0,
      1.0,
      1.0,
      1.0,
      1.0,
      0.0,
      1.0,
      1.0,
      1.0,
      0.0,
      1.0,
      1.0,
      1.0,
      1.0,
      1.0,
      1.0,
      1.0,
      2.0,
      1.0,
      1.0,
      1.0,
      1.0,
      1.0,
      2.0,
      1.0,
      1.0,
      1.0,
      1.0,
      2.0,
      1.0,
      1.0,
      1.0,
      1.0,
      2.0,
      0.0,
      1.0,
      2.0,
      1.0,
      1.0,
      1.0,
      1.0,
      0.0,
      1.0,
      2.0,
      1.0,
      1.0,
      1.0,
      1.0,
      1.0,
      1.0,
      1.0,
      0.0,
      1.0,
      1.0,
      0.0,
      1.0,
      1.0,
      1.0,
      1.0,
      2.0,
      1.0,
      0.0,
      1.0,
      0.0,
      1.0,
      1.0,
      0.0,
      1.0,
      1.0,
      0.0,
      1.0,
      1.0,
      0.0,
      1.0,
      0.0,
      1.0,
      1.0,
      1.0,
      2.0,
      1.0,
      1.0,
      0.0,
      0.0,
      1.0,
      1.0,
      1.0,
      1.0,
      0.0,
      1.0,
      1.0,
      0.0,
      1.0,
      1.0,
      1.0,
      1.0,
      1.0,
      1.0,
      1.0,
      1.0,
      1.0,
      1.0,
      1.0,
      2.0,
      2.0,
      1.0,
      1.0,
      1.0,
      1.0,
      1.0,
      1.0,
      2.0,
      1.0,
      1.0,
      1.0,
      1.0,
      1.0,
      1.0,
      1.0,
      1.0,
      1.0,
      1.0,
      1.0,
      0.0,
      1.0,
      1.0,
      2.0,
      0.0,
      1.0,
      1.0,
      1.0,
      1.0,
      0.0,
      0.0,
      1.0,
      1.0,
      0.0,
      1.0,
      1.0,
      1.0,
      1.0,
      1.0,
      1.0,
      2.0,
      1.0,
      1.0,
      1.0,
      1.0,
      1.0,
      1.0,
      2.0,
      1.0,
      1.0,
      1.0,
      1.0,
      1.0,
      1.0,
      1.0,
      1.0,
      1.0,
      1.0,
      1.0,
      1.0,
      1.0,
      1.0,
      1.0,
      1.0,
      1.0,
      1.0,
      1.0,
      1.0,
      1.0,
      1.0,
      2.0,
      1.0,
      1.0,
      1.0,
      1.0,
      1.0,
      0.0,
      0.0,
      1.0,
      1.0,
      1.0,
      1.0,
      1.0,
      1.0,
      0.0,
      1.0,
      1.0,
      1.0,
      0.0,
      1.0,
      1.0,
      1.0,
      2.0,
      1.0,
      1.0,
      1.0,
      1.0,
      1.0,
      1.0,
      1.0,
      1.0,
      1.0,
      1.0,
      0.0,
      1.0,
      1.0,
      1.0,
      1.0,
      1.0,
      1.0,
      1.0,
      1.0,
      1.0,
      1.0,
      2.0,
      0.0,
      0.0,
      0.0,
      1.0,
      1.0,
      1.0,
      1.0,
      1.0,
      0.0,
      1.0,
      0.0,
      1.0,
      1.0,
      1.0,
      0.0,
      0.0,
      1.0,
      1.0,
      0.0,
      1.0,
      1.0,
      1.0,
      1.0,
      1.0,
      0.0,
      1.0,
      1.0,
      1.0,
      0.0,
      1.0,
      1.0,
      2.0,
      1.0,
      1.0,
      1.0,
      1.0,
      1.0,
      1.0,
      1.0,
      1.0,
      2.0,
      1.0,
      1.0,
      1.0,
      1.0,
      1.0,
      1.0,
      1.0,
      1.0,
      1.0,
      1.0,
      1.0,
      1.0,
      1.0,
      1.0,
      1.0,
      1.0,
      1.0,
      0.0,
      1.0,
      1.0,
      2.0,
      1.0,
      2.0,
      1.0,
      1.0,
      0.0,
      1.0,
      1.0,
      2.0,
      2.0,
      1.0,
      1.0,
      1.0,
      1.0,
      1.0,
      0.0,
      1.0,
      1.0,
      1.0,
      1.0,
      0.0,
      2.0,
      1.0,
      1.0,
      0.0,
      1.0,
      2.0,
      0.0,
      1.0,
      1.0,
      1.0,
      1.0,
      1.0,
      1.0,
      1.0,
      2.0,
      2.0,
      1.0,
      1.0,
      1.0,
      1.0,
      0.0,
      2.0,
      1.0,
      1.0,
      1.0,
      2.0,
      1.0,
      2.0,
      1.0,
      0.0,
      1.0,
      1.0,
      1.0,
      1.0,
      1.0,
      1.0,
      1.0,
      0.0,
      1.0,
      1.0,
      1.0,
      1.0,
      1.0,
      1.0,
      1.0,
      1.0,
      0.0,
      1.0,
      1.0,
      1.0,
      1.0,
      1.0,
      1.0,
      1.0,
      0.0,
      1.0,
      1.0,
      1.0,
      1.0,
      1.0,
      1.0,
      1.0,
      1.0,
      1.0,
      1.0,
      2.0,
      1.0,
      0.0,
      1.0,
      0.0,
      2.0,
      0.0,
      1.0,
      1.0,
      1.0,
      1.0,
      1.0,
      1.0,
      1.0,
      1.0,
      1.0,
      1.0,
      0.0,
      1.0,
      1.0,
      1.0,
      1.0,
      1.0,
      0.0,
      1.0,
      2.0,
      2.0,
      0.0,
      1.0,
      2.0,
      1.0,
      1.0,
      1.0,
      1.0,
      0.0,
      0.0,
      1.0,
      1.0,
      0.0,
      1.0,
      0.0,
      1.0,
      1.0,
      1.0,
      1.0,
      1.0,
      1.0,
      1.0,
      1.0,
      1.0,
      0.0,
      1.0,
      2.0,
      0.0,
      1.0,
      1.0,
      1.0,
      1.0,
      0.0,
      1.0,
      1.0,
      0.0,
      1.0,
      1.0,
      2.0,
      2.0,
      1.0,
      1.0,
      0.0,
      1.0,
      1.0,
      1.0,
      1.0,
      1.0,
      0.0,
      1.0,
      1.0,
      0.0,
      0.0,
      1.0,
      1.0,
      1.0,
      1.0,
      0.0,
      1.0,
      1.0,
      1.0,
      1.0,
      1.0,
      1.0,
      1.0,
      0.0,
      1.0,
      1.0,
      1.0,
      0.0,
      0.0,
      1.0,
      2.0,
      1.0,
      1.0,
      2.0,
      1.0,
      1.0,
      0.0,
      2.0,
      1.0,
      2.0,
      1.0,
      1.0,
      1.0,
      0.0,
      2.0,
      1.0,
      1.0,
      1.0,
      1.0,
      1.0,
      1.0,
      1.0,
      1.0,
      0.0,
      0.0,
      2.0,
      1.0,
      1.0,
      0.0,
      1.0,
      1.0,
      1.0,
      1.0,
      1.0,
      1.0,
      1.0,
      1.0,
      0.0,
      0.0,
      2.0,
      1.0,
      1.0,
      1.0,
      2.0,
      0.0,
      1.0,
      1.0,
      1.0,
      1.0,
      1.0,
      1.0,
      1.0,
      0.0,
      1.0,
      1.0,
      1.0,
      1.0,
      1.0,
      0.0,
      0.0,
      1.0,
      0.0,
      0.0,
      1.0,
      1.0,
      1.0,
      1.0,
      1.0,
      1.0,
      1.0,
      2.0,
      1.0,
      1.0,
      1.0,
      1.0,
      1.0,
      1.0,
      1.0,
      0.0,
      0.0,
      1.0,
      1.0,
      1.0,
      1.0,
      1.0,
      1.0,
      1.0,
      1.0,
      1.0,
      1.0,
      2.0,
      1.0,
      1.0,
      1.0,
      1.0,
      1.0,
      2.0,
      1.0,
      1.0,
      1.0,
      1.0,
      1.0,
      0.0,
      1.0,
      1.0,
      0.0,
      1.0,
      0.0,
      1.0,
      0.0,
      0.0,
      0.0,
      1.0,
      1.0,
      1.0,
      1.0,
      1.0,
      0.0,
      1.0,
      1.0,
      0.0,
      1.0,
      1.0,
      1.0,
      1.0,
      1.0,
      1.0,
      2.0,
      1.0,
      1.0,
      1.0,
      1.0,
      1.0,
      1.0,
      1.0,
      1.0,
      0.0,
      1.0,
      1.0,
      1.0,
      1.0,
      0.0,
      2.0,
      0.0,
      1.0,
      0.0,
      1.0,
      1.0,
      1.0,
      1.0,
      2.0,
      2.0,
      1.0,
      1.0,
      2.0,
      0.0,
      1.0,
      0.0,
      1.0,
      1.0,
      1.0,
      1.0,
      1.0,
      1.0,
      1.0,
      2.0,
      1.0,
      0.0,
      1.0,
      1.0,
      0.0,
      1.0,
      1.0,
      1.0,
      2.0,
      1.0,
      1.0,
      1.0,
      1.0,
      1.0,
      1.0,
      1.0,
      0.0,
      1.0,
      1.0,
      1.0,
      0.0,
      2.0,
      1.0,
      2.0,
      2.0,
      1.0,
      1.0,
      1.0,
      1.0,
      1.0,
      1.0,
      1.0,
      2.0,
      1.0,
      1.0,
      1.0,
      1.0,
      1.0,
      1.0,
      1.0,
      0.0,
      1.0,
      0.0,
      1.0,
      1.0,
      0.0,
      2.0,
      1.0,
      0.0,
      1.0,
      0.0,
      0.0,
      1.0,
      1.0,
      1.0,
      1.0,
      1.0,
      1.0,
      1.0,
      1.0,
      1.0,
      1.0,
      1.0,
      0.0,
      1.0,
      1.0,
      1.0,
      2.0,
      1.0,
      1.0,
      0.0,
      1.0,
      1.0,
      0.0,
      1.0,
      1.0,
      1.0,
      1.0,
      1.0,
      1.0,
      1.0,
      1.0,
      1.0,
      1.0,
      1.0,
      0.0,
      1.0,
      1.0,
      1.0,
      2.0,
      1.0,
      1.0,
      0.0,
      1.0,
      1.0,
      0.0,
      2.0,
      1.0,
      1.0,
      2.0,
      1.0,
      1.0,
      1.0,
      0.0,
      0.0,
      1.0,
      1.0,
      1.0,
      0.0,
      1.0,
      1.0,
      1.0,
      1.0,
      0.0,
      1.0,
      1.0,
      0.0,
      1.0,
      1.0,
      1.0,
      1.0,
      1.0,
      1.0,
      1.0,
      1.0
    ],
    "Timeout Prediction": [
      1.0,
      1.0,
      1.0,
      1.0,
      1.0,
      1.0,
      0.0,
      1.0,
      1.0,
      1.0,
      1.0,
      0.0,
      1.0,
      1.0,
      1.0,
      1.0,
      0.0,
      1.0,
      1.0,
      1.0,
      1.0,
      1.0,
      1.0,
      1.0,
      1.0,
      1.0,
      2.0,
      0.0,
      1.0,
      1.0,
      0.0,
      1.0,
      1.0,
      2.0,
      1.0,
      1.0,
      1.0,
      1.0,
      1.0,
      1.0,
      1.0,
      1.0,
      1.0,
      1.0,
      1.0,
      1.0,
      1.0,
      1.0,
      1.0,
      1.0,
      0.0,
      1.0,
      1.0,
      1.0,
      1.0,
      1.0,
      1.0,
      1.0,
      0.0,
      1.0,
      1.0,
      1.0,
      1.0,
      1.0,
      1.0,
      1.0,
      2.0,
      2.0,
      2.0,
      1.0,
      1.0,
      1.0,
      1.0,
      1.0,
      1.0,
      0.0,
      1.0,
      1.0,
      1.0,
      1.0,
      2.0,
      0.0,
      0.0,
      1.0,
      1.0,
      1.0,
      0.0,
      1.0,
      2.0,
      1.0,
      1.0,
      1.0,
      0.0,
      1.0,
      2.0,
      1.0,
      1.0,
      1.0,
      1.0,
      1.0,
      1.0,
      1.0,
      1.0,
      1.0,
      0.0,
      1.0,
      2.0,
      1.0,
      1.0,
      1.0,
      1.0,
      1.0,
      1.0,
      1.0,
      1.0,
      2.0,
      1.0,
      1.0,
      1.0,
      0.0,
      1.0,
      1.0,
      1.0,
      1.0,
      1.0,
      1.0,
      1.0,
      1.0,
      1.0,
      0.0,
      1.0,
      1.0,
      1.0,
      1.0,
      0.0,
      1.0,
      1.0,
      1.0,
      0.0,
      0.0,
      2.0,
      1.0,
      1.0,
      1.0,
      2.0,
      1.0,
      1.0,
      1.0,
      1.0,
      2.0,
      1.0,
      1.0,
      1.0,
      1.0,
      1.0,
      1.0,
      2.0,
      1.0,
      1.0,
      1.0,
      0.0,
      1.0,
      1.0,
      1.0,
      1.0,
      1.0,
      1.0,
      1.0,
      1.0,
      1.0,
      1.0,
      1.0,
      1.0,
      2.0,
      2.0,
      0.0,
      1.0,
      1.0,
      1.0,
      1.0,
      1.0,
      0.0,
      1.0,
      1.0,
      1.0,
      0.0,
      1.0,
      1.0,
      1.0,
      1.0,
      1.0,
      1.0,
      1.0,
      2.0,
      1.0,
      1.0,
      1.0,
      1.0,
      1.0,
      2.0,
      1.0,
      1.0,
      1.0,
      1.0,
      2.0,
      1.0,
      1.0,
      1.0,
      1.0,
      2.0,
      0.0,
      1.0,
      2.0,
      1.0,
      1.0,
      1.0,
      1.0,
      0.0,
      1.0,
      2.0,
      1.0,
      1.0,
      1.0,
      1.0,
      1.0,
      1.0,
      1.0,
      0.0,
      1.0,
      1.0,
      0.0,
      1.0,
      1.0,
      1.0,
      1.0,
      2.0,
      1.0,
      0.0,
      1.0,
      0.0,
      1.0,
      1.0,
      0.0,
      1.0,
      1.0,
      0.0,
      1.0,
      1.0,
      0.0,
      1.0,
      0.0,
      1.0,
      1.0,
      1.0,
      2.0,
      1.0,
      1.0,
      0.0,
      0.0,
      1.0,
      1.0,
      1.0,
      1.0,
      0.0,
      1.0,
      1.0,
      0.0,
      1.0,
      1.0,
      1.0,
      1.0,
      1.0,
      1.0,
      1.0,
      1.0,
      1.0,
      1.0,
      1.0,
      2.0,
      2.0,
      1.0,
      1.0,
      1.0,
      1.0,
      1.0,
      1.0,
      2.0,
      1.0,
      1.0,
      1.0,
      1.0,
      1.0,
      1.0,
      1.0,
      1.0,
      1.0,
      1.0,
      1.0,
      0.0,
      1.0,
      1.0,
      2.0,
      0.0,
      1.0,
      1.0,
      1.0,
      1.0,
      0.0,
      0.0,
      1.0,
      1.0,
      2.0,
      1.0,
      1.0,
      1.0,
      1.0,
      1.0,
      1.0,
      2.0,
      1.0,
      1.0,
      1.0,
      1.0,
      1.0,
      1.0,
      2.0,
      1.0,
      1.0,
      1.0,
      1.0,
      1.0,
      1.0,
      1.0,
      1.0,
      1.0,
      1.0,
      1.0,
      1.0,
      1.0,
      1.0,
      1.0,
      1.0,
      1.0,
      1.0,
      1.0,
      1.0,
      1.0,
      1.0,
      2.0,
      1.0,
      1.0,
      1.0,
      1.0,
      1.0,
      0.0,
      0.0,
      1.0,
      1.0,
      1.0,
      1.0,
      1.0,
      1.0,
      0.0,
      1.0,
      1.0,
      1.0,
      0.0,
      1.0,
      1.0,
      1.0,
      2.0,
      1.0,
      1.0,
      1.0,
      1.0,
      1.0,
      1.0,
      1.0,
      1.0,
      1.0,
      1.0,
      0.0,
      1.0,
      1.0,
      1.0,
      1.0,
      1.0,
      1.0,
      1.0,
      1.0,
      1.0,
      1.0,
      2.0,
      0.0,
      0.0,
      0.0,
      1.0,
      1.0,
      1.0,
      1.0,
      2.0,
      0.0,
      1.0,
      0.0,
      1.0,
      1.0,
      1.0,
      0.0,
      0.0,
      1.0,
      1.0,
      0.0,
      1.0,
      1.0,
      1.0,
      1.0,
      1.0,
      0.0,
      1.0,
      1.0,
      1.0,
      0.0,
      1.0,
      1.0,
      2.0,
      1.0,
      1.0,
      1.0,
      1.0,
      1.0,
      1.0,
      1.0,
      1.0,
      2.0,
      1.0,
      1.0,
      1.0,
      1.0,
      1.0,
      1.0,
      1.0,
      1.0,
      1.0,
      1.0,
      1.0,
      1.0,
      1.0,
      1.0,
      1.0,
      1.0,
      1.0,
      0.0,
      1.0,
      1.0,
      2.0,
      1.0,
      2.0,
      1.0,
      1.0,
      0.0,
      1.0,
      1.0,
      2.0,
      2.0,
      1.0,
      1.0,
      1.0,
      1.0,
      1.0,
      0.0,
      1.0,
      1.0,
      1.0,
      1.0,
      0.0,
      2.0,
      1.0,
      1.0,
      0.0,
      1.0,
      2.0,
      0.0,
      1.0,
      1.0,
      1.0,
      1.0,
      1.0,
      1.0,
      1.0,
      2.0,
      2.0,
      1.0,
      1.0,
      1.0,
      1.0,
      0.0,
      2.0,
      1.0,
      1.0,
      1.0,
      2.0,
      1.0,
      2.0,
      1.0,
      0.0,
      1.0,
      1.0,
      1.0,
      1.0,
      1.0,
      1.0,
      1.0,
      0.0,
      1.0,
      1.0,
      1.0,
      1.0,
      1.0,
      1.0,
      1.0,
      1.0,
      0.0,
      1.0,
      1.0,
      1.0,
      1.0,
      1.0,
      1.0,
      1.0,
      0.0,
      1.0,
      1.0,
      1.0,
      1.0,
      1.0,
      1.0,
      1.0,
      1.0,
      1.0,
      1.0,
      2.0,
      1.0,
      0.0,
      1.0,
      0.0,
      2.0,
      0.0,
      1.0,
      1.0,
      1.0,
      1.0,
      1.0,
      1.0,
      1.0,
      1.0,
      1.0,
      1.0,
      0.0,
      1.0,
      1.0,
      1.0,
      1.0,
      1.0,
      0.0,
      1.0,
      2.0,
      2.0,
      0.0,
      1.0,
      2.0,
      1.0,
      1.0,
      1.0,
      1.0,
      0.0,
      0.0,
      1.0,
      1.0,
      0.0,
      1.0,
      0.0,
      1.0,
      1.0,
      1.0,
      1.0,
      1.0,
      1.0,
      1.0,
      1.0,
      1.0,
      0.0,
      1.0,
      2.0,
      0.0,
      1.0,
      1.0,
      1.0,
      1.0,
      0.0,
      1.0,
      1.0,
      0.0,
      1.0,
      1.0,
      2.0,
      2.0,
      1.0,
      1.0,
      0.0,
      1.0,
      1.0,
      1.0,
      1.0,
      1.0,
      0.0,
      1.0,
      1.0,
      0.0,
      0.0,
      1.0,
      1.0,
      1.0,
      1.0,
      0.0,
      1.0,
      1.0,
      1.0,
      1.0,
      1.0,
      1.0,
      1.0,
      0.0,
      1.0,
      1.0,
      1.0,
      0.0,
      0.0,
      1.0,
      2.0,
      1.0,
      1.0,
      2.0,
      1.0,
      1.0,
      0.0,
      2.0,
      1.0,
      2.0,
      1.0,
      1.0,
      1.0,
      0.0,
      2.0,
      1.0,
      1.0,
      1.0,
      1.0,
      1.0,
      1.0,
      1.0,
      1.0,
      0.0,
      0.0,
      2.0,
      1.0,
      1.0,
      0.0,
      1.0,
      1.0,
      1.0,
      1.0,
      1.0,
      1.0,
      1.0,
      1.0,
      0.0,
      0.0,
      2.0,
      1.0,
      1.0,
      1.0,
      2.0,
      0.0,
      1.0,
      1.0,
      1.0,
      1.0,
      1.0,
      1.0,
      1.0,
      0.0,
      1.0,
      1.0,
      1.0,
      1.0,
      1.0,
      0.0,
      0.0,
      1.0,
      0.0,
      0.0,
      1.0,
      1.0,
      1.0,
      1.0,
      1.0,
      1.0,
      1.0,
      2.0,
      1.0,
      1.0,
      1.0,
      1.0,
      1.0,
      1.0,
      1.0,
      0.0,
      0.0,
      1.0,
      1.0,
      1.0,
      1.0,
      1.0,
      1.0,
      1.0,
      1.0,
      1.0,
      1.0,
      2.0,
      1.0,
      1.0,
      1.0,
      1.0,
      1.0,
      2.0,
      1.0,
      1.0,
      1.0,
      1.0,
      1.0,
      0.0,
      1.0,
      1.0,
      0.0,
      1.0,
      0.0,
      1.0,
      0.0,
      0.0,
      0.0,
      1.0,
      1.0,
      1.0,
      1.0,
      1.0,
      0.0,
      1.0,
      1.0,
      0.0,
      1.0,
      1.0,
      1.0,
      1.0,
      1.0,
      1.0,
      2.0,
      1.0,
      1.0,
      1.0,
      1.0,
      1.0,
      1.0,
      1.0,
      1.0,
      0.0,
      1.0,
      1.0,
      1.0,
      1.0,
      0.0,
      2.0,
      0.0,
      1.0,
      0.0,
      1.0,
      1.0,
      1.0,
      1.0,
      2.0,
      2.0,
      1.0,
      1.0,
      2.0,
      0.0,
      1.0,
      0.0,
      1.0,
      1.0,
      1.0,
      1.0,
      1.0,
      1.0,
      1.0,
      2.0,
      1.0,
      0.0,
      1.0,
      1.0,
      0.0,
      1.0,
      1.0,
      1.0,
      2.0,
      1.0,
      1.0,
      1.0,
      1.0,
      1.0,
      1.0,
      1.0,
      0.0,
      1.0,
      1.0,
      1.0,
      0.0,
      2.0,
      1.0,
      2.0,
      2.0,
      1.0,
      1.0,
      1.0,
      1.0,
      1.0,
      1.0,
      1.0,
      2.0,
      1.0,
      1.0,
      1.0,
      1.0,
      1.0,
      1.0,
      1.0,
      0.0,
      1.0,
      0.0,
      1.0,
      1.0,
      0.0,
      2.0,
      1.0,
      0.0,
      1.0,
      0.0,
      0.0,
      1.0,
      1.0,
      1.0,
      1.0,
      1.0,
      1.0,
      1.0,
      1.0,
      1.0,
      1.0,
      1.0,
      0.0,
      1.0,
      1.0,
      1.0,
      2.0,
      1.0,
      1.0,
      0.0,
      1.0,
      1.0,
      0.0,
      1.0,
      1.0,
      1.0,
      1.0,
      1.0,
      1.0,
      1.0,
      1.0,
      1.0,
      1.0,
      1.0,
      0.0,
      1.0,
      1.0,
      1.0,
      2.0,
      1.0,
      1.0,
      0.0,
      1.0,
      1.0,
      0.0,
      2.0,
      1.0,
      1.0,
      2.0,
      1.0,
      1.0,
      1.0,
      0.0,
      0.0,
      1.0,
      1.0,
      1.0,
      0.0,
      1.0,
      1.0,
      1.0,
      1.0,
      0.0,
      1.0,
      1.0,
      0.0,
      1.0,
      1.0,
      1.0,
      1.0,
      1.0,
      1.0,
      1.0,
      1.0
    ]
  },
  "running_times": {
    "Vanilla Verifier": [
      0.28641574588312446,
      0.47976344603638765,
      0.04706518107573373,
      -0.010831294282917927,
      2.7599013578858913,
      -0.10531248804244771,
      -0.05849440803800353,
      0.3230829122998599,
      0.15610501993028575,
      0.15783815929029077,
      0.208324207716576,
      -0.08038510042957982,
      -0.1070443194944495,
      1.864090825323738,
      -0.11477232002752871,
      0.16438004086841507,
      0.05094538600845644,
      0.08732692223526795,
      0.7367055871407807,
      0.43130593834412545,
      0.18600876359485305,
      0.31362358852631583,
      0.4965752738670272,
      -0.1030451574933466,
      -0.061205425382012485,
      0.041383217845842986,
      2.757545126766836,
      0.3916776188915945,
      -0.0951463526532693,
      0.23704711679447416,
      0.07104715461550998,
      -0.08115694127866512,
      0.06413561936993362,
      2.742119703765846,
      0.9864608818067114,
      0.09690580415167037,
      -0.005164078136213222,
      0.8610797060113575,
      0.2718233374475166,
      0.003671156937527553,
      0.02893718435139487,
      0.33696387775651204,
      0.3569263104384516,
      0.34513596973694455,
      0.9926647889080775,
      0.060441175786149916,
      0.08954115862431558,
      -0.019737738752704532,
      0.03348433735894351,
      -0.03228424490144942,
      0.01414636270288895,
      0.42940440515564715,
      0.11283547735559324,
      0.4029507816976479,
      -0.07794434754127577,
      -0.06794997601134764,
      0.32590131101394165,
      -0.03785671305211184,
      0.09093627913466237,
      -0.02054443127697331,
      0.31778157438460153,
      0.010974948036147316,
      0.33995796726318767,
      0.021473707709610892,
      0.3717143052468444,
      0.02001986264201115,
      2.769340574659507,
      2.7636356183100883,
      2.814159120192287,
      0.3607716760665653,
      0.04839001492064511,
      0.27272835210410634,
      0.03666297056430152,
      0.17815373405193044,
      0.915084992547193,
      0.16906672081521198,
      -0.05372352324418597,
      0.015187105810418393,
      0.21900781320579443,
      0.24092003484988314,
      2.770588219323834,
      1.6183001232080372,
      -0.058665200640262545,
      0.007693836362876418,
      0.29442976241463087,
      0.2721555933454538,
      0.13873539802093865,
      0.11158462655725528,
      2.7786263094123242,
      -0.05010685905919526,
      -0.1023222003541134,
      0.15710115271141722,
      0.11497947016461739,
      0.00027693815915061403,
      2.709281554265616,
      0.2865587302465725,
      -0.048844153394744606,
      -0.10256440556650509,
      0.14956873542726407,
      0.09660603705361771,
      0.14184198958708713,
      -0.11134472385280975,
      0.29677782879109194,
      0.24234280320713542,
      0.20423453415377132,
      0.21726607273040888,
      2.7765806340051165,
      0.2809100894888185,
      0.37962667136669337,
      0.2436609924459978,
      2.4764892477620055,
      -0.11105240241018854,
      0.12775920787506206,
      0.2291173114206269,
      0.15908809534622745,
      2.7253436186435382,
      0.08106807580990452,
      0.03385898993896493,
      0.16608467214984204,
      0.004327514502422791,
      0.21125299714064882,
      0.21058842582457238,
      0.1903795102554369,
      0.32552338927194385,
      -0.00909249466915519,
      0.7949992881304746,
      -0.08234189820346474,
      0.28519988230562343,
      0.19902282355426507,
      0.4935884113633089,
      0.36170353447606585,
      0.36468827598406717,
      0.3054263065226258,
      0.026740670900647984,
      0.03849614544117659,
      -0.11117075971617112,
      0.0444796864077692,
      0.19773106632769838,
      0.8284962893451598,
      0.27553265906535046,
      2.774650515015241,
      0.21560718396768294,
      0.05138867506164008,
      0.2878629378612884,
      2.749566320053051,
      0.25118837696754875,
      0.20394458484133923,
      0.015116839762840345,
      0.014791944687805833,
      2.778672920642048,
      0.297934874751965,
      -0.10927472114644618,
      0.08177295839986075,
      -0.05369174957987791,
      -0.018657451600383734,
      0.7041744067624517,
      2.773911064826365,
      0.24586760932097637,
      -0.023090906568138996,
      0.32253825725697705,
      -0.04556862652069365,
      0.05436312429299047,
      0.33459844443523684,
      0.09110587117307672,
      2.201055711352067,
      0.32461473755440745,
      0.056167119143129586,
      0.22625289056479375,
      0.28572348417920973,
      0.12110601957599697,
      0.46388836916731946,
      0.3572248447999888,
      0.01737081154378855,
      2.7696067745991217,
      2.7725079140301876,
      -0.08190783466483638,
      0.253097435302951,
      -0.006616029951328953,
      0.05514526413389989,
      0.20909031358339705,
      0.22965060115690764,
      0.7741710884564661,
      0.21419840401487297,
      0.10320500930815489,
      -0.08828429048850592,
      -0.036512902928342604,
      0.6517153953871604,
      -0.050955197002600164,
      0.13762130132396724,
      0.5138837176695549,
      1.8109428194056905,
      0.8379888791777634,
      0.2670037401550189,
      2.76662999262288,
      0.21099005436777693,
      0.2642319237181218,
      -0.02576890929467227,
      0.08915982111129046,
      0.5057623948678108,
      2.8198927216450076,
      -0.04963260217804703,
      0.012377235363896375,
      0.65905418204211,
      0.1667105674465118,
      2.7763850691122376,
      0.035435592505284844,
      0.07455651842046074,
      0.05800681913137401,
      -0.1094289391161483,
      2.7749556732139444,
      1.6103110697518686,
      0.25666905826146313,
      2.7650529244838555,
      0.32213283029868417,
      0.07691408128463677,
      -0.10520701322614637,
      0.1331881592400712,
      -0.03193857201466438,
      0.47838951872966334,
      2.7337813729827554,
      0.283370866993725,
      -0.08627579948538908,
      0.2026574301198764,
      0.08197721193156894,
      0.2010742087811399,
      0.2963610559446843,
      0.39870300527837194,
      -0.03577020322891366,
      0.32449240239754473,
      0.6104374519413919,
      -0.029207669444335307,
      0.4769122169955428,
      0.41486008206723757,
      0.1631634978241611,
      0.9095242418414822,
      2.7750837189519473,
      0.4101610667534589,
      0.25472151448397085,
      0.40570082434758414,
      1.1195833948110645,
      -0.08699121413492336,
      0.5614909478492709,
      0.05503047933927095,
      -0.054712174132614554,
      0.5624491481974923,
      0.08047248525898895,
      0.025588484242927305,
      0.3643965355880193,
      0.5621755194865223,
      0.032070663829202956,
      0.0359743349026755,
      0.25204308828334376,
      0.12808725082074618,
      0.08759307944533426,
      2.749847625768302,
      0.19476013766303232,
      0.07012389829000584,
      0.05341625583270672,
      0.23704505302973142,
      0.21585188125410676,
      0.2827459167309965,
      1.1372001199050366,
      0.07390158431566375,
      0.5120201015930049,
      0.1873783066989385,
      0.2390393088744268,
      0.3390622372911996,
      0.4653927141348405,
      0.8829041871959673,
      0.12899869017429397,
      0.3560141245856618,
      0.09430505141145146,
      0.27580485419272693,
      0.6026867555153791,
      0.2029718080186624,
      -0.08337137755476154,
      -0.1100581078611732,
      0.23004599894633765,
      2.7647328640264868,
      2.6644184090776872,
      1.077284643307526,
      0.3683640318130733,
      0.04405887252930291,
      -0.10691110723651837,
      0.7677740707177096,
      1.4740263380024452,
      2.8040640680093802,
      0.14760996609118027,
      0.14480595660367987,
      0.3001863010117325,
      0.402611871079531,
      0.7387658439755813,
      0.22753703493876468,
      0.22427082833511677,
      0.17552157503918375,
      -0.02500033868630004,
      0.5510706888988504,
      0.03386403836022412,
      0.05171814238733043,
      0.0908901047886354,
      -0.03966895602502039,
      2.7561405078244747,
      -0.04639155990649212,
      0.05536540824787319,
      -0.11623304468706008,
      0.16066610124816288,
      0.1556477487292618,
      0.047686774982864166,
      -0.09614554349905068,
      -0.10977579803319105,
      -0.10995206679600028,
      1.7400980720791024,
      2.341095189147702,
      0.06372955353106438,
      0.24615819814388565,
      0.011050504448419362,
      -0.10904770856764233,
      0.04229733985113731,
      2.805457937698221,
      0.0076906824582058395,
      0.4892315577236517,
      0.05464604741241386,
      0.2818011415876407,
      0.28838423482074466,
      0.1279476391355553,
      2.756610819751954,
      0.45895523355269263,
      0.0477761954546315,
      0.038614116344299516,
      0.04376786502902846,
      0.06394904917350498,
      0.13051014692649388,
      0.10598519157131638,
      0.23976020208607232,
      0.27678594789562805,
      0.19014470507235767,
      0.3101537740666935,
      0.2842943505142693,
      0.1862894538956881,
      -0.09958286316288459,
      0.1922562445579982,
      0.08182180690573287,
      -0.10385136119376506,
      0.02706777788722649,
      -0.05815642884662218,
      -0.10701749906916927,
      0.14395422067565822,
      0.33063318558209626,
      2.751461997161656,
      0.004378044701500392,
      0.5168381599807513,
      0.1633473146240728,
      -0.07242685846876819,
      0.012989334784918927,
      -0.02379052813855544,
      0.4015969441315114,
      0.15982596048011463,
      0.2509267733834548,
      0.2618781167370274,
      0.7944489692006271,
      0.35976726962299505,
      0.04342535657117383,
      0.05694529406668867,
      0.5520919983524601,
      0.28678336369345,
      0.29068124677271906,
      0.2790090585040555,
      0.07251221937406448,
      0.2648595260180512,
      0.23220643018076026,
      2.7505250608661167,
      -0.03128797340633515,
      0.17223293686906474,
      0.08826648437322343,
      0.14553831958799415,
      0.17618910238633087,
      0.25774001071743985,
      -0.07689522979698712,
      0.2757322010317065,
      0.20431261142620138,
      -0.10406080341712959,
      1.5447678237492077,
      0.3998641164892107,
      0.18037064126747854,
      0.04991128394071912,
      0.3189513239781211,
      0.018297470292271214,
      0.3881752106617112,
      -0.0992129586823558,
      -0.1018813808749707,
      0.20035202986846845,
      -0.09788421765794025,
      2.769606074160695,
      0.026337018757099474,
      0.12527638458986257,
      1.545142359610258,
      0.04683622234376544,
      0.05003442372211961,
      0.42169617881992344,
      0.28752346713713034,
      1.9058779362427836,
      -0.02120458267114529,
      0.06398013654102037,
      0.14243223450211492,
      0.11869719104366137,
      0.37170635998922563,
      0.07077125645251858,
      0.37871814008342863,
      -0.038812739847845334,
      0.23525868848583992,
      -0.0870015760287724,
      0.39698232508346976,
      0.23951517978518577,
      0.5272433622393689,
      0.08058847474231434,
      0.47419815011771843,
      0.2698283716618059,
      0.018220912200831905,
      0.12400067341168285,
      2.4433700752210887,
      0.7189250651185979,
      0.012062542986707609,
      0.6654738415752502,
      0.31741521557994123,
      2.719519159698544,
      0.13427588271055574,
      0.9073602383510831,
      1.1436487953567884,
      0.02404689490456247,
      0.033970827293029617,
      -0.0830595983149012,
      0.128188245351094,
      0.2732003660700946,
      2.7561721868397884,
      0.05287630077556842,
      0.36730126284028186,
      0.29454099486366164,
      0.26852384761090764,
      0.12150196295570506,
      0.3990252239911196,
      0.22526653832565044,
      0.21579568946692487,
      0.22813407406833888,
      0.11866043510910837,
      0.8108000119025309,
      0.2627009009445061,
      0.0855590355542512,
      0.025463018246602458,
      0.41369048684114224,
      -0.10792222155468852,
      0.2635737526881755,
      0.044549556205743225,
      0.3930532448686912,
      0.2514573754292194,
      2.751192541300853,
      0.25078137425972374,
      2.7655835786317997,
      -0.08161859463956139,
      1.9606729635940354,
      -0.04439149568926115,
      0.20229534118098597,
      0.284219365098465,
      2.7531919561964524,
      2.749834494955543,
      0.4306419353167758,
      -0.006909603362319475,
      -0.007431154456308438,
      0.06627540300696795,
      0.41985282105805677,
      0.10763274458504493,
      -0.053680951200997994,
      0.1352721870229941,
      -0.022076498833146038,
      0.7328765409683266,
      -0.07476035089521803,
      2.78864701624309,
      0.4172266334958367,
      -0.018914579232351254,
      0.10084740329105663,
      0.23310384724314492,
      2.8022718978890655,
      -0.09753195365811528,
      0.4599339088353881,
      -0.11742688468526058,
      -0.1160673586011751,
      0.2701618123968597,
      0.2052708687127154,
      -0.04756801117303276,
      0.22452360875764876,
      2.7624170213392882,
      2.6756620799005533,
      0.07770467129124298,
      0.28029601268733295,
      0.31005762614350596,
      0.23072586617123078,
      0.06752612042998352,
      2.799271175733343,
      0.08975997597695747,
      0.16768000501636052,
      0.07434953632186952,
      2.8002257269460884,
      -0.005004303521764539,
      2.7468491247237248,
      0.18797547915525686,
      0.11513808719323326,
      0.28006189234416456,
      0.1676000189617018,
      0.22452609129784964,
      0.2172479281817095,
      -0.10340644007787829,
      0.262312223349696,
      0.09320752309661616,
      0.3088245062226922,
      0.27193700033200996,
      0.2750024099158851,
      0.5674653522360245,
      0.009215458428848265,
      0.2655122069737175,
      0.21489488154780756,
      0.3237096732887124,
      0.3479937695438834,
      -0.012451061820839361,
      0.002485023118326984,
      0.19644649909267556,
      0.23638210777864824,
      0.07065746316720876,
      0.3105553100885745,
      0.29442519530136796,
      0.26617490580830344,
      0.08997437977023125,
      0.2232590464688545,
      0.2548712746963577,
      0.272316020747801,
      -0.09788271434686018,
      0.2905673753617011,
      0.24764153992210236,
      0.32508660086130825,
      0.052738619649297776,
      -0.03197378220207864,
      -0.026258524652862235,
      2.764691147635353,
      0.23443757659908213,
      0.009151757634566387,
      0.7904580793983299,
      -0.014937324616528011,
      2.77509230885555,
      0.27239063514582995,
      0.8199132093267149,
      0.24615528334659809,
      0.26410000055997207,
      0.05763918902217137,
      0.25639882959232424,
      -0.08808420565899829,
      0.3218526941638877,
      0.8416412831141407,
      -0.08253655862519378,
      0.5500264691793937,
      0.6672563150322872,
      1.18028214377893,
      0.8750658084619629,
      -0.04706605859173295,
      -0.0577922938407705,
      0.1606541044803456,
      2.026641298432904,
      -0.04616893814980188,
      2.761254887921216,
      2.7711056254734503,
      0.05874504083364895,
      0.4796143497191868,
      2.7786563337309724,
      0.23859246125339167,
      0.010375803529356228,
      0.29056578110506714,
      0.3059807506830813,
      0.03569193805135344,
      0.06836334688795107,
      0.23546598910120545,
      0.25483515114340083,
      0.13783621663818965,
      0.08288172920921712,
      0.05421439189934864,
      0.17931261719838607,
      0.008399351840542489,
      -0.09624588981955345,
      -0.06425990694839857,
      0.38722786018861877,
      0.2846187717336357,
      0.2032623050642643,
      -0.0265677036767732,
      -0.07235666804587071,
      0.11357108727609008,
      0.020494779085895767,
      2.7689575569023916,
      0.8673484574744597,
      0.1428150085166841,
      0.09905987843882533,
      0.2132044954155967,
      0.5758678871393647,
      0.09003859306412532,
      0.09880019453438792,
      0.8990967100508255,
      0.1633312743666345,
      -0.012297074919559479,
      0.06446725383872205,
      2.7763593998249436,
      2.7531992420237055,
      0.2980055212450438,
      0.25637042957345574,
      0.1383476473572489,
      0.00791980773713739,
      -0.01106075342726507,
      0.09827094673642378,
      0.25474288107570947,
      0.22339239313442083,
      0.12513843532624466,
      0.2571072144837045,
      0.5250473823268842,
      0.07099606659506236,
      0.7318571646125173,
      -0.1295320094078728,
      0.30367181373056346,
      1.8179016949278028,
      0.027892966892041432,
      0.41374808066285396,
      0.275727583977616,
      0.10967099825089749,
      -0.009303500045015983,
      0.17723244249424175,
      0.18662303710209535,
      0.836211282361053,
      0.7762921480512104,
      0.05125181513068414,
      -0.025476884522516077,
      0.04651118610170093,
      0.28387563786017495,
      0.6915515778352692,
      0.16005484047586194,
      0.27736567849325966,
      2.750511630067044,
      0.3390492272140949,
      0.2015749803877476,
      2.762624523116143,
      0.24889213448565997,
      0.4652054145441047,
      -0.05477426618044568,
      2.773821199769183,
      0.05059935743631752,
      2.773598067321833,
      0.24496594757769513,
      0.00761354577893164,
      0.4926897968959884,
      0.006463492952058961,
      2.7619815818826696,
      0.2423284025896552,
      0.1396626165940637,
      -0.031830356135603366,
      -0.013748977169065498,
      0.1874800574082372,
      0.23145437151874662,
      0.36203183183390386,
      0.41684146913897463,
      0.8511424713843162,
      0.06738672522088368,
      2.7662637987990397,
      0.31174616443511766,
      -0.11045256474039745,
      -0.06334406044189449,
      0.35841578461133045,
      0.03946844859683062,
      0.29872256266189307,
      0.018848265941907864,
      0.742213315511979,
      0.0297735289747482,
      0.18544852073134022,
      -0.1088963252473307,
      0.645620191279848,
      0.40953892025067146,
      2.750202277840445,
      0.17811831860076505,
      0.024527145345971797,
      0.02304874424206872,
      2.762380974375284,
      0.09828499612987329,
      0.2310770996678193,
      0.2566946755807642,
      0.2768986108341296,
      0.22175381930933097,
      0.18667396158057736,
      0.5272204830806226,
      0.31611627222223915,
      0.06622587032084384,
      0.2617410737059358,
      0.24625308826466702,
      0.03368950098462452,
      0.36809576258144694,
      0.4135168302342357,
      -0.014027818857778778,
      0.09158213071740702,
      0.23720066286227123,
      0.05342058001057562,
      -0.07037633124846411,
      0.2727650957382252,
      0.2602761992588605,
      0.28045349527280106,
      0.0862363293209929,
      0.011932156239416571,
      0.11530957946292392,
      0.22869304153744952,
      2.746372445633528,
      0.2524393179406379,
      0.005250287559028361,
      0.2818796759971458,
      0.2570498001716366,
      -0.033155084958646074,
      0.21462947981857236,
      0.32519966178543186,
      0.03260771558570857,
      0.012140706199643274,
      0.45904520379439373,
      0.06280737569012665,
      0.12452550214661194,
      0.22283050920919847,
      0.13224846689261505,
      0.26695930646348176,
      0.2817317693934693,
      -0.0005177343036004163,
      0.11347222944152027,
      -0.07700441444921377,
      2.746171920526347,
      0.2852866396459002,
      2.09744284758673,
      0.5224531281130708,
      -0.09633100094670834,
      0.06297768531799305,
      2.8212487991359554,
      0.4380610354602316,
      0.39660516713020055,
      0.20211891843368646,
      0.13530976031360256,
      -0.09565870356558054,
      0.04223059726508365,
      0.25234144630092276,
      1.8593375651198154,
      0.16996721938075204,
      0.4367505045359827,
      0.21364746550126765,
      0.11904702229375987,
      0.17467918551409298,
      0.03132738260175642,
      0.8788846578163567,
      0.08186205032687172,
      0.16478507448409133,
      0.005318524976222978,
      0.1974178134606294,
      0.15076222038852619,
      0.6752514724103766,
      0.3944271381211129,
      0.1960193930115139,
      0.0477333652752758,
      0.6321279258405647,
      0.22123920303232475,
      -0.0017022726788460264,
      0.327080150500725,
      0.23456142972809177,
      0.4800737757275687,
      2.74958105043838,
      0.19566869932731107,
      0.3117551747345983,
      0.18970960033140474,
      -0.03520263461778276,
      0.11909408741488012,
      0.3245749257536823,
      -0.030480409423309946,
      0.06720872023702494,
      0.4274272630702616,
      0.06443412783318682,
      0.27941507557992773,
      0.19657290803414212,
      0.27934640860731114,
      0.1702460948964305,
      2.7499518374453094,
      0.7139838708989725,
      0.171195895327803,
      0.5814974153381545,
      0.3008309934701164,
      0.4215707524096097,
      0.6339620413429604,
      0.05359853165264703,
      2.7732602337247942,
      2.777827919333603,
      0.2806781790340535,
      0.09323316919876941,
      2.8775709490692423,
      0.45676190371279257,
      0.2772091507583571,
      0.09002977525603548,
      0.08905227392397864,
      0.5748069358909262,
      0.04178471752810821,
      0.12189902962315319,
      -0.025079462518796582,
      0.27440048509674403,
      -0.028408293723675544,
      2.7541939072905524,
      0.04947668780257355,
      0.03945169017054853,
      0.01746687196345468,
      0.4500310765761838,
      0.07217321193101413,
      0.4511079440385026,
      0.00915468798068195,
      0.12137539236868641,
      2.7575610950063023,
      -0.01943049020257043,
      0.26310484853120647,
      0.04683598529549048,
      -0.05013169115483394,
      0.07579477100396945,
      0.2919542463934845,
      0.040132425372732816,
      0.03250965219099559,
      0.6394039067924074,
      0.003639596845468555,
      0.5150691117377232,
      1.536830357262674,
      2.7753619690773426,
      -0.09203997590709533,
      2.782048723050755,
      2.747860383120499,
      -0.03744107485486956,
      0.8919045425731478,
      0.2539104869754207,
      0.05973561390952943,
      0.2587595531544055,
      0.3284867198650332,
      0.0403304226384869,
      2.775520289797286,
      0.3845441707180777,
      0.019784694878424897,
      -0.11158711335402384,
      0.14259795843701423,
      -0.11100707240764321,
      0.2093671842313528,
      -0.01390197942307829,
      -0.02235472744648907,
      2.628473604477781,
      -0.07116698925863953,
      -0.1168267942960755,
      0.19931265090697198,
      0.5735523244790902,
      2.769028242970269,
      -0.05156559728936213,
      0.06882712758028282,
      -0.11674807555886163,
      -0.06925313389267718,
      0.029206150673979938,
      0.2032854755387125,
      0.6511628847248511,
      0.3133606622942773,
      0.3683085129717997,
      0.24952039713172341,
      0.29519185522860764,
      1.8143605854884828,
      0.24645098354112843,
      0.2913737562311266,
      0.2028718234183583,
      -0.10710955127278193,
      0.05105324569316632,
      0.027291412881843863,
      0.044558815250691775,
      0.02678941735727973,
      2.763397795568499,
      0.09024402052490473,
      0.026818536990573273,
      0.06441190099209915,
      0.1181325153797204,
      0.09172888532995116,
      -0.044908611549339346,
      -0.038599719842679306,
      0.16093074386830505,
      0.2676847252469494,
      -0.07525374172868902,
      -0.10310705449560632,
      0.260496391231308,
      0.12964248194833672,
      0.3056984581788422,
      0.22638429086111736,
      0.06490262733334268,
      0.20949497782662377,
      0.03734797319711123,
      -0.02564902966606239,
      -0.05579634652290653,
      0.26381370743443705,
      2.773337277556118,
      0.37707318718744276,
      0.363818420540755,
      0.6947706202066445,
      0.19524899542689275,
      0.0053702251701248675,
      -0.09415094960354112,
      2.763980749577747,
      0.40813758765261543,
      0.1474301983801306,
      2.7705795942131313,
      0.38587825906995915,
      0.1400553565796575,
      0.09136054567285702,
      0.29947808907119355,
      0.3518848904481943,
      0.008030678200205182,
      0.29491526033763743,
      -0.049102276894564,
      1.690912430570814,
      -0.10116344215255078,
      0.26934935272413846,
      0.02563440969412947,
      0.016021084561153726,
      0.2978095573359859,
      0.25750981484148966,
      0.4127702520831931,
      -0.07423214522801866,
      0.11426598038909647,
      0.2981253065451064,
      0.45471775891920296,
      0.01295833762742921,
      0.9834018379703539,
      0.17039145294401284,
      -0.08738389826897758,
      0.6626990196068075
    ],
    "Timeout Prediction": [
      0.28641574588312446,
      0.47976344603638765,
      0.04706518107573373,
      -0.010831294282917927,
      2.7599013578858913,
      -0.10531248804244771,
      -0.05849440803800353,
      0.3230829122998599,
      0.15610501993028575,
      0.15783815929029077,
      0.208324207716576,
      -0.08038510042957982,
      -0.1070443194944495,
      1.864090825323738,
      -0.11477232002752871,
      0.16438004086841507,
      0.05094538600845644,
      0.08732692223526795,
      0.7367055871407807,
      0.43130593834412545,
      0.18600876359485305,
      0.31362358852631583,
      0.4965752738670272,
      -0.1030451574933466,
      -0.061205425382012485,
      0.041383217845842986,
      2.757545126766836,
      0.3916776188915945,
      -0.0951463526532693,
      0.23704711679447416,
      0.07104715461550998,
      -0.08115694127866512,
      0.06413561936993362,
      2.742119703765846,
      0.9864608818067114,
      0.09690580415167037,
      -0.005164078136213222,
      0.8610797060113575,
      0.2718233374475166,
      0.003671156937527553,
      0.02893718435139487,
      0.33696387775651204,
      0.3569263104384516,
      0.34513596973694455,
      0.9926647889080775,
      0.060441175786149916,
      0.08954115862431558,
      -0.019737738752704532,
      0.03348433735894351,
      -0.03228424490144942,
      0.01414636270288895,
      0.42940440515564715,
      0.11283547735559324,
      0.4029507816976479,
      -0.07794434754127577,
      -0.06794997601134764,
      0.32590131101394165,
      -0.03785671305211184,
      0.09093627913466237,
      -0.02054443127697331,
      0.31778157438460153,
      0.010974948036147316,
      0.33995796726318767,
      0.021473707709610892,
      0.3717143052468444,
      0.02001986264201115,
      1.3010299956639813,
      1.3010299956639813,
      2.814159120192287,
      0.3607716760665653,
      0.04839001492064511,
      0.27272835210410634,
      0.03666297056430152,
      0.17815373405193044,
      0.915084992547193,
      0.16906672081521198,
      -0.05372352324418597,
      0.015187105810418393,
      0.21900781320579443,
      0.24092003484988314,
      2.770588219323834,
      1.6183001232080372,
      -0.058665200640262545,
      0.007693836362876418,
      0.29442976241463087,
      0.2721555933454538,
      0.13873539802093865,
      0.11158462655725528,
      1.3010299956639813,
      -0.05010685905919526,
      -0.1023222003541134,
      0.15710115271141722,
      0.11497947016461739,
      0.00027693815915061403,
      2.709281554265616,
      0.2865587302465725,
      -0.048844153394744606,
      -0.10256440556650509,
      0.14956873542726407,
      0.09660603705361771,
      0.14184198958708713,
      -0.11134472385280975,
      0.29677782879109194,
      0.24234280320713542,
      0.20423453415377132,
      0.21726607273040888,
      1.3010299956639813,
      0.2809100894888185,
      0.37962667136669337,
      0.2436609924459978,
      2.4764892477620055,
      -0.11105240241018854,
      0.12775920787506206,
      0.2291173114206269,
      0.15908809534622745,
      2.7253436186435382,
      0.08106807580990452,
      0.03385898993896493,
      0.16608467214984204,
      0.004327514502422791,
      0.21125299714064882,
      0.21058842582457238,
      0.1903795102554369,
      0.32552338927194385,
      -0.00909249466915519,
      0.7949992881304746,
      -0.08234189820346474,
      0.28519988230562343,
      0.19902282355426507,
      0.4935884113633089,
      0.36170353447606585,
      0.36468827598406717,
      0.3054263065226258,
      0.026740670900647984,
      0.03849614544117659,
      -0.11117075971617112,
      0.0444796864077692,
      0.19773106632769838,
      0.8284962893451598,
      0.27553265906535046,
      2.774650515015241,
      0.21560718396768294,
      0.05138867506164008,
      0.2878629378612884,
      1.3010299956639813,
      0.25118837696754875,
      0.20394458484133923,
      0.015116839762840345,
      0.014791944687805833,
      1.3010299956639813,
      0.297934874751965,
      -0.10927472114644618,
      0.08177295839986075,
      -0.05369174957987791,
      -0.018657451600383734,
      0.7041744067624517,
      1.3010299956639813,
      0.24586760932097637,
      -0.023090906568138996,
      0.32253825725697705,
      -0.04556862652069365,
      0.05436312429299047,
      0.33459844443523684,
      0.09110587117307672,
      2.201055711352067,
      0.32461473755440745,
      0.056167119143129586,
      0.22625289056479375,
      0.28572348417920973,
      0.12110601957599697,
      0.46388836916731946,
      0.3572248447999888,
      0.01737081154378855,
      2.7696067745991217,
      1.3010299956639813,
      -0.08190783466483638,
      0.253097435302951,
      -0.006616029951328953,
      0.05514526413389989,
      0.20909031358339705,
      0.22965060115690764,
      0.7741710884564661,
      0.21419840401487297,
      0.10320500930815489,
      -0.08828429048850592,
      -0.036512902928342604,
      0.6517153953871604,
      -0.050955197002600164,
      0.13762130132396724,
      0.5138837176695549,
      1.8109428194056905,
      0.8379888791777634,
      0.2670037401550189,
      2.76662999262288,
      0.21099005436777693,
      0.2642319237181218,
      -0.02576890929467227,
      0.08915982111129046,
      0.5057623948678108,
      2.8198927216450076,
      -0.04963260217804703,
      0.012377235363896375,
      0.65905418204211,
      0.1667105674465118,
      1.3010299956639813,
      0.035435592505284844,
      0.07455651842046074,
      0.05800681913137401,
      -0.1094289391161483,
      2.7749556732139444,
      1.6103110697518686,
      0.25666905826146313,
      2.7650529244838555,
      0.32213283029868417,
      0.07691408128463677,
      -0.10520701322614637,
      0.1331881592400712,
      -0.03193857201466438,
      0.47838951872966334,
      2.7337813729827554,
      0.283370866993725,
      -0.08627579948538908,
      0.2026574301198764,
      0.08197721193156894,
      0.2010742087811399,
      0.2963610559446843,
      0.39870300527837194,
      -0.03577020322891366,
      0.32449240239754473,
      0.6104374519413919,
      -0.029207669444335307,
      0.4769122169955428,
      0.41486008206723757,
      0.1631634978241611,
      0.9095242418414822,
      2.7750837189519473,
      0.4101610667534589,
      0.25472151448397085,
      0.40570082434758414,
      1.1195833948110645,
      -0.08699121413492336,
      0.5614909478492709,
      0.05503047933927095,
      -0.054712174132614554,
      0.5624491481974923,
      0.08047248525898895,
      0.025588484242927305,
      0.3643965355880193,
      0.5621755194865223,
      0.032070663829202956,
      0.0359743349026755,
      0.25204308828334376,
      0.12808725082074618,
      0.08759307944533426,
      2.749847625768302,
      0.19476013766303232,
      0.07012389829000584,
      0.05341625583270672,
      0.23704505302973142,
      0.21585188125410676,
      0.2827459167309965,
      1.1372001199050366,
      0.07390158431566375,
      0.5120201015930049,
      0.1873783066989385,
      0.2390393088744268,
      0.3390622372911996,
      0.4653927141348405,
      0.8829041871959673,
      0.12899869017429397,
      0.3560141245856618,
      0.09430505141145146,
      0.27580485419272693,
      0.6026867555153791,
      0.2029718080186624,
      -0.08337137755476154,
      -0.1100581078611732,
      0.23004599894633765,
      2.7647328640264868,
      2.6644184090776872,
      1.077284643307526,
      0.3683640318130733,
      0.04405887252930291,
      -0.10691110723651837,
      0.7677740707177096,
      1.4740263380024452,
      2.8040640680093802,
      0.14760996609118027,
      0.14480595660367987,
      0.3001863010117325,
      0.402611871079531,
      0.7387658439755813,
      0.22753703493876468,
      0.22427082833511677,
      0.17552157503918375,
      -0.02500033868630004,
      0.5510706888988504,
      0.03386403836022412,
      0.05171814238733043,
      0.0908901047886354,
      -0.03966895602502039,
      1.3010299956639813,
      -0.04639155990649212,
      0.05536540824787319,
      -0.11623304468706008,
      0.16066610124816288,
      0.1556477487292618,
      0.047686774982864166,
      -0.09614554349905068,
      -0.10977579803319105,
      -0.10995206679600028,
      1.3010299956639813,
      2.341095189147702,
      0.06372955353106438,
      0.24615819814388565,
      0.011050504448419362,
      -0.10904770856764233,
      0.04229733985113731,
      2.805457937698221,
      0.0076906824582058395,
      0.4892315577236517,
      0.05464604741241386,
      0.2818011415876407,
      0.28838423482074466,
      0.1279476391355553,
      2.756610819751954,
      0.45895523355269263,
      0.0477761954546315,
      0.038614116344299516,
      0.04376786502902846,
      0.06394904917350498,
      0.13051014692649388,
      0.10598519157131638,
      0.23976020208607232,
      0.27678594789562805,
      0.19014470507235767,
      0.3101537740666935,
      0.2842943505142693,
      0.1862894538956881,
      -0.09958286316288459,
      0.1922562445579982,
      0.08182180690573287,
      -0.10385136119376506,
      0.02706777788722649,
      -0.05815642884662218,
      -0.10701749906916927,
      0.14395422067565822,
      0.33063318558209626,
      2.751461997161656,
      0.004378044701500392,
      0.5168381599807513,
      0.1633473146240728,
      -0.07242685846876819,
      0.012989334784918927,
      -0.02379052813855544,
      0.4015969441315114,
      0.15982596048011463,
      0.2509267733834548,
      0.2618781167370274,
      0.7944489692006271,
      0.35976726962299505,
      0.04342535657117383,
      0.05694529406668867,
      0.5520919983524601,
      0.28678336369345,
      0.29068124677271906,
      0.2790090585040555,
      0.07251221937406448,
      0.2648595260180512,
      0.23220643018076026,
      2.7505250608661167,
      -0.03128797340633515,
      0.17223293686906474,
      0.08826648437322343,
      0.14553831958799415,
      0.17618910238633087,
      0.25774001071743985,
      -0.07689522979698712,
      0.2757322010317065,
      0.20431261142620138,
      -0.10406080341712959,
      1.5447678237492077,
      0.3998641164892107,
      0.18037064126747854,
      0.04991128394071912,
      0.3189513239781211,
      0.018297470292271214,
      0.3881752106617112,
      -0.0992129586823558,
      -0.1018813808749707,
      0.20035202986846845,
      -0.09788421765794025,
      1.3010299956639813,
      0.026337018757099474,
      0.12527638458986257,
      1.545142359610258,
      0.04683622234376544,
      0.05003442372211961,
      0.42169617881992344,
      0.28752346713713034,
      1.3010299956639813,
      -0.02120458267114529,
      0.06398013654102037,
      0.14243223450211492,
      0.11869719104366137,
      0.37170635998922563,
      0.07077125645251858,
      0.37871814008342863,
      -0.038812739847845334,
      0.23525868848583992,
      -0.0870015760287724,
      0.39698232508346976,
      0.23951517978518577,
      0.5272433622393689,
      0.08058847474231434,
      0.47419815011771843,
      0.2698283716618059,
      0.018220912200831905,
      0.12400067341168285,
      2.4433700752210887,
      0.7189250651185979,
      0.012062542986707609,
      0.6654738415752502,
      0.31741521557994123,
      1.3010299956639813,
      0.13427588271055574,
      0.9073602383510831,
      1.1436487953567884,
      0.02404689490456247,
      0.033970827293029617,
      -0.0830595983149012,
      0.128188245351094,
      0.2732003660700946,
      2.7561721868397884,
      0.05287630077556842,
      0.36730126284028186,
      0.29454099486366164,
      0.26852384761090764,
      0.12150196295570506,
      0.3990252239911196,
      0.22526653832565044,
      0.21579568946692487,
      0.22813407406833888,
      0.11866043510910837,
      0.8108000119025309,
      0.2627009009445061,
      0.0855590355542512,
      0.025463018246602458,
      0.41369048684114224,
      -0.10792222155468852,
      0.2635737526881755,
      0.044549556205743225,
      0.3930532448686912,
      0.2514573754292194,
      2.751192541300853,
      0.25078137425972374,
      2.7655835786317997,
      -0.08161859463956139,
      1.9606729635940354,
      -0.04439149568926115,
      0.20229534118098597,
      0.284219365098465,
      1.3010299956639813,
      1.3010299956639813,
      0.4306419353167758,
      -0.006909603362319475,
      -0.007431154456308438,
      0.06627540300696795,
      0.41985282105805677,
      0.10763274458504493,
      -0.053680951200997994,
      0.1352721870229941,
      -0.022076498833146038,
      0.7328765409683266,
      -0.07476035089521803,
      2.78864701624309,
      0.4172266334958367,
      -0.018914579232351254,
      0.10084740329105663,
      0.23310384724314492,
      2.8022718978890655,
      -0.09753195365811528,
      0.4599339088353881,
      -0.11742688468526058,
      -0.1160673586011751,
      0.2701618123968597,
      0.2052708687127154,
      -0.04756801117303276,
      0.22452360875764876,
      1.3010299956639813,
      2.6756620799005533,
      0.07770467129124298,
      0.28029601268733295,
      0.31005762614350596,
      0.23072586617123078,
      0.06752612042998352,
      2.799271175733343,
      0.08975997597695747,
      0.16768000501636052,
      0.07434953632186952,
      2.8002257269460884,
      -0.005004303521764539,
      1.3010299956639813,
      0.18797547915525686,
      0.11513808719323326,
      0.28006189234416456,
      0.1676000189617018,
      0.22452609129784964,
      0.2172479281817095,
      -0.10340644007787829,
      0.262312223349696,
      0.09320752309661616,
      0.3088245062226922,
      0.27193700033200996,
      0.2750024099158851,
      0.5674653522360245,
      0.009215458428848265,
      0.2655122069737175,
      0.21489488154780756,
      0.3237096732887124,
      0.3479937695438834,
      -0.012451061820839361,
      0.002485023118326984,
      0.19644649909267556,
      0.23638210777864824,
      0.07065746316720876,
      0.3105553100885745,
      0.29442519530136796,
      0.26617490580830344,
      0.08997437977023125,
      0.2232590464688545,
      0.2548712746963577,
      0.272316020747801,
      -0.09788271434686018,
      0.2905673753617011,
      0.24764153992210236,
      0.32508660086130825,
      0.052738619649297776,
      -0.03197378220207864,
      -0.026258524652862235,
      2.764691147635353,
      0.23443757659908213,
      0.009151757634566387,
      0.7904580793983299,
      -0.014937324616528011,
      1.3010299956639813,
      0.27239063514582995,
      0.8199132093267149,
      0.24615528334659809,
      0.26410000055997207,
      0.05763918902217137,
      0.25639882959232424,
      -0.08808420565899829,
      0.3218526941638877,
      0.8416412831141407,
      -0.08253655862519378,
      0.5500264691793937,
      0.6672563150322872,
      1.18028214377893,
      0.8750658084619629,
      -0.04706605859173295,
      -0.0577922938407705,
      0.1606541044803456,
      2.026641298432904,
      -0.04616893814980188,
      1.3010299956639813,
      2.7711056254734503,
      0.05874504083364895,
      0.4796143497191868,
      1.3010299956639813,
      0.23859246125339167,
      0.010375803529356228,
      0.29056578110506714,
      0.3059807506830813,
      0.03569193805135344,
      0.06836334688795107,
      0.23546598910120545,
      0.25483515114340083,
      0.13783621663818965,
      0.08288172920921712,
      0.05421439189934864,
      0.17931261719838607,
      0.008399351840542489,
      -0.09624588981955345,
      -0.06425990694839857,
      0.38722786018861877,
      0.2846187717336357,
      0.2032623050642643,
      -0.0265677036767732,
      -0.07235666804587071,
      0.11357108727609008,
      0.020494779085895767,
      1.3010299956639813,
      0.8673484574744597,
      0.1428150085166841,
      0.09905987843882533,
      0.2132044954155967,
      0.5758678871393647,
      0.09003859306412532,
      0.09880019453438792,
      0.8990967100508255,
      0.1633312743666345,
      -0.012297074919559479,
      0.06446725383872205,
      1.3010299956639813,
      2.7531992420237055,
      0.2980055212450438,
      0.25637042957345574,
      0.1383476473572489,
      0.00791980773713739,
      -0.01106075342726507,
      0.09827094673642378,
      0.25474288107570947,
      0.22339239313442083,
      0.12513843532624466,
      0.2571072144837045,
      0.5250473823268842,
      0.07099606659506236,
      0.7318571646125173,
      -0.1295320094078728,
      0.30367181373056346,
      1.8179016949278028,
      0.027892966892041432,
      0.41374808066285396,
      0.275727583977616,
      0.10967099825089749,
      -0.009303500045015983,
      0.17723244249424175,
      0.18662303710209535,
      0.836211282361053,
      0.7762921480512104,
      0.05125181513068414,
      -0.025476884522516077,
      0.04651118610170093,
      0.28387563786017495,
      0.6915515778352692,
      0.16005484047586194,
      0.27736567849325966,
      2.750511630067044,
      0.3390492272140949,
      0.2015749803877476,
      1.3010299956639813,
      0.24889213448565997,
      0.4652054145441047,
      -0.05477426618044568,
      2.773821199769183,
      0.05059935743631752,
      1.3010299956639813,
      0.24496594757769513,
      0.00761354577893164,
      0.4926897968959884,
      0.006463492952058961,
      1.3010299956639813,
      0.2423284025896552,
      0.1396626165940637,
      -0.031830356135603366,
      -0.013748977169065498,
      0.1874800574082372,
      0.23145437151874662,
      0.36203183183390386,
      0.41684146913897463,
      0.8511424713843162,
      0.06738672522088368,
      2.7662637987990397,
      0.31174616443511766,
      -0.11045256474039745,
      -0.06334406044189449,
      0.35841578461133045,
      0.03946844859683062,
      0.29872256266189307,
      0.018848265941907864,
      0.742213315511979,
      0.0297735289747482,
      0.18544852073134022,
      -0.1088963252473307,
      0.645620191279848,
      0.40953892025067146,
      2.750202277840445,
      0.17811831860076505,
      0.024527145345971797,
      0.02304874424206872,
      2.762380974375284,
      0.09828499612987329,
      0.2310770996678193,
      0.2566946755807642,
      0.2768986108341296,
      0.22175381930933097,
      0.18667396158057736,
      0.5272204830806226,
      0.31611627222223915,
      0.06622587032084384,
      0.2617410737059358,
      0.24625308826466702,
      0.03368950098462452,
      0.36809576258144694,
      0.4135168302342357,
      -0.014027818857778778,
      0.09158213071740702,
      0.23720066286227123,
      0.05342058001057562,
      -0.07037633124846411,
      0.2727650957382252,
      0.2602761992588605,
      0.28045349527280106,
      0.0862363293209929,
      0.011932156239416571,
      0.11530957946292392,
      0.22869304153744952,
      2.746372445633528,
      0.2524393179406379,
      0.005250287559028361,
      0.2818796759971458,
      0.2570498001716366,
      -0.033155084958646074,
      0.21462947981857236,
      0.32519966178543186,
      0.03260771558570857,
      0.012140706199643274,
      0.45904520379439373,
      0.06280737569012665,
      0.12452550214661194,
      0.22283050920919847,
      0.13224846689261505,
      0.26695930646348176,
      0.2817317693934693,
      -0.0005177343036004163,
      0.11347222944152027,
      -0.07700441444921377,
      2.746171920526347,
      0.2852866396459002,
      2.09744284758673,
      0.5224531281130708,
      -0.09633100094670834,
      0.06297768531799305,
      1.3010299956639813,
      0.4380610354602316,
      0.39660516713020055,
      0.20211891843368646,
      0.13530976031360256,
      -0.09565870356558054,
      0.04223059726508365,
      0.25234144630092276,
      1.8593375651198154,
      0.16996721938075204,
      0.4367505045359827,
      0.21364746550126765,
      0.11904702229375987,
      0.17467918551409298,
      0.03132738260175642,
      0.8788846578163567,
      0.08186205032687172,
      0.16478507448409133,
      0.005318524976222978,
      0.1974178134606294,
      0.15076222038852619,
      0.6752514724103766,
      0.3944271381211129,
      0.1960193930115139,
      0.0477333652752758,
      0.6321279258405647,
      0.22123920303232475,
      -0.0017022726788460264,
      0.327080150500725,
      0.23456142972809177,
      0.4800737757275687,
      2.74958105043838,
      0.19566869932731107,
      0.3117551747345983,
      0.18970960033140474,
      -0.03520263461778276,
      0.11909408741488012,
      0.3245749257536823,
      -0.030480409423309946,
      0.06720872023702494,
      0.4274272630702616,
      0.06443412783318682,
      0.27941507557992773,
      0.19657290803414212,
      0.27934640860731114,
      0.1702460948964305,
      2.7499518374453094,
      0.7139838708989725,
      0.171195895327803,
      0.5814974153381545,
      0.3008309934701164,
      0.4215707524096097,
      0.6339620413429604,
      0.05359853165264703,
      2.7732602337247942,
      2.777827919333603,
      0.2806781790340535,
      0.09323316919876941,
      1.3010299956639813,
      0.45676190371279257,
      0.2772091507583571,
      0.09002977525603548,
      0.08905227392397864,
      0.5748069358909262,
      0.04178471752810821,
      0.12189902962315319,
      -0.025079462518796582,
      0.27440048509674403,
      -0.028408293723675544,
      2.7541939072905524,
      0.04947668780257355,
      0.03945169017054853,
      0.01746687196345468,
      0.4500310765761838,
      0.07217321193101413,
      0.4511079440385026,
      0.00915468798068195,
      0.12137539236868641,
      2.7575610950063023,
      -0.01943049020257043,
      0.26310484853120647,
      0.04683598529549048,
      -0.05013169115483394,
      0.07579477100396945,
      0.2919542463934845,
      0.040132425372732816,
      0.03250965219099559,
      0.6394039067924074,
      0.003639596845468555,
      0.5150691117377232,
      1.536830357262674,
      2.7753619690773426,
      -0.09203997590709533,
      2.782048723050755,
      2.747860383120499,
      -0.03744107485486956,
      0.8919045425731478,
      0.2539104869754207,
      0.05973561390952943,
      0.2587595531544055,
      0.3284867198650332,
      0.0403304226384869,
      2.775520289797286,
      0.3845441707180777,
      0.019784694878424897,
      -0.11158711335402384,
      0.14259795843701423,
      -0.11100707240764321,
      0.2093671842313528,
      -0.01390197942307829,
      -0.02235472744648907,
      2.628473604477781,
      -0.07116698925863953,
      -0.1168267942960755,
      0.19931265090697198,
      0.5735523244790902,
      2.769028242970269,
      -0.05156559728936213,
      0.06882712758028282,
      -0.11674807555886163,
      -0.06925313389267718,
      0.029206150673979938,
      0.2032854755387125,
      0.6511628847248511,
      0.3133606622942773,
      0.3683085129717997,
      0.24952039713172341,
      0.29519185522860764,
      1.8143605854884828,
      0.24645098354112843,
      0.2913737562311266,
      0.2028718234183583,
      -0.10710955127278193,
      0.05105324569316632,
      0.027291412881843863,
      0.044558815250691775,
      0.02678941735727973,
      2.763397795568499,
      0.09024402052490473,
      0.026818536990573273,
      0.06441190099209915,
      0.1181325153797204,
      0.09172888532995116,
      -0.044908611549339346,
      -0.038599719842679306,
      0.16093074386830505,
      0.2676847252469494,
      -0.07525374172868902,
      -0.10310705449560632,
      0.260496391231308,
      0.12964248194833672,
      0.3056984581788422,
      0.22638429086111736,
      0.06490262733334268,
      0.20949497782662377,
      0.03734797319711123,
      -0.02564902966606239,
      -0.05579634652290653,
      0.26381370743443705,
      2.773337277556118,
      0.37707318718744276,
      0.363818420540755,
      0.6947706202066445,
      0.19524899542689275,
      0.0053702251701248675,
      -0.09415094960354112,
      2.763980749577747,
      0.40813758765261543,
      0.1474301983801306,
      2.7705795942131313,
      0.38587825906995915,
      0.1400553565796575,
      0.09136054567285702,
      0.29947808907119355,
      0.3518848904481943,
      0.008030678200205182,
      0.29491526033763743,
      -0.049102276894564,
      1.690912430570814,
      -0.10116344215255078,
      0.26934935272413846,
      0.02563440969412947,
      0.016021084561153726,
      0.2978095573359859,
      0.25750981484148966,
      0.4127702520831931,
      -0.07423214522801866,
      0.11426598038909647,
      0.2981253065451064,
      0.45471775891920296,
      0.01295833762742921,
      0.9834018379703539,
      0.17039145294401284,
      -0.08738389826897758,
      0.6626990196068075
    ]
  }
}