{
  "0": {
    "test_acc": 0.9411764705882353,
    "tp": 26,
    "tn": 6,
    "fp": 2,
    "fn": 0,
    "tpr": 1.0,
    "fpr": 0.25,
    "tnr": 0.75,
    "fnr": 0.0,
    "f1_score": 0.962962962962963,
    "precision": 0.9285714285714286,
    "recall": 1.0
  },
  "1": {
    "test_acc": 0.9117647058823529,
    "tp": 25,
    "tn": 6,
    "fp": 2,
    "fn": 1,
    "tpr": 0.9615384615384616,
    "fpr": 0.25,
    "tnr": 0.75,
    "fnr": 0.038461538461538464,
    "f1_score": 0.9433962264150944,
    "precision": 0.9259259259259259,
    "recall": 0.9615384615384616
  },
  "2": {
    "test_acc": 0.8571428571428571,
    "tp": 26,
    "tn": 4,
    "fp": 5,
    "fn": 0,
    "tpr": 1.0,
    "fpr": 0.5555555555555556,
    "tnr": 0.4444444444444444,
    "fnr": 0.0,
    "f1_score": 0.9122807017543859,
    "precision": 0.8387096774193549,
    "recall": 1.0
  },
  "3": {
    "test_acc": 0.9411764705882353,
    "tp": 25,
    "tn": 7,
    "fp": 1,
    "fn": 1,
    "tpr": 0.9615384615384616,
    "fpr": 0.125,
    "tnr": 0.875,
    "fnr": 0.038461538461538464,
    "f1_score": 0.9615384615384616,
    "precision": 0.9615384615384616,
    "recall": 0.9615384615384616
  },
  "4": {
    "test_acc": 0.9705882352941176,
    "tp": 26,
    "tn": 7,
    "fp": 1,
    "fn": 0,
    "tpr": 1.0,
    "fpr": 0.125,
    "tnr": 0.875,
    "fnr": 0.0,
    "f1_score": 0.9811320754716981,
    "precision": 0.9629629629629629,
    "recall": 1.0
  },
  "sum": {
    "tp": 128.0,
    "fp": 11.0,
    "tn": 30.0,
    "fn": 2.0,
    "tpr": 0.9846153846153847,
    "tnr": 0.7317073170731707,
    "fpr": 0.2682926829268293,
    "fnr": 0.015384615384615385
  },
  "avg": {
    "test_acc": 0.9243697478991597,
    "tp": 25.6,
    "tn": 6.0,
    "fp": 2.2,
    "fn": 0.4,
    "tpr": 0.9846153846153847,
    "fpr": 0.2611111111111111,
    "tnr": 0.7388888888888889,
    "fnr": 0.015384615384615385,
    "f1_score": 0.9522620856285207,
    "precision": 0.9235416912836267,
    "recall": 0.9846153846153847
  }
}