{
  "0": {
    "test_acc": 0.7647058823529411,
    "tp": 26,
    "tn": 0,
    "fp": 8,
    "fn": 0,
    "tpr": 1.0,
    "fpr": 1.0,
    "tnr": 0.0,
    "fnr": 0.0,
    "f1_score": 0.8666666666666666,
    "precision": 0.7647058823529411,
    "recall": 1.0
  },
  "1": {
    "test_acc": 0.7647058823529411,
    "tp": 26,
    "tn": 0,
    "fp": 8,
    "fn": 0,
    "tpr": 1.0,
    "fpr": 1.0,
    "tnr": 0.0,
    "fnr": 0.0,
    "f1_score": 0.8666666666666666,
    "precision": 0.7647058823529411,
    "recall": 1.0
  },
  "2": {
    "test_acc": 0.7428571428571429,
    "tp": 26,
    "tn": 0,
    "fp": 9,
    "fn": 0,
    "tpr": 1.0,
    "fpr": 1.0,
    "tnr": 0.0,
    "fnr": 0.0,
    "f1_score": 0.8524590163934427,
    "precision": 0.7428571428571429,
    "recall": 1.0
  },
  "3": {
    "test_acc": 0.7647058823529411,
    "tp": 26,
    "tn": 0,
    "fp": 8,
    "fn": 0,
    "tpr": 1.0,
    "fpr": 1.0,
    "tnr": 0.0,
    "fnr": 0.0,
    "f1_score": 0.8666666666666666,
    "precision": 0.7647058823529411,
    "recall": 1.0
  },
  "4": {
    "test_acc": 0.7647058823529411,
    "tp": 26,
    "tn": 0,
    "fp": 8,
    "fn": 0,
    "tpr": 1.0,
    "fpr": 1.0,
    "tnr": 0.0,
    "fnr": 0.0,
    "f1_score": 0.8666666666666666,
    "precision": 0.7647058823529411,
    "recall": 1.0
  },
  "sum": {
    "tp": 130.0,
    "fp": 41.0,
    "tn": 0.0,
    "fn": 0.0,
    "tpr": 1.0,
    "tnr": 0.0,
    "fpr": 1.0,
    "fnr": 0.0
  },
  "avg": {
    "test_acc": 0.7603361344537815,
    "tp": 26.0,
    "tn": 0.0,
    "fp": 8.2,
    "fn": 0.0,
    "tpr": 1.0,
    "fpr": 1.0,
    "tnr": 0.0,
    "fnr": 0.0,
    "f1_score": 0.8638251366120219,
    "precision": 0.7603361344537815,
    "recall": 1.0
  }
}