{
  "results": {
    "Vanilla Verifier": [
      1.0,
      2.0,
      2.0,
      2.0,
      2.0,
      2.0,
      1.0,
      2.0,
      1.0,
      2.0,
      2.0,
      1.0,
      2.0,
      2.0,
      1.0,
      2.0,
      2.0,
      2.0,
      0.0,
      1.0,
      1.0,
      1.0,
      1.0,
      2.0,
      2.0,
      2.0,
      2.0,
      2.0,
      1.0,
      2.0,
      2.0,
      1.0,
      2.0,
      2.0,
      1.0,
      2.0,
      1.0,
      2.0,
      2.0,
      1.0,
      1.0,
      2.0,
      1.0,
      1.0,
      1.0,
      2.0,
      1.0,
      1.0,
      2.0,
      2.0,
      2.0,
      2.0,
      2.0,
      2.0,
      1.0,
      2.0,
      2.0,
      1.0,
      2.0,
      2.0,
      2.0,
      2.0,
      2.0,
      2.0,
      2.0,
      2.0,
      1.0,
      2.0,
      1.0,
      1.0,
      2.0,
      1.0,
      2.0,
      1.0,
      2.0,
      2.0,
      2.0,
      1.0,
      1.0,
      1.0,
      1.0,
      2.0,
      2.0,
      2.0,
      2.0,
      2.0,
      2.0,
      2.0,
      1.0,
      2.0,
      1.0,
      2.0,
      1.0,
      2.0,
      2.0,
      1.0,
      2.0,
      1.0,
      0.0,
      2.0,
      2.0,
      2.0,
      2.0,
      1.0,
      1.0,
      2.0,
      1.0,
      2.0,
      2.0,
      2.0,
      1.0,
      2.0,
      2.0,
      2.0,
      2.0,
      1.0,
      2.0,
      1.0,
      2.0,
      2.0,
      2.0,
      2.0,
      2.0,
      2.0,
      1.0,
      1.0,
      2.0,
      2.0,
      2.0,
      1.0,
      2.0,
      1.0,
      2.0,
      2.0,
      2.0,
      0.0,
      2.0,
      1.0,
      1.0,
      2.0,
      2.0,
      0.0,
      2.0,
      2.0,
      1.0,
      1.0,
      1.0,
      1.0,
      2.0,
      2.0,
      1.0,
      2.0,
      0.0,
      2.0,
      1.0,
      2.0,
      2.0,
      2.0,
      2.0,
      2.0,
      1.0,
      1.0,
      1.0,
      2.0,
      1.0,
      2.0,
      2.0,
      2.0,
      2.0,
      1.0,
      0.0,
      1.0,
      1.0,
      2.0,
      1.0,
      2.0,
      1.0,
      2.0,
      2.0,
      2.0,
      2.0,
      2.0,
      2.0,
      1.0,
      1.0,
      1.0,
      2.0,
      1.0,
      2.0,
      1.0,
      2.0,
      2.0,
      0.0,
      2.0,
      2.0,
      1.0,
      2.0,
      2.0,
      2.0,
      2.0,
      1.0,
      2.0,
      2.0,
      2.0,
      2.0,
      2.0,
      2.0,
      2.0,
      1.0,
      1.0,
      2.0,
      1.0,
      2.0,
      1.0,
      2.0,
      1.0,
      2.0,
      2.0,
      2.0,
      2.0,
      2.0,
      2.0,
      2.0,
      2.0,
      1.0,
      2.0,
      2.0,
      1.0,
      1.0,
      2.0,
      2.0,
      0.0,
      2.0,
      2.0,
      2.0,
      2.0,
      2.0,
      2.0,
      2.0,
      2.0,
      2.0,
      2.0,
      2.0,
      1.0,
      1.0,
      2.0,
      2.0,
      2.0,
      2.0,
      2.0,
      2.0,
      1.0,
      2.0,
      2.0,
      2.0,
      2.0,
      2.0,
      2.0,
      0.0,
      2.0,
      0.0,
      1.0,
      1.0,
      2.0,
      1.0,
      1.0,
      1.0,
      0.0,
      0.0,
      2.0,
      1.0,
      2.0,
      2.0,
      2.0,
      2.0,
      2.0,
      1.0,
      1.0,
      1.0,
      2.0,
      1.0,
      1.0,
      2.0,
      2.0,
      1.0,
      2.0,
      1.0,
      2.0,
      1.0,
      1.0,
      1.0,
      0.0,
      0.0,
      2.0,
      1.0,
      2.0,
      2.0,
      2.0,
      1.0,
      0.0,
      2.0,
      1.0,
      2.0,
      1.0,
      2.0,
      1.0,
      2.0,
      2.0,
      2.0,
      2.0,
      1.0,
      2.0,
      2.0,
      2.0,
      2.0,
      2.0,
      0.0,
      2.0,
      2.0,
      2.0,
      1.0,
      1.0,
      1.0,
      2.0,
      2.0,
      2.0,
      0.0,
      2.0,
      0.0,
      2.0,
      1.0,
      2.0,
      1.0,
      2.0,
      2.0,
      1.0,
      2.0,
      2.0,
      1.0,
      2.0,
      2.0,
      1.0,
      1.0,
      1.0,
      0.0,
      2.0,
      2.0,
      1.0,
      2.0,
      1.0,
      1.0,
      2.0,
      2.0,
      2.0,
      1.0,
      1.0,
      2.0,
      2.0,
      2.0,
      2.0,
      2.0,
      1.0,
      1.0,
      2.0,
      2.0,
      1.0,
      2.0,
      1.0,
      2.0,
      2.0,
      0.0,
      2.0,
      0.0,
      1.0,
      2.0,
      0.0,
      2.0,
      2.0,
      2.0,
      1.0,
      1.0,
      2.0,
      1.0,
      2.0,
      2.0,
      2.0,
      2.0,
      1.0,
      2.0,
      1.0,
      2.0,
      2.0,
      1.0,
      2.0,
      2.0,
      2.0,
      2.0,
      1.0,
      2.0,
      2.0,
      2.0,
      0.0,
      2.0,
      2.0,
      2.0,
      2.0,
      1.0,
      1.0,
      2.0,
      1.0,
      2.0,
      1.0,
      2.0,
      1.0,
      1.0,
      2.0,
      2.0,
      1.0,
      2.0,
      1.0,
      1.0,
      0.0,
      2.0,
      2.0,
      1.0,
      2.0,
      2.0,
      2.0,
      2.0,
      1.0,
      1.0,
      2.0,
      1.0,
      2.0,
      1.0,
      1.0,
      2.0,
      2.0,
      2.0,
      2.0,
      1.0,
      2.0,
      2.0,
      2.0,
      2.0,
      2.0,
      2.0,
      1.0,
      2.0,
      1.0,
      1.0,
      2.0,
      2.0,
      2.0,
      2.0,
      2.0,
      1.0,
      2.0,
      2.0,
      1.0,
      1.0,
      2.0,
      2.0,
      1.0,
      2.0,
      1.0,
      1.0,
      2.0,
      1.0,
      2.0,
      2.0,
      2.0,
      1.0,
      2.0,
      1.0,
      1.0,
      2.0,
      2.0,
      2.0,
      2.0,
      2.0,
      1.0,
      2.0,
      2.0,
      1.0,
      2.0,
      2.0,
      1.0,
      2.0,
      1.0,
      1.0,
      1.0,
      1.0,
      2.0,
      2.0,
      2.0,
      2.0,
      1.0,
      2.0,
      2.0
    ],
    "Timeout Prediction": [
      1.0,
      2.0,
      2.0,
      2.0,
      2.0,
      2.0,
      1.0,
      2.0,
      2.0,
      2.0,
      2.0,
      1.0,
      2.0,
      2.0,
      1.0,
      2.0,
      2.0,
      2.0,
      0.0,
      1.0,
      1.0,
      1.0,
      1.0,
      2.0,
      2.0,
      2.0,
      2.0,
      2.0,
      1.0,
      2.0,
      2.0,
      2.0,
      2.0,
      2.0,
      2.0,
      2.0,
      2.0,
      2.0,
      2.0,
      1.0,
      1.0,
      2.0,
      1.0,
      2.0,
      2.0,
      2.0,
      1.0,
      2.0,
      2.0,
      2.0,
      2.0,
      2.0,
      2.0,
      2.0,
      1.0,
      2.0,
      2.0,
      2.0,
      2.0,
      2.0,
      2.0,
      2.0,
      2.0,
      2.0,
      2.0,
      2.0,
      1.0,
      2.0,
      1.0,
      1.0,
      2.0,
      1.0,
      2.0,
      1.0,
      2.0,
      2.0,
      2.0,
      1.0,
      1.0,
      1.0,
      1.0,
      2.0,
      2.0,
      2.0,
      2.0,
      2.0,
      2.0,
      2.0,
      1.0,
      2.0,
      1.0,
      2.0,
      1.0,
      2.0,
      2.0,
      1.0,
      2.0,
      2.0,
      0.0,
      2.0,
      2.0,
      2.0,
      2.0,
      1.0,
      1.0,
      2.0,
      1.0,
      2.0,
      2.0,
      2.0,
      1.0,
      2.0,
      2.0,
      2.0,
      2.0,
      1.0,
      2.0,
      1.0,
      2.0,
      2.0,
      2.0,
      2.0,
      2.0,
      2.0,
      1.0,
      1.0,
      2.0,
      2.0,
      2.0,
      1.0,
      2.0,
      1.0,
      2.0,
      2.0,
      2.0,
      0.0,
      2.0,
      1.0,
      1.0,
      2.0,
      2.0,
      0.0,
      2.0,
      2.0,
      1.0,
      1.0,
      1.0,
      1.0,
      2.0,
      2.0,
      1.0,
      2.0,
      0.0,
      2.0,
      2.0,
      2.0,
      2.0,
      2.0,
      2.0,
      2.0,
      1.0,
      1.0,
      1.0,
      2.0,
      1.0,
      2.0,
      2.0,
      2.0,
      2.0,
      1.0,
      0.0,
      1.0,
      1.0,
      2.0,
      1.0,
      2.0,
      2.0,
      2.0,
      2.0,
      2.0,
      2.0,
      2.0,
      2.0,
      1.0,
      2.0,
      1.0,
      2.0,
      2.0,
      2.0,
      1.0,
      2.0,
      2.0,
      0.0,
      2.0,
      2.0,
      1.0,
      2.0,
      2.0,
      2.0,
      2.0,
      1.0,
      2.0,
      2.0,
      2.0,
      2.0,
      2.0,
      2.0,
      2.0,
      1.0,
      1.0,
      2.0,
      1.0,
      2.0,
      2.0,
      2.0,
      1.0,
      2.0,
      2.0,
      2.0,
      2.0,
      2.0,
      2.0,
      2.0,
      2.0,
      2.0,
      2.0,
      2.0,
      2.0,
      1.0,
      2.0,
      2.0,
      0.0,
      2.0,
      2.0,
      2.0,
      2.0,
      2.0,
      2.0,
      2.0,
      2.0,
      2.0,
      2.0,
      2.0,
      1.0,
      1.0,
      2.0,
      2.0,
      2.0,
      2.0,
      2.0,
      2.0,
      1.0,
      2.0,
      2.0,
      2.0,
      2.0,
      2.0,
      2.0,
      0.0,
      2.0,
      0.0,
      2.0,
      1.0,
      2.0,
      1.0,
      1.0,
      1.0,
      0.0,
      0.0,
      2.0,
      1.0,
      2.0,
      2.0,
      2.0,
      2.0,
      2.0,
      1.0,
      1.0,
      1.0,
      2.0,
      1.0,
      1.0,
      2.0,
      2.0,
      1.0,
      2.0,
      1.0,
      2.0,
      1.0,
      1.0,
      1.0,
      0.0,
      0.0,
      2.0,
      1.0,
      2.0,
      2.0,
      2.0,
      1.0,
      0.0,
      2.0,
      1.0,
      2.0,
      1.0,
      2.0,
      1.0,
      2.0,
      2.0,
      2.0,
      2.0,
      1.0,
      2.0,
      2.0,
      2.0,
      2.0,
      2.0,
      0.0,
      2.0,
      2.0,
      2.0,
      2.0,
      1.0,
      1.0,
      2.0,
      2.0,
      2.0,
      0.0,
      2.0,
      0.0,
      2.0,
      1.0,
      2.0,
      1.0,
      2.0,
      2.0,
      2.0,
      2.0,
      2.0,
      1.0,
      2.0,
      2.0,
      1.0,
      1.0,
      1.0,
      0.0,
      2.0,
      2.0,
      1.0,
      2.0,
      1.0,
      2.0,
      2.0,
      2.0,
      2.0,
      1.0,
      1.0,
      2.0,
      2.0,
      2.0,
      2.0,
      2.0,
      1.0,
      1.0,
      2.0,
      2.0,
      1.0,
      2.0,
      1.0,
      2.0,
      2.0,
      0.0,
      2.0,
      0.0,
      1.0,
      2.0,
      0.0,
      2.0,
      2.0,
      2.0,
      1.0,
      1.0,
      2.0,
      2.0,
      2.0,
      2.0,
      2.0,
      2.0,
      2.0,
      2.0,
      1.0,
      2.0,
      2.0,
      2.0,
      2.0,
      2.0,
      2.0,
      2.0,
      1.0,
      2.0,
      2.0,
      2.0,
      0.0,
      2.0,
      2.0,
      2.0,
      2.0,
      2.0,
      1.0,
      2.0,
      1.0,
      2.0,
      1.0,
      2.0,
      1.0,
      1.0,
      2.0,
      2.0,
      2.0,
      2.0,
      2.0,
      1.0,
      0.0,
      2.0,
      2.0,
      1.0,
      2.0,
      2.0,
      2.0,
      2.0,
      1.0,
      1.0,
      2.0,
      2.0,
      2.0,
      1.0,
      1.0,
      2.0,
      2.0,
      2.0,
      2.0,
      1.0,
      2.0,
      2.0,
      2.0,
      2.0,
      2.0,
      2.0,
      1.0,
      2.0,
      1.0,
      1.0,
      2.0,
      2.0,
      2.0,
      2.0,
      2.0,
      1.0,
      2.0,
      2.0,
      1.0,
      2.0,
      2.0,
      2.0,
      1.0,
      2.0,
      1.0,
      1.0,
      2.0,
      1.0,
      2.0,
      2.0,
      2.0,
      1.0,
      2.0,
      1.0,
      2.0,
      2.0,
      2.0,
      2.0,
      2.0,
      2.0,
      1.0,
      2.0,
      2.0,
      1.0,
      2.0,
      2.0,
      1.0,
      2.0,
      1.0,
      1.0,
      1.0,
      1.0,
      2.0,
      2.0,
      2.0,
      2.0,
      1.0,
      2.0,
      2.0
    ]
  },
  "running_times": {
    "Vanilla Verifier": [
      1.4420170805562056,
      2.7868498161496493,
      2.7764936613963527,
      2.7822353528931703,
      2.7712255873455183,
      2.7808859109378554,
      -0.051852965006192145,
      2.7813495849410472,
      2.521430446272239,
      2.7793421599517485,
      2.7766577603357168,
      0.47776890094434576,
      2.7809211907675833,
      2.775080176788662,
      1.1067626992848019,
      2.7811585306228057,
      2.774176216957607,
      2.7819551771975126,
      0.047317444464672356,
      0.3711627941230941,
      0.549228101993848,
      1.0459053199052122,
      0.2585962643311385,
      2.7804058042332236,
      2.7753456104616387,
      2.783177967583871,
      2.772822285948188,
      2.774636114071743,
      0.08728578620786327,
      2.7818707952903976,
      2.783692281306514,
      2.558655779976213,
      2.7842479765320682,
      2.7744221565861467,
      2.5255715391393743,
      2.773817635620184,
      2.2499041608716475,
      2.7809453349992395,
      2.7767489662390696,
      -0.04540922065644713,
      1.2191959806266859,
      2.7732032277296588,
      1.8030895283937818,
      2.5352689391946264,
      2.61657561703677,
      2.7753232667730985,
      0.7172444634680425,
      2.0697221935051644,
      2.7839357836299823,
      2.7833732821098045,
      2.774195099872669,
      2.7772033879246654,
      2.781461759855403,
      2.774646679627657,
      0.44899775296725625,
      2.7839899633825875,
      2.7746300558912638,
      2.3442727505946275,
      2.780372853237984,
      2.7755077851450354,
      2.7757951409775723,
      2.7777783212960308,
      2.7773612545052293,
      2.774350099700964,
      2.7752502418456424,
      2.774278262046921,
      0.5161511098307724,
      2.8041874145151704,
      0.09463369274858256,
      0.37927748247036863,
      2.781820091123713,
      0.1791087501274281,
      2.7788109119816733,
      1.6416882437015579,
      2.7758765563405006,
      2.7829181502092517,
      2.7766416975860797,
      0.7745814997373649,
      0.3896260384538502,
      0.824380342739271,
      0.024584061693798433,
      2.734576562078062,
      2.781893584150989,
      2.774321578354917,
      2.7763076126739934,
      2.776501787267775,
      2.779305414440073,
      2.784177480565125,
      0.1684159701487506,
      2.7740193252578167,
      0.1567737514937679,
      2.782372631626064,
      0.8027175801060458,
      2.7834659914862026,
      2.781026938830643,
      0.5885597512480841,
      2.7748094855667187,
      2.4724330198020965,
      -0.01720811775705389,
      2.7793473195458716,
      2.77715301931183,
      2.775994915377239,
      2.766439367513292,
      1.492961000305567,
      0.35219854806093415,
      2.773999795856296,
      0.6109146723276232,
      2.7819829823304407,
      2.7765438722064646,
      2.7770124162140393,
      0.3781444211360863,
      2.7815014924104595,
      2.7755374444993537,
      2.774128091797342,
      2.805840146847041,
      0.9508456867611723,
      2.78069878181225,
      0.03754468486286123,
      2.7747667293469487,
      2.774983108352338,
      2.7788183505061093,
      2.7849979370936735,
      2.760770690205891,
      2.777920030122331,
      0.8666897423390281,
      1.1146269377427516,
      2.7758509680313717,
      2.7828700549370287,
      2.7777897360061456,
      0.5063669551047215,
      2.7692998229415715,
      0.3836685213403244,
      2.777827643794357,
      2.7825259312983164,
      2.773967091275347,
      0.03637569860154662,
      2.772633682405101,
      0.6987357621463436,
      1.5912953741206075,
      2.7818276667937014,
      2.7777829660485165,
      0.05364357554081021,
      2.7800609029290633,
      2.784764674590158,
      0.09085796970961309,
      0.6991412570487191,
      1.0977873914675351,
      0.13251284825153775,
      2.742978702140486,
      2.778785393932981,
      1.057497849571313,
      2.781536249859387,
      0.07432894736875136,
      2.782107866648189,
      2.2684422118202763,
      2.779362236788402,
      2.751264370463763,
      2.7747214068997437,
      2.7747955140329705,
      2.7749613372980004,
      0.8961871069006531,
      1.1003667371157089,
      1.2523761791077774,
      2.7585619241214,
      0.9066590155562572,
      2.7781195723282566,
      2.7406848251433735,
      2.7796095883840737,
      2.7371505108165683,
      1.766464501925283,
      -0.09624111179298336,
      2.5026141212768778,
      0.40696403071407805,
      2.779187442026241,
      0.14606998956464415,
      2.7793763376508256,
      1.843749480572061,
      2.779661039109222,
      2.7787133621727564,
      2.770240353718602,
      2.777331346900068,
      2.7728346605896053,
      2.7787765266558275,
      0.5545221344745352,
      1.5546967743871507,
      0.5563393317251386,
      2.7806412903220807,
      1.7434112072095616,
      2.7553323308687796,
      0.18032778516889697,
      2.7823022941316706,
      2.8036435876629393,
      0.049795344797767455,
      2.777836803449651,
      2.7802560030746037,
      1.713544990129854,
      2.780486328453023,
      2.7843126098557454,
      2.7766980532528245,
      2.753031645078081,
      1.0248432524360578,
      2.780407242866023,
      2.781449191837304,
      2.780490037571759,
      2.7771588488380203,
      2.7804075003569446,
      2.7799991534612456,
      2.7735551774162763,
      0.3738753723643653,
      1.8596328339927009,
      2.7767027640069566,
      0.6448369021943066,
      2.7812428209765274,
      2.6966521094098534,
      2.7693816313683004,
      1.2810243893700146,
      2.746140778316211,
      2.774529045728265,
      2.7817014668959503,
      2.7782309795354294,
      2.7885815395991416,
      2.7731241342499064,
      2.7770445760527394,
      2.7769263675562166,
      2.5757640959857677,
      2.7831718683329996,
      2.7765829231421733,
      2.5605087913826647,
      0.1154003569894689,
      2.780922962695285,
      2.7691546209996383,
      0.0339263568131934,
      2.775537710505085,
      2.7596446404997206,
      2.7757856133617405,
      2.772363194947876,
      2.7813070123002306,
      2.777861446374497,
      2.7799784448873948,
      2.778523462074697,
      2.776555428027033,
      2.7821024908173957,
      2.783623137052862,
      0.3017259841913687,
      0.569596911356998,
      2.7759179054059344,
      2.778294577170235,
      2.7755679735085694,
      2.7772883143412197,
      2.782793360630937,
      2.7803651403936023,
      1.24349525293914,
      2.7800345527991417,
      2.7746312697952846,
      2.7831600879034966,
      2.776718810636595,
      2.780585560782524,
      2.7775729080467375,
      -0.03199072554398971,
      2.779271911884137,
      0.00889197785925558,
      2.5703797340196983,
      1.5890115077790772,
      2.7823817137300453,
      0.46839421310426527,
      0.1508025588093971,
      1.2486674758596699,
      0.05904619391179892,
      0.05125462124249704,
      2.7822775012496543,
      0.31613207007481714,
      2.754650699235769,
      2.7770145886518285,
      2.7776299147701904,
      2.776744495891015,
      2.763262633809631,
      1.2626113889461066,
      1.793586575712848,
      0.6866412420594988,
      2.811552232597224,
      1.2648991429355734,
      0.06501372058476661,
      2.7771174281401936,
      2.7708543606276863,
      0.14347796720205805,
      2.7738537449693093,
      0.8440596985782829,
      2.7438960137660033,
      0.9326221602497878,
      1.236976045544882,
      0.0695775911975596,
      0.06660144367295752,
      0.044721588119237245,
      2.781792801818017,
      0.12493630210704948,
      2.7782440194079614,
      2.7755478614127793,
      2.780732975373342,
      0.1562493550628586,
      0.09183033019104131,
      2.7765463585545227,
      0.7340588659178344,
      2.7772011195393085,
      0.04837117749440669,
      2.773798215675224,
      0.8112566373840656,
      2.783278149171653,
      2.777703055018004,
      2.7738506549728785,
      2.777162201496017,
      1.246478558574163,
      2.772706576792789,
      2.7734298695456934,
      2.7435631666121294,
      2.7779737822702995,
      2.777385992282981,
      0.04128902103112882,
      2.772581832093414,
      2.77957521591881,
      2.7755329759445266,
      2.0784316983687563,
      1.04094940904633,
      0.7631737731336201,
      2.780859612867952,
      2.7822002149650955,
      2.783954085571784,
      0.08683037497111709,
      2.7751856992563053,
      -0.027503494478537793,
      2.7789352325693457,
      0.7687210825652478,
      2.7770549517378282,
      0.25054228772039844,
      2.77988612539772,
      2.7794429869915547,
      2.58332611451231,
      2.780547814393233,
      2.775978247764812,
      0.5607584395040675,
      2.779015567807486,
      2.7734167230559295,
      1.7266402213128509,
      0.5437307547956644,
      0.43043129458761825,
      0.022699356919552428,
      2.735057089751878,
      2.7802893668258157,
      0.061832631403454505,
      2.7777856995888857,
      1.8368604309639631,
      1.5719484319880495,
      2.7830356281879958,
      2.7585419470622665,
      2.7620242021546186,
      1.462558859662093,
      1.553960245273143,
      2.779171623263002,
      2.778348080499713,
      2.7662646195156024,
      2.778988300576721,
      2.7507325970540872,
      1.436488151556418,
      0.3993968372001981,
      2.811723582079949,
      2.775236984282189,
      0.7513126781146071,
      2.776455137174924,
      0.4244830040248333,
      2.7811005490463403,
      2.7786069206307396,
      0.056649870898250396,
      2.7757224960721674,
      0.011371958619856275,
      0.28145550589961804,
      2.780918375024233,
      0.07658583294325697,
      2.7784677471239814,
      2.7807422106543176,
      2.782243226506737,
      1.9465659241685516,
      0.028748179829687307,
      2.776914153835369,
      1.432983187981302,
      2.776349981308065,
      2.838424308276232,
      2.774899634512306,
      2.7819941227444227,
      2.429587204792534,
      2.7742116973405935,
      0.6159875531447221,
      2.781132324438935,
      2.7765779494824696,
      1.214132482093007,
      2.7812521262843903,
      2.7789454655276256,
      2.7728012006370046,
      2.77771617485339,
      0.8773274915743917,
      2.74362410203862,
      2.781948283405292,
      2.7803417344098733,
      -0.06196338543998091,
      2.7800674488866055,
      2.7802414739598795,
      2.7810363616608456,
      2.779070580081699,
      2.707757809313544,
      0.3758489119978148,
      2.8321505448019955,
      0.25303995293167764,
      2.780397449790034,
      1.0648340276263901,
      2.779745843712651,
      0.01585269972776974,
      0.5430775509878404,
      2.7743238043017544,
      2.7805900512736392,
      2.1523247196948687,
      2.781145393519001,
      2.388609462813438,
      0.0961857014141354,
      0.0466756577172886,
      2.783362691697493,
      2.7829443798955,
      1.67767961143409,
      2.7744127820357085,
      2.782643390564887,
      2.7740030979614367,
      2.7832603534376505,
      1.04197746513772,
      0.4821465268313398,
      2.7767624715622827,
      2.092776941584555,
      2.779867529724747,
      0.07956226901899478,
      0.21385929116796484,
      2.7469510788818594,
      2.7170867393096185,
      2.7778338020188564,
      2.7761909716757946,
      1.7311473395647274,
      2.783844438476076,
      2.781912776081648,
      2.7387482959975755,
      2.7737487583918865,
      2.776248494555064,
      2.781628131216827,
      0.12736194557046449,
      2.776233109359543,
      0.5386931677959685,
      0.6029627618694413,
      2.782980582943418,
      2.777827874919172,
      2.782541617714923,
      2.773527444131358,
      2.772220551287828,
      0.15901891525024436,
      2.7737086445586825,
      2.7379188530826983,
      0.0977252765823874,
      1.3543506415787554,
      2.7792121076007943,
      2.781411072643748,
      1.3411950280919358,
      2.7580298679214903,
      1.4900045041566028,
      1.5278919715722787,
      2.772440021786589,
      2.402995645077722,
      2.7789403412135494,
      2.779934866752524,
      2.7797045809090144,
      0.16084167224014048,
      2.69954999182258,
      0.15750468242917914,
      2.568352186118448,
      2.7758631573065027,
      2.7809538389282076,
      2.7789291465166195,
      2.7829675197044814,
      2.7794820642903484,
      0.10407679814129582,
      2.773910970335574,
      2.773435797120628,
      0.11003069035038708,
      2.7794593222496085,
      2.7769230445615474,
      0.20590883423321102,
      2.7971833838825884,
      0.39026969667289435,
      1.1018647127923211,
      0.7360689264777879,
      0.41301439683148133,
      2.782608207511443,
      2.783007087691296,
      2.7823460124652564,
      2.7793420191438996,
      0.32811283260168206,
      2.7759853394572254,
      2.7658888597734035
    ],
    "Timeout Prediction": [
      1.4420170805562056,
      1.0,
      1.0,
      1.0,
      1.0,
      1.0,
      -0.051852965006192145,
      1.0,
      1.6020599913279623,
      1.0,
      1.0,
      0.47776890094434576,
      1.0,
      1.0,
      1.1067626992848019,
      1.0,
      1.0,
      1.0,
      0.047317444464672356,
      0.3711627941230941,
      0.549228101993848,
      1.0459053199052122,
      0.2585962643311385,
      1.0,
      1.0,
      1.0,
      1.0,
      1.0,
      0.08728578620786327,
      1.0,
      1.0,
      1.6020599913279623,
      1.0,
      1.0,
      1.0,
      1.0,
      1.6020599913279623,
      1.0,
      1.0,
      -0.04540922065644713,
      1.2191959806266859,
      1.0,
      1.8030895283937818,
      1.6020599913279623,
      1.0,
      1.0,
      0.7172444634680425,
      1.7781512503836436,
      1.0,
      1.0,
      1.0,
      1.0,
      1.0,
      1.0,
      0.44899775296725625,
      1.0,
      1.0,
      2.0,
      1.0,
      1.0,
      1.0,
      1.0,
      1.0,
      1.0,
      1.0,
      1.0,
      0.5161511098307724,
      1.0,
      0.09463369274858256,
      0.37927748247036863,
      1.0,
      0.1791087501274281,
      1.0,
      1.6416882437015579,
      1.0,
      1.0,
      1.0,
      0.7745814997373649,
      0.3896260384538502,
      0.824380342739271,
      0.024584061693798433,
      1.0,
      1.0,
      1.0,
      1.0,
      1.0,
      1.0,
      1.0,
      0.1684159701487506,
      1.0,
      0.1567737514937679,
      1.0,
      0.8027175801060458,
      1.0,
      1.0,
      0.5885597512480841,
      1.0,
      1.4771212547196624,
      -0.01720811775705389,
      1.0,
      1.0,
      1.0,
      1.0,
      1.492961000305567,
      0.35219854806093415,
      1.0,
      0.6109146723276232,
      1.0,
      1.0,
      1.0,
      0.3781444211360863,
      1.0,
      1.0,
      1.0,
      1.0,
      0.9508456867611723,
      1.0,
      0.03754468486286123,
      1.0,
      1.0,
      1.0,
      1.0,
      1.0,
      1.0,
      0.8666897423390281,
      1.1146269377427516,
      1.0,
      1.0,
      1.0,
      0.5063669551047215,
      1.0,
      0.3836685213403244,
      1.0,
      1.0,
      1.0,
      0.03637569860154662,
      1.0,
      0.6987357621463436,
      1.5912953741206075,
      1.0,
      1.0,
      0.05364357554081021,
      1.0,
      1.0,
      0.09085796970961309,
      0.6991412570487191,
      1.0977873914675351,
      0.13251284825153775,
      2.742978702140486,
      1.0,
      1.057497849571313,
      1.0,
      0.07432894736875136,
      1.0,
      1.0,
      1.0,
      1.0,
      1.0,
      1.0,
      1.0,
      0.8961871069006531,
      1.1003667371157089,
      1.2523761791077774,
      1.0,
      0.9066590155562572,
      1.0,
      1.3010299956639813,
      1.0,
      1.0,
      1.766464501925283,
      -0.09624111179298336,
      2.5026141212768778,
      0.40696403071407805,
      1.0,
      0.14606998956464415,
      1.0,
      1.0,
      1.0,
      1.0,
      1.0,
      1.0,
      1.0,
      1.0,
      0.5545221344745352,
      1.0,
      0.5563393317251386,
      1.0,
      1.0,
      1.0,
      0.18032778516889697,
      1.0,
      1.0,
      0.049795344797767455,
      1.0,
      1.0,
      1.713544990129854,
      1.0,
      1.0,
      1.0,
      1.0,
      1.0248432524360578,
      1.0,
      1.0,
      1.0,
      1.0,
      1.0,
      1.3010299956639813,
      1.0,
      0.3738753723643653,
      1.8596328339927009,
      1.0,
      0.6448369021943066,
      1.0,
      1.9030899869919435,
      1.0,
      1.2810243893700146,
      1.0,
      1.0,
      1.0,
      1.0,
      1.0,
      1.0,
      1.0,
      1.0,
      2.5185139398778875,
      1.0,
      1.0,
      1.0,
      0.1154003569894689,
      1.0,
      1.0,
      0.0339263568131934,
      1.0,
      2.278753600952829,
      1.0,
      1.0,
      1.0,
      1.0,
      1.0,
      1.0,
      1.0,
      1.0,
      1.0,
      0.3017259841913687,
      0.569596911356998,
      1.0,
      1.0,
      1.0,
      1.0,
      1.0,
      1.0,
      1.24349525293914,
      1.0,
      1.0,
      1.0,
      1.0,
      1.0,
      1.0,
      -0.03199072554398971,
      1.0,
      0.00889197785925558,
      1.0,
      1.5890115077790772,
      1.0,
      0.46839421310426527,
      0.1508025588093971,
      1.2486674758596699,
      0.05904619391179892,
      0.05125462124249704,
      1.0,
      0.31613207007481714,
      1.0,
      1.0,
      1.0,
      1.0,
      1.0,
      1.2626113889461066,
      1.793586575712848,
      0.6866412420594988,
      1.0,
      1.2648991429355734,
      0.06501372058476661,
      1.0,
      1.0,
      0.14347796720205805,
      1.0,
      0.8440596985782829,
      1.0,
      0.9326221602497878,
      1.236976045544882,
      0.0695775911975596,
      0.06660144367295752,
      0.044721588119237245,
      1.0,
      0.12493630210704948,
      1.0,
      1.0,
      1.0,
      0.1562493550628586,
      0.09183033019104131,
      1.0,
      0.7340588659178344,
      1.0,
      0.04837117749440669,
      1.0,
      0.8112566373840656,
      1.0,
      1.0,
      1.0,
      1.0,
      1.246478558574163,
      1.0,
      1.0,
      1.0,
      1.0,
      1.0,
      0.04128902103112882,
      1.0,
      1.0,
      1.0,
      1.0,
      1.04094940904633,
      0.7631737731336201,
      1.0,
      1.0,
      1.0,
      0.08683037497111709,
      1.0,
      -0.027503494478537793,
      1.0,
      0.7687210825652478,
      1.0,
      0.25054228772039844,
      1.0,
      1.0,
      1.0,
      1.0,
      1.0,
      0.5607584395040675,
      1.0,
      1.0,
      1.7266402213128509,
      0.5437307547956644,
      0.43043129458761825,
      0.022699356919552428,
      1.0,
      1.0,
      0.061832631403454505,
      1.0,
      1.8368604309639631,
      1.0,
      1.0,
      1.0,
      1.0,
      1.462558859662093,
      1.553960245273143,
      1.0,
      1.0,
      1.4771212547196624,
      1.0,
      1.0,
      1.436488151556418,
      0.3993968372001981,
      1.0,
      1.0,
      0.7513126781146071,
      1.0,
      0.4244830040248333,
      1.0,
      1.0,
      0.056649870898250396,
      1.0,
      0.011371958619856275,
      0.28145550589961804,
      1.3010299956639813,
      0.07658583294325697,
      1.0,
      1.0,
      1.0,
      1.9465659241685516,
      0.028748179829687307,
      1.0,
      1.0,
      1.0,
      1.0,
      1.0,
      1.0,
      1.0,
      1.0,
      0.6159875531447221,
      1.0,
      1.0,
      1.0,
      1.0,
      1.0,
      1.6989700043360187,
      1.0,
      0.8773274915743917,
      1.3010299956639813,
      1.0,
      1.0,
      -0.06196338543998091,
      1.0,
      1.0,
      1.0,
      1.0,
      1.0,
      0.3758489119978148,
      1.0,
      0.25303995293167764,
      1.0,
      1.0648340276263901,
      1.0,
      0.01585269972776974,
      0.5430775509878404,
      1.0,
      1.0,
      1.0,
      1.0,
      1.0,
      0.0961857014141354,
      0.0466756577172886,
      1.0,
      1.0,
      1.67767961143409,
      1.0,
      1.0,
      1.0,
      1.0,
      1.04197746513772,
      0.4821465268313398,
      1.0,
      1.4771212547196624,
      1.0,
      0.07956226901899478,
      0.21385929116796484,
      1.0,
      1.0,
      1.0,
      1.0,
      1.7311473395647274,
      1.0,
      1.0,
      1.0,
      1.0,
      1.0,
      1.0,
      0.12736194557046449,
      1.845098040014257,
      0.5386931677959685,
      0.6029627618694413,
      1.0,
      1.0,
      1.0,
      1.0,
      1.0,
      0.15901891525024436,
      1.0,
      1.0,
      0.0977252765823874,
      1.0,
      1.0,
      1.0,
      1.3411950280919358,
      1.0,
      1.4900045041566028,
      1.5278919715722787,
      1.0,
      2.402995645077722,
      1.0,
      1.0,
      1.0,
      0.16084167224014048,
      1.3010299956639813,
      0.15750468242917914,
      1.3010299956639813,
      1.0,
      1.0,
      1.0,
      1.0,
      1.0,
      0.10407679814129582,
      1.0,
      1.0,
      0.11003069035038708,
      1.0,
      1.0,
      0.20590883423321102,
      1.6020599913279623,
      0.39026969667289435,
      1.1018647127923211,
      0.7360689264777879,
      0.41301439683148133,
      1.0,
      1.0,
      1.0,
      1.0,
      0.32811283260168206,
      1.0,
      1.0
    ]
  }
}