{
  "results": {
    "ABCROWN": [
      1.0,
      1.0,
      1.0,
      2.0,
      1.0,
      1.0,
      1.0,
      1.0,
      1.0,
      2.0,
      1.0,
      2.0,
      1.0,
      1.0,
      1.0,
      2.0,
      1.0,
      1.0,
      1.0,
      1.0,
      1.0,
      1.0,
      2.0,
      1.0,
      1.0,
      1.0,
      2.0,
      2.0,
      2.0,
      1.0,
      1.0,
      1.0,
      1.0,
      1.0,
      2.0,
      1.0,
      1.0,
      1.0,
      1.0,
      1.0,
      1.0,
      1.0,
      1.0,
      1.0,
      1.0,
      1.0,
      1.0,
      2.0,
      1.0,
      1.0,
      1.0,
      1.0,
      1.0,
      1.0,
      1.0,
      1.0,
      2.0,
      2.0,
      2.0,
      2.0,
      1.0,
      1.0,
      1.0,
      2.0,
      1.0,
      2.0,
      1.0,
      1.0,
      1.0,
      1.0,
      1.0,
      2.0,
      1.0,
      2.0,
      1.0,
      1.0,
      1.0,
      1.0,
      1.0,
      1.0,
      2.0,
      1.0,
      2.0,
      1.0,
      1.0,
      1.0,
      1.0,
      2.0,
      1.0,
      1.0,
      2.0,
      2.0,
      2.0,
      2.0,
      1.0,
      2.0,
      2.0,
      1.0,
      1.0,
      1.0,
      1.0,
      1.0,
      1.0,
      1.0,
      1.0,
      1.0,
      1.0,
      2.0,
      1.0,
      1.0,
      1.0,
      1.0,
      2.0,
      2.0,
      2.0,
      2.0,
      1.0,
      1.0,
      1.0,
      1.0,
      1.0,
      2.0,
      2.0,
      1.0,
      1.0,
      1.0,
      2.0,
      1.0,
      1.0,
      1.0,
      1.0,
      1.0,
      1.0,
      1.0,
      1.0,
      1.0,
      1.0,
      1.0,
      1.0,
      2.0,
      2.0,
      1.0,
      1.0,
      1.0,
      2.0,
      1.0,
      1.0,
      2.0,
      2.0,
      1.0,
      2.0,
      1.0,
      1.0,
      1.0,
      1.0,
      1.0,
      1.0,
      2.0,
      1.0,
      1.0,
      1.0,
      2.0,
      2.0,
      1.0,
      2.0,
      1.0,
      1.0,
      1.0,
      1.0,
      1.0,
      2.0,
      1.0,
      1.0,
      1.0,
      2.0,
      1.0,
      2.0,
      2.0,
      1.0,
      2.0,
      1.0,
      1.0,
      1.0,
      1.0,
      1.0,
      2.0,
      1.0,
      1.0,
      1.0,
      2.0,
      1.0,
      1.0,
      1.0,
      1.0,
      1.0,
      1.0,
      2.0,
      1.0,
      2.0,
      2.0,
      1.0,
      1.0,
      1.0,
      1.0,
      1.0,
      1.0,
      2.0,
      1.0,
      2.0,
      1.0,
      1.0,
      1.0,
      1.0,
      1.0,
      1.0,
      2.0,
      1.0,
      1.0,
      1.0,
      1.0,
      1.0,
      1.0,
      2.0,
      1.0,
      1.0,
      1.0,
      1.0,
      2.0,
      1.0,
      1.0,
      1.0,
      1.0,
      1.0,
      1.0,
      2.0,
      2.0,
      1.0,
      1.0,
      1.0,
      2.0,
      2.0,
      2.0,
      2.0,
      2.0,
      2.0,
      2.0,
      1.0,
      1.0,
      2.0,
      1.0,
      1.0,
      1.0,
      1.0,
      2.0,
      1.0,
      2.0,
      1.0,
      1.0,
      2.0,
      1.0,
      1.0,
      1.0,
      1.0,
      1.0,
      1.0,
      2.0,
      1.0,
      1.0,
      1.0,
      1.0,
      1.0,
      1.0,
      1.0,
      1.0,
      2.0,
      1.0,
      1.0,
      1.0,
      2.0,
      1.0,
      2.0,
      1.0,
      1.0,
      1.0,
      2.0,
      2.0,
      1.0,
      1.0,
      2.0,
      1.0,
      1.0,
      2.0,
      1.0,
      2.0,
      1.0,
      2.0,
      1.0,
      1.0,
      1.0,
      1.0,
      1.0,
      1.0,
      2.0,
      1.0,
      2.0,
      1.0,
      2.0,
      2.0,
      1.0,
      1.0,
      1.0,
      1.0,
      1.0,
      1.0,
      2.0,
      2.0,
      1.0,
      1.0,
      1.0,
      2.0,
      1.0,
      1.0,
      2.0,
      1.0,
      1.0,
      1.0,
      1.0,
      1.0,
      2.0,
      1.0,
      2.0,
      1.0,
      1.0,
      1.0,
      1.0,
      2.0,
      1.0,
      2.0,
      1.0,
      1.0,
      1.0,
      1.0,
      1.0,
      1.0,
      1.0,
      1.0,
      2.0,
      2.0,
      1.0,
      1.0,
      1.0,
      2.0,
      1.0,
      1.0,
      1.0,
      1.0,
      2.0,
      2.0,
      2.0,
      1.0,
      1.0,
      1.0,
      2.0,
      2.0,
      2.0,
      1.0,
      1.0,
      1.0,
      1.0,
      1.0,
      1.0,
      1.0,
      2.0,
      2.0,
      1.0,
      1.0,
      1.0,
      1.0,
      1.0,
      1.0,
      2.0,
      1.0,
      2.0,
      1.0,
      2.0,
      1.0,
      1.0,
      2.0,
      1.0,
      1.0,
      1.0,
      2.0,
      1.0,
      1.0,
      1.0,
      1.0,
      2.0,
      1.0,
      1.0,
      1.0,
      1.0,
      1.0,
      1.0,
      1.0,
      1.0,
      1.0,
      1.0,
      2.0,
      2.0,
      1.0,
      1.0,
      2.0,
      1.0,
      1.0,
      2.0,
      1.0,
      1.0,
      1.0,
      1.0,
      2.0,
      2.0,
      1.0,
      1.0,
      1.0,
      2.0,
      1.0,
      1.0,
      2.0,
      1.0,
      1.0,
      1.0,
      1.0,
      2.0,
      1.0,
      2.0,
      1.0,
      1.0,
      1.0,
      2.0,
      1.0,
      2.0,
      2.0,
      2.0,
      2.0,
      2.0,
      1.0,
      1.0,
      1.0,
      1.0,
      1.0,
      1.0,
      1.0,
      1.0,
      2.0,
      1.0,
      1.0,
      2.0,
      1.0,
      2.0,
      1.0,
      1.0,
      1.0,
      1.0,
      1.0,
      1.0,
      2.0,
      2.0,
      2.0,
      1.0,
      1.0,
      2.0,
      1.0,
      1.0,
      1.0,
      1.0,
      1.0,
      2.0,
      1.0,
      1.0,
      1.0,
      2.0,
      1.0,
      1.0,
      1.0,
      1.0,
      1.0,
      1.0,
      1.0,
      2.0,
      1.0,
      1.0,
      1.0,
      1.0,
      1.0,
      2.0,
      1.0,
      1.0,
      2.0,
      1.0,
      1.0
    ],
    "VERINET": [
      1.0,
      2.0,
      1.0,
      2.0,
      1.0,
      1.0,
      1.0,
      1.0,
      2.0,
      2.0,
      1.0,
      2.0,
      1.0,
      2.0,
      1.0,
      2.0,
      2.0,
      2.0,
      1.0,
      1.0,
      1.0,
      1.0,
      2.0,
      2.0,
      1.0,
      1.0,
      2.0,
      2.0,
      2.0,
      2.0,
      1.0,
      2.0,
      2.0,
      2.0,
      2.0,
      1.0,
      1.0,
      1.0,
      1.0,
      1.0,
      1.0,
      1.0,
      2.0,
      1.0,
      1.0,
      1.0,
      2.0,
      2.0,
      1.0,
      1.0,
      1.0,
      1.0,
      1.0,
      1.0,
      1.0,
      1.0,
      2.0,
      2.0,
      2.0,
      2.0,
      1.0,
      1.0,
      1.0,
      2.0,
      1.0,
      2.0,
      1.0,
      1.0,
      1.0,
      2.0,
      1.0,
      2.0,
      1.0,
      2.0,
      2.0,
      1.0,
      1.0,
      2.0,
      1.0,
      2.0,
      2.0,
      2.0,
      2.0,
      1.0,
      1.0,
      2.0,
      1.0,
      2.0,
      1.0,
      2.0,
      2.0,
      2.0,
      2.0,
      2.0,
      1.0,
      2.0,
      2.0,
      1.0,
      1.0,
      2.0,
      1.0,
      1.0,
      2.0,
      1.0,
      1.0,
      1.0,
      2.0,
      2.0,
      1.0,
      1.0,
      1.0,
      1.0,
      2.0,
      2.0,
      2.0,
      2.0,
      2.0,
      1.0,
      2.0,
      1.0,
      1.0,
      2.0,
      2.0,
      1.0,
      1.0,
      1.0,
      2.0,
      1.0,
      1.0,
      1.0,
      1.0,
      1.0,
      1.0,
      2.0,
      2.0,
      1.0,
      2.0,
      1.0,
      1.0,
      2.0,
      2.0,
      2.0,
      2.0,
      1.0,
      2.0,
      2.0,
      1.0,
      2.0,
      2.0,
      1.0,
      2.0,
      1.0,
      2.0,
      1.0,
      2.0,
      1.0,
      1.0,
      2.0,
      2.0,
      1.0,
      1.0,
      2.0,
      2.0,
      1.0,
      2.0,
      2.0,
      2.0,
      1.0,
      2.0,
      1.0,
      2.0,
      1.0,
      1.0,
      1.0,
      2.0,
      1.0,
      2.0,
      2.0,
      1.0,
      2.0,
      1.0,
      2.0,
      1.0,
      1.0,
      2.0,
      2.0,
      1.0,
      1.0,
      2.0,
      2.0,
      2.0,
      1.0,
      1.0,
      2.0,
      1.0,
      1.0,
      2.0,
      1.0,
      2.0,
      2.0,
      1.0,
      1.0,
      1.0,
      1.0,
      1.0,
      1.0,
      2.0,
      2.0,
      2.0,
      1.0,
      2.0,
      1.0,
      1.0,
      1.0,
      1.0,
      2.0,
      1.0,
      1.0,
      2.0,
      1.0,
      1.0,
      2.0,
      2.0,
      1.0,
      2.0,
      1.0,
      1.0,
      2.0,
      1.0,
      1.0,
      2.0,
      1.0,
      1.0,
      1.0,
      2.0,
      2.0,
      2.0,
      1.0,
      1.0,
      2.0,
      2.0,
      2.0,
      2.0,
      2.0,
      2.0,
      2.0,
      1.0,
      1.0,
      2.0,
      1.0,
      1.0,
      1.0,
      1.0,
      2.0,
      1.0,
      2.0,
      1.0,
      2.0,
      2.0,
      1.0,
      1.0,
      1.0,
      1.0,
      2.0,
      1.0,
      2.0,
      1.0,
      1.0,
      1.0,
      1.0,
      1.0,
      1.0,
      1.0,
      1.0,
      2.0,
      1.0,
      1.0,
      1.0,
      2.0,
      1.0,
      2.0,
      1.0,
      1.0,
      1.0,
      2.0,
      2.0,
      1.0,
      1.0,
      2.0,
      2.0,
      1.0,
      2.0,
      1.0,
      2.0,
      1.0,
      2.0,
      1.0,
      1.0,
      2.0,
      2.0,
      1.0,
      1.0,
      2.0,
      2.0,
      2.0,
      2.0,
      2.0,
      2.0,
      1.0,
      1.0,
      1.0,
      2.0,
      2.0,
      1.0,
      2.0,
      2.0,
      1.0,
      1.0,
      1.0,
      2.0,
      2.0,
      1.0,
      2.0,
      1.0,
      2.0,
      2.0,
      1.0,
      1.0,
      2.0,
      1.0,
      2.0,
      1.0,
      1.0,
      1.0,
      2.0,
      2.0,
      1.0,
      2.0,
      1.0,
      1.0,
      1.0,
      2.0,
      1.0,
      1.0,
      1.0,
      1.0,
      2.0,
      2.0,
      1.0,
      1.0,
      1.0,
      2.0,
      2.0,
      1.0,
      1.0,
      2.0,
      2.0,
      2.0,
      2.0,
      1.0,
      1.0,
      2.0,
      0.0,
      2.0,
      2.0,
      1.0,
      2.0,
      1.0,
      1.0,
      1.0,
      1.0,
      2.0,
      2.0,
      2.0,
      2.0,
      1.0,
      1.0,
      1.0,
      2.0,
      1.0,
      2.0,
      1.0,
      2.0,
      1.0,
      2.0,
      1.0,
      1.0,
      2.0,
      1.0,
      1.0,
      2.0,
      2.0,
      2.0,
      1.0,
      1.0,
      1.0,
      2.0,
      2.0,
      1.0,
      2.0,
      1.0,
      2.0,
      2.0,
      2.0,
      2.0,
      1.0,
      1.0,
      2.0,
      2.0,
      1.0,
      1.0,
      2.0,
      1.0,
      1.0,
      2.0,
      1.0,
      2.0,
      1.0,
      1.0,
      2.0,
      2.0,
      1.0,
      1.0,
      1.0,
      2.0,
      1.0,
      1.0,
      2.0,
      2.0,
      1.0,
      1.0,
      1.0,
      2.0,
      1.0,
      2.0,
      1.0,
      1.0,
      1.0,
      2.0,
      2.0,
      2.0,
      2.0,
      2.0,
      2.0,
      2.0,
      1.0,
      1.0,
      1.0,
      1.0,
      1.0,
      2.0,
      1.0,
      1.0,
      2.0,
      1.0,
      2.0,
      2.0,
      1.0,
      2.0,
      1.0,
      1.0,
      1.0,
      1.0,
      1.0,
      1.0,
      2.0,
      2.0,
      2.0,
      2.0,
      1.0,
      2.0,
      1.0,
      1.0,
      1.0,
      1.0,
      1.0,
      2.0,
      1.0,
      2.0,
      1.0,
      2.0,
      2.0,
      1.0,
      2.0,
      2.0,
      1.0,
      1.0,
      2.0,
      2.0,
      1.0,
      1.0,
      2.0,
      1.0,
      2.0,
      2.0,
      2.0,
      1.0,
      2.0,
      1.0,
      1.0
    ],
    "Algorithm Selection": [
      1.0,
      1.0,
      1.0,
      2.0,
      1.0,
      1.0,
      1.0,
      1.0,
      1.0,
      2.0,
      1.0,
      2.0,
      1.0,
      1.0,
      1.0,
      2.0,
      1.0,
      1.0,
      1.0,
      1.0,
      1.0,
      1.0,
      2.0,
      1.0,
      1.0,
      1.0,
      2.0,
      2.0,
      2.0,
      1.0,
      1.0,
      1.0,
      1.0,
      1.0,
      2.0,
      1.0,
      1.0,
      1.0,
      1.0,
      1.0,
      1.0,
      1.0,
      1.0,
      1.0,
      1.0,
      1.0,
      1.0,
      2.0,
      1.0,
      1.0,
      1.0,
      1.0,
      1.0,
      1.0,
      1.0,
      1.0,
      2.0,
      2.0,
      2.0,
      2.0,
      1.0,
      1.0,
      1.0,
      2.0,
      1.0,
      2.0,
      1.0,
      1.0,
      1.0,
      1.0,
      1.0,
      2.0,
      1.0,
      2.0,
      2.0,
      1.0,
      1.0,
      1.0,
      1.0,
      1.0,
      2.0,
      1.0,
      2.0,
      1.0,
      1.0,
      1.0,
      1.0,
      2.0,
      1.0,
      1.0,
      2.0,
      2.0,
      2.0,
      2.0,
      1.0,
      2.0,
      2.0,
      1.0,
      1.0,
      1.0,
      1.0,
      1.0,
      1.0,
      1.0,
      1.0,
      1.0,
      1.0,
      2.0,
      1.0,
      1.0,
      1.0,
      1.0,
      2.0,
      2.0,
      2.0,
      2.0,
      1.0,
      1.0,
      1.0,
      1.0,
      1.0,
      2.0,
      2.0,
      1.0,
      1.0,
      1.0,
      2.0,
      1.0,
      1.0,
      1.0,
      1.0,
      1.0,
      1.0,
      1.0,
      1.0,
      1.0,
      1.0,
      1.0,
      1.0,
      2.0,
      2.0,
      1.0,
      1.0,
      1.0,
      2.0,
      1.0,
      1.0,
      2.0,
      2.0,
      1.0,
      2.0,
      1.0,
      1.0,
      1.0,
      1.0,
      1.0,
      1.0,
      2.0,
      1.0,
      1.0,
      1.0,
      2.0,
      2.0,
      1.0,
      2.0,
      2.0,
      1.0,
      1.0,
      2.0,
      1.0,
      2.0,
      1.0,
      1.0,
      1.0,
      2.0,
      1.0,
      2.0,
      2.0,
      1.0,
      2.0,
      1.0,
      1.0,
      1.0,
      1.0,
      2.0,
      2.0,
      1.0,
      1.0,
      1.0,
      2.0,
      1.0,
      1.0,
      1.0,
      2.0,
      1.0,
      1.0,
      2.0,
      1.0,
      2.0,
      2.0,
      1.0,
      1.0,
      1.0,
      1.0,
      1.0,
      1.0,
      2.0,
      1.0,
      2.0,
      1.0,
      1.0,
      1.0,
      1.0,
      1.0,
      1.0,
      2.0,
      1.0,
      1.0,
      1.0,
      1.0,
      1.0,
      1.0,
      2.0,
      1.0,
      1.0,
      1.0,
      1.0,
      2.0,
      1.0,
      1.0,
      1.0,
      1.0,
      1.0,
      1.0,
      2.0,
      2.0,
      1.0,
      1.0,
      1.0,
      2.0,
      2.0,
      2.0,
      2.0,
      2.0,
      2.0,
      2.0,
      1.0,
      1.0,
      2.0,
      1.0,
      1.0,
      1.0,
      1.0,
      2.0,
      1.0,
      2.0,
      1.0,
      1.0,
      2.0,
      1.0,
      1.0,
      1.0,
      1.0,
      1.0,
      1.0,
      2.0,
      1.0,
      1.0,
      1.0,
      1.0,
      1.0,
      1.0,
      1.0,
      1.0,
      2.0,
      1.0,
      1.0,
      1.0,
      2.0,
      1.0,
      2.0,
      1.0,
      1.0,
      1.0,
      2.0,
      2.0,
      1.0,
      1.0,
      2.0,
      1.0,
      1.0,
      2.0,
      1.0,
      2.0,
      1.0,
      2.0,
      1.0,
      1.0,
      1.0,
      1.0,
      1.0,
      1.0,
      2.0,
      1.0,
      2.0,
      1.0,
      2.0,
      2.0,
      1.0,
      1.0,
      1.0,
      1.0,
      2.0,
      1.0,
      2.0,
      2.0,
      1.0,
      1.0,
      1.0,
      2.0,
      1.0,
      1.0,
      2.0,
      1.0,
      2.0,
      1.0,
      1.0,
      1.0,
      2.0,
      1.0,
      2.0,
      1.0,
      1.0,
      1.0,
      1.0,
      2.0,
      1.0,
      2.0,
      1.0,
      1.0,
      1.0,
      1.0,
      1.0,
      1.0,
      1.0,
      1.0,
      2.0,
      2.0,
      1.0,
      1.0,
      1.0,
      2.0,
      1.0,
      1.0,
      1.0,
      1.0,
      2.0,
      2.0,
      2.0,
      1.0,
      1.0,
      2.0,
      2.0,
      2.0,
      2.0,
      1.0,
      1.0,
      1.0,
      1.0,
      1.0,
      1.0,
      1.0,
      2.0,
      2.0,
      1.0,
      1.0,
      1.0,
      1.0,
      1.0,
      1.0,
      2.0,
      1.0,
      2.0,
      1.0,
      2.0,
      1.0,
      1.0,
      2.0,
      1.0,
      1.0,
      1.0,
      2.0,
      1.0,
      1.0,
      1.0,
      1.0,
      2.0,
      1.0,
      1.0,
      1.0,
      1.0,
      2.0,
      1.0,
      2.0,
      1.0,
      1.0,
      1.0,
      2.0,
      2.0,
      1.0,
      1.0,
      2.0,
      1.0,
      1.0,
      2.0,
      1.0,
      1.0,
      1.0,
      1.0,
      2.0,
      2.0,
      1.0,
      1.0,
      1.0,
      2.0,
      1.0,
      1.0,
      2.0,
      1.0,
      1.0,
      1.0,
      1.0,
      2.0,
      1.0,
      2.0,
      1.0,
      1.0,
      1.0,
      2.0,
      1.0,
      2.0,
      2.0,
      2.0,
      2.0,
      2.0,
      1.0,
      1.0,
      1.0,
      1.0,
      1.0,
      1.0,
      1.0,
      1.0,
      2.0,
      1.0,
      1.0,
      2.0,
      1.0,
      2.0,
      1.0,
      1.0,
      1.0,
      1.0,
      1.0,
      1.0,
      2.0,
      2.0,
      2.0,
      1.0,
      1.0,
      2.0,
      1.0,
      1.0,
      1.0,
      1.0,
      1.0,
      2.0,
      1.0,
      1.0,
      1.0,
      2.0,
      1.0,
      1.0,
      1.0,
      1.0,
      1.0,
      1.0,
      1.0,
      2.0,
      1.0,
      1.0,
      1.0,
      1.0,
      1.0,
      2.0,
      1.0,
      1.0,
      2.0,
      1.0,
      1.0
    ]
  },
  "running_times": {
    "ABCROWN": [
      0.6662370958958044,
      1.6845464570249875,
      0.7409623912615559,
      2.7781512503836434,
      1.0421815945157662,
      0.9966911317820922,
      0.7588513593318914,
      1.066020134062204,
      2.2949465502802564,
      2.7781512503836434,
      1.116298846799877,
      2.7781512503836434,
      1.133784726105633,
      1.4135344544311421,
      1.3865382018833379,
      2.7781512503836434,
      1.3706573986818729,
      1.4493611315603845,
      1.0510212491661108,
      1.10752878760637,
      1.1429554322025446,
      1.114487549673971,
      2.7781512503836434,
      1.5618250023118,
      0.86542380094089,
      1.1761867933333148,
      2.7781512503836434,
      2.7781512503836434,
      2.7781512503836434,
      1.6823554009340187,
      1.1199516548707251,
      1.2673970335735523,
      1.4202578331005973,
      1.5076710549105252,
      2.7781512503836434,
      0.9189734304929542,
      1.1469152560469547,
      0.8083932978044356,
      0.898637436467081,
      0.9633674912927179,
      1.1149577476486083,
      1.0039126867384836,
      1.148096505606318,
      0.865406038990774,
      0.9774720988299018,
      1.0055022518556258,
      1.0826130540272287,
      2.7781512503836434,
      0.8229652979122818,
      1.1275680147590432,
      1.1699946008489377,
      1.0928609433388174,
      1.0922573372904316,
      1.0897002738726762,
      0.8766565335849591,
      1.0893221301692417,
      2.7781512503836434,
      2.7781512503836434,
      2.7781512503836434,
      2.7781512503836434,
      0.8435504383451866,
      0.8606972740520389,
      0.9601995561095054,
      2.7781512503836434,
      0.877365585957813,
      2.7781512503836434,
      0.7192069482468264,
      1.0063804585496932,
      0.7168710651660261,
      1.261112922074941,
      0.8677090227674826,
      2.7781512503836434,
      1.110576243594899,
      2.7781512503836434,
      2.5497673893460626,
      0.863257413555167,
      1.0971774560449077,
      1.7687253952828599,
      1.1311982794393534,
      1.4166371793984658,
      2.7781512503836434,
      1.3774683525607396,
      2.7781512503836434,
      1.1412302188965806,
      0.9098180244551642,
      1.3848156030130383,
      1.1117160674168598,
      2.7781512503836434,
      1.1482230982194153,
      1.5391501484749406,
      2.7781512503836434,
      2.7781512503836434,
      2.7781512503836434,
      2.7781512503836434,
      0.8702809743497061,
      2.7781512503836434,
      2.7781512503836434,
      1.1598077329694305,
      1.1346328456923018,
      1.2264607024732483,
      1.050897661584833,
      0.9694951219347903,
      2.211824030376105,
      1.0107238653917732,
      1.1307903418683447,
      1.0408356415043962,
      1.3776868206277924,
      2.7781512503836434,
      0.8110921881644972,
      1.0890391906376555,
      0.8637807101338566,
      1.1018844871675422,
      2.7781512503836434,
      2.7781512503836434,
      2.7781512503836434,
      2.7781512503836434,
      1.908036015889165,
      1.2117584266979329,
      1.495095936438157,
      0.858073783168892,
      1.1220060551654916,
      2.7781512503836434,
      2.7781512503836434,
      1.1278366481939577,
      1.1758335011873535,
      1.121819096074422,
      2.7781512503836434,
      1.2068069932525731,
      1.1769040762837941,
      1.053485643809411,
      1.2702734607398918,
      1.1217403523724856,
      1.1383500731620817,
      2.1453266438410803,
      1.2869277849592553,
      0.9469530851514908,
      1.4022115002238629,
      0.9642360522233964,
      0.7489628612561614,
      2.7781512503836434,
      2.7781512503836434,
      1.3872652157841754,
      2.2096849459233665,
      0.971452129092936,
      2.7781512503836434,
      1.5706655057050072,
      0.8266966300094027,
      2.7781512503836434,
      2.7781512503836434,
      1.142179777679243,
      2.7781512503836434,
      1.094876234574143,
      1.5415168408310338,
      1.095911726405534,
      1.4299459741178182,
      0.603912643010643,
      1.035837823235939,
      2.7781512503836434,
      1.6551730232599766,
      0.7862259770957573,
      1.1735417197358926,
      2.7781512503836434,
      2.7781512503836434,
      1.0279690040031655,
      2.7781512503836434,
      2.6398489141292796,
      2.653041368031548,
      1.1761462662063429,
      2.5431151503124805,
      0.8754953408710187,
      2.7781512503836434,
      1.2181493524034834,
      0.8669840146759522,
      1.1761433712668394,
      2.7781512503836434,
      1.1012073064290724,
      2.7781512503836434,
      2.7781512503836434,
      1.130507451553471,
      2.7781512503836434,
      1.1553451484425394,
      1.5818222739379937,
      1.2652990566918074,
      1.1621041809807995,
      2.2142449563206905,
      2.7781512503836434,
      1.1156138395886135,
      1.1423112360038983,
      1.5759391248122925,
      2.7781512503836434,
      1.5594098335378237,
      1.1219404646496218,
      1.210767834287433,
      2.1714611166581697,
      1.2123101487461678,
      1.11622906540451,
      2.7781512503836434,
      1.1319136534508432,
      2.7781512503836434,
      2.7781512503836434,
      0.5709630216317906,
      0.712169692552654,
      0.7814322255046482,
      1.039144336542999,
      1.0287094892326893,
      1.1190842496428042,
      2.7781512503836434,
      1.8945879655485032,
      2.7781512503836434,
      0.8518634924662495,
      1.25426522233333,
      1.1235282487594964,
      1.0890887183640956,
      1.091199003825585,
      1.2594409650225131,
      2.7781512503836434,
      1.1239104136868732,
      1.155651773198273,
      2.649360857177592,
      1.1129131876260219,
      1.177172752261943,
      1.9200230929213742,
      2.7781512503836434,
      1.2609795926275038,
      1.488490080245796,
      1.12321769632739,
      1.193091189801662,
      2.7781512503836434,
      1.1166143845258882,
      1.285206131107542,
      1.3959149568110454,
      1.3841185484246705,
      0.9077981835362798,
      0.7891645489630058,
      2.7781512503836434,
      2.7781512503836434,
      1.4655033068416246,
      0.9898189890146177,
      1.0215944515446236,
      2.7781512503836434,
      2.7781512503836434,
      2.7781512503836434,
      2.7781512503836434,
      2.7781512503836434,
      2.7781512503836434,
      2.7781512503836434,
      1.1120013954861887,
      1.2270275455377644,
      2.7781512503836434,
      1.1183474094751462,
      1.2285158471977426,
      1.123649140697355,
      1.1429585570391734,
      2.7781512503836434,
      1.0869681286998758,
      2.7781512503836434,
      1.1266086415069128,
      1.0200752503151695,
      2.7781512503836434,
      0.8465845028980461,
      0.7602414896794366,
      0.7675639853126701,
      0.7747431778790547,
      1.9003250628770172,
      1.2106154404071114,
      2.7781512503836434,
      1.0950158387033797,
      1.1113162929275264,
      0.8385972528166564,
      1.1476083155100139,
      1.1086529560805567,
      0.860559589976318,
      1.1942839520804218,
      1.15732376964209,
      2.7781512503836434,
      1.145149772134299,
      1.1028588728195234,
      1.1325414411437067,
      2.7781512503836434,
      1.124468358193365,
      2.7781512503836434,
      1.3335077289174548,
      0.9064158583202704,
      1.1225893747610427,
      2.7781512503836434,
      2.7781512503836434,
      1.1614099320918188,
      0.9287951376322439,
      2.7781512503836434,
      1.7941428440628564,
      1.1199582444753424,
      2.7781512503836434,
      1.170349739139184,
      2.7781512503836434,
      1.152190464174866,
      2.7781512503836434,
      0.8952291148413944,
      1.1285543461991554,
      1.3538643201110612,
      2.2609450631516834,
      0.20512312920365433,
      0.662417815976578,
      2.7781512503836434,
      1.3347029968176105,
      2.7781512503836434,
      2.357145352002989,
      2.7781512503836434,
      2.7781512503836434,
      1.1076677732318068,
      1.069490495567012,
      1.0549155000494805,
      1.5860300152231042,
      2.6262247454637784,
      1.0932605460283897,
      2.7781512503836434,
      2.7781512503836434,
      1.2082962090300209,
      1.1044529673222911,
      1.107121744620574,
      2.7781512503836434,
      1.5928792794387412,
      1.1328965718879223,
      2.7781512503836434,
      1.2437918257236205,
      2.528577484067063,
      1.603893182514713,
      1.114257267145905,
      1.1717001319779055,
      2.7781512503836434,
      0.7556919563301785,
      2.7781512503836434,
      0.6918238458196512,
      0.9954114094906067,
      0.9902189409847157,
      1.5616212712348476,
      2.7781512503836434,
      0.905353267973997,
      2.7781512503836434,
      0.6463449013162947,
      1.1562492210530777,
      0.7504621087811492,
      1.575587304488375,
      1.053197569877794,
      1.0683268917537445,
      0.8215135284047731,
      1.1096696480791226,
      2.7781512503836434,
      2.7781512503836434,
      0.8339244470595326,
      1.0773824420946516,
      1.2044374444379935,
      2.7781512503836434,
      1.5214832890719594,
      1.0841507111136914,
      1.0956748619335581,
      1.4594980326196918,
      2.7781512503836434,
      2.7781512503836434,
      2.7781512503836434,
      1.0751234090401756,
      0.9086833550131092,
      2.1983529743652617,
      2.7781512503836434,
      2.7781512503836434,
      2.7781512503836434,
      1.1015752462559336,
      1.391213954670616,
      0.8984948128216683,
      1.095190280781987,
      0.8853272894496828,
      0.8972971220594965,
      1.8060557751480693,
      2.7781512503836434,
      2.7781512503836434,
      2.4745057458102786,
      1.1959743335738489,
      1.1375977796998373,
      1.1399986582747943,
      1.492180477231123,
      1.1463544302103557,
      2.7781512503836434,
      1.1210277291747577,
      2.7781512503836434,
      0.8663523306740739,
      2.7781512503836434,
      1.18663713316636,
      1.1151110355043476,
      2.7781512503836434,
      1.1169330109846796,
      1.1244161832455961,
      2.5302568317129452,
      2.7781512503836434,
      1.5608149411970518,
      1.2756199740936103,
      1.121077026481405,
      0.9576408035327213,
      2.7781512503836434,
      1.3903432867624888,
      1.1226745132061984,
      1.474254153888232,
      1.6871988790149495,
      2.7377253209006676,
      1.3578415017519723,
      2.5673977703599813,
      1.2491616548981488,
      0.9911551646821483,
      1.0460188571753208,
      2.7781512503836434,
      2.7781512503836434,
      0.8282989084039472,
      1.1689627601705819,
      2.7781512503836434,
      1.1143006630457628,
      1.1247943096807596,
      2.7781512503836434,
      1.121730508405792,
      1.303392633810052,
      1.314804368931693,
      1.114530922570613,
      2.7781512503836434,
      2.7781512503836434,
      1.18004554907361,
      1.1921965558122247,
      1.2770450673508122,
      2.7781512503836434,
      0.9154209425720904,
      1.3230519278493686,
      2.7781512503836434,
      1.5092347906913202,
      1.2518911810837405,
      1.130195415624884,
      1.1183341811912375,
      2.7781512503836434,
      1.2033157937601013,
      2.7781512503836434,
      1.1460411680948095,
      1.1190050084647647,
      1.1753610307624234,
      2.7781512503836434,
      1.0816820824458915,
      2.7781512503836434,
      2.7781512503836434,
      2.7781512503836434,
      2.7781512503836434,
      2.7781512503836434,
      1.026255357894863,
      0.8286856699237671,
      0.8500700607474498,
      0.8600144115341141,
      1.188844146546897,
      1.2862430875739528,
      1.105455681650409,
      1.1147877348002877,
      2.7781512503836434,
      0.9029108035590342,
      1.069738377384421,
      2.7781512503836434,
      0.9973033624265889,
      2.7781512503836434,
      0.9831976439294998,
      1.1413306004423296,
      1.0330697416616534,
      1.1069248703356724,
      1.1938700538588796,
      1.110121497278811,
      2.7781512503836434,
      2.7781512503836434,
      2.7781512503836434,
      1.4490570140295136,
      1.0982836831802287,
      2.7781512503836434,
      1.1433770819122675,
      0.880653559569096,
      1.1568640066708231,
      1.1526643662088938,
      1.1161127381568756,
      2.7781512503836434,
      1.1570576504069054,
      1.5324779218037576,
      0.8790270294750542,
      2.7781512503836434,
      1.9651969957514317,
      1.1403477455966942,
      1.391843350465294,
      1.5907259480384097,
      1.1221339281863671,
      1.1291934561230883,
      1.3438397198403493,
      2.7781512503836434,
      1.1429929287582374,
      1.1195099234401311,
      1.511871334195927,
      1.1371863121396335,
      1.2836155260574722,
      2.7781512503836434,
      1.6216892358404593,
      1.2665444830836892,
      2.7781512503836434,
      1.1420795922406701,
      0.874476019336568
    ],
    "VERINET": [
      1.6366884479532828,
      2.7781512503836434,
      1.1065308538223813,
      2.7781512503836434,
      1.783832143384441,
      1.3535315590777621,
      1.165244326125311,
      1.212187604403958,
      2.7781512503836434,
      2.7781512503836434,
      1.5940609012704183,
      2.7781512503836434,
      1.7543483357110188,
      2.7781512503836434,
      2.6442218805653885,
      2.7781512503836434,
      2.7781512503836434,
      2.7781512503836434,
      1.1637575239819558,
      1.1541195255158467,
      1.1664301138432827,
      1.2757719001649315,
      2.7781512503836434,
      2.7781512503836434,
      1.105510184769974,
      1.6525364185930254,
      2.7781512503836434,
      2.7781512503836434,
      2.7781512503836434,
      2.7781512503836434,
      1.2685779718828432,
      2.7781512503836434,
      2.7781512503836434,
      2.7781512503836434,
      2.7781512503836434,
      1.1760912590556813,
      1.2688119037397805,
      1.3348556896172916,
      1.5982431916536226,
      1.1553360374650619,
      2.039176084376041,
      1.61689542640076,
      2.7781512503836434,
      1.320146286111054,
      1.2271150825891253,
      1.1889284837608534,
      2.7781512503836434,
      2.7781512503836434,
      1.1789769472931695,
      1.6183619311098782,
      2.307282047033346,
      1.2645817292380774,
      1.2571984261393445,
      1.39022836246913,
      1.1169396465507557,
      1.2674064187529042,
      2.7781512503836434,
      2.7781512503836434,
      2.7781512503836434,
      2.7781512503836434,
      1.1516762308470476,
      1.1931245983544616,
      2.6975083178660846,
      2.7781512503836434,
      1.151982395457474,
      2.7781512503836434,
      1.162564406523019,
      1.5087989654039051,
      1.1051694279993316,
      2.7781512503836434,
      1.1676126727275302,
      2.7781512503836434,
      1.2851070295668119,
      2.7781512503836434,
      2.7781512503836434,
      1.2000292665537702,
      1.150756439860309,
      2.7781512503836434,
      1.3077099234048066,
      2.7781512503836434,
      2.7781512503836434,
      2.7781512503836434,
      2.7781512503836434,
      1.230959555748569,
      1.165244326125311,
      2.7781512503836434,
      1.305566313515304,
      2.7781512503836434,
      1.3695868907363444,
      2.7781512503836434,
      2.7781512503836434,
      2.7781512503836434,
      2.7781512503836434,
      2.7781512503836434,
      1.1646502159342969,
      2.7781512503836434,
      2.7781512503836434,
      1.6889534626374179,
      1.3376588910261422,
      2.7781512503836434,
      2.304576688766113,
      1.142389466118836,
      2.7781512503836434,
      1.4356851379416298,
      1.2065560440990295,
      1.323870606540509,
      2.7781512503836434,
      2.7781512503836434,
      1.1258064581395268,
      1.375846436309156,
      1.1580607939366052,
      1.161667412437736,
      2.7781512503836434,
      2.7781512503836434,
      2.7781512503836434,
      2.7781512503836434,
      2.7781512503836434,
      1.8626679502285879,
      2.7781512503836434,
      1.1417632302757879,
      1.3780343224573315,
      2.7781512503836434,
      2.7781512503836434,
      1.2301933788690456,
      1.638389407665336,
      1.1498346967157849,
      2.7781512503836434,
      2.0837891882879784,
      1.2103185198262318,
      1.1510632533537501,
      2.669920938681443,
      1.2796669440484556,
      1.0993352776859577,
      2.7781512503836434,
      2.7781512503836434,
      1.345177616542704,
      2.7781512503836434,
      1.401572845676446,
      1.2482185611900747,
      2.7781512503836434,
      2.7781512503836434,
      2.7781512503836434,
      2.7781512503836434,
      1.2727695865517594,
      2.7781512503836434,
      2.7781512503836434,
      1.077731179652392,
      2.7781512503836434,
      2.7781512503836434,
      1.64777405026883,
      2.7781512503836434,
      1.18440748541232,
      2.7781512503836434,
      1.1095785469043866,
      2.7781512503836434,
      1.1544239731146468,
      2.37390459247497,
      2.7781512503836434,
      2.7781512503836434,
      1.2286569581089353,
      1.255754786643044,
      2.7781512503836434,
      2.7781512503836434,
      1.2457593559672768,
      2.7781512503836434,
      2.7781512503836434,
      2.7781512503836434,
      2.0594876842744467,
      2.7781512503836434,
      1.2397998184470986,
      2.7781512503836434,
      2.6937005739639597,
      1.0614524790871933,
      1.1789769472931695,
      2.7781512503836434,
      1.3374592612906562,
      2.7781512503836434,
      2.7781512503836434,
      1.2940250940953226,
      2.7781512503836434,
      1.5817221599490987,
      2.7781512503836434,
      2.2190341061448042,
      1.1634595517699902,
      2.7781512503836434,
      2.7781512503836434,
      1.1528995963937476,
      1.3269499941659988,
      2.7781512503836434,
      2.7781512503836434,
      2.7781512503836434,
      1.3951515915045425,
      2.0396520235819238,
      2.7781512503836434,
      1.9037951427410353,
      1.2805783703680762,
      2.7781512503836434,
      1.177536499929862,
      2.7781512503836434,
      2.7781512503836434,
      1.1112625136590653,
      1.2469906992415498,
      1.252367514459899,
      1.2253092817258628,
      1.2555137128195333,
      1.9779978099587396,
      2.7781512503836434,
      2.7781512503836434,
      2.7781512503836434,
      1.083860800866573,
      2.7781512503836434,
      1.3984608496082234,
      1.467460109507264,
      1.2796669440484556,
      1.2286569581089353,
      2.7781512503836434,
      1.4804381471778172,
      1.7188337183038622,
      2.7781512503836434,
      1.323252100171687,
      1.6447339274471926,
      2.7781512503836434,
      2.7781512503836434,
      1.1942367487238292,
      2.7781512503836434,
      1.353916230920363,
      1.5836521085420439,
      2.7781512503836434,
      1.1920095926536702,
      1.6045500325712614,
      2.7781512503836434,
      2.77522439872954,
      1.2137832993353042,
      1.4496326504700745,
      2.7781512503836434,
      2.7781512503836434,
      2.7781512503836434,
      1.330007700872759,
      1.5589484459780396,
      2.7781512503836434,
      2.7781512503836434,
      2.7781512503836434,
      2.7781512503836434,
      2.7781512503836434,
      2.7781512503836434,
      2.7781512503836434,
      1.420450859106068,
      2.4108615542165976,
      2.7781512503836434,
      1.607025878434786,
      2.6182050422592695,
      1.6852041344710147,
      1.6690378008851559,
      2.7781512503836434,
      1.209515014542631,
      2.7781512503836434,
      1.467312062980552,
      2.7781512503836434,
      2.7781512503836434,
      1.2913688504515826,
      1.2242740142942576,
      1.1670217957902564,
      1.1258064581395268,
      2.7781512503836434,
      2.083932401638626,
      2.7781512503836434,
      1.2116544005531824,
      1.2960066693136723,
      1.1322596895310446,
      1.605520523437469,
      1.2615007731982801,
      1.221153321954705,
      1.9577030415488315,
      2.3543965920819376,
      2.7781512503836434,
      1.4970679363985049,
      1.1869563354654122,
      1.1583624920952498,
      2.7781512503836434,
      1.2995072987004876,
      2.7781512503836434,
      2.525796069711892,
      1.2156375634350618,
      1.2814878879400813,
      2.7781512503836434,
      2.7781512503836434,
      1.4784221877400805,
      1.200303182981585,
      2.7781512503836434,
      2.7781512503836434,
      1.1934029030624176,
      2.7781512503836434,
      1.4831592097169797,
      2.7781512503836434,
      1.7494270991217489,
      2.7781512503836434,
      1.2442771208018428,
      1.353916230920363,
      2.7781512503836434,
      2.7781512503836434,
      1.196452541703389,
      1.2826221128780626,
      2.7781512503836434,
      2.7781512503836434,
      2.7781512503836434,
      2.7781512503836434,
      2.7781512503836434,
      2.7781512503836434,
      1.7325545798514321,
      1.1878026387184193,
      1.1562461903973444,
      2.7781512503836434,
      2.7781512503836434,
      1.2460059040760292,
      2.7781512503836434,
      2.7781512503836434,
      1.359835482339888,
      1.2151085810530933,
      1.2242740142942576,
      2.7781512503836434,
      2.7781512503836434,
      1.326540668516562,
      2.7781512503836434,
      1.1835545336188618,
      2.7781512503836434,
      2.7781512503836434,
      1.2177470732627937,
      1.7849024498866548,
      2.7781512503836434,
      1.2242740142942576,
      2.7781512503836434,
      1.1319392952104246,
      1.7217281985727881,
      1.6012993101943376,
      2.7781512503836434,
      2.7781512503836434,
      1.630122642859312,
      2.7781512503836434,
      1.1498346967157849,
      2.7636899887769264,
      1.2068258760318498,
      2.7781512503836434,
      1.1758016328482794,
      1.160768561861128,
      1.1997551772534747,
      1.38524868240322,
      2.7781512503836434,
      2.7781512503836434,
      1.1082266563749286,
      1.2496874278053016,
      2.5465303253914557,
      2.7781512503836434,
      2.7781512503836434,
      1.2289134059946882,
      1.2242740142942576,
      2.7781512503836434,
      2.7781512503836434,
      2.7781512503836434,
      2.7781512503836434,
      2.3605744813966325,
      1.6909045540549665,
      2.7781512503836434,
      2.5408923160154697,
      2.7781512503836434,
      2.7781512503836434,
      1.330210784571528,
      2.7781512503836434,
      1.252853030979893,
      1.2571984261393445,
      1.1649473726218416,
      1.1448854182871424,
      2.7781512503836434,
      2.7781512503836434,
      2.7781512503836434,
      2.7781512503836434,
      2.373959669875467,
      1.2574385668598138,
      1.3791241460703918,
      2.7781512503836434,
      1.1903316981702914,
      2.7781512503836434,
      1.2000292665537702,
      2.7781512503836434,
      1.1112625136590653,
      2.7781512503836434,
      2.1284961986327056,
      1.2111205412580495,
      2.7781512503836434,
      1.252610340567373,
      1.470704429722788,
      2.7781512503836434,
      2.7781512503836434,
      2.7781512503836434,
      1.8569704334824924,
      1.2052043639481447,
      1.70372115992702,
      2.7781512503836434,
      2.7781512503836434,
      1.2317243833285165,
      2.7781512503836434,
      1.4119562379304016,
      2.7781512503836434,
      2.7781512503836434,
      2.7781512503836434,
      2.7781512503836434,
      1.3498600821923312,
      1.4139699717480614,
      2.7781512503836434,
      2.7781512503836434,
      1.1139433523068367,
      1.373095987078727,
      2.7781512503836434,
      1.119585774961784,
      1.380934463330702,
      2.7781512503836434,
      1.3400473176613932,
      2.7781512503836434,
      2.392820015230385,
      1.1826999033360426,
      2.7781512503836434,
      2.7781512503836434,
      2.203250523943296,
      1.9079485216122722,
      1.3552599055273784,
      2.7781512503836434,
      1.2038484637462348,
      2.6860729297274872,
      2.7781512503836434,
      2.7781512503836434,
      1.1723109685219542,
      1.1978316933289028,
      1.318897714627487,
      2.7781512503836434,
      1.9305924884425982,
      2.7781512503836434,
      1.1956229435869368,
      1.2511513431753545,
      1.594282028811806,
      2.7781512503836434,
      2.7781512503836434,
      2.7781512503836434,
      2.7781512503836434,
      2.7781512503836434,
      2.7781512503836434,
      2.7781512503836434,
      1.216165902285993,
      1.1784013415337553,
      1.139249217571607,
      1.2442771208018428,
      1.805772631935669,
      2.7781512503836434,
      1.2214142378423387,
      1.1690863574870227,
      2.7781512503836434,
      1.494850021680094,
      2.7781512503836434,
      2.7781512503836434,
      1.8767372971406646,
      2.7781512503836434,
      1.255272505103306,
      2.6274887527352035,
      1.2116544005531824,
      1.4507108781469193,
      1.395850376018781,
      1.1565491513317814,
      2.7781512503836434,
      2.7781512503836434,
      2.7781512503836434,
      2.7781512503836434,
      1.2683439139510646,
      2.7781512503836434,
      1.5907304057926903,
      1.2513948500401042,
      1.7353593330017107,
      1.767526899408382,
      1.2631624649622166,
      2.7781512503836434,
      1.4350476413399647,
      2.7781512503836434,
      1.1541195255158467,
      2.7781512503836434,
      2.7781512503836434,
      1.2276296495710086,
      2.7781512503836434,
      2.7781512503836434,
      1.2518814545525276,
      1.388988785124714,
      2.7781512503836434,
      2.7781512503836434,
      1.1535099893008376,
      1.1861083798132053,
      2.7781512503836434,
      1.3651134316275773,
      2.7781512503836434,
      2.7781512503836434,
      2.7781512503836434,
      2.168025808774629,
      2.7781512503836434,
      1.6344772701607315,
      1.1559430179718369
    ],
    "Algorithm Selection": [
      0.9672670915597856,
      1.8941315591327927,
      1.0419923869255372,
      1.7781512503836436,
      1.3432115901797474,
      1.2977211274460734,
      1.0598813549958725,
      1.3670501297261852,
      2.3564427328093442,
      1.7781512503836436,
      1.4173288424638582,
      1.7781512503836436,
      1.4348147217696143,
      1.7145644500951234,
      1.6875681975473191,
      1.7781512503836436,
      1.6716873943458541,
      1.7503911272243657,
      1.352051244830092,
      1.4085587832703512,
      1.4439854278665258,
      1.4155175453379523,
      1.7781512503836436,
      1.822564911190907,
      1.1664537966048711,
      1.477216788997296,
      1.7781512503836436,
      1.7781512503836436,
      2.7993405494535817,
      1.8927805800013853,
      1.4209816505347064,
      1.5684270292375335,
      1.7212878287645785,
      1.7936947176531124,
      1.7781512503836436,
      1.2200034261569355,
      1.447945251710936,
      1.1094232934684167,
      1.1996674321310623,
      1.2643974869566992,
      1.4159877433125896,
      1.3049426824024648,
      1.4491265012702992,
      1.166436034654755,
      1.278502094493883,
      1.306532247519607,
      1.38364304969121,
      1.7781512503836436,
      1.123995293576263,
      1.4285980104230245,
      1.471024596512919,
      1.3938909390027987,
      1.3932873329544129,
      1.3907302695366575,
      1.1776865292489402,
      1.390352125833223,
      1.7781512503836436,
      2.7993405494535817,
      1.7781512503836436,
      1.7781512503836436,
      1.1445804340091679,
      1.1617272697160201,
      1.2612295517734866,
      1.7781512503836436,
      1.1783955816217941,
      1.7781512503836436,
      1.0202369439108077,
      1.3074104542136744,
      1.0179010608300072,
      1.5621429177389223,
      1.1687390184314639,
      1.7781512503836436,
      1.4116062392588802,
      1.7781512503836436,
      1.7781512503836436,
      1.1642874092191482,
      1.398207451708889,
      1.9479813913541846,
      1.4322282751033346,
      1.717667175062447,
      1.7781512503836436,
      1.6784983482247209,
      1.7781512503836436,
      1.4422602145605619,
      1.2108480201191454,
      1.6858455986770196,
      1.412746063080841,
      1.7781512503836436,
      1.4492530938833965,
      1.810272180850186,
      1.7781512503836436,
      1.7781512503836436,
      1.7781512503836436,
      1.7781512503836436,
      1.1713109700136872,
      1.7781512503836436,
      1.7781512503836436,
      1.4608377286334118,
      1.435662841356283,
      1.5274906981372296,
      1.3519276572488144,
      1.2705251175987715,
      2.285250269059984,
      1.3117538610557544,
      1.431820337532326,
      1.3418656371683775,
      1.6787168162917736,
      1.7781512503836436,
      1.1121221838284785,
      1.3900691863016368,
      1.1648107057978379,
      1.4029144828315234,
      1.7781512503836436,
      1.7781512503836436,
      1.7781512503836436,
      1.7781512503836436,
      2.1169937226343625,
      1.5127884223619141,
      1.7872315771483869,
      1.1591037788328733,
      1.4230360508294728,
      1.7781512503836436,
      1.7781512503836436,
      1.428866643857939,
      1.4768634968513348,
      1.4228490917384033,
      1.7781512503836436,
      1.5078369889165544,
      1.4779340719477754,
      1.3545156394733922,
      1.571303456403873,
      1.4227703480364668,
      1.400365273349939,
      2.229789059127882,
      1.5879577806232366,
      1.247983080815472,
      1.7032414958878441,
      1.2652660478873776,
      1.0499928569201427,
      1.7781512503836436,
      1.7781512503836436,
      1.6882952114481566,
      2.283444612688604,
      1.2724821247569171,
      1.7781512503836436,
      1.8274371262657285,
      1.127726625673384,
      1.7781512503836436,
      1.7781512503836436,
      1.4432097733432243,
      1.7781512503836436,
      1.3959062302381242,
      1.8115414942009982,
      1.3969417220695153,
      1.7309759697817995,
      0.9049426386746241,
      1.3368678188999203,
      1.7781512503836436,
      1.8762386307872911,
      1.0872559727597384,
      1.4745717153998739,
      1.7781512503836436,
      1.7781512503836436,
      1.3289989996671467,
      1.7781512503836436,
      1.7781512503836436,
      2.681080790216925,
      1.4771762618703241,
      1.7781512503836436,
      1.176525336535,
      1.7781512503836436,
      1.5191793480674647,
      1.1680140103399335,
      1.4771733669308207,
      1.7781512503836436,
      1.4022373020930536,
      1.7781512503836436,
      1.7781512503836436,
      1.4315374472174522,
      1.7781512503836436,
      1.4563751441065207,
      1.8336493530388887,
      1.5663290523557887,
      1.4631341766447807,
      1.7781512503836436,
      1.7781512503836436,
      1.4166438352525947,
      1.4433412316678795,
      1.8303647279832314,
      1.7781512503836436,
      1.821241599836061,
      1.422970460313603,
      1.5117978299514143,
      1.7781512503836436,
      1.513340144410149,
      1.4172590610684912,
      1.7781512503836436,
      1.4329436491148244,
      1.7781512503836436,
      1.7781512503836436,
      0.8719930172957718,
      1.0131996882166352,
      1.0824622211686294,
      1.3401743322069803,
      1.3297394848966706,
      1.4201142453067854,
      1.7781512503836436,
      2.035225952231673,
      1.7781512503836436,
      1.1528934881302306,
      1.5552952179973112,
      1.4245582444234777,
      1.3901187140280769,
      1.3922289994895662,
      1.5296869537729165,
      1.7781512503836436,
      1.4249404093508544,
      1.4566817688622542,
      2.67763131267315,
      1.4139431832900031,
      1.4782027479259243,
      2.053772759349774,
      1.7781512503836436,
      1.4952667443878105,
      1.7838728632807557,
      1.4242476919913714,
      1.4941211854656433,
      1.7781512503836436,
      1.4176443801898695,
      1.5862361267715233,
      1.6969449524750266,
      1.6851485440886518,
      1.208828179200261,
      1.090194544626987,
      1.7781512503836436,
      1.7781512503836436,
      1.7665333025056058,
      1.2908489846785989,
      1.3226244472086048,
      1.7781512503836436,
      1.7781512503836436,
      1.7781512503836436,
      1.7781512503836436,
      1.7781512503836436,
      1.7781512503836436,
      1.7781512503836436,
      1.41303139115017,
      1.5280575412017456,
      1.7781512503836436,
      1.4193774051391275,
      1.529545842861724,
      1.4246791363613363,
      1.4439885527031546,
      1.7781512503836436,
      1.387998124363857,
      1.7781512503836436,
      1.427638637170894,
      1.3211052459791508,
      2.7993405494535817,
      1.1476144985620274,
      1.0612714853434178,
      1.0685939809766514,
      1.0757731735430358,
      2.039383578673005,
      1.5116454360710927,
      1.7781512503836436,
      1.396045834367361,
      1.4123462885915077,
      1.1396272484806376,
      1.448638311173995,
      1.409682951744538,
      1.1615895856402991,
      1.495313947744403,
      1.4583537653060712,
      1.7781512503836436,
      1.4461797677982802,
      1.4038888684835047,
      1.433571436807688,
      1.7781512503836436,
      1.4254983538573462,
      2.7993405494535817,
      1.634537724581436,
      1.2074458539842516,
      1.423619370425024,
      1.7781512503836436,
      1.7781512503836436,
      1.4624399277558,
      1.2298251332962251,
      1.7781512503836436,
      1.9649687287243498,
      1.4209882401393237,
      2.7993405494535817,
      1.4713797348031652,
      1.7781512503836436,
      1.4532204598388472,
      1.7781512503836436,
      1.1962591105053757,
      1.4295843418631367,
      1.6548943157750424,
      2.3270860095252637,
      0.5061531248676355,
      0.9634478116405591,
      1.7781512503836436,
      1.6357329924815918,
      1.7781512503836436,
      2.410922086483619,
      1.7781512503836436,
      1.7781512503836436,
      1.408697768895788,
      1.3705204912309932,
      1.3559454957134618,
      1.836010626834489,
      1.7781512503836436,
      1.394290541692371,
      1.7781512503836436,
      1.7781512503836436,
      1.5093262046940021,
      1.4054829629862724,
      1.4081517402845554,
      1.7781512503836436,
      1.8398757066608664,
      1.4339265675519035,
      1.7781512503836436,
      1.484584529282843,
      1.7781512503836436,
      1.8461465251597677,
      1.4152872628098863,
      1.4727301276418867,
      1.7781512503836436,
      1.0567219519941597,
      1.7781512503836436,
      0.9928538414836324,
      1.2964414051545878,
      1.291248936648697,
      1.8224531550523693,
      2.7993405494535817,
      1.206383263637978,
      1.7781512503836436,
      0.947374896980276,
      1.457279216717059,
      1.0514921044451304,
      1.830168925894647,
      1.3542275655417753,
      1.3693568874177258,
      1.1225435240687542,
      1.4106996437431039,
      1.7781512503836436,
      1.7781512503836436,
      1.1349544427235139,
      1.3784124377586329,
      1.5054674401019748,
      1.7781512503836436,
      1.8008984545533044,
      1.3851807067776727,
      1.3967048575975394,
      1.760528028283673,
      1.7781512503836436,
      1.7781512503836436,
      1.7781512503836436,
      1.3761534047041568,
      1.2097133506770903,
      1.7781512503836436,
      1.7781512503836436,
      1.7781512503836436,
      1.7781512503836436,
      1.4026052419199149,
      1.6922439503345972,
      1.1995248084856496,
      1.3962202764459684,
      1.186357285113664,
      1.1983271177234778,
      1.973043296549263,
      1.7781512503836436,
      1.7781512503836436,
      2.5161368564734894,
      1.4970043292378301,
      1.4386277753638186,
      1.4410286539387756,
      1.785746130953068,
      1.447384425874337,
      1.7781512503836436,
      1.422057724838739,
      1.7781512503836436,
      1.1673823263380552,
      1.7781512503836436,
      1.4876671288303414,
      1.416141031168329,
      1.7781512503836436,
      1.4179630066486608,
      1.4254461789095774,
      2.567078854948807,
      1.7781512503836436,
      1.8220110770832794,
      1.5766499697575915,
      1.4221070221453862,
      1.2586707991967025,
      1.7781512503836436,
      1.69137328242647,
      1.4237045088701796,
      1.7752841495522134,
      1.7129862335943828,
      1.7781512503836436,
      1.6588714974159535,
      1.7781512503836436,
      1.55019165056213,
      1.2921851603461294,
      1.347048852839302,
      1.7781512503836436,
      1.7781512503836436,
      1.1293289040679284,
      1.4699927558345631,
      2.7993405494535817,
      1.415330658709744,
      1.4258243053447408,
      1.7781512503836436,
      1.4227605040697733,
      1.6044226294740334,
      1.6158343645956743,
      1.4155609182345943,
      1.7781512503836436,
      1.7781512503836436,
      1.4810755447375912,
      1.493226551476206,
      1.5780750630147935,
      1.7781512503836436,
      1.2164509382360715,
      1.62408192351335,
      1.7781512503836436,
      1.794504776782453,
      1.4733409641859354,
      1.4312254112888652,
      1.4193641768552188,
      1.7781512503836436,
      1.5043457894240826,
      1.7781512503836436,
      1.4470711637587907,
      1.420035004128746,
      1.4763910264264046,
      2.7993405494535817,
      1.3827120781098727,
      1.7781512503836436,
      1.7781512503836436,
      1.7781512503836436,
      1.7781512503836436,
      1.7781512503836436,
      1.3272853535588442,
      1.1297156655877483,
      1.151100056411431,
      1.1610444071980952,
      1.4898741422108783,
      1.587273083237934,
      1.4064856773143903,
      1.415817730464269,
      1.7781512503836436,
      1.2039407992230153,
      1.3707683730484022,
      1.7781512503836436,
      1.29833335809057,
      1.7781512503836436,
      1.284227639593481,
      1.4423605961063108,
      1.3340997373256347,
      1.4079548659996537,
      1.4949000495228608,
      1.4111514929427922,
      1.7781512503836436,
      1.7781512503836436,
      1.7781512503836436,
      1.7500870096934948,
      1.39931367884421,
      1.7781512503836436,
      1.4444070775762488,
      1.181683555233077,
      1.4578940023348044,
      1.453694361872875,
      1.4171427338208569,
      1.7781512503836436,
      1.4580876460708867,
      1.806710981378105,
      1.1800570251390354,
      1.7781512503836436,
      2.087422905963044,
      1.4413777412606754,
      1.6928733461292753,
      1.8386577072373609,
      1.4231639238503484,
      1.4302234517870696,
      1.6448697155043306,
      1.7781512503836436,
      1.4440229244222187,
      1.4205399191041124,
      1.7958737634585076,
      1.4382163078036148,
      1.5846455217214535,
      1.7781512503836436,
      1.8564231457788436,
      1.5675744787476704,
      1.7781512503836436,
      1.4431095879046514,
      1.1755060150005492
    ]
  }
}