{
  "results": {
    "Vanilla Verifier": [
      2.0,
      1.0,
      1.0,
      1.0,
      1.0,
      1.0,
      1.0,
      1.0,
      1.0,
      1.0,
      2.0,
      0.0,
      2.0,
      2.0,
      1.0,
      1.0,
      1.0,
      2.0,
      2.0,
      1.0,
      0.0,
      1.0,
      1.0,
      1.0,
      2.0,
      1.0,
      1.0,
      2.0,
      2.0,
      1.0,
      1.0,
      2.0,
      1.0,
      2.0,
      1.0,
      1.0,
      2.0,
      1.0,
      1.0,
      1.0,
      2.0,
      1.0,
      2.0,
      1.0,
      1.0,
      1.0,
      1.0,
      1.0,
      1.0,
      1.0,
      1.0,
      2.0,
      2.0,
      1.0,
      1.0,
      1.0,
      1.0,
      1.0,
      2.0,
      2.0,
      2.0,
      1.0,
      1.0,
      2.0,
      0.0,
      0.0,
      2.0,
      1.0,
      1.0,
      1.0,
      1.0,
      1.0,
      1.0,
      2.0,
      1.0,
      2.0,
      1.0,
      2.0,
      2.0,
      2.0,
      1.0,
      2.0,
      1.0,
      1.0,
      1.0,
      1.0,
      2.0,
      1.0,
      2.0,
      1.0,
      0.0,
      1.0,
      1.0,
      1.0,
      1.0,
      1.0,
      2.0,
      1.0,
      1.0,
      2.0,
      1.0,
      1.0,
      1.0,
      1.0,
      1.0,
      1.0,
      2.0,
      0.0,
      1.0,
      1.0,
      1.0,
      1.0,
      2.0,
      2.0,
      1.0,
      1.0,
      2.0,
      1.0,
      1.0,
      2.0,
      1.0,
      1.0,
      1.0,
      1.0,
      1.0,
      1.0,
      1.0,
      1.0,
      1.0,
      1.0,
      1.0,
      2.0,
      1.0,
      2.0,
      1.0,
      2.0,
      1.0,
      1.0,
      1.0,
      0.0,
      1.0,
      1.0,
      2.0,
      0.0,
      1.0,
      2.0,
      2.0,
      1.0,
      1.0,
      0.0,
      1.0,
      2.0,
      2.0,
      2.0,
      1.0,
      2.0,
      1.0,
      1.0,
      2.0,
      2.0,
      1.0,
      0.0,
      2.0,
      2.0,
      1.0,
      1.0,
      1.0,
      1.0,
      1.0,
      1.0,
      2.0,
      1.0,
      1.0,
      1.0,
      2.0,
      1.0,
      2.0,
      2.0,
      1.0,
      1.0,
      1.0,
      2.0,
      2.0,
      1.0,
      2.0,
      1.0,
      2.0,
      2.0,
      2.0,
      1.0,
      2.0,
      1.0,
      1.0,
      1.0,
      1.0,
      1.0,
      1.0,
      1.0,
      1.0,
      1.0,
      2.0,
      2.0,
      2.0,
      1.0,
      2.0,
      1.0,
      2.0,
      2.0,
      1.0,
      1.0,
      1.0,
      1.0,
      2.0,
      1.0,
      1.0,
      2.0,
      1.0,
      1.0,
      1.0,
      1.0,
      1.0,
      1.0,
      2.0,
      1.0,
      1.0,
      1.0,
      0.0,
      2.0,
      1.0,
      0.0,
      1.0,
      2.0,
      1.0,
      1.0,
      0.0,
      2.0,
      2.0,
      1.0,
      0.0,
      1.0,
      1.0,
      1.0,
      1.0,
      2.0,
      1.0,
      2.0,
      1.0,
      2.0,
      1.0,
      1.0,
      1.0,
      1.0,
      1.0,
      2.0,
      2.0,
      1.0,
      0.0,
      1.0,
      2.0,
      2.0,
      0.0,
      1.0,
      1.0,
      2.0,
      1.0,
      1.0,
      1.0,
      1.0,
      1.0,
      2.0,
      1.0,
      1.0,
      2.0,
      1.0,
      1.0,
      2.0,
      1.0,
      1.0,
      2.0,
      0.0,
      1.0,
      2.0,
      1.0,
      2.0,
      1.0,
      1.0,
      0.0,
      1.0,
      1.0,
      2.0,
      0.0,
      1.0,
      1.0,
      2.0,
      1.0,
      1.0,
      1.0,
      2.0,
      1.0,
      1.0,
      1.0,
      1.0,
      0.0,
      1.0,
      1.0,
      1.0,
      0.0,
      2.0,
      1.0,
      1.0,
      1.0,
      1.0,
      2.0,
      2.0,
      1.0,
      1.0,
      1.0,
      1.0,
      1.0,
      1.0,
      1.0,
      2.0,
      1.0,
      1.0,
      2.0,
      1.0,
      1.0,
      1.0,
      2.0,
      1.0,
      1.0,
      2.0,
      2.0,
      1.0,
      2.0,
      1.0,
      1.0,
      0.0,
      1.0,
      0.0,
      2.0,
      2.0,
      2.0,
      2.0,
      2.0,
      1.0,
      1.0,
      2.0,
      1.0,
      1.0,
      1.0,
      1.0,
      1.0,
      2.0,
      1.0,
      1.0,
      1.0,
      2.0,
      1.0,
      1.0,
      1.0,
      1.0,
      2.0,
      1.0,
      1.0,
      1.0,
      0.0,
      1.0,
      1.0,
      1.0,
      1.0,
      2.0,
      2.0,
      1.0,
      1.0,
      2.0,
      1.0,
      2.0,
      1.0,
      2.0,
      0.0,
      2.0,
      1.0,
      1.0,
      1.0,
      1.0,
      1.0,
      2.0,
      2.0,
      2.0,
      1.0,
      1.0,
      1.0,
      1.0,
      1.0,
      2.0,
      2.0,
      2.0,
      1.0,
      1.0,
      1.0,
      2.0,
      1.0,
      1.0,
      1.0,
      2.0,
      2.0,
      1.0,
      1.0,
      1.0,
      1.0,
      2.0,
      1.0,
      2.0,
      2.0,
      1.0,
      2.0,
      1.0,
      1.0,
      1.0,
      1.0,
      1.0,
      0.0,
      1.0,
      1.0,
      2.0,
      2.0,
      1.0,
      1.0,
      1.0,
      1.0,
      1.0,
      1.0,
      1.0,
      2.0,
      2.0,
      2.0,
      1.0,
      1.0,
      2.0,
      1.0,
      2.0,
      1.0,
      1.0,
      2.0,
      1.0,
      0.0,
      2.0,
      1.0,
      0.0,
      1.0,
      2.0,
      1.0,
      1.0,
      1.0,
      0.0,
      1.0,
      2.0,
      1.0,
      1.0,
      2.0,
      0.0,
      2.0,
      1.0,
      2.0,
      1.0,
      2.0,
      1.0,
      0.0,
      2.0,
      1.0,
      1.0,
      1.0,
      1.0,
      2.0,
      1.0,
      1.0,
      1.0,
      1.0,
      1.0,
      1.0,
      2.0,
      1.0,
      2.0,
      2.0,
      1.0,
      1.0,
      1.0,
      2.0,
      1.0,
      1.0,
      1.0,
      1.0,
      1.0,
      1.0,
      1.0,
      1.0,
      2.0,
      1.0,
      2.0
    ],
    "Timeout Prediction": [
      2.0,
      1.0,
      1.0,
      1.0,
      1.0,
      1.0,
      1.0,
      1.0,
      1.0,
      1.0,
      2.0,
      0.0,
      2.0,
      2.0,
      1.0,
      1.0,
      1.0,
      2.0,
      2.0,
      1.0,
      0.0,
      1.0,
      1.0,
      1.0,
      2.0,
      1.0,
      1.0,
      2.0,
      2.0,
      1.0,
      1.0,
      2.0,
      1.0,
      2.0,
      1.0,
      1.0,
      2.0,
      1.0,
      1.0,
      1.0,
      2.0,
      1.0,
      2.0,
      1.0,
      1.0,
      1.0,
      1.0,
      1.0,
      1.0,
      1.0,
      1.0,
      2.0,
      2.0,
      2.0,
      1.0,
      1.0,
      1.0,
      1.0,
      2.0,
      2.0,
      2.0,
      1.0,
      1.0,
      2.0,
      0.0,
      0.0,
      2.0,
      1.0,
      1.0,
      1.0,
      1.0,
      1.0,
      1.0,
      2.0,
      1.0,
      2.0,
      1.0,
      2.0,
      2.0,
      2.0,
      1.0,
      2.0,
      1.0,
      1.0,
      1.0,
      1.0,
      2.0,
      1.0,
      2.0,
      1.0,
      0.0,
      2.0,
      1.0,
      1.0,
      1.0,
      1.0,
      2.0,
      1.0,
      1.0,
      2.0,
      1.0,
      1.0,
      1.0,
      1.0,
      1.0,
      1.0,
      2.0,
      0.0,
      1.0,
      1.0,
      1.0,
      1.0,
      2.0,
      2.0,
      1.0,
      1.0,
      2.0,
      1.0,
      1.0,
      2.0,
      1.0,
      1.0,
      1.0,
      1.0,
      1.0,
      1.0,
      1.0,
      1.0,
      1.0,
      1.0,
      1.0,
      2.0,
      1.0,
      2.0,
      1.0,
      2.0,
      1.0,
      1.0,
      1.0,
      0.0,
      1.0,
      1.0,
      2.0,
      0.0,
      1.0,
      2.0,
      2.0,
      1.0,
      1.0,
      0.0,
      1.0,
      2.0,
      2.0,
      2.0,
      1.0,
      2.0,
      1.0,
      1.0,
      2.0,
      2.0,
      1.0,
      0.0,
      2.0,
      2.0,
      1.0,
      1.0,
      1.0,
      1.0,
      1.0,
      1.0,
      2.0,
      1.0,
      1.0,
      1.0,
      2.0,
      1.0,
      2.0,
      2.0,
      1.0,
      1.0,
      1.0,
      2.0,
      2.0,
      1.0,
      2.0,
      1.0,
      2.0,
      2.0,
      2.0,
      1.0,
      2.0,
      1.0,
      1.0,
      1.0,
      1.0,
      1.0,
      1.0,
      1.0,
      1.0,
      1.0,
      2.0,
      2.0,
      2.0,
      1.0,
      2.0,
      1.0,
      2.0,
      2.0,
      1.0,
      1.0,
      1.0,
      1.0,
      2.0,
      1.0,
      1.0,
      2.0,
      1.0,
      1.0,
      1.0,
      1.0,
      1.0,
      1.0,
      2.0,
      2.0,
      1.0,
      1.0,
      0.0,
      2.0,
      1.0,
      0.0,
      1.0,
      2.0,
      1.0,
      1.0,
      0.0,
      2.0,
      2.0,
      1.0,
      0.0,
      1.0,
      2.0,
      1.0,
      1.0,
      2.0,
      1.0,
      2.0,
      1.0,
      2.0,
      1.0,
      1.0,
      1.0,
      1.0,
      1.0,
      2.0,
      2.0,
      2.0,
      0.0,
      1.0,
      2.0,
      2.0,
      0.0,
      1.0,
      1.0,
      2.0,
      1.0,
      1.0,
      1.0,
      1.0,
      1.0,
      2.0,
      1.0,
      1.0,
      2.0,
      1.0,
      1.0,
      2.0,
      1.0,
      1.0,
      2.0,
      0.0,
      1.0,
      2.0,
      1.0,
      2.0,
      1.0,
      1.0,
      2.0,
      1.0,
      1.0,
      2.0,
      0.0,
      1.0,
      1.0,
      2.0,
      1.0,
      1.0,
      1.0,
      2.0,
      1.0,
      1.0,
      1.0,
      1.0,
      0.0,
      1.0,
      1.0,
      1.0,
      0.0,
      2.0,
      1.0,
      1.0,
      1.0,
      1.0,
      2.0,
      2.0,
      1.0,
      1.0,
      1.0,
      1.0,
      1.0,
      1.0,
      1.0,
      2.0,
      1.0,
      1.0,
      2.0,
      1.0,
      1.0,
      1.0,
      2.0,
      1.0,
      1.0,
      2.0,
      2.0,
      1.0,
      2.0,
      1.0,
      1.0,
      0.0,
      1.0,
      0.0,
      2.0,
      2.0,
      2.0,
      2.0,
      2.0,
      1.0,
      1.0,
      2.0,
      1.0,
      1.0,
      1.0,
      1.0,
      1.0,
      2.0,
      1.0,
      1.0,
      1.0,
      2.0,
      1.0,
      1.0,
      1.0,
      1.0,
      2.0,
      1.0,
      1.0,
      1.0,
      0.0,
      1.0,
      1.0,
      1.0,
      1.0,
      2.0,
      2.0,
      1.0,
      1.0,
      2.0,
      1.0,
      2.0,
      1.0,
      2.0,
      0.0,
      2.0,
      1.0,
      1.0,
      1.0,
      1.0,
      1.0,
      2.0,
      2.0,
      2.0,
      1.0,
      1.0,
      1.0,
      1.0,
      1.0,
      2.0,
      2.0,
      2.0,
      1.0,
      1.0,
      1.0,
      2.0,
      1.0,
      1.0,
      1.0,
      2.0,
      2.0,
      1.0,
      1.0,
      1.0,
      1.0,
      2.0,
      1.0,
      2.0,
      2.0,
      1.0,
      2.0,
      1.0,
      1.0,
      1.0,
      1.0,
      1.0,
      0.0,
      1.0,
      2.0,
      2.0,
      2.0,
      1.0,
      1.0,
      2.0,
      1.0,
      1.0,
      1.0,
      1.0,
      2.0,
      2.0,
      2.0,
      1.0,
      1.0,
      2.0,
      1.0,
      2.0,
      1.0,
      1.0,
      2.0,
      1.0,
      0.0,
      2.0,
      1.0,
      0.0,
      1.0,
      2.0,
      1.0,
      1.0,
      1.0,
      0.0,
      1.0,
      2.0,
      1.0,
      1.0,
      2.0,
      0.0,
      2.0,
      1.0,
      2.0,
      2.0,
      2.0,
      1.0,
      0.0,
      2.0,
      1.0,
      1.0,
      1.0,
      1.0,
      2.0,
      1.0,
      1.0,
      1.0,
      1.0,
      1.0,
      1.0,
      2.0,
      1.0,
      2.0,
      2.0,
      1.0,
      1.0,
      1.0,
      2.0,
      1.0,
      1.0,
      1.0,
      2.0,
      1.0,
      1.0,
      1.0,
      1.0,
      2.0,
      1.0,
      2.0
    ]
  },
  "running_times": {
    "Vanilla Verifier": [
      2.782522787298394,
      2.33429287154846,
      1.6568644915489172,
      1.9217384836845988,
      1.8516863154424275,
      1.7468676278504294,
      1.6011905326153335,
      1.6206564798196208,
      1.8980117387975015,
      1.7209031708134575,
      2.781827152932428,
      1.1287222843384268,
      2.785429497717888,
      2.7802668936021475,
      1.7610252517113727,
      1.7405205860536648,
      1.6228354795215203,
      2.7824009524965296,
      2.780324514310646,
      1.5928426831311002,
      0.7481880270062004,
      1.617210094557434,
      1.8251663722565497,
      2.1862215362708293,
      2.78126696748345,
      1.763128376799137,
      1.6028193424326997,
      2.780662881668552,
      2.7802164692102265,
      1.8103669536816251,
      1.9233994661587164,
      2.780849950416652,
      1.8624891669058972,
      2.7800579544245285,
      1.7752462597402365,
      2.300225806768158,
      2.7802524872304253,
      2.0185756834672515,
      1.8711057009855854,
      1.6217992240026677,
      2.780993794642233,
      2.04493154614916,
      2.780187652643173,
      1.8060442357480881,
      1.6227319651647192,
      1.6253124509616739,
      1.6097011023793995,
      1.8506462351830666,
      1.6755950563867463,
      1.5316066319327222,
      2.6433934504731535,
      2.7808787230734735,
      2.7814465927959655,
      2.123524980942732,
      2.3358989920251116,
      1.630529571426824,
      2.138713109876012,
      1.7007037171450194,
      2.781094457259969,
      2.7820352428830453,
      2.7811663448475565,
      1.675778341674085,
      2.3819269306372273,
      2.7819993724179417,
      0.8904210188009143,
      0.8591382972945308,
      2.779423316078324,
      1.683137131483007,
      1.9168748785386833,
      1.520483532740792,
      2.2183516657451334,
      2.7359659788256976,
      1.6949560022498182,
      2.780677274433368,
      1.8229522405474816,
      2.7802885022637334,
      1.5544891600038189,
      2.7803029074408383,
      2.781812798225461,
      2.782766354413262,
      2.3531272866081356,
      2.780518927780163,
      1.8260099777911003,
      1.7926717891415673,
      1.7894396845671794,
      1.6160551949765862,
      2.7801372190494913,
      2.2336305801644634,
      2.7802020611657063,
      2.2751500481237357,
      0.9595183769729982,
      2.2476296206791138,
      1.6316466629584194,
      2.396129575309595,
      1.6675463395115164,
      1.6711728427150832,
      2.7810081764447645,
      1.7394141026986953,
      1.9948887953649106,
      2.782056763740091,
      2.2620712126172933,
      1.9333354100776512,
      2.398183145509941,
      1.7988577317474856,
      1.4721711466923633,
      1.7078255683322314,
      2.780734840723263,
      1.0916669575956846,
      1.524396122103842,
      1.7652959296980566,
      1.6221103603612195,
      1.6759615496421694,
      2.7797984417296817,
      2.781324455666988,
      1.713406532167691,
      1.8061121101690911,
      2.781848684103296,
      1.9382694834629113,
      1.6901960800285136,
      2.781072888663113,
      1.7287594751678743,
      1.8820689444361485,
      1.6590600722409383,
      2.4916697935086654,
      2.251540888649978,
      1.5265977091034522,
      1.6343764940883678,
      1.6951312977040258,
      2.2196107193014374,
      1.9192873405043827,
      1.9700212658283658,
      2.7807852049682986,
      1.5599066250361124,
      2.783138604803781,
      2.055378331375,
      2.7788600193668573,
      1.8785217955012066,
      1.8887970674566807,
      1.7434313651466837,
      2.1998922435263193,
      2.2639199830557724,
      1.5599066250361124,
      2.7814537762633917,
      1.1858253596129622,
      1.8330195470765314,
      2.78138193624174,
      2.7818773906707293,
      1.6532125137753437,
      1.9705793057148508,
      0.9804578922761001,
      2.2525860640654014,
      2.7795026966074605,
      2.781302898489924,
      2.781956323948669,
      1.6693168805661123,
      2.7815256044033934,
      1.875928984922927,
      1.7000977046130539,
      2.781812798225461,
      2.780086779598395,
      1.9697419767628543,
      0.8135809885681919,
      2.784281993434279,
      2.7809290706364975,
      1.7523558041535008,
      1.648652695131223,
      2.393855868587961,
      2.4470959848413774,
      2.3034768536038834,
      1.8788663369567253,
      2.7814896918183534,
      1.537944959291487,
      1.6448323288256363,
      2.29254402833358,
      2.780993794642233,
      1.5829719291048059,
      2.781058509003423,
      2.783031257624278,
      1.6254153521544081,
      1.7022581631620943,
      1.8040712488856612,
      2.781101646554222,
      2.7816046016387794,
      1.9867269593312185,
      2.7815040572087324,
      2.532805319639076,
      2.7810153671674374,
      2.78165486512618,
      2.781618963228791,
      1.6548500905613943,
      2.783031257624278,
      1.779884963192644,
      2.3528575624069963,
      1.738384123512156,
      2.0708502534275732,
      1.9566005882131767,
      1.8732624594387266,
      2.116806915962344,
      1.9718786170262659,
      2.4955720871060185,
      2.780173243642594,
      2.7797119030262167,
      2.781324455666988,
      2.0792898060986595,
      2.780187652643173,
      2.6500062300777683,
      2.780756426114891,
      2.7801011914679115,
      1.5435714239623655,
      1.8048206787211623,
      1.5836521085420439,
      2.1163088146554165,
      2.78138193624174,
      1.6127838567197355,
      1.6611498572447867,
      2.7817338388549535,
      1.6507930396519308,
      1.648652695131223,
      1.738225448142505,
      2.079976723632598,
      2.364513473691509,
      1.9530344572503568,
      2.78207111038568,
      2.378543247161644,
      1.5773768919170146,
      1.7999605274059836,
      1.594613509160098,
      2.7801156028591922,
      1.701222484256557,
      1.8011978344591488,
      1.7846885995014212,
      2.782286253217027,
      1.6802448370426077,
      2.26606698174341,
      0.8000293592441343,
      2.780612503235112,
      2.7812741539225665,
      1.6564815157904986,
      1.1078880251827987,
      2.2923889983019317,
      2.6961466184111553,
      1.959375336575843,
      2.0259199985020175,
      2.781044128867602,
      1.5392015992941277,
      2.780086779598395,
      1.7281913985899466,
      2.780626897669567,
      2.2300911197487467,
      1.646207612206685,
      1.6568644915489172,
      1.9667047766578745,
      1.7331169814420644,
      2.785436615607601,
      2.780612503235112,
      2.662342220766308,
      0.7283537820212285,
      1.6959192528314,
      2.7822288922155365,
      2.7792211910540097,
      1.169674434058807,
      2.2858497404934424,
      1.845035993513415,
      2.780677274433368,
      1.6135247028536523,
      1.576916955965207,
      1.616580530085886,
      1.9696488404807253,
      1.550961752298176,
      2.780403730304182,
      2.2444750446890116,
      1.7868223794991875,
      2.7829883113219536,
      1.8074673756842778,
      2.0109356647043852,
      2.778925052441096,
      1.9162959945631308,
      1.8260099777911003,
      2.784067837237147,
      1.0930713063760635,
      1.5919545550467356,
      2.781389120778691,
      1.8015409061903183,
      2.7803677248255965,
      2.329072290754731,
      2.6352424050571575,
      2.0339462029903608,
      2.035749837319661,
      1.7784406835712327,
      2.7802164692102265,
      0.9100905455940682,
      1.8434819430399576,
      1.734319680859007,
      2.779185087398528,
      2.4281509987444454,
      2.3183346842261363,
      1.9233476564978256,
      2.780511728833051,
      1.6291036501771365,
      2.0743775376448044,
      1.5995555909859804,
      1.6207604899942056,
      1.1809855807867304,
      1.7533532126414961,
      1.72916478969277,
      1.7657430414210444,
      0.884795363948981,
      2.7809290706364975,
      1.951823035315912,
      1.8598585204809928,
      2.118033128828567,
      1.6150026145245884,
      2.7803029074408383,
      2.7807923993836834,
      2.3001822946469006,
      1.6906390117159673,
      1.954290761701127,
      1.7339992865383869,
      1.6073477767684134,
      1.7637274037656983,
      1.5831987739686226,
      2.7804973305808236,
      1.5276299008713388,
      1.5784099703312358,
      2.779228411424957,
      1.6696887080562082,
      1.8636202202703156,
      2.076276255404218,
      2.7805909106888365,
      1.6422666189026736,
      1.907357608131173,
      2.782013720959511,
      2.7817410175727835,
      1.6427612032653205,
      2.7817194810632997,
      2.4323759375398426,
      1.5278875659527047,
      1.1682027468426308,
      1.846584502898046,
      0.7824726241662862,
      2.781927622598369,
      2.779769597411144,
      2.782644587930918,
      2.7803677248255965,
      2.7798128631705805,
      2.290413062122933,
      2.193764432764385,
      2.7814034894960424,
      1.7854010249923875,
      1.7818271529324279,
      1.9646838149760406,
      1.5658478186735176,
      1.5829719291048059,
      2.779351139368131,
      2.436623740641527,
      2.4587586793754315,
      1.8560639533330998,
      2.7814178577380178,
      2.019157847739282,
      2.2810333672477277,
      2.3184390042001923,
      1.5667909123815917,
      2.7823077616395078,
      1.9079485216122722,
      1.5990092398233435,
      1.955110230970552,
      0.8943160626844384,
      1.6483600109809315,
      1.7356787259059046,
      1.9672202597829673,
      1.922777341928798,
      2.780742035973011,
      2.7811160247857054,
      1.617943434828973,
      1.7004441010277516,
      2.7814178577380178,
      1.5408298141110799,
      2.7809362626690532,
      1.8211858826088454,
      2.781058509003423,
      0.8041394323353505,
      2.780540523905541,
      1.5990092398233435,
      1.5844443071651761,
      1.7704101315139062,
      1.6870828446043706,
      2.3893255918174927,
      2.7802524872304253,
      2.781697943485775,
      2.7807276453543044,
      2.0413532020469742,
      1.7364761820276968,
      1.989805650936826,
      1.811709026696191,
      1.677606952720493,
      2.7803317163617045,
      2.7804613328617176,
      2.7825442840100103,
      1.6341748717626001,
      2.026410680578774,
      1.9262909868848634,
      2.781187908803663,
      1.8716896656855153,
      1.5251744278352715,
      1.6091673743020198,
      2.7828737670823593,
      2.77978401980988,
      1.6616234092292301,
      1.69539410829111,
      2.3923099598928186,
      1.4898179083014507,
      2.780756426114891,
      1.7989957344438814,
      2.78207111038568,
      2.781144779820685,
      1.861892690391446,
      2.781575877033917,
      1.7931615292455507,
      1.6415732531781755,
      1.978363147083883,
      1.5805828768143673,
      1.8025684983139565,
      1.1920095926536702,
      1.549248556854056,
      2.4509569547775714,
      2.781389120778691,
      2.7825657796576344,
      1.8228216453031045,
      1.5727554651542197,
      2.3922923610889706,
      1.641275757231913,
      1.7107940999303275,
      2.2691158268951193,
      1.5567847823070253,
      2.779380011491656,
      2.779004524086998,
      2.778925052441096,
      1.9474337218870508,
      1.8896937914441854,
      2.782752030716628,
      1.720985744153739,
      2.781202284179584,
      1.844725627973226,
      1.6467956887784694,
      2.7812310335040067,
      1.9228292196666488,
      0.9656719712201067,
      2.7818056206940485,
      1.6579159368299552,
      0.7209857441537391,
      2.3647760572774246,
      2.7801300137722693,
      1.855942946232316,
      1.6014080605346837,
      1.6514718521990424,
      0.9400181550076633,
      2.102262149494273,
      2.7812382205377566,
      1.8834342936830093,
      1.7075701760979363,
      2.7819993724179417,
      1.1225435240687542,
      2.780021920266554,
      1.5987905067631152,
      2.7807204498661315,
      2.6110963673317427,
      2.780504529766606,
      1.6860102913152855,
      1.130333768495006,
      2.7819850234022994,
      1.7034633418832932,
      1.6500159524718385,
      1.803115554890027,
      1.9312544064164134,
      2.7821356644265616,
      2.2478505669735336,
      2.0768224233427732,
      2.03362477121926,
      2.2421685899736654,
      1.8092229216894218,
      1.6043340731029112,
      2.781432225504648,
      2.3944516808262164,
      2.77961813330073,
      2.7800147130761674,
      1.9943171526696368,
      2.2155053782318186,
      1.5052856741441323,
      2.7807995936798893,
      2.3963388570493622,
      1.909020854211156,
      1.7091851295502454,
      2.7083869031499286,
      1.5938396610812713,
      1.8003045775561985,
      1.9652487509671208,
      1.7583819417746753,
      2.7802740966088053,
      1.6634182122526797,
      2.781791265275348
    ],
    "Timeout Prediction": [
      2.380211241711606,
      2.33429287154846,
      1.6568644915489172,
      1.9217384836845988,
      1.8516863154424275,
      1.7468676278504294,
      1.6011905326153335,
      1.6206564798196208,
      1.8980117387975015,
      1.7209031708134575,
      1.6020599913279623,
      1.1287222843384268,
      2.531478917042255,
      1.6989700043360187,
      1.7610252517113727,
      1.7405205860536648,
      1.6228354795215203,
      2.361727836017593,
      1.6020599913279623,
      1.5928426831311002,
      0.7481880270062004,
      1.617210094557434,
      1.8251663722565497,
      2.1862215362708293,
      1.9030899869919435,
      1.763128376799137,
      1.6028193424326997,
      1.6020599913279623,
      1.6020599913279623,
      1.8103669536816251,
      1.9233994661587164,
      1.6020599913279623,
      1.8624891669058972,
      2.041392685158225,
      1.7752462597402365,
      2.300225806768158,
      1.6989700043360187,
      2.0185756834672515,
      1.8711057009855854,
      1.6217992240026677,
      1.6020599913279623,
      2.04493154614916,
      2.146128035678238,
      1.8060442357480881,
      1.6227319651647192,
      1.6253124509616739,
      1.6097011023793995,
      1.8506462351830666,
      1.6755950563867463,
      1.5316066319327222,
      2.6433934504731535,
      1.6020599913279623,
      2.0,
      1.6020599913279623,
      2.3358989920251116,
      1.630529571426824,
      2.138713109876012,
      1.7007037171450194,
      1.9030899869919435,
      2.4771212547196626,
      2.2041199826559246,
      1.675778341674085,
      2.3819269306372273,
      1.6989700043360187,
      0.8904210188009143,
      0.8591382972945308,
      1.6020599913279623,
      1.683137131483007,
      1.9168748785386833,
      1.520483532740792,
      2.2183516657451334,
      2.7359659788256976,
      1.6949560022498182,
      1.9030899869919435,
      1.8229522405474816,
      1.6020599913279623,
      1.5544891600038189,
      1.7781512503836436,
      1.6020599913279623,
      2.322219294733919,
      2.3531272866081356,
      2.113943352306837,
      1.8260099777911003,
      1.7926717891415673,
      1.7894396845671794,
      1.6160551949765862,
      1.6989700043360187,
      2.2336305801644634,
      2.4471580313422194,
      2.2751500481237357,
      0.9595183769729982,
      1.6020599913279623,
      1.6316466629584194,
      2.396129575309595,
      1.6675463395115164,
      1.6711728427150832,
      1.6989700043360187,
      1.7394141026986953,
      1.9948887953649106,
      1.6020599913279623,
      2.2620712126172933,
      1.9333354100776512,
      2.398183145509941,
      1.7988577317474856,
      1.4721711466923633,
      1.7078255683322314,
      1.6989700043360187,
      1.0916669575956846,
      1.524396122103842,
      1.7652959296980566,
      1.6221103603612195,
      1.6759615496421694,
      2.342422680822206,
      1.6989700043360187,
      1.713406532167691,
      1.8061121101690911,
      1.6020599913279623,
      1.9382694834629113,
      1.6901960800285136,
      1.6020599913279623,
      1.7287594751678743,
      1.8820689444361485,
      1.6590600722409383,
      2.4916697935086654,
      2.251540888649978,
      1.5265977091034522,
      1.6343764940883678,
      1.6951312977040258,
      2.2196107193014374,
      1.9192873405043827,
      1.9700212658283658,
      1.845098040014257,
      1.5599066250361124,
      2.531478917042255,
      2.055378331375,
      2.5563025007672873,
      1.8785217955012066,
      1.8887970674566807,
      1.7434313651466837,
      2.1998922435263193,
      2.2639199830557724,
      1.5599066250361124,
      1.6020599913279623,
      1.1858253596129622,
      1.8330195470765314,
      1.954242509439325,
      1.7781512503836436,
      1.6532125137753437,
      1.9705793057148508,
      0.9804578922761001,
      2.2525860640654014,
      2.2041199826559246,
      1.6020599913279623,
      1.845098040014257,
      1.6693168805661123,
      1.6020599913279623,
      1.875928984922927,
      1.7000977046130539,
      2.041392685158225,
      2.462397997898956,
      1.9697419767628543,
      0.8135809885681919,
      2.113943352306837,
      2.342422680822206,
      1.7523558041535008,
      1.648652695131223,
      2.393855868587961,
      2.4470959848413774,
      2.3034768536038834,
      1.8788663369567253,
      1.6020599913279623,
      1.537944959291487,
      1.6448323288256363,
      2.29254402833358,
      1.7781512503836436,
      1.5829719291048059,
      1.6020599913279623,
      2.255272505103306,
      1.6254153521544081,
      1.7022581631620943,
      1.8040712488856612,
      2.4313637641589874,
      2.4149733479708178,
      1.9867269593312185,
      1.9030899869919435,
      2.532805319639076,
      1.6020599913279623,
      1.845098040014257,
      1.6989700043360187,
      1.6548500905613943,
      2.041392685158225,
      1.779884963192644,
      2.3528575624069963,
      1.738384123512156,
      2.0708502534275732,
      1.9566005882131767,
      1.8732624594387266,
      2.116806915962344,
      1.9718786170262659,
      2.4955720871060185,
      1.845098040014257,
      1.6989700043360187,
      1.954242509439325,
      2.0792898060986595,
      1.6020599913279623,
      2.6500062300777683,
      1.954242509439325,
      1.6020599913279623,
      1.5435714239623655,
      1.8048206787211623,
      1.5836521085420439,
      2.1163088146554165,
      1.954242509439325,
      1.6127838567197355,
      1.6611498572447867,
      1.6020599913279623,
      1.6507930396519308,
      1.648652695131223,
      1.738225448142505,
      2.079976723632598,
      2.364513473691509,
      1.9530344572503568,
      1.6020599913279623,
      1.6020599913279623,
      1.5773768919170146,
      1.7999605274059836,
      1.594613509160098,
      1.6020599913279623,
      1.701222484256557,
      1.8011978344591488,
      1.7846885995014212,
      2.0791812460476247,
      1.6802448370426077,
      2.26606698174341,
      0.8000293592441343,
      1.6020599913279623,
      2.113943352306837,
      1.6564815157904986,
      1.1078880251827987,
      2.2923889983019317,
      1.6020599913279623,
      1.959375336575843,
      2.0259199985020175,
      1.6020599913279623,
      1.5392015992941277,
      1.6020599913279623,
      1.7281913985899466,
      2.113943352306837,
      2.2300911197487467,
      1.646207612206685,
      1.6568644915489172,
      1.9667047766578745,
      1.7331169814420644,
      2.462397997898956,
      1.6989700043360187,
      2.342422680822206,
      0.7283537820212285,
      1.6959192528314,
      2.7822288922155365,
      2.4771212547196626,
      1.169674434058807,
      2.2858497404934424,
      1.845035993513415,
      1.954242509439325,
      1.6135247028536523,
      1.576916955965207,
      1.616580530085886,
      1.9696488404807253,
      1.550961752298176,
      1.6020599913279623,
      2.2444750446890116,
      1.7868223794991875,
      2.113943352306837,
      1.8074673756842778,
      2.0109356647043852,
      2.0791812460476247,
      1.9162959945631308,
      1.8260099777911003,
      2.230448921378274,
      1.0930713063760635,
      1.5919545550467356,
      1.954242509439325,
      1.8015409061903183,
      1.6020599913279623,
      2.329072290754731,
      2.6352424050571575,
      1.6020599913279623,
      2.035749837319661,
      1.7784406835712327,
      1.6989700043360187,
      0.9100905455940682,
      1.8434819430399576,
      1.734319680859007,
      1.9030899869919435,
      2.4281509987444454,
      2.3183346842261363,
      1.9233476564978256,
      1.6020599913279623,
      1.6291036501771365,
      2.0743775376448044,
      1.5995555909859804,
      1.6207604899942056,
      1.1809855807867304,
      1.7533532126414961,
      1.72916478969277,
      1.7657430414210444,
      0.884795363948981,
      1.954242509439325,
      1.951823035315912,
      1.8598585204809928,
      2.118033128828567,
      1.6150026145245884,
      2.380211241711606,
      1.954242509439325,
      2.3001822946469006,
      1.6906390117159673,
      1.954290761701127,
      1.7339992865383869,
      1.6073477767684134,
      1.7637274037656983,
      1.5831987739686226,
      1.954242509439325,
      1.5276299008713388,
      1.5784099703312358,
      1.6020599913279623,
      1.6696887080562082,
      1.8636202202703156,
      2.076276255404218,
      1.7781512503836436,
      1.6422666189026736,
      1.907357608131173,
      1.7781512503836436,
      2.0791812460476247,
      1.6427612032653205,
      2.230448921378274,
      2.4323759375398426,
      1.5278875659527047,
      1.1682027468426308,
      1.846584502898046,
      0.7824726241662862,
      1.9030899869919435,
      1.7781512503836436,
      1.6020599913279623,
      2.0,
      1.954242509439325,
      2.290413062122933,
      2.193764432764385,
      1.6989700043360187,
      1.7854010249923875,
      1.7818271529324279,
      1.9646838149760406,
      1.5658478186735176,
      1.5829719291048059,
      1.6989700043360187,
      2.436623740641527,
      2.4587586793754315,
      1.8560639533330998,
      1.9030899869919435,
      2.019157847739282,
      2.2810333672477277,
      2.3184390042001923,
      1.5667909123815917,
      2.146128035678238,
      1.9079485216122722,
      1.5990092398233435,
      1.955110230970552,
      0.8943160626844384,
      1.6483600109809315,
      1.7356787259059046,
      1.9672202597829673,
      1.922777341928798,
      1.9030899869919435,
      2.7811160247857054,
      1.617943434828973,
      1.7004441010277516,
      2.4471580313422194,
      1.5408298141110799,
      2.3010299956639813,
      1.8211858826088454,
      1.6020599913279623,
      0.8041394323353505,
      1.6989700043360187,
      1.5990092398233435,
      1.5844443071651761,
      1.7704101315139062,
      1.6870828446043706,
      2.3893255918174927,
      2.6434526764861874,
      2.041392685158225,
      1.6020599913279623,
      2.0413532020469742,
      1.7364761820276968,
      1.989805650936826,
      1.811709026696191,
      1.677606952720493,
      1.954242509439325,
      2.0791812460476247,
      2.041392685158225,
      1.6341748717626001,
      2.026410680578774,
      1.9262909868848634,
      1.6020599913279623,
      1.8716896656855153,
      1.5251744278352715,
      1.6091673743020198,
      1.6020599913279623,
      1.6020599913279623,
      1.6616234092292301,
      1.69539410829111,
      2.3923099598928186,
      1.4898179083014507,
      1.6020599913279623,
      1.7989957344438814,
      2.5185139398778875,
      1.7781512503836436,
      1.861892690391446,
      1.954242509439325,
      1.7931615292455507,
      1.6415732531781755,
      1.978363147083883,
      1.5805828768143673,
      1.8025684983139565,
      1.1920095926536702,
      1.549248556854056,
      2.041392685158225,
      1.6989700043360187,
      2.342422680822206,
      1.8228216453031045,
      1.5727554651542197,
      1.6020599913279623,
      1.641275757231913,
      1.7107940999303275,
      2.2691158268951193,
      1.5567847823070253,
      1.6989700043360187,
      2.0,
      2.778925052441096,
      1.9474337218870508,
      1.8896937914441854,
      1.7781512503836436,
      1.720985744153739,
      1.6020599913279623,
      1.844725627973226,
      1.6467956887784694,
      1.6020599913279623,
      1.9228292196666488,
      0.9656719712201067,
      1.6989700043360187,
      1.6579159368299552,
      0.7209857441537391,
      2.3647760572774246,
      1.6020599913279623,
      1.855942946232316,
      1.6014080605346837,
      1.6514718521990424,
      0.9400181550076633,
      2.102262149494273,
      1.7781512503836436,
      1.8834342936830093,
      1.7075701760979363,
      2.7819993724179417,
      1.1225435240687542,
      2.278753600952829,
      1.5987905067631152,
      1.6989700043360187,
      1.6989700043360187,
      1.6020599913279623,
      1.6860102913152855,
      1.130333768495006,
      1.6989700043360187,
      1.7034633418832932,
      1.6500159524718385,
      1.803115554890027,
      1.9312544064164134,
      1.6020599913279623,
      2.2478505669735336,
      2.0768224233427732,
      2.03362477121926,
      2.2421685899736654,
      1.8092229216894218,
      1.6043340731029112,
      2.230448921378274,
      2.3944516808262164,
      2.1760912590556813,
      1.6020599913279623,
      1.9943171526696368,
      2.2155053782318186,
      1.5052856741441323,
      1.954242509439325,
      2.3963388570493622,
      1.909020854211156,
      1.7091851295502454,
      1.954242509439325,
      1.5938396610812713,
      1.8003045775561985,
      1.9652487509671208,
      1.7583819417746753,
      2.1760912590556813,
      1.6634182122526797,
      1.9030899869919435
    ]
  }
}