{
  "results": {
    "Vanilla Verifier": [
      1.0,
      2.0,
      1.0,
      2.0,
      2.0,
      2.0,
      2.0,
      2.0,
      1.0,
      2.0,
      2.0,
      2.0,
      2.0,
      1.0,
      2.0,
      2.0,
      1.0,
      2.0,
      2.0,
      2.0,
      1.0,
      2.0,
      2.0,
      2.0,
      0.0,
      2.0,
      2.0,
      1.0,
      2.0,
      2.0,
      2.0,
      2.0,
      1.0,
      2.0,
      2.0,
      1.0,
      1.0,
      2.0,
      0.0,
      2.0,
      1.0,
      1.0,
      2.0,
      2.0,
      2.0,
      2.0,
      1.0,
      1.0,
      2.0,
      2.0,
      1.0,
      2.0,
      1.0,
      2.0,
      2.0,
      2.0,
      2.0,
      2.0,
      1.0,
      2.0,
      0.0,
      2.0,
      1.0,
      2.0,
      2.0,
      2.0,
      1.0,
      1.0,
      0.0,
      2.0,
      2.0,
      2.0,
      2.0,
      2.0,
      2.0,
      2.0,
      2.0,
      2.0,
      2.0,
      2.0,
      1.0,
      1.0,
      2.0,
      2.0,
      2.0,
      2.0,
      2.0,
      2.0,
      2.0,
      2.0,
      2.0,
      1.0,
      1.0,
      2.0,
      2.0,
      2.0,
      0.0,
      1.0,
      1.0,
      2.0,
      2.0,
      2.0,
      1.0,
      2.0,
      2.0,
      2.0,
      2.0,
      1.0,
      1.0,
      2.0,
      2.0,
      2.0,
      1.0,
      2.0,
      1.0,
      2.0,
      2.0,
      2.0,
      2.0,
      2.0,
      2.0,
      2.0,
      2.0,
      1.0,
      2.0,
      2.0,
      2.0,
      2.0,
      2.0,
      2.0,
      2.0,
      2.0,
      2.0,
      2.0,
      1.0,
      2.0,
      2.0,
      2.0,
      2.0,
      1.0,
      2.0,
      2.0,
      2.0,
      1.0,
      1.0,
      2.0,
      0.0,
      1.0,
      2.0,
      2.0,
      1.0,
      2.0,
      2.0,
      2.0,
      2.0,
      1.0,
      2.0,
      2.0,
      2.0,
      2.0,
      2.0,
      0.0,
      2.0,
      2.0,
      2.0,
      2.0,
      2.0,
      1.0,
      1.0,
      1.0,
      0.0,
      2.0,
      0.0,
      2.0,
      2.0,
      1.0,
      1.0,
      1.0,
      2.0,
      2.0,
      1.0,
      1.0,
      2.0,
      2.0,
      2.0,
      2.0,
      1.0,
      1.0,
      2.0,
      1.0,
      1.0,
      1.0,
      2.0,
      2.0,
      2.0,
      1.0,
      2.0,
      2.0,
      2.0,
      2.0,
      2.0,
      2.0,
      1.0,
      1.0,
      2.0,
      2.0,
      2.0,
      2.0,
      2.0,
      1.0,
      1.0,
      2.0,
      1.0,
      2.0,
      1.0,
      2.0,
      1.0,
      2.0,
      2.0,
      2.0,
      2.0,
      1.0,
      2.0,
      2.0,
      2.0,
      2.0,
      2.0,
      2.0,
      1.0,
      2.0,
      2.0,
      2.0,
      1.0,
      0.0,
      1.0,
      2.0,
      1.0,
      1.0,
      2.0,
      1.0,
      2.0,
      1.0,
      2.0,
      2.0,
      2.0,
      2.0,
      2.0,
      2.0,
      2.0,
      2.0,
      2.0,
      2.0,
      2.0,
      1.0,
      2.0,
      2.0,
      2.0,
      1.0,
      2.0,
      2.0,
      2.0,
      2.0,
      2.0,
      0.0,
      2.0,
      1.0,
      2.0,
      2.0,
      1.0,
      0.0,
      2.0,
      1.0,
      2.0,
      2.0,
      2.0,
      1.0,
      2.0,
      2.0,
      2.0,
      1.0,
      2.0,
      1.0,
      2.0,
      1.0,
      2.0,
      2.0,
      2.0,
      2.0,
      2.0,
      2.0,
      2.0,
      1.0,
      1.0,
      1.0,
      2.0,
      2.0,
      2.0,
      2.0,
      1.0,
      2.0,
      2.0,
      2.0,
      2.0,
      2.0,
      2.0,
      1.0,
      2.0,
      1.0,
      1.0,
      2.0,
      2.0,
      1.0,
      2.0,
      1.0,
      2.0,
      1.0,
      2.0,
      2.0,
      0.0,
      2.0,
      2.0,
      1.0,
      2.0,
      2.0,
      2.0,
      2.0,
      2.0,
      2.0,
      2.0,
      2.0,
      2.0,
      0.0,
      2.0,
      0.0,
      2.0,
      2.0,
      2.0,
      2.0,
      2.0,
      2.0,
      2.0,
      2.0,
      2.0,
      1.0,
      2.0,
      2.0,
      2.0,
      1.0,
      0.0,
      2.0,
      2.0,
      1.0,
      2.0,
      1.0,
      1.0,
      2.0,
      2.0,
      2.0,
      1.0,
      1.0,
      2.0,
      2.0,
      1.0,
      2.0,
      2.0,
      2.0,
      2.0,
      2.0,
      2.0,
      2.0,
      1.0,
      0.0,
      2.0,
      2.0,
      2.0,
      2.0,
      1.0,
      2.0,
      2.0,
      2.0,
      2.0,
      1.0,
      2.0,
      1.0,
      2.0,
      2.0,
      2.0,
      1.0,
      2.0,
      1.0,
      1.0,
      1.0,
      1.0,
      2.0,
      2.0,
      0.0,
      2.0,
      2.0,
      0.0,
      2.0,
      2.0,
      2.0,
      2.0,
      2.0,
      0.0,
      2.0,
      2.0,
      1.0,
      1.0,
      2.0,
      1.0,
      2.0,
      2.0,
      2.0,
      0.0,
      2.0,
      1.0,
      2.0,
      2.0,
      0.0,
      2.0,
      2.0,
      1.0,
      2.0,
      2.0,
      1.0,
      2.0,
      1.0,
      2.0,
      2.0,
      1.0,
      2.0,
      2.0,
      1.0,
      1.0,
      2.0,
      2.0,
      2.0,
      1.0,
      1.0,
      2.0,
      2.0,
      2.0,
      1.0,
      2.0,
      2.0,
      2.0,
      2.0,
      2.0,
      2.0,
      1.0,
      2.0,
      1.0,
      2.0,
      2.0,
      2.0,
      2.0,
      2.0,
      2.0,
      1.0,
      1.0,
      2.0,
      1.0,
      2.0,
      2.0,
      2.0,
      2.0,
      1.0,
      2.0,
      1.0,
      1.0,
      2.0,
      2.0,
      2.0,
      2.0,
      1.0,
      2.0,
      1.0,
      2.0,
      2.0,
      2.0,
      2.0,
      1.0,
      2.0,
      2.0,
      1.0,
      2.0,
      2.0,
      2.0,
      2.0,
      1.0,
      2.0,
      0.0,
      2.0,
      2.0,
      2.0,
      1.0,
      2.0,
      2.0,
      0.0
    ],
    "Timeout Prediction": [
      2.0,
      2.0,
      1.0,
      2.0,
      2.0,
      2.0,
      2.0,
      2.0,
      1.0,
      2.0,
      2.0,
      2.0,
      2.0,
      1.0,
      2.0,
      2.0,
      1.0,
      2.0,
      2.0,
      2.0,
      1.0,
      2.0,
      2.0,
      2.0,
      0.0,
      2.0,
      2.0,
      1.0,
      2.0,
      2.0,
      2.0,
      2.0,
      1.0,
      2.0,
      2.0,
      1.0,
      1.0,
      2.0,
      0.0,
      2.0,
      1.0,
      1.0,
      2.0,
      2.0,
      2.0,
      2.0,
      1.0,
      1.0,
      2.0,
      2.0,
      1.0,
      2.0,
      1.0,
      2.0,
      2.0,
      2.0,
      2.0,
      2.0,
      2.0,
      2.0,
      0.0,
      2.0,
      1.0,
      2.0,
      2.0,
      2.0,
      1.0,
      1.0,
      0.0,
      2.0,
      2.0,
      2.0,
      2.0,
      2.0,
      2.0,
      2.0,
      2.0,
      2.0,
      2.0,
      2.0,
      1.0,
      1.0,
      2.0,
      2.0,
      2.0,
      2.0,
      2.0,
      2.0,
      2.0,
      2.0,
      2.0,
      1.0,
      1.0,
      2.0,
      2.0,
      2.0,
      0.0,
      1.0,
      1.0,
      2.0,
      2.0,
      2.0,
      1.0,
      2.0,
      2.0,
      2.0,
      2.0,
      1.0,
      1.0,
      2.0,
      2.0,
      2.0,
      1.0,
      2.0,
      1.0,
      2.0,
      2.0,
      2.0,
      2.0,
      2.0,
      2.0,
      2.0,
      2.0,
      1.0,
      2.0,
      2.0,
      2.0,
      2.0,
      2.0,
      2.0,
      2.0,
      2.0,
      2.0,
      2.0,
      1.0,
      2.0,
      2.0,
      2.0,
      2.0,
      2.0,
      2.0,
      2.0,
      2.0,
      1.0,
      1.0,
      2.0,
      0.0,
      1.0,
      2.0,
      2.0,
      1.0,
      2.0,
      2.0,
      2.0,
      2.0,
      1.0,
      2.0,
      2.0,
      2.0,
      2.0,
      2.0,
      0.0,
      2.0,
      2.0,
      2.0,
      2.0,
      2.0,
      1.0,
      1.0,
      1.0,
      0.0,
      2.0,
      0.0,
      2.0,
      2.0,
      1.0,
      2.0,
      2.0,
      2.0,
      2.0,
      1.0,
      1.0,
      2.0,
      2.0,
      2.0,
      2.0,
      1.0,
      1.0,
      2.0,
      1.0,
      1.0,
      1.0,
      2.0,
      2.0,
      2.0,
      1.0,
      2.0,
      2.0,
      2.0,
      2.0,
      2.0,
      2.0,
      1.0,
      1.0,
      2.0,
      2.0,
      2.0,
      2.0,
      2.0,
      1.0,
      1.0,
      2.0,
      2.0,
      2.0,
      1.0,
      2.0,
      1.0,
      2.0,
      2.0,
      2.0,
      2.0,
      1.0,
      2.0,
      2.0,
      2.0,
      2.0,
      2.0,
      2.0,
      1.0,
      2.0,
      2.0,
      2.0,
      1.0,
      0.0,
      1.0,
      2.0,
      1.0,
      1.0,
      2.0,
      1.0,
      2.0,
      1.0,
      2.0,
      2.0,
      2.0,
      2.0,
      2.0,
      2.0,
      2.0,
      2.0,
      2.0,
      2.0,
      2.0,
      1.0,
      2.0,
      2.0,
      2.0,
      1.0,
      2.0,
      2.0,
      2.0,
      2.0,
      2.0,
      0.0,
      2.0,
      2.0,
      2.0,
      2.0,
      1.0,
      0.0,
      2.0,
      1.0,
      2.0,
      2.0,
      2.0,
      1.0,
      2.0,
      2.0,
      2.0,
      1.0,
      2.0,
      1.0,
      2.0,
      1.0,
      2.0,
      2.0,
      2.0,
      2.0,
      2.0,
      2.0,
      2.0,
      1.0,
      1.0,
      1.0,
      2.0,
      2.0,
      2.0,
      2.0,
      1.0,
      2.0,
      2.0,
      2.0,
      2.0,
      2.0,
      2.0,
      1.0,
      2.0,
      1.0,
      1.0,
      2.0,
      2.0,
      1.0,
      2.0,
      1.0,
      2.0,
      1.0,
      2.0,
      2.0,
      0.0,
      2.0,
      2.0,
      2.0,
      2.0,
      2.0,
      2.0,
      2.0,
      2.0,
      2.0,
      2.0,
      2.0,
      2.0,
      0.0,
      2.0,
      0.0,
      2.0,
      2.0,
      2.0,
      2.0,
      2.0,
      2.0,
      2.0,
      2.0,
      2.0,
      1.0,
      2.0,
      2.0,
      2.0,
      1.0,
      0.0,
      2.0,
      2.0,
      1.0,
      2.0,
      1.0,
      1.0,
      2.0,
      2.0,
      2.0,
      1.0,
      1.0,
      2.0,
      2.0,
      1.0,
      2.0,
      2.0,
      2.0,
      2.0,
      2.0,
      2.0,
      2.0,
      1.0,
      0.0,
      2.0,
      2.0,
      2.0,
      2.0,
      1.0,
      2.0,
      2.0,
      2.0,
      2.0,
      1.0,
      2.0,
      1.0,
      2.0,
      2.0,
      2.0,
      1.0,
      2.0,
      1.0,
      1.0,
      1.0,
      1.0,
      2.0,
      2.0,
      0.0,
      2.0,
      2.0,
      0.0,
      2.0,
      2.0,
      2.0,
      2.0,
      2.0,
      0.0,
      2.0,
      2.0,
      1.0,
      1.0,
      2.0,
      1.0,
      2.0,
      2.0,
      2.0,
      0.0,
      2.0,
      1.0,
      2.0,
      2.0,
      0.0,
      2.0,
      2.0,
      2.0,
      2.0,
      2.0,
      2.0,
      2.0,
      1.0,
      2.0,
      2.0,
      1.0,
      2.0,
      2.0,
      1.0,
      1.0,
      2.0,
      2.0,
      2.0,
      1.0,
      1.0,
      2.0,
      2.0,
      2.0,
      1.0,
      2.0,
      2.0,
      2.0,
      2.0,
      2.0,
      2.0,
      1.0,
      2.0,
      1.0,
      2.0,
      2.0,
      2.0,
      2.0,
      2.0,
      2.0,
      1.0,
      1.0,
      2.0,
      1.0,
      2.0,
      2.0,
      2.0,
      2.0,
      1.0,
      2.0,
      1.0,
      1.0,
      2.0,
      2.0,
      2.0,
      2.0,
      1.0,
      2.0,
      1.0,
      2.0,
      2.0,
      2.0,
      2.0,
      1.0,
      2.0,
      2.0,
      1.0,
      2.0,
      2.0,
      2.0,
      2.0,
      1.0,
      2.0,
      0.0,
      2.0,
      2.0,
      2.0,
      1.0,
      2.0,
      2.0,
      0.0
    ]
  },
  "running_times": {
    "Vanilla Verifier": [
      2.0630329650390964,
      2.7786648616937684,
      0.9684829485539351,
      2.778505779464186,
      2.778462383286363,
      2.778346638941371,
      2.778426216492103,
      2.7784045149697625,
      0.8254261177678232,
      2.7787082376449885,
      2.7790189719148706,
      2.7786431720934557,
      2.7787805212711834,
      1.290034611362518,
      2.7788816981403244,
      2.7786648616937684,
      0.8970770032094203,
      2.778433450091908,
      2.7787877489721513,
      2.7785491713061496,
      1.5475285764597821,
      2.7786070203522604,
      2.7786720913198293,
      2.778628711758099,
      0.7442929831226762,
      2.778701008620629,
      2.778925052441096,
      0.8506462351830665,
      2.778975626989249,
      2.778397280887994,
      2.7784696162838047,
      2.7786793208255416,
      0.9030899869919435,
      2.7786214814098638,
      2.7784768491607865,
      0.9283958522567138,
      1.3653007486379873,
      2.778375577919669,
      0.7185016888672743,
      2.778925052441096,
      0.7972675408307164,
      0.724275869600789,
      2.7788816981403244,
      2.778563634290096,
      2.7784189827718127,
      2.7786937794759377,
      1.5075860397630108,
      1.1149444157125847,
      2.7784189827718127,
      2.7786070203522604,
      1.011570443597278,
      2.7787226953327258,
      0.8959747323590646,
      2.7786793208255416,
      2.7784045149697625,
      2.778462383286363,
      2.778758837446534,
      2.778411748931034,
      2.294091292476962,
      2.778903375831701,
      0.7267272090265723,
      2.7784406835712327,
      0.7497363155690611,
      2.778411748931034,
      2.778520243893227,
      2.7784696162838047,
      1.9196532823103643,
      0.8512583487190752,
      0.7419390777291989,
      2.7785925588131195,
      2.778563634290096,
      2.778397280887994,
      2.778462383286363,
      2.7787371525391817,
      2.778397280887994,
      2.778556402858329,
      2.7785925588131195,
      2.778375577919669,
      2.7785274759270964,
      2.778701008620629,
      1.6434526764861874,
      1.375114684692225,
      2.778541939633554,
      2.7787443809619394,
      2.778505779464186,
      2.778375577919669,
      2.778361108671562,
      2.778433450091908,
      2.778563634290096,
      2.7784840819173113,
      2.7784406835712327,
      0.887054378050957,
      1.0253058652647702,
      2.778455150168456,
      2.778426216492103,
      2.778411748931034,
      0.7015679850559274,
      0.7701152947871016,
      0.7937903846908186,
      2.778455150168456,
      2.7785347078405374,
      2.7785274759270964,
      2.2242740142942576,
      2.778852792868552,
      2.7786214814098638,
      2.778411748931034,
      2.7786142509412524,
      1.1894903136993675,
      0.8228216453031046,
      2.7786576319473553,
      2.778411748931034,
      2.7783249334421085,
      2.7739984225325527,
      2.778758837446534,
      0.9912260756924949,
      2.7785997896428842,
      2.778426216492103,
      2.778628711758099,
      2.7786504020805856,
      2.7785997896428842,
      2.778433450091908,
      2.778585327862962,
      2.7786793208255416,
      0.741151598851785,
      2.7785491713061496,
      2.778541939633554,
      2.7784479169300806,
      2.778953952904059,
      2.7784696162838047,
      2.7784406835712327,
      2.7785491713061496,
      2.7784406835712327,
      2.778975626989249,
      2.7785997896428842,
      0.7379873263334308,
      2.778520243893227,
      2.7786359419859616,
      2.778505779464186,
      2.7784479169300806,
      1.4474681309497557,
      2.7784045149697625,
      2.7786504020805856,
      2.778541939633554,
      0.7379873263334308,
      0.8987251815894935,
      2.778701008620629,
      0.8426092396105621,
      0.7895807121644255,
      2.7784840819173113,
      2.7784189827718127,
      0.9415114326344031,
      2.7785780967924087,
      2.778455150168456,
      2.7783900466857254,
      2.778462383286363,
      1.5747255835940734,
      2.7784985470690073,
      2.778520243893227,
      2.7784768491607865,
      2.7784768491607865,
      2.778455150168456,
      0.7307822756663892,
      2.778715466549019,
      2.7785997896428842,
      2.7785780967924087,
      2.778433450091908,
      2.7784406835712327,
      0.8312296938670634,
      1.6595359071542164,
      1.055378331375,
      0.7160033436347992,
      2.7792356316758635,
      0.75815462196739,
      2.7784985470690073,
      2.778541939633554,
      0.7634279935629372,
      2.5081929260254405,
      2.775355548290552,
      2.7784479169300806,
      2.7784696162838047,
      0.8068580295188175,
      0.7923916894982539,
      2.7786648616937684,
      2.7785780967924087,
      2.7784768491607865,
      2.778520243893227,
      1.0195316845312554,
      0.7839035792727349,
      2.778903375831701,
      1.04766419460156,
      1.0265332645232967,
      0.7497363155690611,
      2.778455150168456,
      2.7786648616937684,
      2.7785347078405374,
      0.7481880270062004,
      2.7784189827718127,
      2.7785780967924087,
      2.778556402858329,
      2.778455150168456,
      2.778411748931034,
      2.7786070203522604,
      1.3126004392612594,
      0.7512791039833423,
      2.7785274759270964,
      2.7785997896428842,
      2.7785491713061496,
      2.7785130117389247,
      2.7784768491607865,
      2.057361762985039,
      0.725094521081469,
      2.778368343355874,
      1.4026052419199146,
      2.778375577919669,
      0.9329808219231982,
      2.778397280887994,
      0.8175653695597808,
      2.7786142509412524,
      2.7784696162838047,
      2.778397280887994,
      2.778411748931034,
      1.0382226383687185,
      2.778426216492103,
      2.7784696162838047,
      2.7784406835712327,
      2.7786070203522604,
      2.7784406835712327,
      2.779531558657474,
      0.7520484478194386,
      2.778426216492103,
      2.778556402858329,
      2.778455150168456,
      1.0136796972911926,
      0.7201593034059569,
      0.7888751157754168,
      2.7785491713061496,
      0.7395723444500919,
      2.612222088485382,
      2.7785708656014547,
      0.8195439355418687,
      2.7784406835712327,
      0.8692317197309762,
      2.7787082376449885,
      2.778433450091908,
      2.778715466549019,
      2.778462383286363,
      2.778375577919669,
      2.778556402858329,
      2.77883111265213,
      2.778715466549019,
      2.778455150168456,
      2.7786359419859616,
      2.7785780967924087,
      1.4094258686714434,
      2.778888924157677,
      2.778455150168456,
      2.778751609264389,
      0.9289076902439527,
      2.778353873866729,
      2.7786359419859616,
      2.7785491713061496,
      2.778455150168456,
      2.7784696162838047,
      0.6910814921229684,
      2.778556402858329,
      2.496126706275837,
      2.7785347078405374,
      2.778353873866729,
      2.1388708573195037,
      0.6821450763738317,
      2.7784479169300806,
      0.787460474518415,
      2.7784985470690073,
      2.7784045149697625,
      2.778773293449927,
      0.877371345869774,
      2.7784189827718127,
      2.7785130117389247,
      2.7784696162838047,
      0.741151598851785,
      2.778411748931034,
      0.7259116322950482,
      2.7784479169300806,
      0.7299742856995556,
      2.778910601488381,
      2.7784189827718127,
      2.778766065508379,
      2.7788022040132385,
      2.7785274759270964,
      2.7785708656014547,
      2.778628711758099,
      1.6774244377012475,
      0.9489017609702137,
      1.0711452904510828,
      2.7786214814098638,
      2.778729923996112,
      2.7784985470690073,
      2.7784768491607865,
      1.4065401804339552,
      2.7784406835712327,
      2.778563634290096,
      2.778346638941371,
      2.7785347078405374,
      2.778903375831701,
      2.7786793208255416,
      1.1504494094608806,
      2.778455150168456,
      0.9786369483844743,
      0.8273692730538252,
      2.778758837446534,
      2.7786431720934557,
      1.1182647260894794,
      2.7790695355277135,
      0.791690649020118,
      2.7785925588131195,
      1.9571761304048463,
      2.7786576319473553,
      2.7783394038954845,
      0.8115750058705934,
      2.7787877489721513,
      2.778563634290096,
      1.6331653536839033,
      2.778462383286363,
      2.7786359419859616,
      2.778426216492103,
      2.778346638941371,
      2.7784768491607865,
      2.778903375831701,
      2.7783828123629517,
      2.7783321687290647,
      2.778361108671562,
      0.7379873263334308,
      2.7789322777371392,
      0.7109631189952758,
      2.7784045149697625,
      2.778368343355874,
      2.778845566249998,
      2.778411748931034,
      2.778433450091908,
      2.7784045149697625,
      2.778346638941371,
      2.7786720913198293,
      2.778751609264389,
      0.9360107957152096,
      2.778585327862962,
      2.778462383286363,
      2.778426216492103,
      2.2594744195310756,
      0.7839035792727349,
      2.778361108671562,
      2.7788744720027396,
      2.2711443179490782,
      2.7783900466857254,
      2.2747580543520085,
      0.7803173121401513,
      2.778375577919669,
      2.7785780967924087,
      2.778397280887994,
      2.160348460761097,
      1.6730209071288962,
      2.778520243893227,
      2.778426216492103,
      0.7708520116421442,
      2.7784913145533836,
      2.7785780967924087,
      2.7784768491607865,
      2.7785130117389247,
      2.778888924157677,
      2.7783828123629517,
      2.7787082376449885,
      0.7881683711411677,
      0.7134905430939426,
      2.778520243893227,
      2.778563634290096,
      2.7787805212711834,
      2.778773293449927,
      1.2851070295668119,
      2.778715466549019,
      2.7789611777193093,
      2.778520243893227,
      2.778462383286363,
      0.7489628612561614,
      2.7784768491607865,
      0.8836614351536176,
      2.7784985470690073,
      2.7787226953327258,
      2.7784913145533836,
      0.8075350280688532,
      2.778628711758099,
      0.7678976160180907,
      0.7379873263334308,
      0.7656685547590141,
      1.9109977163106429,
      2.778715466549019,
      2.778925052441096,
      0.7041505168397991,
      2.778455150168456,
      2.778411748931034,
      0.6946051989335688,
      2.7784985470690073,
      2.7784840819173113,
      2.7786793208255416,
      2.778766065508379,
      2.778397280887994,
      0.7435097647284298,
      2.7784840819173113,
      2.7784479169300806,
      0.967547976218862,
      0.9845273133437926,
      2.7784913145533836,
      1.2043913319192998,
      2.778766065508379,
      2.778520243893227,
      2.7785997896428842,
      0.7176705030022621,
      2.7784189827718127,
      2.01237316722249,
      2.7784045149697625,
      2.7783828123629517,
      0.8122446968003693,
      2.7785130117389247,
      2.7785130117389247,
      2.047936516138079,
      2.7787443809619394,
      2.7784696162838047,
      1.5116160205691376,
      2.778426216492103,
      0.877371345869774,
      2.778462383286363,
      2.778426216492103,
      2.1325158349126387,
      2.7786431720934557,
      2.7785780967924087,
      2.7155855518931964,
      1.2242740142942576,
      2.7784913145533836,
      2.7794160989470678,
      2.7784406835712327,
      1.0228406108765278,
      1.1728946977521761,
      2.778353873866729,
      2.778455150168456,
      2.7786793208255416,
      0.9395192526186185,
      2.7785130117389247,
      2.7783394038954845,
      2.7787082376449885,
      2.778455150168456,
      2.778397280887994,
      2.778541939633554,
      1.3617278360175928,
      2.778426216492103,
      1.8828090413924399,
      2.7787443809619394,
      2.7787082376449885,
      2.7786937794759377,
      2.7785274759270964,
      2.7791634237644987,
      2.778455150168456,
      0.8750612633917001,
      0.7611758131557314,
      2.778426216492103,
      0.7649229846498885,
      2.778751609264389,
      2.7784768491607865,
      2.778411748931034,
      2.7786070203522604,
      0.9041743682841635,
      2.7784479169300806,
      0.787460474518415,
      0.9469432706978255,
      2.7786576319473553,
      2.778397280887994,
      2.7789828514439465,
      2.7785997896428842,
      0.7774268223893114,
      2.778541939633554,
      0.7824726241662862,
      2.7784189827718127,
      2.778758837446534,
      2.7783900466857254,
      2.7788672457449186,
      0.8627275283179746,
      2.7787226953327258,
      2.778990075778468,
      0.7795964912578245,
      2.7785708656014547,
      2.778556402858329,
      2.778433450091908,
      2.7785491713061496,
      0.8836614351536176,
      2.778758837446534,
      0.7041505168397991,
      2.778520243893227,
      2.7784406835712327,
      2.778426216492103,
      1.1287222843384268,
      2.778426216492103,
      2.7785780967924087,
      0.7339992865383869
    ],
    "Timeout Prediction": [
      1.3010299956639813,
      1.3010299956639813,
      0.9684829485539351,
      1.3010299956639813,
      1.3010299956639813,
      1.3010299956639813,
      2.113943352306837,
      1.4771212547196624,
      0.8254261177678232,
      1.3010299956639813,
      1.3010299956639813,
      1.3010299956639813,
      1.3010299956639813,
      1.290034611362518,
      1.3010299956639813,
      1.3010299956639813,
      0.8970770032094203,
      1.4771212547196624,
      1.3010299956639813,
      1.3010299956639813,
      1.5475285764597821,
      1.3010299956639813,
      1.3010299956639813,
      1.3010299956639813,
      0.7442929831226762,
      1.3010299956639813,
      1.3010299956639813,
      0.8506462351830665,
      1.3010299956639813,
      1.4771212547196624,
      2.7784696162838047,
      1.3010299956639813,
      0.9030899869919435,
      1.3010299956639813,
      1.3010299956639813,
      0.9283958522567138,
      1.3653007486379873,
      1.3010299956639813,
      0.7185016888672743,
      1.3010299956639813,
      0.7972675408307164,
      0.724275869600789,
      1.3010299956639813,
      1.3010299956639813,
      1.3010299956639813,
      1.3010299956639813,
      1.5075860397630108,
      1.1149444157125847,
      1.954242509439325,
      1.3010299956639813,
      1.011570443597278,
      1.3010299956639813,
      0.8959747323590646,
      1.3010299956639813,
      1.4771212547196624,
      1.3010299956639813,
      1.3010299956639813,
      1.3010299956639813,
      1.4771212547196624,
      1.3010299956639813,
      0.7267272090265723,
      1.4771212547196624,
      0.7497363155690611,
      1.3010299956639813,
      1.3010299956639813,
      1.3010299956639813,
      1.9196532823103643,
      0.8512583487190752,
      0.7419390777291989,
      1.3010299956639813,
      1.3010299956639813,
      1.3010299956639813,
      2.0791812460476247,
      1.3010299956639813,
      1.3010299956639813,
      1.3010299956639813,
      1.3010299956639813,
      2.778375577919669,
      1.3010299956639813,
      1.3010299956639813,
      1.6434526764861874,
      1.375114684692225,
      1.6989700043360187,
      1.3010299956639813,
      1.6989700043360187,
      1.3010299956639813,
      1.4771212547196624,
      1.845098040014257,
      1.3010299956639813,
      1.3010299956639813,
      1.3010299956639813,
      0.887054378050957,
      1.0253058652647702,
      1.4771212547196624,
      1.3010299956639813,
      2.4149733479708178,
      0.7015679850559274,
      0.7701152947871016,
      0.7937903846908186,
      1.3010299956639813,
      1.3010299956639813,
      1.3010299956639813,
      2.2242740142942576,
      1.3010299956639813,
      1.3010299956639813,
      2.0791812460476247,
      1.3010299956639813,
      1.1894903136993675,
      0.8228216453031046,
      1.3010299956639813,
      1.3010299956639813,
      2.4771212547196626,
      2.7739984225325527,
      1.3010299956639813,
      0.9912260756924949,
      1.3010299956639813,
      1.3010299956639813,
      1.3010299956639813,
      1.3010299956639813,
      1.3010299956639813,
      1.3010299956639813,
      1.3010299956639813,
      1.3010299956639813,
      0.741151598851785,
      1.3010299956639813,
      1.3010299956639813,
      1.3010299956639813,
      1.3010299956639813,
      1.3010299956639813,
      1.3010299956639813,
      1.3010299956639813,
      1.6989700043360187,
      1.3010299956639813,
      1.3010299956639813,
      0.7379873263334308,
      1.3010299956639813,
      1.3010299956639813,
      1.3010299956639813,
      1.3010299956639813,
      1.3010299956639813,
      2.1760912590556813,
      1.3010299956639813,
      1.3010299956639813,
      0.7379873263334308,
      0.8987251815894935,
      1.3010299956639813,
      0.8426092396105621,
      0.7895807121644255,
      1.3010299956639813,
      1.3010299956639813,
      0.9415114326344031,
      1.3010299956639813,
      1.4771212547196624,
      1.3010299956639813,
      1.4771212547196624,
      1.5747255835940734,
      1.3010299956639813,
      1.3010299956639813,
      1.3010299956639813,
      1.3010299956639813,
      1.3010299956639813,
      0.7307822756663892,
      1.3010299956639813,
      1.3010299956639813,
      1.3010299956639813,
      1.3010299956639813,
      1.4771212547196624,
      0.8312296938670634,
      1.6595359071542164,
      1.055378331375,
      0.7160033436347992,
      1.3010299956639813,
      0.75815462196739,
      1.3010299956639813,
      1.3010299956639813,
      0.7634279935629372,
      1.6020599913279623,
      2.4913616938342726,
      1.3010299956639813,
      1.3010299956639813,
      0.8068580295188175,
      0.7923916894982539,
      1.3010299956639813,
      1.3010299956639813,
      1.4771212547196624,
      1.3010299956639813,
      1.0195316845312554,
      0.7839035792727349,
      1.3010299956639813,
      1.04766419460156,
      1.0265332645232967,
      0.7497363155690611,
      1.3010299956639813,
      1.3010299956639813,
      1.3010299956639813,
      0.7481880270062004,
      1.4771212547196624,
      1.3010299956639813,
      1.3010299956639813,
      1.4771212547196624,
      2.0791812460476247,
      1.3010299956639813,
      1.3126004392612594,
      0.7512791039833423,
      1.4771212547196624,
      1.3010299956639813,
      1.3010299956639813,
      1.3010299956639813,
      1.3010299956639813,
      2.057361762985039,
      0.725094521081469,
      2.322219294733919,
      1.3010299956639813,
      1.3010299956639813,
      0.9329808219231982,
      2.778397280887994,
      0.8175653695597808,
      1.3010299956639813,
      1.6989700043360187,
      1.954242509439325,
      1.3010299956639813,
      1.0382226383687185,
      1.3010299956639813,
      1.3010299956639813,
      1.3010299956639813,
      1.3010299956639813,
      1.3010299956639813,
      1.3010299956639813,
      0.7520484478194386,
      1.3010299956639813,
      1.3010299956639813,
      1.3010299956639813,
      1.0136796972911926,
      0.7201593034059569,
      0.7888751157754168,
      1.3010299956639813,
      0.7395723444500919,
      2.612222088485382,
      1.3010299956639813,
      0.8195439355418687,
      1.3010299956639813,
      0.8692317197309762,
      1.3010299956639813,
      1.954242509439325,
      1.3010299956639813,
      1.4771212547196624,
      1.3010299956639813,
      1.3010299956639813,
      1.3010299956639813,
      1.3010299956639813,
      1.3010299956639813,
      1.3010299956639813,
      1.3010299956639813,
      1.4094258686714434,
      1.3010299956639813,
      1.3010299956639813,
      1.3010299956639813,
      0.9289076902439527,
      2.778353873866729,
      1.3010299956639813,
      1.3010299956639813,
      1.3010299956639813,
      1.4771212547196624,
      0.6910814921229684,
      1.3010299956639813,
      1.3010299956639813,
      1.3010299956639813,
      1.4771212547196624,
      2.1388708573195037,
      0.6821450763738317,
      1.3010299956639813,
      0.787460474518415,
      1.3010299956639813,
      1.3010299956639813,
      1.3010299956639813,
      0.877371345869774,
      1.4771212547196624,
      1.3010299956639813,
      1.954242509439325,
      0.741151598851785,
      1.6989700043360187,
      0.7259116322950482,
      1.3010299956639813,
      0.7299742856995556,
      1.3010299956639813,
      1.7781512503836436,
      1.3010299956639813,
      1.3010299956639813,
      2.041392685158225,
      1.3010299956639813,
      1.3010299956639813,
      1.6774244377012475,
      0.9489017609702137,
      1.0711452904510828,
      1.3010299956639813,
      1.3010299956639813,
      1.3010299956639813,
      1.3010299956639813,
      1.4065401804339552,
      1.3010299956639813,
      1.3010299956639813,
      1.954242509439325,
      1.3010299956639813,
      1.3010299956639813,
      1.3010299956639813,
      1.1504494094608806,
      1.4771212547196624,
      0.9786369483844743,
      0.8273692730538252,
      1.3010299956639813,
      1.3010299956639813,
      1.1182647260894794,
      1.3010299956639813,
      0.791690649020118,
      1.3010299956639813,
      1.9571761304048463,
      1.3010299956639813,
      1.4771212547196624,
      0.8115750058705934,
      1.3010299956639813,
      1.3010299956639813,
      1.3010299956639813,
      1.3010299956639813,
      1.3010299956639813,
      1.3010299956639813,
      2.255272505103306,
      1.3010299956639813,
      1.3010299956639813,
      1.845098040014257,
      1.7781512503836436,
      2.778361108671562,
      0.7379873263334308,
      1.3010299956639813,
      0.7109631189952758,
      2.7784045149697625,
      1.3010299956639813,
      1.3010299956639813,
      2.0791812460476247,
      1.4771212547196624,
      1.6020599913279623,
      1.3010299956639813,
      1.3010299956639813,
      1.3010299956639813,
      0.9360107957152096,
      1.3010299956639813,
      2.6720978579357175,
      2.3010299956639813,
      2.2594744195310756,
      0.7839035792727349,
      1.6989700043360187,
      1.3010299956639813,
      2.2711443179490782,
      1.3010299956639813,
      2.2747580543520085,
      0.7803173121401513,
      2.4149733479708178,
      1.3010299956639813,
      1.3010299956639813,
      2.160348460761097,
      1.6730209071288962,
      1.3010299956639813,
      1.4771212547196624,
      0.7708520116421442,
      1.3010299956639813,
      1.3010299956639813,
      1.3010299956639813,
      1.3010299956639813,
      1.3010299956639813,
      2.7783828123629517,
      1.3010299956639813,
      0.7881683711411677,
      0.7134905430939426,
      1.3010299956639813,
      1.3010299956639813,
      1.3010299956639813,
      1.3010299956639813,
      1.2851070295668119,
      1.3010299956639813,
      1.3010299956639813,
      1.3010299956639813,
      1.6020599913279623,
      0.7489628612561614,
      1.3010299956639813,
      0.8836614351536176,
      2.0,
      1.3010299956639813,
      1.4771212547196624,
      0.8075350280688532,
      1.3010299956639813,
      0.7678976160180907,
      0.7379873263334308,
      0.7656685547590141,
      1.9109977163106429,
      1.3010299956639813,
      1.3010299956639813,
      0.7041505168397991,
      2.041392685158225,
      2.505149978319906,
      0.6946051989335688,
      1.4771212547196624,
      1.3010299956639813,
      1.3010299956639813,
      1.3010299956639813,
      1.3010299956639813,
      0.7435097647284298,
      1.3010299956639813,
      1.3010299956639813,
      0.967547976218862,
      0.9845273133437926,
      1.3010299956639813,
      1.2043913319192998,
      1.3010299956639813,
      1.3010299956639813,
      1.3010299956639813,
      0.7176705030022621,
      1.3010299956639813,
      2.01237316722249,
      1.6020599913279623,
      1.4771212547196624,
      0.8122446968003693,
      1.845098040014257,
      1.3010299956639813,
      1.3010299956639813,
      1.3010299956639813,
      1.3010299956639813,
      1.3010299956639813,
      1.3010299956639813,
      0.877371345869774,
      1.3010299956639813,
      1.7781512503836436,
      2.1325158349126387,
      1.3010299956639813,
      1.3010299956639813,
      2.7155855518931964,
      1.2242740142942576,
      1.3010299956639813,
      1.3010299956639813,
      1.3010299956639813,
      1.0228406108765278,
      1.1728946977521761,
      2.778353873866729,
      1.3010299956639813,
      1.3010299956639813,
      0.9395192526186185,
      1.3010299956639813,
      1.6020599913279623,
      1.3010299956639813,
      1.9030899869919435,
      1.3010299956639813,
      1.3010299956639813,
      1.3617278360175928,
      1.3010299956639813,
      1.8828090413924399,
      1.3010299956639813,
      1.3010299956639813,
      1.3010299956639813,
      1.3010299956639813,
      1.3010299956639813,
      1.6989700043360187,
      0.8750612633917001,
      0.7611758131557314,
      1.3010299956639813,
      0.7649229846498885,
      1.3010299956639813,
      1.3010299956639813,
      1.3010299956639813,
      1.3010299956639813,
      0.9041743682841635,
      1.3010299956639813,
      0.787460474518415,
      0.9469432706978255,
      1.3010299956639813,
      1.3010299956639813,
      1.3010299956639813,
      1.3010299956639813,
      0.7774268223893114,
      1.3010299956639813,
      0.7824726241662862,
      1.3010299956639813,
      1.3010299956639813,
      1.954242509439325,
      1.3010299956639813,
      0.8627275283179746,
      1.3010299956639813,
      1.3010299956639813,
      0.7795964912578245,
      1.3010299956639813,
      1.3010299956639813,
      2.531478917042255,
      1.3010299956639813,
      0.8836614351536176,
      1.3010299956639813,
      0.7041505168397991,
      1.3010299956639813,
      1.4771212547196624,
      1.4771212547196624,
      1.1287222843384268,
      1.3010299956639813,
      1.3010299956639813,
      0.7339992865383869
    ]
  }
}