{
  "0": {
    "test_acc": 0.9012345679012346,
    "tp": 62,
    "tn": 11,
    "fp": 1,
    "fn": 7,
    "tpr": 0.8985507246376812,
    "fpr": 0.08333333333333333,
    "tnr": 0.9166666666666666,
    "fnr": 0.10144927536231885,
    "f1_score": 0.9393939393939393,
    "precision": 0.9841269841269841,
    "recall": 0.8985507246376812
  },
  "1": {
    "test_acc": 0.9629629629629629,
    "tp": 66,
    "tn": 12,
    "fp": 0,
    "fn": 3,
    "tpr": 0.9565217391304348,
    "fpr": 0.0,
    "tnr": 1.0,
    "fnr": 0.043478260869565216,
    "f1_score": 0.9777777777777777,
    "precision": 1.0,
    "recall": 0.9565217391304348
  },
  "2": {
    "test_acc": 0.8765432098765432,
    "tp": 60,
    "tn": 11,
    "fp": 1,
    "fn": 9,
    "tpr": 0.8695652173913043,
    "fpr": 0.08333333333333333,
    "tnr": 0.9166666666666666,
    "fnr": 0.13043478260869565,
    "f1_score": 0.923076923076923,
    "precision": 0.9836065573770492,
    "recall": 0.8695652173913043
  },
  "3": {
    "test_acc": 0.85,
    "tp": 57,
    "tn": 11,
    "fp": 0,
    "fn": 12,
    "tpr": 0.8260869565217391,
    "fpr": 0.0,
    "tnr": 1.0,
    "fnr": 0.17391304347826086,
    "f1_score": 0.9047619047619047,
    "precision": 1.0,
    "recall": 0.8260869565217391
  },
  "4": {
    "test_acc": 0.9125,
    "tp": 62,
    "tn": 11,
    "fp": 1,
    "fn": 6,
    "tpr": 0.9117647058823529,
    "fpr": 0.08333333333333333,
    "tnr": 0.9166666666666666,
    "fnr": 0.08823529411764706,
    "f1_score": 0.9465648854961831,
    "precision": 0.9841269841269841,
    "recall": 0.9117647058823529
  },
  "sum": {
    "tp": 307.0,
    "fp": 3.0,
    "tn": 56.0,
    "fn": 37.0,
    "tpr": 0.8924418604651163,
    "tnr": 0.9491525423728814,
    "fpr": 0.05084745762711865,
    "fnr": 0.10755813953488372
  },
  "avg": {
    "test_acc": 0.9006481481481481,
    "tp": 61.4,
    "tn": 11.2,
    "fp": 0.6,
    "fn": 7.4,
    "tpr": 0.8924978687127025,
    "fpr": 0.05,
    "tnr": 0.95,
    "fnr": 0.10750213128729753,
    "f1_score": 0.9383150861013456,
    "precision": 0.9903721051262036,
    "recall": 0.8924978687127025
  }
}