{
  "results": {
    "Vanilla Verifier": [
      1.0,
      0.0,
      1.0,
      2.0,
      1.0,
      2.0,
      2.0,
      2.0,
      2.0,
      1.0,
      2.0,
      0.0,
      1.0,
      1.0,
      1.0,
      2.0,
      2.0,
      2.0,
      1.0,
      1.0,
      0.0,
      1.0,
      2.0,
      2.0,
      2.0,
      1.0,
      2.0,
      0.0,
      2.0,
      1.0,
      1.0,
      1.0,
      1.0,
      2.0,
      2.0,
      1.0,
      1.0,
      2.0,
      2.0,
      2.0,
      2.0,
      2.0,
      1.0,
      1.0,
      2.0,
      1.0,
      2.0,
      2.0,
      2.0,
      2.0,
      2.0,
      0.0,
      1.0,
      2.0,
      1.0,
      0.0,
      1.0,
      2.0,
      2.0,
      1.0,
      2.0,
      1.0,
      1.0,
      0.0,
      2.0,
      2.0,
      1.0,
      2.0,
      2.0,
      2.0,
      2.0,
      2.0,
      2.0,
      1.0,
      2.0,
      0.0,
      2.0,
      2.0,
      2.0,
      0.0,
      2.0,
      0.0,
      2.0,
      2.0,
      2.0,
      2.0,
      2.0,
      2.0,
      0.0,
      2.0,
      2.0,
      2.0,
      1.0,
      2.0,
      0.0,
      0.0,
      1.0,
      2.0,
      2.0,
      2.0,
      2.0,
      2.0,
      2.0,
      1.0,
      0.0,
      2.0,
      2.0,
      2.0,
      2.0,
      1.0,
      1.0,
      2.0,
      1.0,
      0.0,
      2.0,
      2.0,
      2.0,
      0.0,
      1.0,
      1.0,
      2.0,
      1.0,
      2.0,
      1.0,
      2.0,
      1.0,
      2.0,
      0.0,
      1.0,
      2.0,
      0.0,
      2.0,
      2.0,
      2.0,
      1.0,
      2.0,
      2.0,
      2.0,
      1.0,
      1.0,
      1.0,
      0.0,
      1.0,
      2.0,
      2.0,
      2.0,
      2.0,
      2.0,
      2.0,
      2.0,
      1.0,
      1.0,
      2.0,
      0.0,
      2.0,
      0.0,
      1.0,
      2.0,
      1.0,
      2.0,
      1.0,
      2.0,
      2.0,
      2.0,
      1.0,
      1.0,
      1.0,
      2.0,
      2.0,
      1.0,
      2.0,
      2.0,
      0.0,
      1.0,
      2.0,
      1.0,
      1.0,
      1.0,
      2.0,
      1.0,
      2.0,
      1.0,
      2.0,
      2.0,
      2.0,
      2.0,
      1.0,
      2.0,
      1.0,
      2.0,
      2.0,
      2.0,
      2.0,
      2.0,
      2.0,
      2.0,
      2.0,
      2.0,
      0.0,
      2.0,
      0.0,
      1.0,
      2.0,
      2.0,
      2.0,
      2.0,
      2.0,
      1.0,
      0.0,
      1.0,
      1.0,
      1.0,
      2.0,
      1.0,
      1.0,
      2.0,
      2.0,
      0.0,
      1.0,
      1.0,
      1.0,
      1.0,
      2.0,
      2.0,
      2.0,
      2.0,
      2.0,
      1.0,
      2.0,
      0.0,
      2.0,
      0.0,
      2.0,
      1.0,
      1.0,
      2.0,
      2.0,
      2.0,
      1.0,
      2.0,
      1.0,
      2.0,
      1.0,
      2.0,
      2.0,
      2.0,
      2.0,
      2.0,
      1.0,
      2.0,
      2.0,
      1.0,
      2.0,
      1.0,
      2.0,
      1.0,
      2.0,
      2.0,
      1.0,
      2.0,
      2.0,
      0.0,
      2.0,
      1.0,
      0.0,
      1.0,
      1.0,
      2.0,
      1.0,
      1.0,
      0.0,
      1.0,
      1.0,
      1.0,
      0.0,
      2.0,
      1.0,
      2.0,
      2.0,
      0.0,
      1.0,
      1.0,
      2.0,
      1.0,
      1.0,
      2.0,
      2.0,
      2.0,
      2.0,
      0.0,
      1.0,
      0.0,
      1.0,
      2.0,
      2.0,
      1.0,
      2.0,
      2.0,
      2.0,
      1.0,
      2.0,
      2.0,
      1.0,
      2.0,
      2.0,
      2.0,
      1.0,
      2.0,
      0.0,
      2.0,
      2.0,
      2.0,
      1.0,
      2.0,
      0.0,
      2.0,
      2.0,
      2.0,
      2.0,
      2.0,
      0.0,
      1.0,
      2.0,
      1.0,
      2.0,
      1.0,
      1.0,
      2.0,
      2.0,
      2.0,
      2.0,
      2.0,
      0.0,
      0.0,
      2.0,
      2.0,
      2.0,
      0.0,
      2.0,
      2.0,
      2.0,
      1.0,
      2.0,
      2.0,
      2.0,
      2.0,
      1.0,
      1.0,
      0.0,
      0.0,
      1.0,
      2.0,
      2.0,
      2.0,
      2.0,
      2.0,
      2.0,
      0.0,
      2.0,
      2.0,
      1.0,
      1.0,
      2.0,
      0.0,
      0.0,
      2.0,
      2.0,
      2.0,
      2.0,
      0.0,
      2.0,
      1.0,
      2.0,
      0.0,
      2.0,
      2.0,
      0.0,
      1.0,
      0.0,
      2.0,
      1.0,
      2.0,
      0.0,
      1.0,
      2.0,
      1.0,
      0.0,
      2.0,
      1.0,
      2.0,
      2.0,
      1.0,
      2.0,
      1.0,
      2.0,
      2.0,
      2.0,
      2.0,
      2.0,
      2.0,
      2.0,
      2.0,
      0.0,
      2.0,
      1.0,
      1.0,
      2.0,
      0.0,
      2.0,
      1.0,
      0.0,
      2.0,
      2.0,
      2.0,
      2.0,
      2.0,
      2.0,
      0.0,
      0.0,
      2.0,
      1.0,
      2.0,
      2.0,
      2.0,
      1.0,
      2.0,
      2.0,
      0.0,
      1.0,
      2.0,
      2.0,
      2.0,
      1.0,
      2.0,
      1.0,
      2.0,
      2.0,
      2.0,
      2.0,
      0.0,
      1.0,
      2.0,
      1.0,
      2.0,
      1.0,
      2.0,
      2.0,
      0.0,
      2.0,
      2.0,
      1.0,
      2.0,
      2.0,
      2.0,
      0.0,
      1.0,
      0.0,
      2.0,
      0.0,
      1.0,
      2.0,
      1.0,
      2.0,
      2.0,
      2.0,
      2.0,
      1.0,
      0.0,
      2.0,
      2.0,
      2.0,
      1.0,
      0.0,
      2.0,
      1.0,
      2.0,
      1.0,
      1.0,
      2.0,
      1.0,
      2.0,
      2.0,
      1.0,
      2.0,
      0.0,
      1.0,
      2.0,
      0.0,
      2.0,
      1.0,
      2.0,
      1.0,
      2.0,
      2.0,
      1.0,
      0.0,
      1.0,
      2.0,
      1.0,
      2.0,
      1.0,
      2.0,
      2.0,
      2.0,
      1.0,
      2.0,
      0.0,
      0.0,
      1.0,
      1.0,
      2.0,
      2.0,
      2.0,
      1.0,
      2.0,
      2.0,
      0.0,
      2.0,
      2.0,
      0.0,
      0.0,
      0.0,
      2.0,
      1.0,
      2.0,
      2.0,
      1.0,
      2.0,
      1.0,
      2.0,
      1.0,
      2.0,
      2.0,
      2.0,
      1.0,
      1.0,
      1.0,
      1.0,
      1.0,
      2.0,
      0.0,
      1.0,
      1.0,
      1.0,
      2.0,
      2.0,
      2.0,
      2.0,
      2.0,
      2.0,
      2.0,
      0.0,
      1.0,
      2.0,
      2.0,
      2.0,
      2.0,
      1.0,
      2.0,
      0.0,
      2.0,
      1.0,
      1.0,
      2.0,
      1.0,
      1.0,
      2.0,
      0.0,
      2.0,
      1.0,
      2.0,
      2.0,
      1.0,
      2.0,
      1.0,
      2.0,
      1.0,
      2.0,
      2.0,
      2.0,
      1.0,
      2.0,
      2.0,
      2.0,
      1.0,
      1.0,
      2.0,
      1.0,
      2.0,
      2.0,
      1.0,
      2.0,
      2.0,
      2.0,
      2.0,
      2.0,
      2.0,
      2.0,
      0.0,
      2.0,
      1.0,
      0.0,
      2.0,
      2.0,
      2.0,
      2.0,
      1.0,
      2.0,
      1.0,
      2.0,
      2.0,
      2.0,
      2.0,
      1.0,
      2.0,
      2.0,
      2.0,
      2.0,
      2.0,
      2.0,
      0.0,
      2.0,
      1.0,
      2.0,
      1.0,
      2.0,
      1.0,
      1.0,
      2.0,
      2.0,
      1.0,
      0.0,
      0.0,
      1.0,
      1.0,
      2.0,
      0.0,
      2.0,
      2.0,
      2.0,
      1.0,
      1.0,
      1.0,
      2.0,
      2.0,
      1.0,
      1.0,
      1.0,
      2.0,
      2.0,
      2.0,
      2.0,
      2.0,
      2.0,
      1.0,
      2.0,
      1.0,
      1.0,
      2.0,
      2.0,
      1.0,
      2.0,
      2.0,
      2.0,
      2.0,
      1.0,
      2.0,
      1.0,
      1.0,
      2.0,
      2.0,
      1.0,
      1.0,
      1.0,
      2.0,
      1.0,
      1.0,
      2.0,
      2.0,
      2.0,
      0.0,
      1.0,
      2.0,
      2.0,
      2.0,
      1.0,
      1.0,
      1.0,
      2.0,
      1.0,
      2.0,
      0.0,
      0.0,
      2.0,
      1.0,
      1.0,
      2.0,
      2.0,
      2.0,
      2.0,
      1.0,
      0.0,
      2.0,
      1.0,
      1.0,
      1.0,
      2.0,
      2.0,
      2.0,
      2.0,
      2.0,
      2.0,
      1.0,
      2.0,
      1.0,
      1.0,
      2.0,
      1.0,
      2.0,
      2.0,
      2.0,
      1.0,
      2.0,
      2.0,
      2.0,
      1.0,
      0.0,
      2.0,
      1.0,
      2.0,
      1.0,
      1.0,
      1.0,
      1.0,
      2.0,
      2.0,
      2.0,
      0.0,
      2.0,
      2.0,
      2.0,
      2.0,
      1.0,
      2.0,
      2.0,
      2.0,
      1.0,
      0.0,
      2.0,
      0.0,
      2.0,
      1.0,
      1.0,
      1.0,
      1.0,
      1.0,
      0.0,
      2.0,
      1.0,
      1.0,
      1.0,
      1.0,
      0.0,
      2.0,
      2.0,
      2.0,
      2.0,
      1.0,
      1.0,
      2.0,
      0.0,
      2.0,
      1.0,
      2.0,
      1.0,
      1.0,
      2.0,
      2.0,
      2.0,
      2.0,
      1.0,
      2.0,
      0.0,
      1.0,
      1.0,
      2.0,
      1.0,
      1.0,
      1.0,
      2.0,
      2.0,
      2.0,
      2.0,
      1.0,
      1.0,
      2.0,
      2.0,
      2.0,
      1.0,
      1.0,
      0.0,
      2.0,
      2.0,
      2.0,
      2.0,
      2.0,
      1.0,
      2.0,
      1.0,
      2.0,
      0.0,
      1.0,
      0.0,
      2.0,
      1.0,
      2.0,
      2.0,
      2.0,
      2.0,
      2.0,
      1.0,
      1.0,
      1.0,
      2.0,
      1.0,
      1.0,
      2.0,
      1.0,
      2.0,
      2.0,
      1.0,
      0.0,
      1.0,
      2.0,
      1.0,
      2.0,
      2.0,
      2.0,
      1.0,
      2.0,
      1.0,
      2.0,
      2.0,
      1.0,
      1.0,
      1.0,
      2.0,
      2.0,
      2.0,
      2.0,
      2.0,
      0.0,
      0.0,
      2.0,
      2.0,
      2.0,
      1.0,
      2.0,
      2.0,
      1.0,
      2.0,
      0.0,
      2.0,
      2.0,
      2.0,
      0.0,
      2.0,
      2.0,
      0.0,
      2.0,
      2.0,
      2.0,
      2.0,
      0.0,
      2.0,
      1.0,
      1.0,
      0.0,
      0.0,
      2.0,
      1.0,
      1.0,
      2.0,
      2.0,
      1.0,
      0.0,
      0.0,
      0.0,
      2.0,
      1.0,
      2.0,
      2.0,
      2.0,
      2.0,
      2.0,
      2.0,
      2.0,
      2.0,
      2.0,
      2.0,
      0.0,
      1.0,
      2.0,
      1.0,
      1.0,
      2.0,
      2.0,
      2.0,
      2.0,
      2.0,
      1.0,
      1.0,
      1.0,
      2.0,
      2.0,
      1.0,
      2.0,
      1.0,
      0.0,
      2.0,
      1.0,
      0.0,
      0.0,
      1.0,
      2.0,
      2.0,
      2.0,
      2.0,
      2.0,
      2.0,
      1.0,
      2.0,
      2.0,
      2.0,
      1.0,
      1.0,
      2.0,
      0.0,
      0.0,
      2.0,
      2.0,
      1.0,
      2.0,
      2.0,
      2.0,
      0.0,
      2.0,
      0.0,
      0.0,
      2.0,
      2.0,
      2.0,
      2.0,
      2.0,
      2.0,
      1.0,
      1.0,
      1.0,
      1.0,
      1.0
    ],
    "Timeout Prediction": [
      1.0,
      0.0,
      1.0,
      2.0,
      1.0,
      2.0,
      2.0,
      2.0,
      2.0,
      1.0,
      2.0,
      0.0,
      1.0,
      1.0,
      1.0,
      2.0,
      2.0,
      2.0,
      1.0,
      1.0,
      0.0,
      1.0,
      2.0,
      2.0,
      2.0,
      1.0,
      2.0,
      0.0,
      2.0,
      1.0,
      1.0,
      1.0,
      1.0,
      2.0,
      2.0,
      1.0,
      1.0,
      2.0,
      2.0,
      2.0,
      2.0,
      2.0,
      1.0,
      1.0,
      2.0,
      1.0,
      2.0,
      2.0,
      2.0,
      2.0,
      2.0,
      0.0,
      1.0,
      2.0,
      1.0,
      0.0,
      1.0,
      2.0,
      2.0,
      2.0,
      2.0,
      1.0,
      1.0,
      0.0,
      2.0,
      2.0,
      1.0,
      2.0,
      2.0,
      2.0,
      2.0,
      2.0,
      2.0,
      1.0,
      2.0,
      0.0,
      2.0,
      2.0,
      2.0,
      0.0,
      2.0,
      0.0,
      2.0,
      2.0,
      2.0,
      2.0,
      2.0,
      2.0,
      0.0,
      2.0,
      2.0,
      2.0,
      1.0,
      2.0,
      0.0,
      0.0,
      1.0,
      2.0,
      2.0,
      2.0,
      2.0,
      2.0,
      2.0,
      1.0,
      0.0,
      2.0,
      2.0,
      2.0,
      2.0,
      1.0,
      1.0,
      2.0,
      1.0,
      0.0,
      2.0,
      2.0,
      2.0,
      0.0,
      1.0,
      1.0,
      2.0,
      1.0,
      2.0,
      1.0,
      2.0,
      1.0,
      2.0,
      0.0,
      2.0,
      2.0,
      0.0,
      2.0,
      2.0,
      2.0,
      1.0,
      2.0,
      2.0,
      2.0,
      1.0,
      1.0,
      1.0,
      0.0,
      1.0,
      2.0,
      2.0,
      2.0,
      2.0,
      2.0,
      2.0,
      2.0,
      1.0,
      1.0,
      2.0,
      0.0,
      2.0,
      0.0,
      1.0,
      2.0,
      1.0,
      2.0,
      1.0,
      2.0,
      2.0,
      2.0,
      1.0,
      1.0,
      1.0,
      2.0,
      2.0,
      1.0,
      2.0,
      2.0,
      0.0,
      1.0,
      2.0,
      1.0,
      1.0,
      1.0,
      2.0,
      1.0,
      2.0,
      1.0,
      2.0,
      2.0,
      2.0,
      2.0,
      1.0,
      2.0,
      1.0,
      2.0,
      2.0,
      2.0,
      2.0,
      2.0,
      2.0,
      2.0,
      2.0,
      2.0,
      0.0,
      2.0,
      0.0,
      1.0,
      2.0,
      2.0,
      2.0,
      2.0,
      2.0,
      1.0,
      0.0,
      1.0,
      1.0,
      1.0,
      2.0,
      1.0,
      1.0,
      2.0,
      2.0,
      0.0,
      1.0,
      1.0,
      1.0,
      1.0,
      2.0,
      2.0,
      2.0,
      2.0,
      2.0,
      1.0,
      2.0,
      0.0,
      2.0,
      0.0,
      2.0,
      1.0,
      2.0,
      2.0,
      2.0,
      2.0,
      1.0,
      2.0,
      1.0,
      2.0,
      1.0,
      2.0,
      2.0,
      2.0,
      2.0,
      2.0,
      1.0,
      2.0,
      2.0,
      1.0,
      2.0,
      1.0,
      2.0,
      1.0,
      2.0,
      2.0,
      1.0,
      2.0,
      2.0,
      0.0,
      2.0,
      1.0,
      0.0,
      1.0,
      1.0,
      2.0,
      1.0,
      1.0,
      0.0,
      1.0,
      1.0,
      1.0,
      0.0,
      2.0,
      1.0,
      2.0,
      2.0,
      0.0,
      1.0,
      1.0,
      2.0,
      1.0,
      1.0,
      2.0,
      2.0,
      2.0,
      2.0,
      0.0,
      1.0,
      0.0,
      1.0,
      2.0,
      2.0,
      1.0,
      2.0,
      2.0,
      2.0,
      1.0,
      2.0,
      2.0,
      1.0,
      2.0,
      2.0,
      2.0,
      1.0,
      2.0,
      0.0,
      2.0,
      2.0,
      2.0,
      1.0,
      2.0,
      0.0,
      2.0,
      2.0,
      2.0,
      2.0,
      2.0,
      0.0,
      1.0,
      2.0,
      1.0,
      2.0,
      1.0,
      1.0,
      2.0,
      2.0,
      2.0,
      2.0,
      2.0,
      0.0,
      0.0,
      2.0,
      2.0,
      2.0,
      0.0,
      2.0,
      2.0,
      2.0,
      1.0,
      2.0,
      2.0,
      2.0,
      2.0,
      1.0,
      1.0,
      0.0,
      0.0,
      1.0,
      2.0,
      2.0,
      2.0,
      2.0,
      2.0,
      2.0,
      0.0,
      2.0,
      2.0,
      1.0,
      1.0,
      2.0,
      0.0,
      0.0,
      2.0,
      2.0,
      2.0,
      2.0,
      0.0,
      2.0,
      2.0,
      2.0,
      0.0,
      2.0,
      2.0,
      0.0,
      1.0,
      0.0,
      2.0,
      1.0,
      2.0,
      0.0,
      1.0,
      2.0,
      1.0,
      0.0,
      2.0,
      1.0,
      2.0,
      2.0,
      1.0,
      2.0,
      1.0,
      2.0,
      2.0,
      2.0,
      2.0,
      2.0,
      2.0,
      2.0,
      2.0,
      0.0,
      2.0,
      1.0,
      1.0,
      2.0,
      0.0,
      2.0,
      1.0,
      0.0,
      2.0,
      2.0,
      2.0,
      2.0,
      2.0,
      2.0,
      0.0,
      0.0,
      2.0,
      1.0,
      2.0,
      2.0,
      2.0,
      1.0,
      2.0,
      2.0,
      0.0,
      1.0,
      2.0,
      2.0,
      2.0,
      1.0,
      2.0,
      1.0,
      2.0,
      2.0,
      2.0,
      2.0,
      0.0,
      1.0,
      2.0,
      1.0,
      2.0,
      2.0,
      2.0,
      2.0,
      0.0,
      2.0,
      2.0,
      1.0,
      2.0,
      2.0,
      2.0,
      0.0,
      1.0,
      0.0,
      2.0,
      0.0,
      1.0,
      2.0,
      1.0,
      2.0,
      2.0,
      2.0,
      2.0,
      1.0,
      0.0,
      2.0,
      2.0,
      2.0,
      1.0,
      0.0,
      2.0,
      1.0,
      2.0,
      1.0,
      1.0,
      2.0,
      1.0,
      2.0,
      2.0,
      1.0,
      2.0,
      0.0,
      2.0,
      2.0,
      0.0,
      2.0,
      1.0,
      2.0,
      1.0,
      2.0,
      2.0,
      1.0,
      0.0,
      1.0,
      2.0,
      1.0,
      2.0,
      1.0,
      2.0,
      2.0,
      2.0,
      1.0,
      2.0,
      0.0,
      0.0,
      1.0,
      1.0,
      2.0,
      2.0,
      2.0,
      1.0,
      2.0,
      2.0,
      0.0,
      2.0,
      2.0,
      0.0,
      0.0,
      0.0,
      2.0,
      1.0,
      2.0,
      2.0,
      1.0,
      2.0,
      1.0,
      2.0,
      1.0,
      2.0,
      2.0,
      2.0,
      1.0,
      1.0,
      1.0,
      1.0,
      1.0,
      2.0,
      0.0,
      1.0,
      1.0,
      1.0,
      2.0,
      2.0,
      2.0,
      2.0,
      2.0,
      2.0,
      2.0,
      0.0,
      2.0,
      2.0,
      2.0,
      2.0,
      2.0,
      1.0,
      2.0,
      0.0,
      2.0,
      1.0,
      1.0,
      2.0,
      1.0,
      1.0,
      2.0,
      0.0,
      2.0,
      1.0,
      2.0,
      2.0,
      1.0,
      2.0,
      1.0,
      2.0,
      1.0,
      2.0,
      2.0,
      2.0,
      1.0,
      2.0,
      2.0,
      2.0,
      1.0,
      1.0,
      2.0,
      1.0,
      2.0,
      2.0,
      1.0,
      2.0,
      2.0,
      2.0,
      2.0,
      2.0,
      2.0,
      2.0,
      0.0,
      2.0,
      1.0,
      0.0,
      2.0,
      2.0,
      2.0,
      2.0,
      1.0,
      2.0,
      1.0,
      2.0,
      2.0,
      2.0,
      2.0,
      1.0,
      2.0,
      2.0,
      2.0,
      2.0,
      2.0,
      2.0,
      0.0,
      2.0,
      1.0,
      2.0,
      1.0,
      2.0,
      1.0,
      1.0,
      2.0,
      2.0,
      1.0,
      0.0,
      0.0,
      1.0,
      1.0,
      2.0,
      0.0,
      2.0,
      2.0,
      2.0,
      1.0,
      1.0,
      1.0,
      2.0,
      2.0,
      1.0,
      1.0,
      1.0,
      2.0,
      2.0,
      2.0,
      2.0,
      2.0,
      2.0,
      1.0,
      2.0,
      1.0,
      1.0,
      2.0,
      2.0,
      1.0,
      2.0,
      2.0,
      2.0,
      2.0,
      1.0,
      2.0,
      1.0,
      1.0,
      2.0,
      2.0,
      2.0,
      1.0,
      1.0,
      2.0,
      1.0,
      1.0,
      2.0,
      2.0,
      2.0,
      0.0,
      1.0,
      2.0,
      2.0,
      2.0,
      1.0,
      1.0,
      1.0,
      2.0,
      1.0,
      2.0,
      0.0,
      0.0,
      2.0,
      1.0,
      1.0,
      2.0,
      2.0,
      2.0,
      2.0,
      1.0,
      0.0,
      2.0,
      1.0,
      1.0,
      1.0,
      2.0,
      2.0,
      2.0,
      2.0,
      2.0,
      2.0,
      1.0,
      2.0,
      1.0,
      1.0,
      2.0,
      1.0,
      2.0,
      2.0,
      2.0,
      1.0,
      2.0,
      2.0,
      2.0,
      2.0,
      0.0,
      2.0,
      1.0,
      2.0,
      1.0,
      1.0,
      1.0,
      1.0,
      2.0,
      2.0,
      2.0,
      0.0,
      2.0,
      2.0,
      2.0,
      2.0,
      1.0,
      2.0,
      2.0,
      2.0,
      1.0,
      0.0,
      2.0,
      0.0,
      2.0,
      1.0,
      1.0,
      1.0,
      1.0,
      1.0,
      0.0,
      2.0,
      1.0,
      1.0,
      1.0,
      1.0,
      0.0,
      2.0,
      2.0,
      2.0,
      2.0,
      1.0,
      1.0,
      2.0,
      0.0,
      2.0,
      1.0,
      2.0,
      1.0,
      1.0,
      2.0,
      2.0,
      2.0,
      2.0,
      1.0,
      2.0,
      0.0,
      1.0,
      1.0,
      2.0,
      1.0,
      1.0,
      1.0,
      2.0,
      2.0,
      2.0,
      2.0,
      1.0,
      1.0,
      2.0,
      2.0,
      2.0,
      1.0,
      1.0,
      0.0,
      2.0,
      2.0,
      2.0,
      2.0,
      2.0,
      1.0,
      2.0,
      1.0,
      2.0,
      0.0,
      1.0,
      0.0,
      2.0,
      1.0,
      2.0,
      2.0,
      2.0,
      2.0,
      2.0,
      1.0,
      1.0,
      1.0,
      2.0,
      1.0,
      1.0,
      2.0,
      1.0,
      2.0,
      2.0,
      1.0,
      0.0,
      1.0,
      2.0,
      1.0,
      2.0,
      2.0,
      2.0,
      1.0,
      2.0,
      1.0,
      2.0,
      2.0,
      1.0,
      1.0,
      1.0,
      2.0,
      2.0,
      2.0,
      2.0,
      2.0,
      0.0,
      0.0,
      2.0,
      2.0,
      2.0,
      1.0,
      2.0,
      2.0,
      1.0,
      2.0,
      0.0,
      2.0,
      2.0,
      2.0,
      0.0,
      2.0,
      2.0,
      0.0,
      2.0,
      2.0,
      2.0,
      2.0,
      0.0,
      2.0,
      1.0,
      1.0,
      0.0,
      0.0,
      2.0,
      1.0,
      2.0,
      2.0,
      2.0,
      1.0,
      0.0,
      0.0,
      0.0,
      2.0,
      1.0,
      2.0,
      2.0,
      2.0,
      2.0,
      2.0,
      2.0,
      2.0,
      2.0,
      2.0,
      2.0,
      0.0,
      1.0,
      2.0,
      1.0,
      1.0,
      2.0,
      2.0,
      2.0,
      2.0,
      2.0,
      2.0,
      1.0,
      1.0,
      2.0,
      2.0,
      1.0,
      2.0,
      1.0,
      0.0,
      2.0,
      1.0,
      0.0,
      0.0,
      1.0,
      2.0,
      2.0,
      2.0,
      2.0,
      2.0,
      2.0,
      1.0,
      2.0,
      2.0,
      2.0,
      1.0,
      1.0,
      2.0,
      0.0,
      0.0,
      2.0,
      2.0,
      1.0,
      2.0,
      2.0,
      2.0,
      0.0,
      2.0,
      2.0,
      0.0,
      2.0,
      2.0,
      2.0,
      2.0,
      2.0,
      2.0,
      1.0,
      1.0,
      1.0,
      1.0,
      1.0
    ]
  },
  "running_times": {
    "Vanilla Verifier": [
      0.8441483985137935,
      -0.439273413102999,
      -0.6238397494551402,
      2.7773133119811044,
      0.10697316201662503,
      2.801106160330488,
      2.796309353760931,
      2.781183689281741,
      2.7755231767124298,
      -0.2756006681926474,
      2.7810541889493248,
      -0.4165619503416336,
      -0.6220653057265003,
      -0.45581464248837206,
      -0.6293063521141542,
      2.777034702237988,
      2.7769018552493443,
      2.778240512139472,
      0.2092483225071573,
      -0.6297591208764081,
      -0.365335562054083,
      -0.36184065858004427,
      2.7805117544629594,
      2.7670629790192147,
      2.778087770929338,
      -0.3543362042985149,
      2.7800551874992254,
      -0.3889295522523064,
      2.7794207545791685,
      -0.43973717467706586,
      0.2545823584406584,
      0.6597436946458539,
      0.8557817362421762,
      2.7806838890189716,
      2.781913848409404,
      -0.08116147349429124,
      -0.6501624966736655,
      2.7773802347760745,
      2.7835553243045794,
      2.784714914954014,
      2.783664988956637,
      2.7733233499912195,
      -0.6356517539606871,
      -0.6362828790241154,
      2.7806171825697534,
      -0.03815169155981134,
      2.7782577299358686,
      2.783270371607878,
      2.7786166547051137,
      2.779669336777094,
      2.7828062165259384,
      -0.563490423470596,
      -0.6239606014035731,
      2.7794088315543273,
      -0.6346277906386607,
      0.31254962742663606,
      0.6177273098717568,
      2.7831659565428093,
      2.782807395728204,
      2.395539929624421,
      2.7860794112530343,
      -0.36985384461263315,
      0.9873764573735133,
      -0.5491705632041084,
      2.7814270252807276,
      2.7794267239386,
      1.4320360550075983,
      2.770476538603566,
      2.7807525753430906,
      2.773734648065641,
      2.777728388539044,
      2.775607667933245,
      2.77987696180543,
      -0.5984679654380775,
      2.7790878096132094,
      -0.5480693029254529,
      2.7772147438277446,
      2.779938625658555,
      2.7824249903663087,
      -0.4617490936054987,
      2.7758798228292343,
      -0.5453371581930782,
      2.7797202793346374,
      2.782817289084202,
      2.781444452199535,
      2.78637496292601,
      2.7743963348723852,
      2.780009574839277,
      -0.4588735805462857,
      2.779999837087262,
      2.781487062980201,
      2.780877079814077,
      -0.6438270184335685,
      2.7849953086183596,
      -0.5196551248331529,
      -0.5219595240583262,
      0.844152329816519,
      2.779489094701432,
      2.7810527041428665,
      2.7820085117547952,
      2.7698527323721183,
      2.780203151852676,
      2.7788682170794816,
      -0.33097344694530334,
      -0.4063237827492759,
      2.77920558470526,
      2.782826524243049,
      2.770189500937377,
      2.784566088058535,
      -0.560740515541786,
      -0.5985256974116074,
      2.7780773445733256,
      -0.2955853364804418,
      -0.41649448102337905,
      2.779789593011359,
      2.7779827023030434,
      2.7834221429339747,
      -0.3207697569066682,
      -0.6461148032196011,
      -0.6435109001562209,
      2.7685749938032393,
      -0.6271615095106389,
      2.7816804679302867,
      -0.6355860099657494,
      2.7826040422392238,
      -0.6309701309699661,
      2.7848416327426477,
      -0.5482647590848707,
      2.5480248224491886,
      2.779161195888855,
      -0.5677813244765351,
      2.7806513262066885,
      2.7802149987176996,
      2.782771307594511,
      -0.6356163517836249,
      2.7791887508505675,
      2.781452235198392,
      2.7816472569857233,
      0.5716824703843529,
      -0.4350804848919816,
      1.9478793124493632,
      -0.31368230427183497,
      0.17913566384357962,
      2.7811078310817177,
      2.779574423653621,
      2.7817374665249686,
      2.780484563147519,
      2.7644600436928353,
      2.736618675437882,
      2.779658714203737,
      0.9491183685491767,
      -0.6091500602360224,
      2.782160102426784,
      -0.3675259507509963,
      2.778758539656538,
      -0.5272790428305949,
      -0.5947415149383948,
      2.7842274058017753,
      1.7525428960946068,
      2.786217238836825,
      -0.6443995961366568,
      2.776957606790232,
      2.7806686121063806,
      2.765655937243147,
      -0.08487633196810267,
      -0.36655422916343927,
      -0.6222844645532325,
      2.7658881178840478,
      2.7781202536318927,
      -0.619697216564101,
      2.7785553407896435,
      2.775999495031024,
      -0.37217601801716693,
      -0.6325076682956633,
      2.785008735400954,
      -0.36125584497090596,
      -0.644255457910783,
      -0.646886867758089,
      2.784327234492165,
      -0.6328262710984919,
      2.786012980829902,
      0.886164742234044,
      2.7790799581300694,
      2.766494891945261,
      2.7845321709972057,
      2.7787433241907813,
      -0.5139327219078794,
      2.779266262324666,
      0.3389912073190015,
      2.7678203091882794,
      2.781851379226791,
      2.783286886369211,
      2.7786883354189773,
      2.7805720106264533,
      2.7719379772577084,
      2.776836851852233,
      2.7842210363867,
      2.7842846481121195,
      0.03095452591437148,
      2.782568597652424,
      -0.43027720528814256,
      -0.44210917516423504,
      2.780142451139227,
      2.783815318598902,
      2.7819026483316605,
      2.7816167276508845,
      2.7791175018848717,
      0.6697425113392586,
      -0.4707979951768014,
      -0.6330188597085052,
      -0.3493013905975101,
      -0.6035226503887557,
      2.7961056598437013,
      -0.6197052532768814,
      0.4661816802820625,
      2.7951423753117206,
      2.767039943177521,
      -0.4564089003223329,
      0.43357559767884396,
      -0.6240677752422321,
      -0.6180705297334972,
      0.766166294423809,
      2.783737761511582,
      2.7787814454218616,
      2.781239717862203,
      2.783588710564912,
      2.783223381338294,
      0.11958721502669732,
      2.767521033495256,
      -0.44022375704696154,
      2.7843989505464153,
      -0.4472510479082219,
      2.7843544227116808,
      -0.46202825272067766,
      2.3413609563569295,
      2.780252607788518,
      2.7843651017057924,
      2.756967673504812,
      -0.45662714220617256,
      2.7816265057205376,
      1.5944559086002028,
      2.7691302463535212,
      -0.28832660485716655,
      2.7829326775202787,
      2.7861207792377174,
      2.7789967518915546,
      2.778853376489358,
      2.7835751286437844,
      -0.620160954284872,
      2.777342785457651,
      2.777010707201636,
      -0.2948563863538697,
      2.780561080490727,
      -0.63193591975762,
      2.7770833760326563,
      -0.6329675381759458,
      2.778533849002168,
      2.7823863783176144,
      -0.6104696510130057,
      2.7733536259120672,
      2.7793728313975925,
      -0.5513325349585534,
      2.784181849070403,
      0.13334139295716893,
      -0.41341096154238,
      -0.6069189293383832,
      -0.6327269830645227,
      2.776981470113042,
      -0.635575670119217,
      -0.6255171293915468,
      -0.42851136823110436,
      2.2226766703097547,
      -0.5861133173207528,
      -0.6239054634227085,
      -0.453569833358364,
      2.784426093967427,
      -0.6051828775621039,
      2.7830981219572255,
      2.7759306617498614,
      -0.5701528975327892,
      -0.587883027171559,
      -0.622521395186893,
      2.783824558365422,
      0.4589843793977353,
      -0.43261968687140057,
      2.777329103516525,
      2.7791769629424543,
      2.7802825448861364,
      2.781970165043671,
      -0.5668934328678672,
      -0.4715904764980434,
      -0.4412319987744297,
      1.1727851021231512,
      2.7799375147777177,
      2.7779205722362983,
      -0.5941388219822671,
      2.7815092546852815,
      2.7812369973086533,
      2.7825696171185004,
      -0.3199397016441149,
      2.778107804884596,
      2.782445905849614,
      -0.543410510103731,
      2.778286237047199,
      2.7842776828340865,
      2.7789028219093437,
      -0.30821788678573064,
      2.7820739609381113,
      -0.5116490358504651,
      2.7755536154162224,
      2.782189001721855,
      2.780339894843003,
      -0.6018631719308356,
      2.779064169913943,
      -0.4553718017919555,
      2.784868183206934,
      2.769330505317651,
      2.777273389082358,
      2.7747368701281414,
      2.7790120331995967,
      -0.3396181220067971,
      0.06884559192386912,
      2.7758663898961444,
      -0.6368046709164605,
      2.7817415330059077,
      -0.626151255784705,
      -0.04086929486708004,
      2.7757561970373206,
      2.7803929943323014,
      2.7820245810310484,
      2.782294220982926,
      2.764351255171952,
      -0.5813079067747978,
      -0.4768315631006482,
      2.778598217724925,
      2.7769980403738255,
      2.7780191955597613,
      -0.4439463489835223,
      2.777224212304061,
      2.7559520215654687,
      2.7811846179594983,
      -0.5908190190229069,
      2.780764487392132,
      2.777014102720922,
      2.779469276799626,
      2.7775455319296847,
      -0.33642707553088164,
      0.34972812473575576,
      -0.3872336086101599,
      -0.519505394028583,
      2.019498071253801,
      2.7861251732751624,
      2.7743219782937123,
      2.7781896011577687,
      2.7836418547854365,
      2.7788764573619256,
      2.7839329084459004,
      -0.5752598407192927,
      2.7751200324079326,
      2.7783454576975064,
      0.013064367986096125,
      -0.6243074674365596,
      2.776687568820938,
      -0.45232519385858005,
      -0.5690016647907248,
      2.7662204080712804,
      2.778545422308566,
      2.778499709357804,
      2.779538041594393,
      -0.5771189720576062,
      2.779985787283205,
      2.314796055959903,
      2.779752713273445,
      -0.4412447226413968,
      2.7803859353237104,
      2.7770427290543536,
      -0.3812251459334355,
      0.08472712957332555,
      -0.26977454793752303,
      2.7788301239911313,
      -0.2576490210042427,
      2.7791627015035094,
      -0.46461202178198735,
      -0.6350426967564484,
      2.7808058236858484,
      -0.35564091043145507,
      -0.26998678806124693,
      2.779801419270066,
      -0.6262276695457983,
      2.777023387529726,
      2.778680105002069,
      1.102601479170134,
      2.789639233585686,
      -0.6040639692444271,
      2.777402875135926,
      2.777189692380202,
      2.782393161978555,
      2.779693471434336,
      2.778255385854836,
      2.7700440651606324,
      2.783018216537437,
      2.78394198785613,
      -0.4076776706157669,
      2.7787059331940154,
      0.31311657897779366,
      -0.6287540174221763,
      2.7686622529477147,
      -0.20850404344573162,
      2.779529050442483,
      -0.6208009981316744,
      -0.5668240421338264,
      2.778583896839308,
      2.779628001023924,
      2.777641738150446,
      2.779158967091678,
      2.777067363560892,
      2.780278521043252,
      -0.4894245339192118,
      -0.583066780333044,
      2.777941307775097,
      -0.6286108749534308,
      2.7845992854126713,
      2.7827066020840117,
      2.78166350794839,
      -0.6201843762073356,
      2.786174260957912,
      2.7809412595195897,
      -0.4067589590164227,
      -0.6346697750670962,
      2.778068354310532,
      2.7807053729480264,
      2.7809482351828656,
      -0.4702255766218106,
      2.7830554119953685,
      -0.37144492227674847,
      2.7790618975881256,
      2.7788681257035996,
      2.7823830411410975,
      2.714592158825606,
      -0.426979835290911,
      -0.05674932133094002,
      2.7798146827293944,
      0.6427544175229939,
      2.7811038995467263,
      2.7324092149135657,
      2.773117943354769,
      2.7828207782519443,
      -0.40522464691453114,
      2.782038229249762,
      2.775413673688061,
      -0.6078682363001032,
      2.7775490023554257,
      2.783819138972679,
      2.774453696314525,
      -0.42454879955161534,
      -0.6225523420405222,
      -0.48897914989437513,
      2.776942812999507,
      -0.40894918259511326,
      -0.4327186436524776,
      2.7820305495840896,
      -0.3678074965777951,
      2.781962858479494,
      2.7584904683919533,
      2.7645194415243832,
      2.782986458182187,
      -0.629078732268085,
      -0.42252351448850095,
      2.7765558368296035,
      2.780813328728024,
      2.781377167105625,
      -0.5967828358585011,
      -0.4177968463406881,
      2.7766172828025693,
      -0.6308460320529227,
      2.7773482825338798,
      0.4152403449584379,
      -0.5910449622605958,
      2.768951069254528,
      -0.58540020410139,
      2.7798089438885274,
      2.7857423484538937,
      -0.04786415241425441,
      2.780845052375363,
      -0.338426265805428,
      2.6918570683531082,
      2.775186196490895,
      -0.5109303480712307,
      2.784241169662028,
      -0.23683872568247796,
      2.781097001649604,
      0.1971303343565738,
      2.779372215491395,
      2.7807782328811737,
      0.00539134345012425,
      -0.42671656723626317,
      0.694603595894221,
      2.78027164432186,
      -0.38010084699239804,
      2.778585822882461,
      1.4195499799269675,
      2.779762759929977,
      2.7806249814970183,
      2.779970962887788,
      -0.635885739771644,
      2.7777415854374503,
      -0.4749558333696851,
      -0.4519664202883599,
      -0.6408477998559974,
      -0.6473829993313852,
      2.7802201248102483,
      2.7771753463802744,
      2.7788829535423374,
      -0.6138131646015447,
      2.778687112262452,
      2.7649747069641317,
      -0.47659634505824516,
      2.778126315497758,
      2.7836027348527606,
      -0.47589900736785207,
      -0.48230433337622797,
      -0.46336243489735246,
      2.7782614751879486,
      -0.5859404415302648,
      2.772263662208819,
      2.7801593456011444,
      0.12173887156930883,
      2.770779387825168,
      0.5684529500253938,
      2.7778617704101767,
      0.4170366123785226,
      2.7642184683076434,
      2.779148812455681,
      2.7666747768728372,
      -0.6112158055736526,
      0.1301416658666306,
      -0.13709684851773046,
      1.172710165768712,
      -0.6339321023841324,
      2.7785052013898897,
      -0.5741726987715307,
      -0.6263977397263206,
      -0.6250903093017071,
      -0.6279877154504647,
      2.778626443258647,
      2.7785181724184143,
      2.7806763803154926,
      2.7709204248749195,
      2.7807389625812555,
      2.77988048895314,
      2.7806404712332093,
      -0.5620272778615952,
      2.6067469225180497,
      2.781031038011813,
      2.782215388941446,
      2.7676310452559174,
      2.7810472727978657,
      -0.6457003346169626,
      2.78227049507271,
      -0.40550901298354364,
      2.779257914096401,
      -0.3660455955304282,
      -0.645242184616745,
      2.7833449029777686,
      -0.27760421085785886,
      -0.6455879220545445,
      2.7834367285141037,
      -0.33933675122177026,
      2.783480318819982,
      -0.6233360049344197,
      2.7828084399740325,
      2.782853340705608,
      -0.33278238996998505,
      2.783974280012247,
      -0.18204632271266366,
      2.7827908488193063,
      -0.6208829924400612,
      2.7836287773389445,
      2.7682353692223804,
      2.7824769075507927,
      -0.6248678084042817,
      2.7820677475278512,
      2.781538354498347,
      2.7771176180888335,
      -0.6006029152981073,
      1.3005312333551315,
      2.7833924263416128,
      0.09420214684625014,
      2.781441020633506,
      2.7631511867242757,
      -0.6198725164315971,
      2.78006566440121,
      2.786089072982548,
      2.7825299556972025,
      2.7777633195374936,
      2.782890209253561,
      2.7822273012496517,
      2.782920739298458,
      -0.46319708185689495,
      2.7779536282463027,
      -0.6279425276215523,
      -0.463190196417017,
      2.767555342316285,
      2.7784764502259245,
      2.7409477777531333,
      2.7826571570955725,
      -0.45872855277708424,
      2.763391364014768,
      -0.6298750010862555,
      2.782018546285463,
      2.783189041971463,
      2.779429935530705,
      2.7816568862436863,
      0.18181292595374102,
      2.7837577096211095,
      2.7808092410253207,
      2.778046884742002,
      2.778609697146958,
      2.781850757322164,
      2.784376219901504,
      -0.3652787339606839,
      2.7773784224229066,
      0.30755214577843304,
      2.782841843936543,
      -0.1412878518758582,
      2.777391516774484,
      -0.6011093751471016,
      0.19193018765914985,
      2.7769645143331756,
      2.7840618588182493,
      0.11094373110236148,
      -0.4580494769614106,
      -0.3690576200406028,
      0.15372243084784226,
      -0.2598720026886231,
      2.780758045414921,
      -0.47510271477042226,
      2.7770212222299455,
      2.763815103355943,
      2.776943573643903,
      -0.5995958060026232,
      0.9670443913949891,
      -0.10839850395426918,
      2.780183139614057,
      2.7716255622066672,
      1.6794136176197827,
      -0.34224235793566143,
      -0.6013316529793622,
      2.782108341586512,
      2.7840066173204967,
      2.7775704428173054,
      2.777280215074017,
      2.780661325004866,
      2.782211009700747,
      0.3877923880350428,
      2.773491205762784,
      -0.650829063576315,
      -0.6502309681629272,
      2.7832979659681496,
      2.7805583542689685,
      1.4759096381947763,
      2.777855415081016,
      2.803242290361483,
      2.777979213509299,
      2.781374143413028,
      -0.647584613917183,
      2.779459742847134,
      0.9737234571148519,
      -0.29819285710935145,
      2.7809705369869597,
      2.780901452802881,
      2.529702829099598,
      0.7173195985104208,
      0.25614259650651494,
      2.785966782878021,
      0.884583599144322,
      -0.10858081919727644,
      2.784304636744075,
      2.7819093559077466,
      2.7859550392050907,
      -0.21580525746238705,
      -0.2532183317642752,
      2.778215745916403,
      2.7773046089530404,
      2.765397283092775,
      -0.4064669041071299,
      -0.29611661861914873,
      0.9928639653529615,
      2.7810880958229163,
      -0.29687815449317917,
      2.7828026456709223,
      -0.560867502096908,
      -0.4564684532151498,
      2.7762411334101738,
      -0.6446973321250861,
      -0.2869360157642489,
      2.770927861063209,
      2.784603107493377,
      2.781477633076764,
      2.7845854309905493,
      0.1294654898625544,
      -0.331835628042908,
      2.783559028375386,
      -0.627839468358785,
      -0.6439487763909839,
      -0.3680438912230525,
      2.7643890507973725,
      2.7786418536606097,
      2.7792823798597004,
      2.779583208151579,
      2.785007046591404,
      2.7843914341870653,
      -0.6335690666984883,
      2.784179991107552,
      0.1916722665863526,
      -0.6244075245475985,
      2.7811515378300444,
      -0.5894440096603981,
      2.77466342464318,
      2.7775322475218713,
      2.778620393302129,
      -0.5764536751648105,
      2.7853447331478,
      2.7843072237841575,
      2.7832692200123543,
      2.6947776479189973,
      -0.4389538599896345,
      2.7798580516135094,
      -0.6318576705642884,
      2.779456053757561,
      -0.4652910763379042,
      -0.37047042168501215,
      0.9063960294943341,
      -0.040518398968324286,
      2.7654007517684183,
      2.7799576592602797,
      2.7756270597809953,
      -0.31687737403487554,
      2.777418254934023,
      2.7825626503451635,
      2.782024514255713,
      2.777981309696749,
      0.012375889693908767,
      2.782758699871395,
      2.784020785353708,
      2.775176336128379,
      -0.6354161797601283,
      -0.5736705689024136,
      2.7844516020291996,
      -0.4304335968446431,
      2.781898791649034,
      -0.45623947325742853,
      -0.6439641618174594,
      0.8321838879375857,
      -0.6417938606134258,
      2.2262274339058723,
      -0.4792931848683758,
      2.780908441529829,
      0.8565769060215284,
      -0.6348491135804905,
      -0.45722880597289906,
      -0.6469196410676603,
      -0.4444833347736415,
      2.77963475043879,
      2.7631008827444887,
      2.7863981139239278,
      2.7848238484390233,
      -0.6225163800039459,
      -0.2738681015777833,
      2.782580195087618,
      -0.44011399785332156,
      2.778987483163577,
      -0.6259367135895672,
      2.7842854406103035,
      -0.6134851878885766,
      -0.163746174778251,
      2.784917868575751,
      2.7809126657241117,
      2.7758231439577785,
      2.7642295246272828,
      -0.6296222400459276,
      2.7777523551169447,
      -0.2018237934466393,
      -0.35916968149577544,
      0.07171451216328847,
      2.7754795707468256,
      -0.6214615612187029,
      -0.6232097363173914,
      -0.6177292215793005,
      2.7776472168253505,
      2.776769939303753,
      2.78115084087239,
      2.7649078400641476,
      -0.2788118227342481,
      -0.358677020528764,
      2.7783629004862154,
      2.7781643885057363,
      2.7735543004337138,
      0.3670227557517976,
      0.35262028589702854,
      -0.4126825762943642,
      2.7834123609968007,
      2.7790769567449254,
      2.7786468080502273,
      2.779472573897817,
      2.7845111168531744,
      -0.6246398966084509,
      2.782375363556936,
      1.0098928368254187,
      2.7808115213956506,
      -0.56381185921891,
      -0.6333597014903835,
      -0.5839075901917844,
      2.7848754094592083,
      -0.18260270583642485,
      2.7805474352623585,
      2.7817763495766488,
      2.7790801902043443,
      2.782449021066736,
      2.7817053037269974,
      -0.4428459183454595,
      -0.6334193375204547,
      0.06535978282052422,
      2.78082484082302,
      -0.6315469599595919,
      -0.47005811092445493,
      2.81644674635364,
      0.013267219663532457,
      2.776975526849846,
      2.7792637410689265,
      -0.6344339333525701,
      -0.2635271084491456,
      2.5302800076088707,
      2.778792378270231,
      -0.6501346221137793,
      2.764295110844822,
      2.7820232645634166,
      2.7806905153917207,
      -0.27318652648499864,
      2.7780247982150885,
      -0.6204610776673314,
      2.7805701358746933,
      2.778592635602982,
      0.6161026073380392,
      -0.4416774452202188,
      -0.46992110881215826,
      2.7838088299323647,
      2.7669944996663682,
      2.778972260879696,
      2.7760205805524985,
      2.7810207915059366,
      -0.020224231065898938,
      -0.4758485760176601,
      2.781681361323864,
      2.78169315573678,
      2.7837061429501877,
      1.6316037821117513,
      2.7840666259970375,
      2.783154921018178,
      -0.6365139048010309,
      2.7770944000460513,
      -0.42154550987125033,
      2.7773790194445653,
      2.778531207881377,
      2.7771624495459877,
      -0.40092770347994194,
      2.7550372442702415,
      2.7811672170858266,
      -0.5108639924974829,
      2.7796690634748127,
      2.7861614539967756,
      2.778450818366444,
      2.7826641078193117,
      -0.38655990136177704,
      2.7831030212656542,
      -0.5593389064035383,
      -0.6072962439536064,
      -0.4315230158211436,
      -0.4924614167889909,
      2.7804189729823796,
      -0.6123490685421906,
      2.6249095694492794,
      2.7772637835119607,
      2.763051539700609,
      -0.6294529491362024,
      -0.3991227238366813,
      -0.4600780946673899,
      -0.565101181536459,
      2.782420971949161,
      -0.1262006249163485,
      2.7772463959137434,
      2.779232164300329,
      2.7847956274051446,
      2.7788462292805773,
      2.7793404397090202,
      2.780016289001293,
      2.7797964715658225,
      2.767866823757512,
      2.8086860050264377,
      2.7813626506611735,
      -0.04688714113866985,
      -0.6350976835368364,
      2.7779636024646415,
      -0.6313462197753337,
      0.6780803291758009,
      2.7776837104213996,
      2.779412209447468,
      2.7802826913782095,
      2.782944071699832,
      2.7842464388526116,
      2.5461680406465743,
      -0.09711644158269267,
      0.7760054059484558,
      2.779842383596751,
      2.7818872685342035,
      -0.4365382138437655,
      2.7790851047617844,
      -0.429162560078723,
      -0.41062886978996654,
      2.7804452168217577,
      0.1754621722133531,
      -0.43999062445188747,
      -0.3664809792567645,
      0.0021400123664594476,
      2.779287541434826,
      2.7805434823096746,
      2.7789446682865924,
      2.7841634590813182,
      2.7802427729985646,
      2.7794061062346587,
      -0.2917041530264771,
      2.781715907888784,
      2.7645225625134455,
      2.7855564028558932,
      -0.28217310917007626,
      -0.4664701886069194,
      2.779772647508574,
      -0.4737310439223052,
      0.8634714691182098,
      2.772496412205208,
      2.7506824088909445,
      -0.6459063863418899,
      2.78082851501933,
      2.7726939342251224,
      2.779324684839863,
      -0.41483849987851246,
      2.763594077063173,
      1.064383768656045,
      -0.46822974099324816,
      2.7809840467818834,
      2.7784419448288777,
      2.767999721272903,
      2.778059482157959,
      2.7800364992736046,
      2.7850186051121857,
      -0.5907853865396387,
      -0.6411455564241814,
      -0.48473717887062057,
      -0.5084060879347649,
      -0.6425408438964557
    ],
    "Timeout Prediction": [
      0.8441483985137935,
      -0.439273413102999,
      -0.6238397494551402,
      1.0,
      0.10697316201662503,
      1.0,
      1.0,
      1.0,
      1.0,
      -0.2756006681926474,
      1.0,
      -0.4165619503416336,
      -0.6220653057265003,
      -0.45581464248837206,
      -0.6293063521141542,
      1.0,
      1.0,
      1.0,
      0.2092483225071573,
      -0.6297591208764081,
      -0.365335562054083,
      -0.36184065858004427,
      1.0,
      1.0,
      1.0,
      -0.3543362042985149,
      1.0,
      -0.3889295522523064,
      1.0,
      -0.43973717467706586,
      0.2545823584406584,
      0.6597436946458539,
      0.8557817362421762,
      1.0,
      1.0,
      -0.08116147349429124,
      -0.6501624966736655,
      1.0,
      1.0,
      1.0,
      1.0,
      1.0,
      -0.6356517539606871,
      -0.6362828790241154,
      1.0,
      -0.03815169155981134,
      1.0,
      1.0,
      1.0,
      1.0,
      1.0,
      -0.563490423470596,
      -0.6239606014035731,
      1.0,
      -0.6346277906386607,
      0.31254962742663606,
      0.6177273098717568,
      1.0,
      1.0,
      1.4771212547196624,
      1.0,
      -0.36985384461263315,
      0.9873764573735133,
      -0.5491705632041084,
      1.0,
      1.0,
      1.4320360550075983,
      1.0,
      1.0,
      1.0,
      1.0,
      1.0,
      1.0,
      -0.5984679654380775,
      1.0,
      -0.5480693029254529,
      1.0,
      1.0,
      1.0,
      -0.4617490936054987,
      1.0,
      -0.5453371581930782,
      1.0,
      1.0,
      1.0,
      1.0,
      1.0,
      1.0,
      -0.4588735805462857,
      1.0,
      1.0,
      1.0,
      -0.6438270184335685,
      1.0,
      -0.5196551248331529,
      -0.5219595240583262,
      0.844152329816519,
      1.0,
      1.0,
      1.0,
      1.0,
      1.0,
      1.0,
      -0.33097344694530334,
      -0.4063237827492759,
      1.0,
      1.0,
      1.0,
      1.0,
      -0.560740515541786,
      -0.5985256974116074,
      1.0,
      -0.2955853364804418,
      -0.41649448102337905,
      1.0,
      1.0,
      1.0,
      -0.3207697569066682,
      -0.6461148032196011,
      -0.6435109001562209,
      1.0,
      -0.6271615095106389,
      1.0,
      -0.6355860099657494,
      1.0,
      -0.6309701309699661,
      1.0,
      -0.5482647590848707,
      2.041392685158225,
      1.0,
      -0.5677813244765351,
      1.0,
      1.0,
      1.0,
      -0.6356163517836249,
      1.0,
      1.0,
      1.0,
      0.5716824703843529,
      -0.4350804848919816,
      1.9478793124493632,
      -0.31368230427183497,
      0.17913566384357962,
      1.0,
      1.0,
      1.0,
      1.0,
      1.0,
      1.0,
      1.0,
      0.9491183685491767,
      -0.6091500602360224,
      1.0,
      -0.3675259507509963,
      1.0,
      -0.5272790428305949,
      -0.5947415149383948,
      1.0,
      1.7525428960946068,
      1.0,
      -0.6443995961366568,
      1.0,
      1.0,
      1.0,
      -0.08487633196810267,
      -0.36655422916343927,
      -0.6222844645532325,
      1.0,
      1.0,
      -0.619697216564101,
      1.0,
      1.0,
      -0.37217601801716693,
      -0.6325076682956633,
      1.0,
      -0.36125584497090596,
      -0.644255457910783,
      -0.646886867758089,
      1.0,
      -0.6328262710984919,
      1.0,
      0.886164742234044,
      1.0,
      1.0,
      1.0,
      1.0,
      -0.5139327219078794,
      1.0,
      0.3389912073190015,
      1.0,
      1.0,
      1.0,
      1.0,
      1.0,
      1.0,
      1.0,
      1.0,
      1.0,
      0.03095452591437148,
      1.0,
      -0.43027720528814256,
      -0.44210917516423504,
      1.0,
      1.0,
      1.0,
      1.0,
      1.0,
      0.6697425113392586,
      -0.4707979951768014,
      -0.6330188597085052,
      -0.3493013905975101,
      -0.6035226503887557,
      1.0,
      -0.6197052532768814,
      0.4661816802820625,
      1.0,
      1.0,
      -0.4564089003223329,
      0.43357559767884396,
      -0.6240677752422321,
      -0.6180705297334972,
      0.766166294423809,
      1.0,
      1.0,
      1.0,
      1.0,
      1.0,
      0.11958721502669732,
      1.0,
      -0.44022375704696154,
      1.0,
      -0.4472510479082219,
      1.0,
      -0.46202825272067766,
      1.0,
      1.0,
      1.0,
      1.0,
      -0.45662714220617256,
      1.0,
      1.5944559086002028,
      1.0,
      -0.28832660485716655,
      1.0,
      1.0,
      1.0,
      1.0,
      1.0,
      -0.620160954284872,
      1.0,
      1.0,
      -0.2948563863538697,
      1.0,
      -0.63193591975762,
      1.0,
      -0.6329675381759458,
      1.0,
      1.0,
      -0.6104696510130057,
      1.0,
      1.0,
      -0.5513325349585534,
      1.0,
      0.13334139295716893,
      -0.41341096154238,
      -0.6069189293383832,
      -0.6327269830645227,
      1.0,
      -0.635575670119217,
      -0.6255171293915468,
      -0.42851136823110436,
      2.2226766703097547,
      -0.5861133173207528,
      -0.6239054634227085,
      -0.453569833358364,
      1.0,
      -0.6051828775621039,
      1.0,
      1.0,
      -0.5701528975327892,
      -0.587883027171559,
      -0.622521395186893,
      1.0,
      0.4589843793977353,
      -0.43261968687140057,
      1.0,
      1.0,
      1.0,
      1.0,
      -0.5668934328678672,
      -0.4715904764980434,
      -0.4412319987744297,
      1.1727851021231512,
      1.0,
      1.0,
      -0.5941388219822671,
      1.0,
      1.0,
      1.0,
      -0.3199397016441149,
      1.0,
      1.0,
      -0.543410510103731,
      1.0,
      1.0,
      1.0,
      -0.30821788678573064,
      1.0,
      -0.5116490358504651,
      1.0,
      1.0,
      1.0,
      -0.6018631719308356,
      1.0,
      -0.4553718017919555,
      1.0,
      1.0,
      1.0,
      1.0,
      1.0,
      -0.3396181220067971,
      0.06884559192386912,
      1.0,
      -0.6368046709164605,
      1.0,
      -0.626151255784705,
      -0.04086929486708004,
      1.0,
      1.0,
      1.0,
      1.0,
      1.0,
      -0.5813079067747978,
      -0.4768315631006482,
      1.0,
      1.0,
      1.0,
      -0.4439463489835223,
      1.0,
      2.3010299956639813,
      1.0,
      -0.5908190190229069,
      1.0,
      1.0,
      1.0,
      1.0,
      -0.33642707553088164,
      0.34972812473575576,
      -0.3872336086101599,
      -0.519505394028583,
      2.019498071253801,
      1.0,
      1.0,
      1.0,
      1.0,
      1.0,
      1.0,
      -0.5752598407192927,
      1.0,
      1.0,
      0.013064367986096125,
      -0.6243074674365596,
      1.0,
      -0.45232519385858005,
      -0.5690016647907248,
      1.0,
      1.0,
      1.0,
      1.0,
      -0.5771189720576062,
      1.0,
      1.0,
      1.0,
      -0.4412447226413968,
      1.0,
      1.0,
      -0.3812251459334355,
      0.08472712957332555,
      -0.26977454793752303,
      1.0,
      -0.2576490210042427,
      1.0,
      -0.46461202178198735,
      -0.6350426967564484,
      1.0,
      -0.35564091043145507,
      -0.26998678806124693,
      1.0,
      -0.6262276695457983,
      1.0,
      1.0,
      1.102601479170134,
      1.0,
      -0.6040639692444271,
      1.0,
      1.0,
      1.0,
      1.0,
      1.0,
      1.0,
      1.0,
      1.0,
      -0.4076776706157669,
      1.0,
      0.31311657897779366,
      -0.6287540174221763,
      1.0,
      -0.20850404344573162,
      1.0,
      -0.6208009981316744,
      -0.5668240421338264,
      1.0,
      1.0,
      1.0,
      1.0,
      1.0,
      1.0,
      -0.4894245339192118,
      -0.583066780333044,
      1.0,
      -0.6286108749534308,
      1.0,
      1.0,
      1.0,
      -0.6201843762073356,
      1.0,
      1.0,
      -0.4067589590164227,
      -0.6346697750670962,
      1.0,
      1.0,
      1.0,
      -0.4702255766218106,
      1.0,
      -0.37144492227674847,
      1.0,
      1.0,
      1.0,
      1.0,
      -0.426979835290911,
      -0.05674932133094002,
      1.0,
      0.6427544175229939,
      1.0,
      1.0,
      1.0,
      1.0,
      -0.40522464691453114,
      1.0,
      1.0,
      -0.6078682363001032,
      1.0,
      1.0,
      1.0,
      -0.42454879955161534,
      -0.6225523420405222,
      -0.48897914989437513,
      1.0,
      -0.40894918259511326,
      -0.4327186436524776,
      1.0,
      -0.3678074965777951,
      1.0,
      1.0,
      1.0,
      1.0,
      -0.629078732268085,
      -0.42252351448850095,
      1.0,
      1.0,
      1.0,
      -0.5967828358585011,
      -0.4177968463406881,
      1.0,
      -0.6308460320529227,
      1.0,
      0.4152403449584379,
      -0.5910449622605958,
      1.0,
      -0.58540020410139,
      1.0,
      1.0,
      -0.04786415241425441,
      1.0,
      -0.338426265805428,
      2.278753600952829,
      1.0,
      -0.5109303480712307,
      1.0,
      -0.23683872568247796,
      1.0,
      0.1971303343565738,
      1.0,
      1.0,
      0.00539134345012425,
      -0.42671656723626317,
      0.694603595894221,
      1.0,
      -0.38010084699239804,
      1.0,
      1.4195499799269675,
      1.0,
      1.0,
      1.0,
      -0.635885739771644,
      1.0,
      -0.4749558333696851,
      -0.4519664202883599,
      -0.6408477998559974,
      -0.6473829993313852,
      1.0,
      1.0,
      1.0,
      -0.6138131646015447,
      1.0,
      1.0,
      -0.47659634505824516,
      1.0,
      1.0,
      -0.47589900736785207,
      -0.48230433337622797,
      -0.46336243489735246,
      1.0,
      -0.5859404415302648,
      1.0,
      1.0,
      0.12173887156930883,
      1.0,
      0.5684529500253938,
      1.0,
      0.4170366123785226,
      1.0,
      1.4771212547196624,
      1.0,
      -0.6112158055736526,
      0.1301416658666306,
      -0.13709684851773046,
      1.172710165768712,
      -0.6339321023841324,
      1.0,
      -0.5741726987715307,
      -0.6263977397263206,
      -0.6250903093017071,
      -0.6279877154504647,
      1.0,
      1.3010299956639813,
      1.845098040014257,
      1.0,
      1.0,
      1.0,
      1.0,
      -0.5620272778615952,
      1.0,
      1.0,
      1.0,
      1.0,
      1.0,
      -0.6457003346169626,
      1.0,
      -0.40550901298354364,
      1.0,
      -0.3660455955304282,
      -0.645242184616745,
      1.0,
      -0.27760421085785886,
      -0.6455879220545445,
      1.0,
      -0.33933675122177026,
      1.0,
      -0.6233360049344197,
      1.0,
      1.0,
      -0.33278238996998505,
      1.0,
      -0.18204632271266366,
      1.0,
      -0.6208829924400612,
      1.0,
      1.0,
      1.0,
      -0.6248678084042817,
      1.0,
      1.0,
      1.0,
      -0.6006029152981073,
      1.3005312333551315,
      1.0,
      0.09420214684625014,
      1.0,
      1.0,
      -0.6198725164315971,
      1.0,
      1.0,
      1.0,
      1.0,
      1.0,
      1.0,
      1.0,
      -0.46319708185689495,
      1.0,
      -0.6279425276215523,
      -0.463190196417017,
      1.0,
      1.0,
      1.0,
      1.0,
      -0.45872855277708424,
      1.0,
      -0.6298750010862555,
      1.0,
      1.0,
      1.0,
      1.0,
      0.18181292595374102,
      1.0,
      1.0,
      1.0,
      1.0,
      1.0,
      1.0,
      -0.3652787339606839,
      1.0,
      0.30755214577843304,
      1.0,
      -0.1412878518758582,
      1.0,
      -0.6011093751471016,
      0.19193018765914985,
      1.0,
      1.0,
      0.11094373110236148,
      -0.4580494769614106,
      -0.3690576200406028,
      0.15372243084784226,
      -0.2598720026886231,
      1.0,
      -0.47510271477042226,
      1.0,
      1.0,
      1.0,
      -0.5995958060026232,
      0.9670443913949891,
      -0.10839850395426918,
      1.0,
      1.0,
      1.6794136176197827,
      -0.34224235793566143,
      -0.6013316529793622,
      1.0,
      1.0,
      1.0,
      1.0,
      1.0,
      1.0,
      0.3877923880350428,
      1.0,
      -0.650829063576315,
      -0.6502309681629272,
      1.0,
      1.0,
      1.4759096381947763,
      1.0,
      1.0,
      1.0,
      1.0,
      -0.647584613917183,
      1.0,
      0.9737234571148519,
      -0.29819285710935145,
      1.0,
      1.0,
      1.0,
      0.7173195985104208,
      0.25614259650651494,
      1.0,
      0.884583599144322,
      -0.10858081919727644,
      1.0,
      1.0,
      1.0,
      -0.21580525746238705,
      -0.2532183317642752,
      1.0,
      1.0,
      1.0,
      -0.4064669041071299,
      -0.29611661861914873,
      0.9928639653529615,
      1.0,
      -0.29687815449317917,
      1.0,
      -0.560867502096908,
      -0.4564684532151498,
      1.0,
      -0.6446973321250861,
      -0.2869360157642489,
      1.0,
      1.0,
      1.0,
      1.0,
      0.1294654898625544,
      -0.331835628042908,
      1.0,
      -0.627839468358785,
      -0.6439487763909839,
      -0.3680438912230525,
      1.0,
      1.0,
      1.0,
      1.0,
      1.0,
      1.0,
      -0.6335690666984883,
      1.0,
      0.1916722665863526,
      -0.6244075245475985,
      1.0,
      -0.5894440096603981,
      1.0,
      1.0,
      1.0,
      -0.5764536751648105,
      1.0,
      1.0,
      1.0,
      2.230448921378274,
      -0.4389538599896345,
      1.0,
      -0.6318576705642884,
      1.0,
      -0.4652910763379042,
      -0.37047042168501215,
      0.9063960294943341,
      -0.040518398968324286,
      1.0,
      1.0,
      1.0,
      -0.31687737403487554,
      1.0,
      1.0,
      1.0,
      1.0,
      0.012375889693908767,
      1.0,
      1.0,
      1.0,
      -0.6354161797601283,
      -0.5736705689024136,
      1.0,
      -0.4304335968446431,
      1.0,
      -0.45623947325742853,
      -0.6439641618174594,
      0.8321838879375857,
      -0.6417938606134258,
      2.2262274339058723,
      -0.4792931848683758,
      1.0,
      0.8565769060215284,
      -0.6348491135804905,
      -0.45722880597289906,
      -0.6469196410676603,
      -0.4444833347736415,
      1.0,
      1.0,
      1.0,
      1.0,
      -0.6225163800039459,
      -0.2738681015777833,
      1.0,
      -0.44011399785332156,
      1.0,
      -0.6259367135895672,
      1.0,
      -0.6134851878885766,
      -0.163746174778251,
      1.0,
      1.0,
      1.0,
      1.0,
      -0.6296222400459276,
      1.0,
      -0.2018237934466393,
      -0.35916968149577544,
      0.07171451216328847,
      1.0,
      -0.6214615612187029,
      -0.6232097363173914,
      -0.6177292215793005,
      1.0,
      1.0,
      1.0,
      1.0,
      -0.2788118227342481,
      -0.358677020528764,
      1.0,
      1.0,
      1.0,
      0.3670227557517976,
      0.35262028589702854,
      -0.4126825762943642,
      1.0,
      1.0,
      1.0,
      1.0,
      1.0,
      -0.6246398966084509,
      1.0,
      1.0098928368254187,
      1.0,
      -0.56381185921891,
      -0.6333597014903835,
      -0.5839075901917844,
      1.0,
      -0.18260270583642485,
      1.0,
      1.0,
      1.0,
      1.0,
      1.0,
      -0.4428459183454595,
      -0.6334193375204547,
      0.06535978282052422,
      1.0,
      -0.6315469599595919,
      -0.47005811092445493,
      1.0,
      0.013267219663532457,
      1.0,
      1.0,
      -0.6344339333525701,
      -0.2635271084491456,
      2.5302800076088707,
      1.0,
      -0.6501346221137793,
      1.0,
      1.0,
      1.0,
      -0.27318652648499864,
      1.0,
      -0.6204610776673314,
      1.0,
      1.0,
      0.6161026073380392,
      -0.4416774452202188,
      -0.46992110881215826,
      1.0,
      1.0,
      1.0,
      1.0,
      1.0,
      -0.020224231065898938,
      -0.4758485760176601,
      1.0,
      1.0,
      1.0,
      1.6316037821117513,
      1.0,
      1.0,
      -0.6365139048010309,
      1.0,
      -0.42154550987125033,
      1.0,
      1.0,
      1.0,
      -0.40092770347994194,
      1.0,
      1.0,
      -0.5108639924974829,
      1.0,
      1.0,
      1.0,
      1.0,
      -0.38655990136177704,
      1.0,
      -0.5593389064035383,
      -0.6072962439536064,
      -0.4315230158211436,
      -0.4924614167889909,
      1.0,
      -0.6123490685421906,
      1.0,
      1.0,
      1.0,
      -0.6294529491362024,
      -0.3991227238366813,
      -0.4600780946673899,
      -0.565101181536459,
      1.0,
      -0.1262006249163485,
      1.0,
      1.0,
      1.0,
      1.0,
      1.0,
      1.0,
      1.0,
      1.0,
      1.0,
      1.0,
      -0.04688714113866985,
      -0.6350976835368364,
      1.0,
      -0.6313462197753337,
      0.6780803291758009,
      1.0,
      1.0,
      1.0,
      1.0,
      1.0,
      1.3010299956639813,
      -0.09711644158269267,
      0.7760054059484558,
      1.0,
      1.0,
      -0.4365382138437655,
      1.0,
      -0.429162560078723,
      -0.41062886978996654,
      1.0,
      0.1754621722133531,
      -0.43999062445188747,
      -0.3664809792567645,
      0.0021400123664594476,
      1.0,
      1.0,
      1.0,
      1.0,
      1.0,
      1.0,
      -0.2917041530264771,
      1.0,
      1.3010299956639813,
      1.0,
      -0.28217310917007626,
      -0.4664701886069194,
      1.0,
      -0.4737310439223052,
      0.8634714691182098,
      1.0,
      1.0,
      -0.6459063863418899,
      1.0,
      1.0,
      1.0,
      -0.41483849987851246,
      1.0,
      1.0,
      -0.46822974099324816,
      1.0,
      1.0,
      1.0,
      1.0,
      1.0,
      1.0,
      -0.5907853865396387,
      -0.6411455564241814,
      -0.48473717887062057,
      -0.5084060879347649,
      -0.6425408438964557
    ]
  }
}