{
  "0": {
    "test_acc": 0.9913793103448276,
    "tp": 113,
    "tn": 2,
    "fp": 1,
    "fn": 0,
    "tpr": 1.0,
    "fpr": 0.3333333333333333,
    "tnr": 0.6666666666666666,
    "fnr": 0.0,
    "f1_score": 0.9955947136563876,
    "precision": 0.9912280701754386,
    "recall": 1.0
  },
  "1": {
    "test_acc": 1.0,
    "tp": 112,
    "tn": 3,
    "fp": 0,
    "fn": 0,
    "tpr": 1.0,
    "fpr": 0.0,
    "tnr": 1.0,
    "fnr": 0.0,
    "f1_score": 1.0,
    "precision": 1.0,
    "recall": 1.0
  },
  "2": {
    "test_acc": 0.9912280701754386,
    "tp": 111,
    "tn": 2,
    "fp": 0,
    "fn": 1,
    "tpr": 0.9910714285714286,
    "fpr": 0.0,
    "tnr": 1.0,
    "fnr": 0.008928571428571428,
    "f1_score": 0.9955156950672646,
    "precision": 1.0,
    "recall": 0.9910714285714286
  },
  "3": {
    "test_acc": 1.0,
    "tp": 112,
    "tn": 2,
    "fp": 0,
    "fn": 0,
    "tpr": 1.0,
    "fpr": 0.0,
    "tnr": 1.0,
    "fnr": 0.0,
    "f1_score": 1.0,
    "precision": 1.0,
    "recall": 1.0
  },
  "4": {
    "test_acc": 0.9736842105263158,
    "tp": 109,
    "tn": 2,
    "fp": 0,
    "fn": 3,
    "tpr": 0.9732142857142857,
    "fpr": 0.0,
    "tnr": 1.0,
    "fnr": 0.026785714285714284,
    "f1_score": 0.9864253393665159,
    "precision": 1.0,
    "recall": 0.9732142857142857
  },
  "sum": {
    "tp": 557.0,
    "fp": 1.0,
    "tn": 11.0,
    "fn": 4.0,
    "tpr": 0.9928698752228164,
    "tnr": 0.9166666666666666,
    "fpr": 0.08333333333333333,
    "fnr": 0.0071301247771836
  },
  "avg": {
    "test_acc": 0.9912583182093163,
    "tp": 111.4,
    "tn": 2.2,
    "fp": 0.2,
    "fn": 0.8,
    "tpr": 0.9928571428571429,
    "fpr": 0.06666666666666667,
    "tnr": 0.9333333333333332,
    "fnr": 0.007142857142857143,
    "f1_score": 0.9955071496180337,
    "precision": 0.9982456140350877,
    "recall": 0.9928571428571429
  }
}