{
  "0": {
    "test_acc": 1.0,
    "tp": 2,
    "tn": 3,
    "fp": 0,
    "fn": 0,
    "tpr": 1.0,
    "fpr": 0.0,
    "tnr": 1.0,
    "fnr": 0.0,
    "f1_score": 1.0,
    "precision": 1.0,
    "recall": 1.0
  },
  "1": {
    "test_acc": 1.0,
    "tp": 2,
    "tn": 2,
    "fp": 0,
    "fn": 0,
    "tpr": 1.0,
    "fpr": 0.0,
    "tnr": 1.0,
    "fnr": 0.0,
    "f1_score": 1.0,
    "precision": 1.0,
    "recall": 1.0
  },
  "2": {
    "test_acc": 1.0,
    "tp": 2,
    "tn": 2,
    "fp": 0,
    "fn": 0,
    "tpr": 1.0,
    "fpr": 0.0,
    "tnr": 1.0,
    "fnr": 0.0,
    "f1_score": 1.0,
    "precision": 1.0,
    "recall": 1.0
  },
  "3": {
    "test_acc": 0.75,
    "tp": 1,
    "tn": 2,
    "fp": 0,
    "fn": 1,
    "tpr": 0.5,
    "fpr": 0.0,
    "tnr": 1.0,
    "fnr": 0.5,
    "f1_score": 0.6666666666666666,
    "precision": 1.0,
    "recall": 0.5
  },
  "4": {
    "test_acc": 1.0,
    "tp": 3,
    "tn": 2,
    "fp": 0,
    "fn": 0,
    "tpr": 1.0,
    "fpr": 0.0,
    "tnr": 1.0,
    "fnr": 0.0,
    "f1_score": 1.0,
    "precision": 1.0,
    "recall": 1.0
  },
  "sum": {
    "tp": 10.0,
    "fp": 0.0,
    "tn": 11.0,
    "fn": 1.0,
    "tpr": 0.9090909090909091,
    "tnr": 1.0,
    "fpr": 0.0,
    "fnr": 0.09090909090909091
  },
  "avg": {
    "test_acc": 0.95,
    "tp": 2.0,
    "tn": 2.2,
    "fp": 0.0,
    "fn": 0.2,
    "tpr": 0.9,
    "fpr": 0.0,
    "tnr": 1.0,
    "fnr": 0.1,
    "f1_score": 0.9333333333333332,
    "precision": 1.0,
    "recall": 0.9
  }
}