{
  "0": {
    "r2_train": 0.9980204234727141,
    "r2_test": 0.9829326636877975,
    "rmse_train": 0.057566260744498166,
    "mae_train": 0.025865524615391905,
    "rmse_train_left": 0.041939567733953485,
    "rmse_train_right": 0.09324422099562736,
    "mae_train_left": 0.02298953258720488,
    "mae_train_right": 0.035817370046261295,
    "spearman_correlation_train": 0.9908849212086964,
    "spearman_correlation_pvalue_train": 0.0,
    "rmse_test": 0.17529103509461583,
    "mae_test": 0.08218461438537367,
    "timeout_acc": 0.9574468085106383,
    "timeout_precision": 1.0,
    "timeout_recall": 0.7692307692307693,
    "timeout_f1": 0.8695652173913044,
    "spearman_correlation_test": 0.9386666260751404,
    "spearman_correlation_pvalue_test": 3.829347537662018e-66,
    "rmse_test_left": 0.1418194623336963,
    "rmse_test_right": 0.2586146201450722,
    "mae_test_left": 0.07343349900300451,
    "mae_test_right": 0.11199310115656858,
    "spearman_correlation_test_left": 0.874031856884588,
    "spearman_correlation_pvalue_test_left": 2.5176779976764496e-35,
    "spearman_correlation_test_right": 0.6600919831165424,
    "spearman_correlation_pvalue_test_right": 3.948221222455152e-05,
    "r2_test_left": 0.9732432810188713,
    "r2_test_right": 0.3303957378051555
  },
  "1": {
    "r2_train": 0.9981946026606938,
    "r2_test": 0.9755911816588909,
    "rmse_train": 0.05576260276536569,
    "mae_train": 0.02775508510327124,
    "rmse_train_left": 0.04838612076533132,
    "rmse_train_right": 0.07594643411400195,
    "mae_train_left": 0.026430778862570597,
    "mae_train_right": 0.03233760511077509,
    "spearman_correlation_train": 0.9920378600268935,
    "spearman_correlation_pvalue_train": 0.0,
    "rmse_test": 0.1980567793116869,
    "mae_test": 0.07616244603325446,
    "timeout_acc": 0.9290780141843972,
    "timeout_precision": 1.0,
    "timeout_recall": 0.6153846153846154,
    "timeout_f1": 0.761904761904762,
    "spearman_correlation_test": 0.941229778401273,
    "spearman_correlation_pvalue_test": 2.1544782553345658e-67,
    "rmse_test_left": 0.098693645961712,
    "rmse_test_right": 0.3737156040659191,
    "mae_test_left": 0.05322069635271648,
    "mae_test_right": 0.15430778088258698,
    "spearman_correlation_test_left": 0.880806976286327,
    "spearman_correlation_pvalue_test_left": 1.5741450016582853e-36,
    "spearman_correlation_test_right": 0.5827217245290262,
    "spearman_correlation_pvalue_test_right": 0.00046596695947986476,
    "r2_test_left": 0.985086582449756,
    "r2_test_right": -0.39929077944233793
  },
  "2": {
    "r2_train": 0.9976889267620185,
    "r2_test": 0.9918866283624773,
    "rmse_train": 0.06301761410684216,
    "mae_train": 0.029326508717481072,
    "rmse_train_left": 0.047300706362575114,
    "rmse_train_right": 0.09985457242601778,
    "mae_train_left": 0.025473098790724503,
    "mae_train_right": 0.04266053036879745,
    "spearman_correlation_train": 0.9938048765727189,
    "spearman_correlation_pvalue_train": 0.0,
    "rmse_test": 0.11469324093902886,
    "mae_test": 0.062130559668263634,
    "timeout_acc": 0.9148936170212766,
    "timeout_precision": 1.0,
    "timeout_recall": 0.5384615384615384,
    "timeout_f1": 0.7000000000000001,
    "spearman_correlation_test": 0.939484248454837,
    "spearman_correlation_pvalue_test": 1.5502589165460683e-66,
    "rmse_test_left": 0.10977183626250421,
    "rmse_test_right": 0.13006678139741498,
    "mae_test_left": 0.06078104943035533,
    "mae_test_right": 0.0667273289161388,
    "spearman_correlation_test_left": 0.8761636016544985,
    "spearman_correlation_pvalue_test_left": 1.0710702903976359e-35,
    "spearman_correlation_test_right": 0.6757859573589455,
    "spearman_correlation_pvalue_test_right": 2.191648767228432e-05,
    "r2_test_left": 0.9818239527423507,
    "r2_test_right": 0.8404282901461958
  },
  "3": {
    "r2_train": 0.9981186315256837,
    "r2_test": 0.9863297187927035,
    "rmse_train": 0.05600551253428714,
    "mae_train": 0.026708922441729573,
    "rmse_train_left": 0.044891082167970525,
    "rmse_train_right": 0.0835852329802598,
    "mae_train_left": 0.02316752526151835,
    "mae_train_right": 0.03886678992654922,
    "spearman_correlation_train": 0.9923629324929147,
    "spearman_correlation_pvalue_train": 0.0,
    "rmse_test": 0.15800394718895616,
    "mae_test": 0.08102545305063304,
    "timeout_acc": 0.9214285714285714,
    "timeout_precision": 1.0,
    "timeout_recall": 0.5769230769230769,
    "timeout_f1": 0.7317073170731707,
    "spearman_correlation_test": 0.9237257927596302,
    "spearman_correlation_pvalue_test": 2.265055778424252e-59,
    "rmse_test_left": 0.14758942153464852,
    "rmse_test_right": 0.19014656102740907,
    "mae_test_left": 0.08039308883723106,
    "mae_test_right": 0.08324892722033678,
    "spearman_correlation_test_left": 0.845773357519175,
    "spearman_correlation_pvalue_test_left": 5.814051758604093e-31,
    "spearman_correlation_test_right": 0.6147242804366191,
    "spearman_correlation_pvalue_test_right": 0.00023372630426383666,
    "r2_test_left": 0.9724141878557606,
    "r2_test_right": 0.7214818970530446
  },
  "4": {
    "r2_train": 0.9978851387977699,
    "r2_test": 0.9869667228222925,
    "rmse_train": 0.060256741291984973,
    "mae_train": 0.02794525679179803,
    "rmse_train_left": 0.045547768823609086,
    "rmse_train_right": 0.09472950640394896,
    "mae_train_left": 0.024923662935418586,
    "mae_train_right": 0.03831860262944714,
    "spearman_correlation_train": 0.9919841599465969,
    "spearman_correlation_pvalue_train": 0.0,
    "rmse_test": 0.14583303004042492,
    "mae_test": 0.07366271147758871,
    "timeout_acc": 0.9285714285714286,
    "timeout_precision": 1.0,
    "timeout_recall": 0.6153846153846154,
    "timeout_f1": 0.761904761904762,
    "spearman_correlation_test": 0.9051204971104319,
    "spearman_correlation_pvalue_test": 4.105539264607184e-53,
    "rmse_test_left": 0.12280868291333655,
    "rmse_test_right": 0.20740199067596823,
    "mae_test_left": 0.0648731289886663,
    "mae_test_right": 0.10456801764831586,
    "spearman_correlation_test_left": 0.8067428593622198,
    "spearman_correlation_pvalue_test_left": 3.385262911132675e-26,
    "spearman_correlation_test_right": 0.6012628433752082,
    "spearman_correlation_pvalue_test_right": 0.0003471488195182465,
    "r2_test_left": 0.9760289776761255,
    "r2_test_right": 0.6728269119557262
  },
  "avg": {
    "r2_train": 0.997981544643776,
    "r2_test": 0.9847413830648325,
    "rmse_train": 0.05852174628859563,
    "mae_train": 0.027520259533934367,
    "rmse_train_left": 0.045613049170687904,
    "rmse_train_right": 0.08947199338397116,
    "mae_train_left": 0.024596919687487385,
    "mae_train_right": 0.03760017961636604,
    "spearman_correlation_train": 0.9922149500495641,
    "spearman_correlation_pvalue_train": 0.0,
    "rmse_test": 0.15837560651494254,
    "mae_test": 0.0750331569230227,
    "timeout_acc": 0.9302836879432623,
    "timeout_precision": 1.0,
    "timeout_recall": 0.6230769230769231,
    "timeout_f1": 0.7650164116547998,
    "spearman_correlation_test": 0.9296453885602624,
    "spearman_correlation_pvalue_test": 8.211083059327043e-54,
    "rmse_test_left": 0.1241366098011795,
    "rmse_test_right": 0.23198911146235673,
    "mae_test_left": 0.06654029252239474,
    "mae_test_right": 0.10416903116478941,
    "spearman_correlation_test_left": 0.8567037303413617,
    "spearman_correlation_pvalue_test_left": 6.770642110792847e-27,
    "spearman_correlation_test_right": 0.6269173577632683,
    "spearman_correlation_pvalue_test_right": 0.00022164815663175676,
    "r2_test_left": 0.9777193963485727,
    "r2_test_right": 0.4331684115035568
  }
}