{
  "0": {
    "sbs": "ABCROWN",
    "sbs_running_time": 37315.196699999986,
    "sbs_solved": 41,
    "vbs_running_time": 2234.3555014528856,
    "vbs_solved": 42,
    "algo_select_running_time": 14837.098204358654,
    "algo_select_solved": 41,
    "algo_select_acc": 0.9830508474576272,
    "timeout_acc": 1.0,
    "percentage_ran_in_portfolio": 0.18055555555555555,
    "percentage_ran_with_selected_algo": 0.8194444444444444
  },
  "1": {
    "sbs": "ABCROWN",
    "sbs_running_time": 36255.48780000001,
    "sbs_solved": 42,
    "vbs_running_time": 1371.631890073949,
    "vbs_solved": 42,
    "algo_select_running_time": 7259.980870221848,
    "algo_select_solved": 42,
    "algo_select_acc": 1.0,
    "timeout_acc": 1.0,
    "percentage_ran_in_portfolio": 0.19230769230769232,
    "percentage_ran_with_selected_algo": 0.8076923076923077
  },
  "2": {
    "sbs": "ABCROWN",
    "sbs_running_time": 36681.67579999999,
    "sbs_solved": 41,
    "vbs_running_time": 1624.3007517914907,
    "vbs_solved": 42,
    "algo_select_running_time": 9938.760855374469,
    "algo_select_solved": 42,
    "algo_select_acc": 1.0,
    "timeout_acc": 1.0,
    "percentage_ran_in_portfolio": 0.16,
    "percentage_ran_with_selected_algo": 0.84
  },
  "3": {
    "sbs": "ABCROWN",
    "sbs_running_time": 36972.0105,
    "sbs_solved": 41,
    "vbs_running_time": 1751.598284015278,
    "vbs_solved": 42,
    "algo_select_running_time": 11395.369288781543,
    "algo_select_solved": 40,
    "algo_select_acc": 0.967741935483871,
    "timeout_acc": 1.0,
    "percentage_ran_in_portfolio": 0.16216216216216217,
    "percentage_ran_with_selected_algo": 0.8378378378378378
  },
  "4": {
    "sbs": "ABCROWN",
    "sbs_running_time": 36636.26529999999,
    "sbs_solved": 42,
    "vbs_running_time": 1612.8893388317822,
    "vbs_solved": 42,
    "algo_select_running_time": 10175.791767307126,
    "algo_select_solved": 40,
    "algo_select_acc": 0.9692307692307692,
    "timeout_acc": 1.0,
    "percentage_ran_in_portfolio": 0.13333333333333333,
    "percentage_ran_with_selected_algo": 0.8666666666666667
  },
  "avg": {
    "sbs_running_time": 36772.12722,
    "sbs_solved": 41.4,
    "vbs_running_time": 1718.955153233077,
    "vbs_solved": 42.0,
    "algo_select_running_time": 10721.400197208728,
    "algo_select_solved": 41.0,
    "algo_select_acc": 0.9840047104344535,
    "timeout_acc": 1.0,
    "percentage_ran_in_portfolio": 0.16567174867174866,
    "percentage_ran_with_selected_algo": 0.8343282513282514
  },
  "sum": {
    "sbs_running_time": 183860.6361,
    "sbs_solved": 207,
    "vbs_running_time": 8594.775766165385,
    "vbs_solved": 210,
    "algo_select_running_time": 53607.00098604364,
    "algo_select_solved": 205,
    "algo_select_acc": 4.9200235521722675,
    "timeout_acc": 5.0,
    "percentage_ran_in_portfolio": 0.8283587433587434,
    "percentage_ran_with_selected_algo": 4.171641256641257
  }
}