{
  "results": {
    "Vanilla Verifier": [
      1.0,
      1.0,
      1.0,
      1.0,
      1.0,
      0.0,
      1.0,
      1.0,
      1.0,
      0.0,
      1.0,
      1.0,
      1.0,
      0.0,
      1.0,
      1.0,
      0.0,
      1.0,
      1.0,
      1.0,
      0.0,
      1.0,
      1.0,
      0.0,
      1.0,
      1.0,
      1.0,
      1.0,
      1.0,
      1.0,
      1.0,
      1.0,
      1.0,
      1.0,
      0.0,
      1.0,
      1.0,
      1.0,
      1.0,
      1.0,
      1.0,
      1.0,
      1.0,
      1.0,
      0.0,
      1.0,
      0.0,
      0.0,
      1.0,
      1.0,
      1.0,
      1.0,
      1.0,
      0.0,
      0.0,
      0.0,
      1.0,
      1.0,
      0.0,
      0.0,
      1.0,
      1.0,
      0.0,
      0.0,
      1.0,
      1.0,
      1.0,
      1.0,
      1.0,
      1.0,
      1.0,
      1.0,
      1.0,
      1.0,
      0.0,
      1.0,
      1.0,
      1.0,
      0.0,
      1.0,
      1.0,
      1.0,
      0.0,
      1.0,
      1.0,
      1.0,
      2.0,
      0.0,
      1.0,
      1.0,
      1.0,
      1.0,
      1.0,
      0.0,
      1.0,
      1.0,
      1.0,
      1.0,
      0.0,
      1.0,
      1.0,
      1.0,
      1.0,
      1.0,
      1.0,
      1.0,
      0.0,
      0.0,
      1.0,
      1.0,
      1.0,
      0.0,
      1.0,
      1.0,
      0.0,
      1.0,
      1.0,
      2.0,
      1.0,
      0.0,
      1.0,
      1.0,
      1.0,
      1.0,
      1.0,
      1.0,
      1.0,
      0.0,
      1.0,
      1.0,
      1.0,
      1.0,
      1.0,
      1.0,
      1.0,
      1.0,
      1.0,
      1.0,
      1.0,
      1.0,
      1.0,
      1.0,
      0.0,
      1.0,
      0.0,
      1.0,
      1.0,
      0.0,
      1.0,
      0.0,
      1.0,
      0.0,
      0.0,
      0.0,
      1.0,
      1.0,
      0.0,
      1.0,
      0.0,
      1.0,
      1.0,
      1.0,
      1.0,
      1.0,
      1.0,
      1.0,
      1.0,
      1.0,
      1.0,
      1.0,
      1.0,
      0.0,
      1.0,
      1.0,
      1.0,
      0.0,
      1.0,
      0.0,
      1.0,
      0.0,
      1.0,
      1.0,
      1.0,
      1.0,
      1.0,
      1.0,
      1.0,
      0.0,
      1.0,
      1.0,
      1.0,
      1.0,
      1.0,
      0.0,
      1.0,
      1.0,
      0.0,
      1.0,
      1.0,
      0.0,
      1.0,
      1.0,
      1.0,
      1.0,
      1.0,
      0.0,
      1.0,
      1.0,
      1.0,
      1.0,
      0.0,
      1.0,
      1.0,
      1.0,
      1.0,
      1.0,
      1.0,
      1.0,
      1.0,
      1.0,
      1.0,
      0.0,
      1.0,
      1.0,
      1.0,
      1.0,
      1.0,
      1.0,
      1.0,
      0.0,
      0.0,
      1.0,
      0.0,
      1.0,
      1.0,
      0.0,
      1.0,
      1.0,
      1.0,
      1.0,
      1.0,
      0.0,
      1.0,
      1.0,
      1.0,
      1.0,
      1.0,
      0.0,
      0.0,
      0.0,
      1.0,
      0.0,
      1.0,
      0.0,
      0.0,
      1.0,
      1.0,
      1.0,
      1.0,
      1.0,
      1.0,
      0.0,
      1.0,
      1.0,
      0.0,
      1.0,
      1.0,
      1.0,
      1.0,
      0.0,
      1.0,
      1.0,
      1.0,
      1.0,
      1.0,
      1.0,
      0.0,
      1.0,
      1.0,
      1.0,
      0.0,
      1.0,
      1.0,
      0.0,
      1.0,
      1.0,
      1.0,
      1.0,
      0.0,
      1.0,
      1.0,
      0.0,
      0.0,
      1.0,
      1.0,
      1.0,
      1.0,
      1.0,
      1.0,
      1.0,
      1.0,
      0.0,
      1.0,
      1.0,
      1.0,
      1.0,
      1.0,
      1.0,
      1.0,
      1.0,
      1.0,
      1.0,
      1.0,
      1.0,
      1.0,
      1.0,
      1.0,
      1.0,
      1.0,
      1.0,
      1.0,
      0.0,
      1.0,
      1.0,
      1.0,
      1.0,
      0.0,
      1.0,
      0.0,
      0.0,
      1.0,
      1.0,
      1.0,
      1.0,
      1.0,
      1.0,
      1.0,
      1.0,
      0.0,
      2.0,
      1.0,
      1.0,
      1.0,
      1.0,
      1.0,
      1.0,
      1.0,
      1.0,
      1.0,
      0.0,
      1.0,
      1.0,
      1.0,
      1.0,
      0.0,
      1.0,
      1.0,
      1.0,
      1.0,
      1.0,
      1.0,
      1.0,
      1.0,
      1.0,
      1.0,
      1.0,
      1.0,
      1.0,
      1.0,
      1.0,
      0.0,
      1.0,
      1.0,
      1.0,
      1.0,
      1.0,
      1.0,
      2.0,
      0.0,
      1.0,
      1.0,
      1.0,
      0.0,
      0.0,
      1.0,
      0.0,
      1.0,
      1.0,
      1.0,
      1.0,
      1.0,
      1.0,
      1.0,
      1.0,
      1.0,
      1.0,
      1.0,
      1.0,
      1.0,
      1.0,
      1.0,
      1.0,
      0.0,
      1.0,
      1.0,
      1.0,
      0.0,
      1.0,
      1.0,
      1.0,
      1.0,
      1.0,
      1.0,
      1.0,
      1.0,
      0.0,
      1.0,
      1.0,
      1.0,
      1.0,
      1.0,
      1.0,
      1.0,
      1.0,
      1.0,
      1.0,
      0.0,
      1.0,
      1.0,
      1.0,
      1.0,
      1.0,
      0.0,
      1.0,
      0.0,
      1.0,
      0.0,
      1.0,
      1.0,
      1.0,
      1.0,
      1.0,
      1.0,
      1.0,
      1.0,
      0.0,
      1.0,
      1.0,
      1.0,
      1.0,
      1.0,
      1.0,
      1.0,
      1.0,
      1.0,
      1.0,
      1.0,
      1.0,
      1.0,
      1.0,
      1.0,
      1.0,
      0.0,
      1.0,
      1.0,
      1.0,
      1.0,
      0.0,
      0.0,
      1.0,
      1.0,
      1.0,
      0.0,
      1.0,
      1.0,
      1.0,
      1.0,
      1.0,
      0.0,
      1.0,
      0.0,
      1.0,
      1.0,
      1.0,
      1.0,
      1.0,
      0.0,
      1.0,
      1.0,
      1.0,
      0.0,
      1.0,
      0.0,
      0.0,
      1.0,
      1.0,
      0.0,
      0.0,
      1.0,
      0.0,
      1.0,
      1.0,
      1.0,
      1.0,
      1.0,
      1.0,
      1.0,
      1.0,
      1.0,
      1.0,
      1.0,
      1.0,
      1.0,
      1.0,
      0.0,
      0.0,
      1.0,
      1.0,
      0.0,
      0.0,
      1.0,
      0.0,
      1.0,
      1.0,
      0.0,
      0.0,
      0.0,
      0.0,
      1.0,
      0.0,
      1.0,
      1.0,
      1.0,
      1.0,
      1.0,
      1.0,
      1.0,
      1.0,
      0.0,
      1.0,
      1.0,
      0.0,
      1.0,
      0.0,
      1.0,
      1.0,
      0.0,
      1.0,
      1.0,
      1.0,
      1.0,
      1.0,
      1.0,
      1.0,
      1.0,
      1.0,
      1.0,
      1.0,
      1.0,
      1.0,
      0.0,
      1.0,
      1.0,
      0.0,
      1.0,
      0.0,
      1.0,
      1.0,
      1.0,
      1.0,
      1.0,
      1.0,
      1.0,
      1.0,
      1.0,
      1.0,
      1.0,
      1.0,
      1.0,
      1.0,
      1.0,
      1.0,
      1.0,
      1.0,
      1.0,
      0.0,
      0.0,
      1.0,
      1.0,
      0.0,
      0.0,
      0.0,
      0.0,
      2.0,
      1.0,
      1.0,
      1.0,
      1.0,
      2.0,
      0.0,
      1.0,
      1.0,
      1.0,
      1.0,
      1.0,
      1.0,
      1.0,
      1.0,
      0.0,
      1.0,
      1.0,
      0.0,
      1.0,
      0.0,
      2.0,
      1.0,
      1.0,
      1.0,
      1.0,
      1.0,
      1.0,
      0.0,
      1.0,
      1.0,
      1.0,
      1.0,
      1.0,
      1.0,
      1.0,
      1.0,
      1.0,
      1.0,
      0.0,
      1.0,
      1.0,
      1.0,
      1.0,
      0.0,
      0.0,
      1.0,
      0.0,
      0.0,
      1.0,
      1.0,
      1.0,
      1.0,
      1.0,
      0.0,
      0.0,
      1.0,
      1.0,
      1.0,
      0.0,
      1.0,
      1.0,
      1.0,
      0.0,
      1.0,
      1.0,
      0.0,
      1.0,
      1.0,
      1.0,
      0.0,
      1.0,
      1.0,
      1.0,
      1.0,
      1.0,
      1.0,
      1.0,
      1.0,
      1.0,
      1.0,
      1.0,
      2.0,
      1.0,
      0.0,
      1.0,
      1.0,
      1.0,
      0.0,
      1.0,
      1.0,
      0.0,
      1.0,
      1.0,
      1.0,
      0.0,
      1.0,
      1.0,
      0.0,
      1.0,
      1.0,
      1.0,
      0.0,
      1.0,
      1.0,
      1.0,
      1.0,
      1.0,
      1.0,
      0.0,
      0.0,
      1.0,
      1.0,
      1.0,
      1.0,
      1.0,
      1.0,
      1.0,
      0.0,
      0.0,
      1.0,
      1.0,
      0.0,
      1.0,
      1.0,
      1.0,
      1.0,
      1.0,
      2.0,
      0.0,
      1.0,
      1.0,
      1.0,
      1.0,
      1.0,
      1.0,
      1.0,
      1.0,
      1.0,
      1.0,
      1.0,
      1.0,
      1.0,
      1.0,
      1.0,
      1.0,
      1.0,
      1.0,
      1.0,
      0.0,
      0.0,
      1.0,
      1.0,
      1.0,
      1.0,
      0.0,
      1.0,
      1.0,
      1.0,
      1.0,
      0.0,
      1.0,
      1.0,
      1.0,
      1.0,
      0.0,
      1.0,
      1.0,
      0.0,
      1.0,
      1.0,
      1.0,
      0.0,
      0.0,
      1.0,
      1.0,
      1.0,
      0.0,
      1.0,
      1.0,
      1.0,
      1.0,
      1.0,
      1.0,
      0.0,
      1.0,
      1.0,
      1.0,
      1.0,
      0.0,
      1.0,
      1.0,
      1.0,
      1.0,
      1.0,
      1.0,
      1.0,
      0.0,
      1.0,
      1.0,
      1.0,
      1.0,
      1.0,
      1.0,
      1.0,
      0.0,
      1.0,
      1.0,
      1.0,
      1.0,
      0.0,
      1.0,
      1.0,
      1.0,
      1.0,
      0.0,
      1.0,
      1.0,
      1.0,
      0.0,
      1.0,
      1.0,
      0.0,
      0.0,
      0.0,
      1.0,
      1.0,
      1.0,
      0.0,
      1.0,
      0.0,
      1.0,
      1.0,
      1.0,
      1.0,
      0.0,
      1.0,
      1.0,
      1.0,
      1.0,
      1.0,
      0.0,
      1.0,
      1.0,
      1.0,
      1.0,
      1.0,
      1.0,
      0.0,
      1.0,
      1.0,
      1.0,
      1.0,
      1.0,
      1.0,
      1.0,
      1.0,
      0.0,
      0.0,
      1.0,
      1.0,
      1.0,
      0.0,
      1.0,
      0.0,
      1.0,
      1.0,
      1.0,
      1.0,
      1.0,
      1.0,
      1.0,
      1.0,
      1.0,
      1.0,
      2.0,
      1.0,
      1.0,
      0.0,
      1.0,
      1.0,
      1.0,
      1.0,
      1.0,
      1.0,
      1.0,
      0.0,
      1.0,
      1.0,
      1.0,
      1.0,
      1.0,
      0.0,
      1.0,
      1.0,
      1.0,
      1.0,
      1.0,
      1.0,
      1.0,
      1.0,
      0.0,
      1.0,
      1.0,
      1.0,
      1.0,
      1.0,
      1.0,
      1.0,
      1.0,
      0.0,
      1.0,
      1.0,
      1.0,
      1.0,
      1.0,
      0.0,
      1.0,
      1.0,
      0.0,
      1.0,
      1.0,
      1.0,
      1.0,
      0.0,
      1.0,
      0.0,
      1.0,
      1.0,
      1.0,
      0.0,
      1.0,
      1.0,
      1.0,
      0.0,
      1.0,
      1.0,
      1.0,
      1.0,
      1.0,
      1.0,
      1.0,
      0.0,
      1.0,
      1.0,
      1.0,
      1.0,
      1.0,
      1.0,
      1.0,
      1.0,
      0.0,
      1.0,
      1.0,
      1.0,
      1.0,
      1.0,
      1.0,
      1.0,
      1.0,
      0.0,
      1.0,
      1.0,
      0.0,
      2.0,
      1.0,
      1.0,
      1.0,
      1.0,
      1.0,
      1.0,
      1.0,
      0.0,
      1.0,
      1.0,
      1.0,
      1.0,
      1.0,
      0.0,
      1.0,
      1.0,
      1.0,
      1.0,
      1.0,
      1.0,
      1.0,
      1.0,
      0.0,
      1.0,
      1.0,
      0.0,
      1.0,
      1.0,
      1.0,
      0.0,
      1.0,
      1.0,
      0.0,
      1.0,
      1.0,
      1.0,
      1.0,
      1.0,
      1.0,
      1.0,
      1.0,
      1.0
    ],
    "Timeout Prediction": [
      1.0,
      1.0,
      1.0,
      1.0,
      1.0,
      0.0,
      1.0,
      1.0,
      1.0,
      0.0,
      1.0,
      1.0,
      1.0,
      0.0,
      1.0,
      1.0,
      0.0,
      1.0,
      1.0,
      1.0,
      0.0,
      1.0,
      1.0,
      0.0,
      1.0,
      1.0,
      1.0,
      1.0,
      1.0,
      1.0,
      1.0,
      1.0,
      1.0,
      1.0,
      0.0,
      1.0,
      1.0,
      1.0,
      1.0,
      1.0,
      1.0,
      1.0,
      1.0,
      1.0,
      0.0,
      1.0,
      0.0,
      0.0,
      1.0,
      1.0,
      1.0,
      1.0,
      1.0,
      0.0,
      0.0,
      0.0,
      1.0,
      1.0,
      0.0,
      0.0,
      1.0,
      1.0,
      0.0,
      0.0,
      1.0,
      1.0,
      1.0,
      1.0,
      1.0,
      1.0,
      1.0,
      1.0,
      1.0,
      1.0,
      0.0,
      1.0,
      1.0,
      1.0,
      0.0,
      1.0,
      1.0,
      1.0,
      0.0,
      1.0,
      1.0,
      1.0,
      2.0,
      0.0,
      1.0,
      1.0,
      1.0,
      1.0,
      1.0,
      0.0,
      1.0,
      1.0,
      1.0,
      1.0,
      0.0,
      1.0,
      1.0,
      1.0,
      1.0,
      1.0,
      1.0,
      1.0,
      0.0,
      0.0,
      1.0,
      1.0,
      1.0,
      0.0,
      1.0,
      1.0,
      0.0,
      1.0,
      1.0,
      2.0,
      1.0,
      0.0,
      1.0,
      1.0,
      1.0,
      1.0,
      1.0,
      1.0,
      1.0,
      0.0,
      1.0,
      1.0,
      1.0,
      1.0,
      1.0,
      1.0,
      1.0,
      1.0,
      1.0,
      1.0,
      1.0,
      1.0,
      1.0,
      1.0,
      0.0,
      1.0,
      0.0,
      1.0,
      1.0,
      0.0,
      1.0,
      0.0,
      1.0,
      0.0,
      0.0,
      0.0,
      1.0,
      1.0,
      0.0,
      1.0,
      0.0,
      1.0,
      1.0,
      1.0,
      1.0,
      1.0,
      1.0,
      1.0,
      1.0,
      1.0,
      1.0,
      1.0,
      1.0,
      0.0,
      1.0,
      1.0,
      1.0,
      0.0,
      1.0,
      0.0,
      1.0,
      0.0,
      1.0,
      1.0,
      1.0,
      1.0,
      1.0,
      1.0,
      1.0,
      0.0,
      1.0,
      1.0,
      1.0,
      1.0,
      1.0,
      0.0,
      1.0,
      1.0,
      0.0,
      1.0,
      1.0,
      0.0,
      1.0,
      1.0,
      1.0,
      1.0,
      1.0,
      0.0,
      1.0,
      1.0,
      1.0,
      1.0,
      0.0,
      1.0,
      1.0,
      1.0,
      1.0,
      1.0,
      1.0,
      1.0,
      1.0,
      1.0,
      1.0,
      0.0,
      1.0,
      1.0,
      1.0,
      1.0,
      1.0,
      1.0,
      1.0,
      0.0,
      0.0,
      1.0,
      0.0,
      1.0,
      1.0,
      0.0,
      1.0,
      1.0,
      1.0,
      1.0,
      1.0,
      0.0,
      1.0,
      1.0,
      1.0,
      1.0,
      1.0,
      0.0,
      0.0,
      0.0,
      1.0,
      0.0,
      1.0,
      0.0,
      0.0,
      1.0,
      1.0,
      1.0,
      1.0,
      1.0,
      1.0,
      0.0,
      1.0,
      1.0,
      0.0,
      1.0,
      1.0,
      1.0,
      1.0,
      0.0,
      1.0,
      1.0,
      1.0,
      1.0,
      1.0,
      1.0,
      0.0,
      1.0,
      1.0,
      1.0,
      0.0,
      1.0,
      1.0,
      0.0,
      1.0,
      1.0,
      1.0,
      1.0,
      0.0,
      1.0,
      1.0,
      0.0,
      0.0,
      1.0,
      1.0,
      1.0,
      1.0,
      1.0,
      1.0,
      1.0,
      1.0,
      0.0,
      1.0,
      1.0,
      1.0,
      1.0,
      1.0,
      1.0,
      1.0,
      1.0,
      1.0,
      1.0,
      1.0,
      1.0,
      1.0,
      1.0,
      1.0,
      1.0,
      1.0,
      1.0,
      1.0,
      0.0,
      1.0,
      1.0,
      1.0,
      1.0,
      0.0,
      1.0,
      0.0,
      0.0,
      1.0,
      1.0,
      1.0,
      1.0,
      1.0,
      1.0,
      1.0,
      1.0,
      0.0,
      2.0,
      1.0,
      1.0,
      1.0,
      1.0,
      1.0,
      1.0,
      1.0,
      1.0,
      1.0,
      0.0,
      1.0,
      1.0,
      1.0,
      1.0,
      0.0,
      1.0,
      1.0,
      1.0,
      1.0,
      1.0,
      1.0,
      1.0,
      1.0,
      1.0,
      1.0,
      1.0,
      1.0,
      1.0,
      1.0,
      1.0,
      0.0,
      1.0,
      1.0,
      1.0,
      1.0,
      1.0,
      1.0,
      2.0,
      0.0,
      1.0,
      1.0,
      1.0,
      0.0,
      0.0,
      1.0,
      0.0,
      1.0,
      1.0,
      1.0,
      1.0,
      1.0,
      1.0,
      1.0,
      1.0,
      1.0,
      1.0,
      1.0,
      1.0,
      1.0,
      1.0,
      1.0,
      1.0,
      0.0,
      1.0,
      1.0,
      1.0,
      0.0,
      1.0,
      1.0,
      1.0,
      1.0,
      1.0,
      1.0,
      1.0,
      1.0,
      0.0,
      1.0,
      1.0,
      1.0,
      1.0,
      1.0,
      1.0,
      1.0,
      1.0,
      1.0,
      1.0,
      0.0,
      1.0,
      1.0,
      1.0,
      1.0,
      1.0,
      0.0,
      1.0,
      0.0,
      1.0,
      0.0,
      1.0,
      1.0,
      1.0,
      1.0,
      1.0,
      1.0,
      1.0,
      1.0,
      0.0,
      1.0,
      1.0,
      1.0,
      1.0,
      1.0,
      1.0,
      1.0,
      1.0,
      1.0,
      1.0,
      1.0,
      1.0,
      1.0,
      1.0,
      1.0,
      1.0,
      0.0,
      1.0,
      1.0,
      1.0,
      1.0,
      0.0,
      0.0,
      1.0,
      1.0,
      1.0,
      0.0,
      1.0,
      1.0,
      1.0,
      1.0,
      1.0,
      0.0,
      1.0,
      0.0,
      1.0,
      1.0,
      1.0,
      1.0,
      1.0,
      0.0,
      1.0,
      1.0,
      1.0,
      0.0,
      1.0,
      0.0,
      0.0,
      1.0,
      1.0,
      0.0,
      0.0,
      1.0,
      0.0,
      1.0,
      1.0,
      1.0,
      1.0,
      1.0,
      1.0,
      1.0,
      1.0,
      1.0,
      1.0,
      1.0,
      1.0,
      1.0,
      1.0,
      0.0,
      0.0,
      1.0,
      1.0,
      0.0,
      0.0,
      1.0,
      0.0,
      1.0,
      1.0,
      0.0,
      0.0,
      0.0,
      0.0,
      1.0,
      0.0,
      1.0,
      1.0,
      1.0,
      1.0,
      1.0,
      1.0,
      1.0,
      1.0,
      0.0,
      1.0,
      1.0,
      0.0,
      1.0,
      0.0,
      1.0,
      1.0,
      0.0,
      1.0,
      1.0,
      1.0,
      1.0,
      1.0,
      1.0,
      1.0,
      1.0,
      1.0,
      1.0,
      1.0,
      1.0,
      1.0,
      0.0,
      1.0,
      1.0,
      0.0,
      1.0,
      0.0,
      1.0,
      1.0,
      1.0,
      1.0,
      1.0,
      1.0,
      1.0,
      1.0,
      1.0,
      1.0,
      1.0,
      1.0,
      1.0,
      1.0,
      1.0,
      1.0,
      1.0,
      1.0,
      1.0,
      0.0,
      0.0,
      1.0,
      1.0,
      0.0,
      0.0,
      0.0,
      0.0,
      2.0,
      1.0,
      1.0,
      1.0,
      1.0,
      2.0,
      0.0,
      1.0,
      1.0,
      1.0,
      1.0,
      1.0,
      1.0,
      1.0,
      1.0,
      0.0,
      1.0,
      1.0,
      0.0,
      1.0,
      0.0,
      2.0,
      1.0,
      1.0,
      1.0,
      1.0,
      1.0,
      1.0,
      0.0,
      1.0,
      1.0,
      1.0,
      1.0,
      1.0,
      1.0,
      1.0,
      1.0,
      1.0,
      1.0,
      0.0,
      1.0,
      1.0,
      1.0,
      1.0,
      0.0,
      0.0,
      1.0,
      0.0,
      0.0,
      1.0,
      1.0,
      1.0,
      1.0,
      1.0,
      0.0,
      0.0,
      1.0,
      1.0,
      1.0,
      0.0,
      1.0,
      1.0,
      1.0,
      0.0,
      1.0,
      1.0,
      0.0,
      1.0,
      1.0,
      1.0,
      0.0,
      1.0,
      1.0,
      1.0,
      1.0,
      1.0,
      1.0,
      1.0,
      1.0,
      1.0,
      1.0,
      1.0,
      2.0,
      1.0,
      0.0,
      1.0,
      1.0,
      1.0,
      0.0,
      1.0,
      1.0,
      0.0,
      1.0,
      1.0,
      1.0,
      0.0,
      1.0,
      1.0,
      0.0,
      1.0,
      1.0,
      1.0,
      0.0,
      1.0,
      1.0,
      1.0,
      1.0,
      1.0,
      1.0,
      0.0,
      0.0,
      1.0,
      1.0,
      1.0,
      1.0,
      1.0,
      1.0,
      1.0,
      0.0,
      0.0,
      1.0,
      1.0,
      0.0,
      1.0,
      1.0,
      1.0,
      1.0,
      1.0,
      2.0,
      0.0,
      1.0,
      1.0,
      1.0,
      1.0,
      1.0,
      1.0,
      1.0,
      1.0,
      1.0,
      1.0,
      1.0,
      1.0,
      1.0,
      1.0,
      1.0,
      1.0,
      1.0,
      1.0,
      1.0,
      0.0,
      0.0,
      1.0,
      1.0,
      1.0,
      1.0,
      0.0,
      1.0,
      1.0,
      1.0,
      1.0,
      0.0,
      1.0,
      1.0,
      1.0,
      1.0,
      0.0,
      1.0,
      1.0,
      0.0,
      1.0,
      1.0,
      1.0,
      0.0,
      0.0,
      1.0,
      1.0,
      1.0,
      0.0,
      1.0,
      1.0,
      1.0,
      1.0,
      1.0,
      1.0,
      0.0,
      1.0,
      1.0,
      1.0,
      1.0,
      0.0,
      1.0,
      1.0,
      1.0,
      1.0,
      1.0,
      1.0,
      1.0,
      0.0,
      1.0,
      1.0,
      1.0,
      1.0,
      1.0,
      1.0,
      1.0,
      0.0,
      1.0,
      1.0,
      1.0,
      1.0,
      0.0,
      1.0,
      1.0,
      1.0,
      1.0,
      0.0,
      1.0,
      1.0,
      1.0,
      0.0,
      1.0,
      1.0,
      0.0,
      0.0,
      0.0,
      1.0,
      1.0,
      1.0,
      0.0,
      1.0,
      0.0,
      1.0,
      1.0,
      1.0,
      1.0,
      0.0,
      1.0,
      1.0,
      1.0,
      1.0,
      1.0,
      0.0,
      1.0,
      1.0,
      1.0,
      1.0,
      1.0,
      1.0,
      0.0,
      1.0,
      1.0,
      1.0,
      1.0,
      1.0,
      1.0,
      1.0,
      1.0,
      0.0,
      0.0,
      1.0,
      1.0,
      1.0,
      0.0,
      1.0,
      0.0,
      1.0,
      1.0,
      1.0,
      1.0,
      1.0,
      1.0,
      1.0,
      1.0,
      1.0,
      1.0,
      2.0,
      1.0,
      1.0,
      0.0,
      1.0,
      1.0,
      1.0,
      1.0,
      1.0,
      1.0,
      1.0,
      0.0,
      1.0,
      1.0,
      1.0,
      1.0,
      1.0,
      0.0,
      1.0,
      1.0,
      1.0,
      1.0,
      1.0,
      1.0,
      1.0,
      1.0,
      0.0,
      1.0,
      1.0,
      1.0,
      1.0,
      1.0,
      1.0,
      1.0,
      1.0,
      0.0,
      1.0,
      1.0,
      1.0,
      1.0,
      1.0,
      0.0,
      1.0,
      1.0,
      0.0,
      1.0,
      1.0,
      1.0,
      1.0,
      0.0,
      1.0,
      0.0,
      1.0,
      1.0,
      1.0,
      0.0,
      1.0,
      1.0,
      1.0,
      0.0,
      1.0,
      1.0,
      1.0,
      1.0,
      1.0,
      1.0,
      1.0,
      0.0,
      1.0,
      1.0,
      1.0,
      1.0,
      1.0,
      1.0,
      1.0,
      1.0,
      0.0,
      1.0,
      1.0,
      1.0,
      1.0,
      1.0,
      1.0,
      1.0,
      1.0,
      0.0,
      1.0,
      1.0,
      0.0,
      2.0,
      1.0,
      1.0,
      1.0,
      1.0,
      1.0,
      1.0,
      1.0,
      0.0,
      1.0,
      1.0,
      1.0,
      1.0,
      1.0,
      0.0,
      1.0,
      1.0,
      1.0,
      1.0,
      1.0,
      1.0,
      1.0,
      1.0,
      0.0,
      1.0,
      1.0,
      0.0,
      1.0,
      1.0,
      1.0,
      0.0,
      1.0,
      1.0,
      0.0,
      1.0,
      1.0,
      1.0,
      1.0,
      1.0,
      1.0,
      1.0,
      1.0,
      1.0
    ]
  },
  "running_times": {
    "Vanilla Verifier": [
      -0.3825802532628234,
      -0.0341400631929283,
      0.6052296038227699,
      -0.06053066915646986,
      -0.3798639450262425,
      -2.036212172654445,
      -0.19010375339756092,
      -0.3755116374865511,
      -0.19545169161194412,
      -0.4658469258149374,
      -0.3823707022421579,
      0.7269227197510191,
      -0.3065368727804688,
      -0.4636941276489664,
      -0.1823024452369759,
      -0.3702846673528678,
      -0.4522252946121775,
      -0.36572430537405604,
      -0.2073282108584327,
      -0.37120251443328983,
      -1.705533773838407,
      -0.37324914631660683,
      -0.3723269682333841,
      -1.9507819773298183,
      -0.3014645074379989,
      0.8539232080473061,
      -0.3682519256034306,
      -0.37059040089728107,
      -0.36865771351606724,
      -0.2336615247487127,
      0.8010399304115692,
      -0.11492161585077593,
      -0.3711004355793933,
      -0.36401388819916697,
      -0.4554359025039569,
      -0.3595185630295782,
      -0.2763801644845366,
      -0.36511985923347373,
      -0.36511985923347373,
      -0.058091225634400535,
      -0.3578323655950549,
      -0.3630108981877709,
      -0.2298847052128984,
      -0.06859298644342653,
      -1.6777807052660807,
      -0.05310580489767322,
      -1.9065783148377649,
      -1.5575202309355514,
      1.1168500578532738,
      -0.3590219426416679,
      -0.3574365628956122,
      -0.36957212497497616,
      -0.3724293358194569,
      -0.46054750845053916,
      -1.9706162223147903,
      -0.45407467064415724,
      0.027757204690553483,
      -0.36835333704158046,
      -0.4537041648785575,
      -1.739928612014925,
      1.0008547185077705,
      -0.21538270736712464,
      -1.8927900303521317,
      -1.9030899869919435,
      -0.37079434289769625,
      -0.34055921812968226,
      -0.18375870000821692,
      -0.3670368318327389,
      -0.35546294222159264,
      -0.3678465164893673,
      -0.36381310480127577,
      -0.3669357273085008,
      -0.37069235992625116,
      -0.3623101808815988,
      -0.45580788923496734,
      -0.3678465164893673,
      -0.3631110930162008,
      -0.225191169689294,
      -0.45717457304082015,
      -0.36201021921531473,
      -0.3703865546218168,
      -0.3654219771461119,
      -0.4574235237394704,
      -0.2714838952402333,
      -0.1475810070629986,
      -0.14782509557969686,
      2.640353117288369,
      -1.578396073130169,
      -0.3639134848969273,
      -0.35773338109732644,
      0.003072595967674963,
      -0.3564486314370549,
      -0.3664305574459082,
      -1.9625735020593764,
      -0.36906388093580855,
      -0.1824346304402192,
      -0.3480439304669258,
      -0.3629107264696695,
      -1.7144426909922261,
      -0.27002571430044436,
      0.025919998502017653,
      -0.3698773571406879,
      -0.37202001017002,
      -0.37283904762522424,
      -0.08666307406737678,
      -0.34418950550474775,
      -0.4631891340084585,
      -1.978810700930062,
      -0.36663255488299307,
      -0.22105327203138328,
      -0.1189007816109828,
      -1.9829666607012197,
      -0.1189578918065945,
      0.02444461713134935,
      -0.4441803169388089,
      -0.17179138553205459,
      -0.3512497873019806,
      2.7785639958585238,
      -0.025166044951459944,
      -1.9469215565165803,
      -0.2218487496163564,
      -0.027056991894431778,
      -0.21745571598998992,
      -0.3711004355793933,
      0.06762871672824573,
      -0.10695988804288209,
      -0.37294153599901037,
      -0.46117501106209624,
      0.8865753197541674,
      -0.341606973720876,
      0.8523701862073231,
      -0.2182446253475311,
      -0.36632959394855624,
      0.0007376737740332033,
      -0.3534002482796267,
      -0.3689623034632596,
      -0.05173378011970452,
      0.7041762647612262,
      -0.3682519256034306,
      -0.36967384519605323,
      -0.20746823809869244,
      -0.0835986963961244,
      -0.4514877436589645,
      8.685021164894766e-05,
      -1.6968039425795112,
      -0.3570411205902093,
      0.8934676956316266,
      -1.712198270069774,
      -0.3633115520467173,
      -1.6289321377282637,
      -0.05320397272853948,
      -1.5900668766687054,
      -1.8153085691824011,
      -1.9546770212133426,
      -0.3604139133265736,
      -0.34794715175189506,
      -0.4576726172260256,
      -0.36051351073141397,
      -1.6882461389442456,
      -0.35242144578754486,
      -0.34543844525825673,
      0.037824750588341866,
      -0.3648179513437324,
      -0.1760695448744361,
      -0.3534982499683881,
      -0.17613469067548876,
      -0.35477428846458386,
      -0.3467874862246563,
      -0.33790355458207655,
      -0.3456309090247141,
      -0.3526170298853802,
      -0.45605605751709355,
      -0.36612773734166726,
      -0.2695407399542312,
      -0.27270279719641255,
      -1.7375489102695705,
      -0.3684547721656906,
      -1.679853713888946,
      -0.3562513145404742,
      -1.7619538968712045,
      -0.3601152580836957,
      -0.17704775945251836,
      -0.3644157336887699,
      -0.07237303755504594,
      -0.17947015147648024,
      -0.3343252190061066,
      -0.361011840656318,
      -0.4580465255417637,
      -0.02040610415106964,
      -0.3460160926259311,
      -0.17717835469689538,
      -0.31381076575597633,
      -0.3532043112215306,
      -1.6497519816658373,
      -0.3664305574459082,
      -0.0020896326532565297,
      -1.889410289700751,
      0.002122846225161637,
      -0.3417023496918102,
      -0.43415218132648237,
      1.0975800465552237,
      0.5540649554946406,
      -0.3702846673528678,
      -0.1817741063860445,
      -0.37685412536206037,
      -0.46610089920340536,
      -0.1583277499263656,
      -0.3822659646359821,
      -0.1578902365593899,
      -0.3816380688901218,
      -0.4568014143623533,
      0.7219424493129453,
      -0.12586622117202773,
      -0.05467915920772498,
      -0.22745826735905644,
      -0.13966199342900631,
      -0.368556230986828,
      -0.36602684421032644,
      -0.3688607497431889,
      -0.3714067441487408,
      0.04809205181237225,
      -0.46079840070587225,
      -0.11041819785037627,
      -0.11429961987167009,
      -0.3703865546218168,
      -0.36411431471872724,
      -0.3697755892475677,
      -0.3709983807130083,
      -0.3512497873019806,
      -0.4590451910738673,
      -0.4554359025039569,
      -0.14990540561329926,
      -1.7033348097384688,
      -0.21602499658732888,
      -0.14302956651750767,
      -1.6038006529042637,
      0.6718390522094765,
      -0.3648179513437324,
      -0.2705112308204387,
      -0.3698773571406879,
      -0.36754270781527576,
      -0.4600461583436033,
      0.8917158218547125,
      -0.3503731131594706,
      -0.36957212497497616,
      -0.3704884657995468,
      -0.08323031571686386,
      -1.889410289700751,
      -1.712198270069774,
      -0.42227847549097913,
      -0.22907438536100086,
      -1.5199930570428493,
      0.41655730119147927,
      -1.9625735020593764,
      -1.6420651529995463,
      -0.14092177525303065,
      -0.36381310480127577,
      -0.3697755892475677,
      0.04594853810533426,
      -0.37222462477069695,
      -0.3540867249661558,
      -1.712198270069774,
      -0.14648430324307132,
      -0.2714027566165684,
      -0.45692576496646786,
      -0.0787818788050497,
      -0.37212230542002855,
      0.5832441287263166,
      -0.3682519256034306,
      -1.9625735020593764,
      -0.2745784499257413,
      -0.3715088950328772,
      -0.36201021921531473,
      -0.2206199885083442,
      -0.3644157336887699,
      -0.13489602535887207,
      -0.46281077375635543,
      -0.3625102704874893,
      -0.36501919994877163,
      1.1996893700737286,
      -1.5654310959658013,
      0.08866755254240449,
      -0.36967384519605323,
      -1.9546770212133426,
      -0.36804917374078305,
      -0.3478503945983471,
      -0.17308335281507956,
      -0.29886393390747357,
      -1.6073030467403342,
      0.9159113997169722,
      -0.368150537840182,
      -0.4584207560534191,
      -1.5800442515102422,
      -0.22468087817052243,
      -0.3655227298392684,
      -0.36361241418684337,
      -0.36967384519605323,
      -0.3639134848969273,
      0.05392315054857503,
      -0.3682519256034306,
      -0.3630108981877709,
      -1.6968039425795112,
      -0.3697755892475677,
      -0.35941919351034746,
      -0.36001575195841146,
      0.02530586526477026,
      -0.15267416921457636,
      -0.35822852934604077,
      -0.36947042857317597,
      -0.3703865546218168,
      -0.0010435595295137823,
      -0.07706704344478832,
      -0.2475673907385259,
      -0.11142740314240003,
      -0.27769521312567236,
      -0.3724293358194569,
      -0.37161106994968846,
      -0.36602684421032644,
      -0.3644157336887699,
      -0.18435585086803463,
      -0.3624102141613001,
      -1.4710832997223453,
      -0.3627104523218255,
      -0.3654219771461119,
      -0.3689623034632596,
      -0.36361241418684337,
      -1.6161846340195687,
      -0.21817284706757215,
      -0.4600461583436033,
      -1.826813731587726,
      -0.09366495819490933,
      -0.36744148546732813,
      -0.3597173703033192,
      -0.21932272556663196,
      -0.3534002482796267,
      -0.3624102141613001,
      -0.36804917374078305,
      -0.11469533241103202,
      -1.7931741239681502,
      2.7786329776070966,
      -0.3537923877933148,
      -0.08170748724464444,
      -0.21896306137886817,
      -0.04301563225723985,
      -0.36804917374078305,
      -0.3670368318327389,
      -0.3446694419906591,
      -0.35694231624854705,
      -0.3627104523218255,
      -1.9625735020593764,
      -0.3590219426416679,
      -0.25916379294268854,
      -0.3581294545236872,
      -0.3672391115205612,
      -1.442492798094342,
      -0.1773743212258593,
      -0.1815101777957866,
      -0.30137757029790213,
      -0.21289390696342989,
      -0.3604139133265736,
      0.003029470553617962,
      -0.36511985923347373,
      -0.36501919994877163,
      -0.36612773734166726,
      -0.10607187345739313,
      -0.35694231624854705,
      -0.10969078310005152,
      -0.34707711243205813,
      0.886586597786834,
      -0.35931984672233486,
      -1.9507819773298183,
      -0.36653154442041347,
      -0.3561526897002858,
      -0.11142740314240003,
      -0.3573376685579645,
      -0.10924374808178186,
      -0.3559555071852512,
      2.7785440368310037,
      -0.45075144314594406,
      -0.2594794139463353,
      -0.11153968196461368,
      -0.3633115520467173,
      -1.6736641390712486,
      -1.744727494896694,
      -0.3628105778512381,
      -0.453457336521869,
      -0.3329207945357833,
      0.03666881030009679,
      0.9121050949016007,
      -0.3664305574459082,
      -0.36622865391744447,
      -0.36461679595250146,
      -0.3678465164893673,
      -0.36121133284260165,
      -0.048613905119707174,
      -0.33639329187547967,
      -0.14490504884137814,
      -0.3589226866746256,
      -0.3688607497431889,
      -0.3364875295848444,
      -0.3809066693732573,
      -0.38038499425719363,
      -0.46445272082333217,
      0.03534967652298813,
      -0.3788237182249648,
      -0.3811155150045496,
      -0.4698003017969178,
      -0.3788237182249648,
      -0.3813244611148602,
      -0.37871983244958524,
      -0.38048927916150144,
      0.9448723752535766,
      -0.35585694949008106,
      -0.20711825461460295,
      -0.3725317275402904,
      -1.9746941347352298,
      -0.35027581407047764,
      -0.35585694949008106,
      -0.3545777306509081,
      -0.1886931599186639,
      -0.18541948398968144,
      -0.11441264381034398,
      -0.3698773571406879,
      -0.22033137279285203,
      -0.3693687559795,
      -0.17881411739115455,
      -0.45419824284072385,
      0.02321129232888862,
      -0.3688607497431889,
      -0.36774522331528636,
      -0.36947042857317597,
      -0.3708963498228635,
      -1.7077439286435239,
      -0.05561604235915584,
      -0.46243274284732483,
      -0.11429961987167009,
      -1.7189666327522726,
      -0.3684547721656906,
      -0.3668346463160968,
      -0.053253064966414985,
      -0.11577123036739606,
      -0.13643923547375744,
      -0.18455508375564977,
      -0.3451499094386058,
      0.726808682524964,
      -0.4601714416221018,
      0.031650793551263955,
      -0.14666689499766478,
      -0.3704884657995468,
      -0.3673402867060865,
      1.0528054824272455,
      -0.3521282346937675,
      -0.3723269682333841,
      -0.2699448476245002,
      -0.07852161962430995,
      -0.3559555071852512,
      -0.3701828039814842,
      -0.36071277408976316,
      -0.11713408027837086,
      -0.360613130982316,
      -0.3617104645857431,
      0.030235296012244745,
      -0.45892023222337114,
      -0.35872424276808706,
      -0.3630108981877709,
      -0.36997914888659006,
      -0.15144142787623668,
      -1.9956786262173574,
      -1.7011469235902934,
      0.35241408009067043,
      -0.35941919351034746,
      -0.1859522790044006,
      -1.85078088734462,
      -0.3552660725528074,
      -0.0036196867665898593,
      -0.37069235992625116,
      -0.35872424276808706,
      -0.08249449044745336,
      -1.889410289700751,
      -0.36572430537405604,
      -1.7011469235902934,
      -0.3590219426416679,
      -0.35369431971524123,
      -0.3654219771461119,
      -0.35793137265849595,
      -0.36001575195841146,
      -1.6073030467403342,
      -0.3704884657995468,
      -0.3719177390093205,
      -0.37069235992625116,
      -1.978810700930062,
      -0.36997914888659006,
      -0.4606729364606249,
      -1.6989700043360187,
      -0.36351210364663455,
      -0.3492069603480692,
      -1.6143937264016879,
      -0.4596705252091263,
      -0.11193288659256305,
      -1.6003262785189618,
      -0.11713408027837086,
      0.033021444682910656,
      -0.3597173703033192,
      -0.35487260074160887,
      -0.35753547975787864,
      -0.18085105719286582,
      -0.3679478332941902,
      -0.361810359809163,
      -0.3632113109656252,
      0.009748255948553577,
      -0.36865771351606724,
      -0.36804917374078305,
      -0.23232477597203996,
      -0.3567447749752284,
      -0.4514877436589645,
      -1.6003262785189618,
      -0.1804560644581313,
      -0.36562350591163223,
      -0.45992091119582734,
      -1.9136401693252518,
      0.05203950700147193,
      -1.9318141382538383,
      -0.358823453386886,
      -0.14146280243036088,
      -0.4597957001579402,
      -1.7144426909922261,
      -0.4473317838878068,
      -1.978810700930062,
      0.9184916606948927,
      -0.4584207560534191,
      -0.3628105778512381,
      -0.3691654821719494,
      0.04704110341590709,
      -0.3629107264696695,
      -0.3654219771461119,
      -0.36947042857317597,
      -0.3676439537609268,
      -0.3329207945357833,
      -1.6345120151091004,
      0.04987671987388202,
      -0.37202001017002,
      -1.7258421507363202,
      1.1226384951316877,
      -1.958607314841775,
      -0.36461679595250146,
      -0.35912122129838175,
      -0.45717457304082015,
      -0.3678465164893673,
      -0.36622865391744447,
      -0.18052187163787736,
      -0.1099144732836748,
      -0.36754270781527576,
      -0.36602684421032644,
      -0.3668346463160968,
      -0.35556141053216145,
      -0.34969247686806354,
      -0.3564486314370549,
      -0.36673358884457546,
      -0.3668346463160968,
      -0.3639134848969273,
      -1.6363880201078558,
      -0.05290953578037808,
      1.239264433777801,
      -1.8153085691824011,
      -0.3533022687006655,
      -1.705533773838407,
      -0.35115229162710637,
      -0.36602684421032644,
      0.04692417423003497,
      -0.36001575195841146,
      -0.26688301855793556,
      -0.35497093527885754,
      -0.3688607497431889,
      -0.3442854503812902,
      -0.11002636159600389,
      -0.3532043112215306,
      -0.364717362001788,
      -0.36111157529492444,
      -0.22672565166254613,
      -0.0787298144901874,
      -0.3628105778512381,
      -0.35753547975787864,
      -0.35723879673467956,
      -0.17204947169736978,
      -0.35418488170335816,
      -0.4585455712524111,
      -1.4723700991286615,
      -0.35941919351034746,
      -0.21831641549264927,
      -1.6073030467403342,
      -1.6840296545430822,
      -1.6675615400843946,
      -1.9507819773298183,
      2.778593498827797,
      -0.3626103498707881,
      -0.3630108981877709,
      -0.18342730397389695,
      -0.14224547794055778,
      2.7785007168002074,
      -0.43640027111846896,
      -0.3797598101541686,
      -0.3703865546218168,
      -0.38268506670170627,
      -0.09832376867362437,
      -0.2731098592581784,
      0.008940661377087074,
      -0.3788237182249648,
      -0.3823707022421579,
      -2.0222763947111524,
      -0.3708963498228635,
      -0.3734543409728706,
      -0.467882883751196,
      -0.2347786336950192,
      -0.4680104485874498,
      2.77856175412942,
      -0.3713046172859767,
      -0.07836553894629461,
      -0.15558495952617554,
      0.06595298031386965,
      -0.3644157336887699,
      -0.3714067441487408,
      -0.45892023222337114,
      -0.006519680930003503,
      0.7217694088477068,
      0.8734426754754602,
      -0.14272782643595863,
      -0.37212230542002855,
      -0.3693687559795,
      -0.36865771351606724,
      -0.3697755892475677,
      -0.11418662533951103,
      -0.36835333704158046,
      -0.4600461583436033,
      -0.22900079483605937,
      -0.3693687559795,
      -0.23180603836692845,
      -0.37304404856455264,
      -1.9829666607012197,
      -0.4428538576816369,
      -0.36957212497497616,
      -0.4614262661931443,
      -0.4584207560534191,
      -0.3713046172859767,
      -0.18402399902801453,
      -0.37079434289769625,
      -0.18342730397389695,
      -0.3714067441487408,
      -1.7721132953863266,
      -0.4522252946121775,
      -0.09914149529800836,
      -0.3652205418540483,
      -0.359220522655143,
      -1.7011469235902934,
      -0.3692671071828035,
      -0.3684547721656906,
      -0.37008096449645816,
      -1.958607314841775,
      -0.37181549192658736,
      -0.36947042857317597,
      -1.9507819773298183,
      -0.22271820832898526,
      -0.37355697466870535,
      -0.35872424276808706,
      -0.45867042233330635,
      -0.10485381062400788,
      -0.3630108981877709,
      0.8309669879707233,
      -0.36071277408976316,
      0.10263948369129999,
      -0.358823453386886,
      0.855858221196212,
      -0.07309189829456422,
      -0.18722029299103599,
      -0.1482525808667361,
      -0.22533707746217774,
      2.778679610003267,
      -0.33677036546713224,
      -0.44623830160999567,
      -0.36906388093580855,
      -0.36865771351606724,
      -0.26544017842052386,
      -1.51427857351842,
      0.822069959591593,
      -0.36501919994877163,
      -0.4565528199182998,
      -0.3698773571406879,
      -0.0263642265825925,
      -0.37120251443328983,
      -1.9706162223147903,
      -0.0040578370074493605,
      -0.36461679595250146,
      -1.9706162223147903,
      -0.002744710179896787,
      -0.22235572230351505,
      -0.14910881586407604,
      -1.6382721639824072,
      -0.05571477931124721,
      -0.3725317275402904,
      0.8150262294423729,
      -0.3231235680268629,
      0.8886343378390344,
      -0.35605408725193327,
      -1.5058454059815571,
      -1.413412695328245,
      -0.3679478332941902,
      -0.14819148577176255,
      -0.3609121289162627,
      -0.35723879673467956,
      -0.3659259745125316,
      -0.3581294545236872,
      -0.10829532376081731,
      -1.5086383061657274,
      -0.4590451910738673,
      -0.36653154442041347,
      -0.36957212497497616,
      -0.4556838582525727,
      -0.36131111330987653,
      0.014352500651008897,
      -0.13990167030148196,
      -0.3629107264696695,
      -0.08217951800630302,
      2.4827128363330755,
      -1.4213607900319276,
      -0.2277516600281464,
      -0.3684547721656906,
      -0.36754270781527576,
      -0.3679478332941902,
      -0.05065879322950264,
      -0.14454141961396394,
      -0.3412256791556432,
      0.8590121353459199,
      -0.3110465373625821,
      -0.21261037864788998,
      -0.08407278830288423,
      -0.3571399474155085,
      -0.3679478332941902,
      -0.36906388093580855,
      -0.35753547975787864,
      0.052270596656748713,
      -0.14972144748196284,
      -0.1830299622427005,
      -0.36201021921531473,
      -0.45879530931674156,
      -0.45395113359826567,
      -0.36141091670728304,
      -0.35664603802313705,
      -0.35991626862687964,
      -0.2652801583443201,
      -1.8068754016455384,
      -0.36351210364663455,
      -0.3589226866746256,
      -0.22753159694671968,
      -0.3624102141613001,
      -1.75448733218585,
      -0.3648179513437324,
      -0.09468993788391449,
      -0.35428306063039616,
      -0.13024040521758964,
      -1.6989700043360187,
      -0.22687207596666528,
      0.8685151298553617,
      -0.45407467064415724,
      -0.2171691947974082,
      -0.3652205418540483,
      -0.3658251282373999,
      -0.4464810598510304,
      -1.5331323796458904,
      -0.34524606674706976,
      -0.36774522331528636,
      0.03362477121926014,
      -1.570247719997592,
      -0.34084471905937025,
      -0.36001575195841146,
      -0.3298469548078198,
      0.02942436405801648,
      -0.3504704340521811,
      -0.35664603802313705,
      -1.6946486305533763,
      -0.049489107014003414,
      -0.3678465164893673,
      -0.35467599843770664,
      -0.358823453386886,
      -1.3467874862246563,
      -0.3655227298392684,
      0.006850960324271947,
      0.07250723552880421,
      -0.3654219771461119,
      0.11770206120931499,
      0.7419076059742734,
      -0.045034268941579254,
      -1.6439741428068773,
      0.8803390378124358,
      -0.3595185630295782,
      -0.3679478332941902,
      -0.26185391128794017,
      0.6779535200820106,
      -0.36051351073141397,
      -0.35418488170335816,
      -0.4067139329795427,
      -0.3430398172571508,
      -0.3813244611148602,
      -0.1814442207021974,
      -0.3752024210392389,
      -0.46762786643212256,
      -0.37923951000579426,
      -0.38101107963506636,
      -0.380176499542722,
      -0.37202001017002,
      -1.583359492661719,
      -0.09135416109288666,
      -0.3794475552705648,
      -0.3808022842070527,
      -0.45879530931674156,
      -0.3571399474155085,
      -0.1427881576831076,
      -1.9871627752948278,
      -1.623423042943488,
      -1.9746941347352298,
      -0.11958660012208334,
      -0.35605408725193327,
      -0.3664305574459082,
      -0.44393884099046743,
      -0.180192935409244,
      -1.709965388637482,
      -0.35931984672233486,
      -0.22767829327708025,
      -0.3564486314370549,
      -0.368556230986828,
      -0.4582959767157116,
      -0.36001575195841146,
      0.8915430326622231,
      -0.3574365628956122,
      -0.36967384519605323,
      -0.36906388093580855,
      -0.45506423411849745,
      -0.3698773571406879,
      -0.005770859182301572,
      -0.35027581407047764,
      -0.005858888873877561,
      -0.3602147870131798,
      -0.3738650213646113,
      -0.45879530931674156,
      -0.36572430537405604,
      -0.018000285870121653,
      0.032538179260006656,
      -0.36997914888659006,
      -0.3703865546218168,
      -0.08830984124613889,
      -0.0030507515046188267,
      0.8381877044736047,
      -1.9625735020593764,
      -1.3990271043132518,
      -0.3617104645857431,
      -0.36501919994877163,
      -0.3702846673528678,
      -0.4601714416221018,
      -0.16896251435997456,
      -0.45642857603763454,
      -0.3639134848969273,
      -0.36835333704158046,
      -0.368150537840182,
      0.024033897900904915,
      0.8936785559111416,
      -0.17894524495311184,
      -0.3715088950328772,
      -0.35066514128785814,
      -0.1763301867318636,
      -0.35193287055106537,
      2.7783556102308804,
      -0.36602684421032644,
      -0.13626089265478286,
      -0.4576726172260256,
      -0.07515236702446287,
      -0.2215593164287672,
      -0.2235167441663184,
      -0.10952309103982923,
      -0.3703865546218168,
      -0.0007389288868995428,
      1.0456515097769092,
      -1.9469215565165803,
      -0.11221396516162846,
      1.0270681426963957,
      -0.08134070657817674,
      -0.1790108235839504,
      0.0033743540197499165,
      -1.5543957967264024,
      -0.3571399474155085,
      -0.14861933203440328,
      -0.35723879673467956,
      1.1793593032081082,
      -0.05527063969670431,
      0.03157003214110036,
      -0.05031730920479589,
      -0.3709983807130083,
      -1.6903698325741012,
      -0.03021146258506115,
      -0.11548784080960604,
      -0.3692671071828035,
      -0.35941919351034746,
      -0.361011840656318,
      -0.37417328671428884,
      -0.36947042857317597,
      -0.3459197646934294,
      -1.709965388637482,
      0.057209512507790355,
      0.013932120711203876,
      -0.13265038281120747,
      -0.36562350591163223,
      -0.36754270781527576,
      -1.9625735020593764,
      -0.2196826878598487,
      -0.3708963498228635,
      -1.7825160557860937,
      -0.344093581819785,
      -0.3622101706377709,
      -0.3589226866746256,
      -0.1815101777957866,
      -1.6903698325741012,
      -0.35793137265849595,
      -1.665546248849069,
      -0.17809362264767695,
      -0.35300846252287754,
      -0.3630108981877709,
      -1.958607314841775,
      -0.3697755892475677,
      -0.3697755892475677,
      -0.22119779598676134,
      -0.45210228243690287,
      -0.3648179513437324,
      -0.36461679595250146,
      -0.35575841415627135,
      -0.36754270781527576,
      2.2190249265642077,
      -0.3269790928711038,
      -0.36673358884457546,
      -1.4461169733561257,
      -0.14062149557439904,
      -0.3697755892475677,
      -0.3701828039814842,
      -0.3692671071828035,
      -0.35723879673467956,
      -0.3604139133265736,
      -0.3609121289162627,
      -0.081759909778585,
      -1.8961962790440432,
      -0.36602684421032644,
      -0.36653154442041347,
      0.6465115511957135,
      -0.3459197646934294,
      -0.3653212478213177,
      -0.35300846252287754,
      -0.364717362001788,
      -0.17757037622064314,
      -0.44708854978349116,
      -0.36632959394855624,
      -0.368556230986828,
      -0.45038376048091466,
      2.5590473560135805,
      -0.36602684421032644,
      -0.07376047895413781,
      0.7728569088565913,
      -0.2925149880325264,
      -0.3597173703033192,
      -0.35398859040876085,
      -0.2584544832237906,
      -1.9706162223147903,
      -0.36031433875731855,
      -0.36401388819916697,
      -0.35477428846458386,
      -0.3589226866746256,
      -0.34284849809903334,
      -1.6108339156354676,
      -0.044697177238308315,
      -0.36501919994877163,
      -0.22468087817052243,
      -0.3508599358557811,
      -0.34746358140697464,
      -0.22054781659593825,
      -0.3533022687006655,
      -0.36632959394855624,
      -0.44297427761361685,
      -0.35931984672233486,
      -0.36572430537405604,
      -1.9393021596463884,
      -0.20936303806829662,
      -0.3504704340521811,
      -0.10924374808178186,
      -0.4478186611606642,
      0.7363805645720257,
      0.1347188405003946,
      -1.8386319977650252,
      -0.3584267468218246,
      -0.1433919315630638,
      0.00462226570078263,
      -0.3609121289162627,
      -0.05305672930217456,
      -0.36947042857317597,
      -0.36131111330987653,
      -0.3561526897002858,
      -0.3472703039307524
    ],
    "Timeout Prediction": [
      -0.3825802532628234,
      -0.0341400631929283,
      0.6052296038227699,
      -0.06053066915646986,
      -0.3798639450262425,
      -2.036212172654445,
      -0.19010375339756092,
      -0.3755116374865511,
      -0.19545169161194412,
      -0.4658469258149374,
      -0.3823707022421579,
      0.7269227197510191,
      -0.3065368727804688,
      -0.4636941276489664,
      -0.1823024452369759,
      -0.3702846673528678,
      -0.4522252946121775,
      -0.36572430537405604,
      -0.2073282108584327,
      -0.37120251443328983,
      -1.705533773838407,
      -0.37324914631660683,
      -0.3723269682333841,
      -1.9507819773298183,
      -0.3014645074379989,
      0.8539232080473061,
      -0.3682519256034306,
      -0.37059040089728107,
      -0.36865771351606724,
      -0.2336615247487127,
      0.8010399304115692,
      -0.11492161585077593,
      -0.3711004355793933,
      -0.36401388819916697,
      -0.4554359025039569,
      -0.3595185630295782,
      -0.2763801644845366,
      -0.36511985923347373,
      -0.36511985923347373,
      -0.058091225634400535,
      -0.3578323655950549,
      -0.3630108981877709,
      -0.2298847052128984,
      -0.06859298644342653,
      -1.6777807052660807,
      -0.05310580489767322,
      -1.9065783148377649,
      -1.5575202309355514,
      1.1168500578532738,
      -0.3590219426416679,
      -0.3574365628956122,
      -0.36957212497497616,
      -0.3724293358194569,
      -0.46054750845053916,
      -1.9706162223147903,
      -0.45407467064415724,
      0.027757204690553483,
      -0.36835333704158046,
      -0.4537041648785575,
      -1.739928612014925,
      1.0008547185077705,
      -0.21538270736712464,
      -1.8927900303521317,
      -1.9030899869919435,
      -0.37079434289769625,
      -0.34055921812968226,
      -0.18375870000821692,
      -0.3670368318327389,
      -0.35546294222159264,
      -0.3678465164893673,
      -0.36381310480127577,
      -0.3669357273085008,
      -0.37069235992625116,
      -0.3623101808815988,
      -0.45580788923496734,
      -0.3678465164893673,
      -0.3631110930162008,
      -0.225191169689294,
      -0.45717457304082015,
      -0.36201021921531473,
      -0.3703865546218168,
      -0.3654219771461119,
      -0.4574235237394704,
      -0.2714838952402333,
      -0.1475810070629986,
      -0.14782509557969686,
      2.640353117288369,
      -1.578396073130169,
      -0.3639134848969273,
      -0.35773338109732644,
      0.003072595967674963,
      -0.3564486314370549,
      -0.3664305574459082,
      -1.9625735020593764,
      -0.36906388093580855,
      -0.1824346304402192,
      -0.3480439304669258,
      -0.3629107264696695,
      -1.7144426909922261,
      -0.27002571430044436,
      0.025919998502017653,
      -0.3698773571406879,
      -0.37202001017002,
      -0.37283904762522424,
      -0.08666307406737678,
      -0.34418950550474775,
      -0.4631891340084585,
      -1.978810700930062,
      -0.36663255488299307,
      -0.22105327203138328,
      -0.1189007816109828,
      -1.9829666607012197,
      -0.1189578918065945,
      0.02444461713134935,
      -0.4441803169388089,
      -0.17179138553205459,
      -0.3512497873019806,
      2.7785639958585238,
      -0.025166044951459944,
      -1.9469215565165803,
      -0.2218487496163564,
      -0.027056991894431778,
      -0.21745571598998992,
      -0.3711004355793933,
      0.06762871672824573,
      -0.10695988804288209,
      -0.37294153599901037,
      -0.46117501106209624,
      0.8865753197541674,
      -0.341606973720876,
      0.8523701862073231,
      -0.2182446253475311,
      -0.36632959394855624,
      0.0007376737740332033,
      -0.3534002482796267,
      -0.3689623034632596,
      -0.05173378011970452,
      0.7041762647612262,
      -0.3682519256034306,
      -0.36967384519605323,
      -0.20746823809869244,
      -0.0835986963961244,
      -0.4514877436589645,
      8.685021164894766e-05,
      -1.6968039425795112,
      -0.3570411205902093,
      0.8934676956316266,
      -1.712198270069774,
      -0.3633115520467173,
      -1.6289321377282637,
      -0.05320397272853948,
      -1.5900668766687054,
      -1.8153085691824011,
      -1.9546770212133426,
      -0.3604139133265736,
      -0.34794715175189506,
      -0.4576726172260256,
      -0.36051351073141397,
      -1.6882461389442456,
      -0.35242144578754486,
      -0.34543844525825673,
      0.037824750588341866,
      -0.3648179513437324,
      -0.1760695448744361,
      -0.3534982499683881,
      -0.17613469067548876,
      -0.35477428846458386,
      -0.3467874862246563,
      -0.33790355458207655,
      -0.3456309090247141,
      -0.3526170298853802,
      -0.45605605751709355,
      -0.36612773734166726,
      -0.2695407399542312,
      -0.27270279719641255,
      -1.7375489102695705,
      -0.3684547721656906,
      -1.679853713888946,
      -0.3562513145404742,
      -1.7619538968712045,
      -0.3601152580836957,
      -0.17704775945251836,
      -0.3644157336887699,
      -0.07237303755504594,
      -0.17947015147648024,
      -0.3343252190061066,
      -0.361011840656318,
      -0.4580465255417637,
      -0.02040610415106964,
      -0.3460160926259311,
      -0.17717835469689538,
      -0.31381076575597633,
      -0.3532043112215306,
      -1.6497519816658373,
      -0.3664305574459082,
      -0.0020896326532565297,
      -1.889410289700751,
      0.002122846225161637,
      -0.3417023496918102,
      -0.43415218132648237,
      1.0975800465552237,
      0.5540649554946406,
      -0.3702846673528678,
      -0.1817741063860445,
      -0.37685412536206037,
      -0.46610089920340536,
      -0.1583277499263656,
      -0.3822659646359821,
      -0.1578902365593899,
      -0.3816380688901218,
      -0.4568014143623533,
      0.7219424493129453,
      -0.12586622117202773,
      -0.05467915920772498,
      -0.22745826735905644,
      -0.13966199342900631,
      -0.368556230986828,
      -0.36602684421032644,
      -0.3688607497431889,
      -0.3714067441487408,
      0.04809205181237225,
      -0.46079840070587225,
      -0.11041819785037627,
      -0.11429961987167009,
      -0.3703865546218168,
      -0.36411431471872724,
      -0.3697755892475677,
      -0.3709983807130083,
      -0.3512497873019806,
      -0.4590451910738673,
      -0.4554359025039569,
      -0.14990540561329926,
      -1.7033348097384688,
      -0.21602499658732888,
      -0.14302956651750767,
      -1.6038006529042637,
      0.6718390522094765,
      -0.3648179513437324,
      -0.2705112308204387,
      -0.3698773571406879,
      -0.36754270781527576,
      -0.4600461583436033,
      0.8917158218547125,
      -0.3503731131594706,
      -0.36957212497497616,
      -0.3704884657995468,
      -0.08323031571686386,
      -1.889410289700751,
      -1.712198270069774,
      -0.42227847549097913,
      -0.22907438536100086,
      -1.5199930570428493,
      0.41655730119147927,
      -1.9625735020593764,
      -1.6420651529995463,
      -0.14092177525303065,
      -0.36381310480127577,
      -0.3697755892475677,
      0.04594853810533426,
      -0.37222462477069695,
      -0.3540867249661558,
      -1.712198270069774,
      -0.14648430324307132,
      -0.2714027566165684,
      -0.45692576496646786,
      -0.0787818788050497,
      -0.37212230542002855,
      0.5832441287263166,
      -0.3682519256034306,
      -1.9625735020593764,
      -0.2745784499257413,
      -0.3715088950328772,
      -0.36201021921531473,
      -0.2206199885083442,
      -0.3644157336887699,
      -0.13489602535887207,
      -0.46281077375635543,
      -0.3625102704874893,
      -0.36501919994877163,
      1.1996893700737286,
      -1.5654310959658013,
      0.08866755254240449,
      -0.36967384519605323,
      -1.9546770212133426,
      -0.36804917374078305,
      -0.3478503945983471,
      -0.17308335281507956,
      -0.29886393390747357,
      -1.6073030467403342,
      0.9159113997169722,
      -0.368150537840182,
      -0.4584207560534191,
      -1.5800442515102422,
      -0.22468087817052243,
      -0.3655227298392684,
      -0.36361241418684337,
      -0.36967384519605323,
      -0.3639134848969273,
      0.05392315054857503,
      -0.3682519256034306,
      -0.3630108981877709,
      -1.6968039425795112,
      -0.3697755892475677,
      -0.35941919351034746,
      -0.36001575195841146,
      0.02530586526477026,
      -0.15267416921457636,
      -0.35822852934604077,
      -0.36947042857317597,
      -0.3703865546218168,
      -0.0010435595295137823,
      -0.07706704344478832,
      -0.2475673907385259,
      -0.11142740314240003,
      -0.27769521312567236,
      -0.3724293358194569,
      -0.37161106994968846,
      -0.36602684421032644,
      -0.3644157336887699,
      -0.18435585086803463,
      -0.3624102141613001,
      -1.4710832997223453,
      -0.3627104523218255,
      -0.3654219771461119,
      -0.3689623034632596,
      -0.36361241418684337,
      -1.6161846340195687,
      -0.21817284706757215,
      -0.4600461583436033,
      -1.826813731587726,
      -0.09366495819490933,
      -0.36744148546732813,
      -0.3597173703033192,
      -0.21932272556663196,
      -0.3534002482796267,
      -0.3624102141613001,
      -0.36804917374078305,
      -0.11469533241103202,
      -1.7931741239681502,
      2.7786329776070966,
      -0.3537923877933148,
      -0.08170748724464444,
      -0.21896306137886817,
      -0.04301563225723985,
      -0.36804917374078305,
      -0.3670368318327389,
      -0.3446694419906591,
      -0.35694231624854705,
      -0.3627104523218255,
      -1.9625735020593764,
      -0.3590219426416679,
      -0.25916379294268854,
      -0.3581294545236872,
      -0.3672391115205612,
      -1.442492798094342,
      -0.1773743212258593,
      -0.1815101777957866,
      -0.30137757029790213,
      -0.21289390696342989,
      -0.3604139133265736,
      0.003029470553617962,
      -0.36511985923347373,
      -0.36501919994877163,
      -0.36612773734166726,
      -0.10607187345739313,
      -0.35694231624854705,
      -0.10969078310005152,
      -0.34707711243205813,
      0.886586597786834,
      -0.35931984672233486,
      -1.9507819773298183,
      -0.36653154442041347,
      -0.3561526897002858,
      -0.11142740314240003,
      -0.3573376685579645,
      -0.10924374808178186,
      -0.3559555071852512,
      2.7785440368310037,
      -0.45075144314594406,
      -0.2594794139463353,
      -0.11153968196461368,
      -0.3633115520467173,
      -1.6736641390712486,
      -1.744727494896694,
      -0.3628105778512381,
      -0.453457336521869,
      -0.3329207945357833,
      0.03666881030009679,
      0.9121050949016007,
      -0.3664305574459082,
      -0.36622865391744447,
      -0.36461679595250146,
      -0.3678465164893673,
      -0.36121133284260165,
      -0.048613905119707174,
      -0.33639329187547967,
      -0.14490504884137814,
      -0.3589226866746256,
      -0.3688607497431889,
      -0.3364875295848444,
      -0.3809066693732573,
      -0.38038499425719363,
      -0.46445272082333217,
      0.03534967652298813,
      -0.3788237182249648,
      -0.3811155150045496,
      -0.4698003017969178,
      -0.3788237182249648,
      -0.3813244611148602,
      -0.37871983244958524,
      -0.38048927916150144,
      0.9448723752535766,
      -0.35585694949008106,
      -0.20711825461460295,
      -0.3725317275402904,
      -1.9746941347352298,
      -0.35027581407047764,
      -0.35585694949008106,
      -0.3545777306509081,
      -0.1886931599186639,
      -0.18541948398968144,
      -0.11441264381034398,
      -0.3698773571406879,
      -0.22033137279285203,
      -0.3693687559795,
      -0.17881411739115455,
      -0.45419824284072385,
      0.02321129232888862,
      -0.3688607497431889,
      -0.36774522331528636,
      -0.36947042857317597,
      -0.3708963498228635,
      -1.7077439286435239,
      -0.05561604235915584,
      -0.46243274284732483,
      -0.11429961987167009,
      -1.7189666327522726,
      -0.3684547721656906,
      -0.3668346463160968,
      -0.053253064966414985,
      -0.11577123036739606,
      -0.13643923547375744,
      -0.18455508375564977,
      -0.3451499094386058,
      0.726808682524964,
      -0.4601714416221018,
      0.031650793551263955,
      -0.14666689499766478,
      -0.3704884657995468,
      -0.3673402867060865,
      1.0528054824272455,
      -0.3521282346937675,
      -0.3723269682333841,
      -0.2699448476245002,
      -0.07852161962430995,
      -0.3559555071852512,
      -0.3701828039814842,
      -0.36071277408976316,
      -0.11713408027837086,
      -0.360613130982316,
      -0.3617104645857431,
      0.030235296012244745,
      -0.45892023222337114,
      -0.35872424276808706,
      -0.3630108981877709,
      -0.36997914888659006,
      -0.15144142787623668,
      -1.9956786262173574,
      -1.7011469235902934,
      0.35241408009067043,
      -0.35941919351034746,
      -0.1859522790044006,
      -1.85078088734462,
      -0.3552660725528074,
      -0.0036196867665898593,
      -0.37069235992625116,
      -0.35872424276808706,
      -0.08249449044745336,
      -1.889410289700751,
      -0.36572430537405604,
      -1.7011469235902934,
      -0.3590219426416679,
      -0.35369431971524123,
      -0.3654219771461119,
      -0.35793137265849595,
      -0.36001575195841146,
      -1.6073030467403342,
      -0.3704884657995468,
      -0.3719177390093205,
      -0.37069235992625116,
      -1.978810700930062,
      -0.36997914888659006,
      -0.4606729364606249,
      -1.6989700043360187,
      -0.36351210364663455,
      -0.3492069603480692,
      -1.6143937264016879,
      -0.4596705252091263,
      -0.11193288659256305,
      -1.6003262785189618,
      -0.11713408027837086,
      0.033021444682910656,
      -0.3597173703033192,
      -0.35487260074160887,
      -0.35753547975787864,
      -0.18085105719286582,
      -0.3679478332941902,
      -0.361810359809163,
      -0.3632113109656252,
      0.009748255948553577,
      -0.36865771351606724,
      -0.36804917374078305,
      -0.23232477597203996,
      -0.3567447749752284,
      -0.4514877436589645,
      -1.6003262785189618,
      -0.1804560644581313,
      -0.36562350591163223,
      -0.45992091119582734,
      -1.9136401693252518,
      0.05203950700147193,
      -1.9318141382538383,
      -0.358823453386886,
      -0.14146280243036088,
      -0.4597957001579402,
      -1.7144426909922261,
      -0.4473317838878068,
      -1.978810700930062,
      0.9184916606948927,
      -0.4584207560534191,
      -0.3628105778512381,
      -0.3691654821719494,
      0.04704110341590709,
      -0.3629107264696695,
      -0.3654219771461119,
      -0.36947042857317597,
      -0.3676439537609268,
      -0.3329207945357833,
      -1.6345120151091004,
      0.04987671987388202,
      -0.37202001017002,
      -1.7258421507363202,
      1.1226384951316877,
      -1.958607314841775,
      -0.36461679595250146,
      -0.35912122129838175,
      -0.45717457304082015,
      -0.3678465164893673,
      -0.36622865391744447,
      -0.18052187163787736,
      -0.1099144732836748,
      -0.36754270781527576,
      -0.36602684421032644,
      -0.3668346463160968,
      -0.35556141053216145,
      -0.34969247686806354,
      -0.3564486314370549,
      -0.36673358884457546,
      -0.3668346463160968,
      -0.3639134848969273,
      -1.6363880201078558,
      -0.05290953578037808,
      1.239264433777801,
      -1.8153085691824011,
      -0.3533022687006655,
      -1.705533773838407,
      -0.35115229162710637,
      -0.36602684421032644,
      0.04692417423003497,
      -0.36001575195841146,
      -0.26688301855793556,
      -0.35497093527885754,
      -0.3688607497431889,
      -0.3442854503812902,
      -0.11002636159600389,
      -0.3532043112215306,
      -0.364717362001788,
      -0.36111157529492444,
      -0.22672565166254613,
      -0.0787298144901874,
      -0.3628105778512381,
      -0.35753547975787864,
      -0.35723879673467956,
      -0.17204947169736978,
      -0.35418488170335816,
      -0.4585455712524111,
      -1.4723700991286615,
      -0.35941919351034746,
      -0.21831641549264927,
      -1.6073030467403342,
      -1.6840296545430822,
      -1.6675615400843946,
      -1.9507819773298183,
      2.778593498827797,
      -0.3626103498707881,
      -0.3630108981877709,
      -0.18342730397389695,
      -0.14224547794055778,
      2.7785007168002074,
      -0.43640027111846896,
      -0.3797598101541686,
      -0.3703865546218168,
      -0.38268506670170627,
      -0.09832376867362437,
      -0.2731098592581784,
      0.008940661377087074,
      -0.3788237182249648,
      -0.3823707022421579,
      -2.0222763947111524,
      -0.3708963498228635,
      -0.3734543409728706,
      -0.467882883751196,
      -0.2347786336950192,
      -0.4680104485874498,
      2.77856175412942,
      -0.3713046172859767,
      -0.07836553894629461,
      -0.15558495952617554,
      0.06595298031386965,
      -0.3644157336887699,
      -0.3714067441487408,
      -0.45892023222337114,
      -0.006519680930003503,
      0.7217694088477068,
      0.8734426754754602,
      -0.14272782643595863,
      -0.37212230542002855,
      -0.3693687559795,
      -0.36865771351606724,
      -0.3697755892475677,
      -0.11418662533951103,
      -0.36835333704158046,
      -0.4600461583436033,
      -0.22900079483605937,
      -0.3693687559795,
      -0.23180603836692845,
      -0.37304404856455264,
      -1.9829666607012197,
      -0.4428538576816369,
      -0.36957212497497616,
      -0.4614262661931443,
      -0.4584207560534191,
      -0.3713046172859767,
      -0.18402399902801453,
      -0.37079434289769625,
      -0.18342730397389695,
      -0.3714067441487408,
      -1.7721132953863266,
      -0.4522252946121775,
      -0.09914149529800836,
      -0.3652205418540483,
      -0.359220522655143,
      -1.7011469235902934,
      -0.3692671071828035,
      -0.3684547721656906,
      -0.37008096449645816,
      -1.958607314841775,
      -0.37181549192658736,
      -0.36947042857317597,
      -1.9507819773298183,
      -0.22271820832898526,
      -0.37355697466870535,
      -0.35872424276808706,
      -0.45867042233330635,
      -0.10485381062400788,
      -0.3630108981877709,
      0.8309669879707233,
      -0.36071277408976316,
      0.10263948369129999,
      -0.358823453386886,
      0.855858221196212,
      -0.07309189829456422,
      -0.18722029299103599,
      -0.1482525808667361,
      -0.22533707746217774,
      2.778679610003267,
      -0.33677036546713224,
      -0.44623830160999567,
      -0.36906388093580855,
      -0.36865771351606724,
      -0.26544017842052386,
      -1.51427857351842,
      0.822069959591593,
      -0.36501919994877163,
      -0.4565528199182998,
      -0.3698773571406879,
      -0.0263642265825925,
      -0.37120251443328983,
      -1.9706162223147903,
      -0.0040578370074493605,
      -0.36461679595250146,
      -1.9706162223147903,
      -0.002744710179896787,
      -0.22235572230351505,
      -0.14910881586407604,
      -1.6382721639824072,
      -0.05571477931124721,
      -0.3725317275402904,
      0.8150262294423729,
      -0.3231235680268629,
      0.8886343378390344,
      -0.35605408725193327,
      -1.5058454059815571,
      -1.413412695328245,
      -0.3679478332941902,
      -0.14819148577176255,
      -0.3609121289162627,
      -0.35723879673467956,
      -0.3659259745125316,
      -0.3581294545236872,
      -0.10829532376081731,
      -1.5086383061657274,
      -0.4590451910738673,
      -0.36653154442041347,
      -0.36957212497497616,
      -0.4556838582525727,
      -0.36131111330987653,
      0.014352500651008897,
      -0.13990167030148196,
      -0.3629107264696695,
      -0.08217951800630302,
      2.4827128363330755,
      -1.4213607900319276,
      -0.2277516600281464,
      -0.3684547721656906,
      -0.36754270781527576,
      -0.3679478332941902,
      -0.05065879322950264,
      -0.14454141961396394,
      -0.3412256791556432,
      0.8590121353459199,
      -0.3110465373625821,
      -0.21261037864788998,
      -0.08407278830288423,
      -0.3571399474155085,
      -0.3679478332941902,
      -0.36906388093580855,
      -0.35753547975787864,
      0.052270596656748713,
      -0.14972144748196284,
      -0.1830299622427005,
      -0.36201021921531473,
      -0.45879530931674156,
      -0.45395113359826567,
      -0.36141091670728304,
      -0.35664603802313705,
      -0.35991626862687964,
      -0.2652801583443201,
      -1.8068754016455384,
      -0.36351210364663455,
      -0.3589226866746256,
      -0.22753159694671968,
      -0.3624102141613001,
      -1.75448733218585,
      -0.3648179513437324,
      -0.09468993788391449,
      -0.35428306063039616,
      -0.13024040521758964,
      -1.6989700043360187,
      -0.22687207596666528,
      0.8685151298553617,
      -0.45407467064415724,
      -0.2171691947974082,
      -0.3652205418540483,
      -0.3658251282373999,
      -0.4464810598510304,
      -1.5331323796458904,
      -0.34524606674706976,
      -0.36774522331528636,
      0.03362477121926014,
      -1.570247719997592,
      -0.34084471905937025,
      -0.36001575195841146,
      -0.3298469548078198,
      0.02942436405801648,
      -0.3504704340521811,
      -0.35664603802313705,
      -1.6946486305533763,
      -0.049489107014003414,
      -0.3678465164893673,
      -0.35467599843770664,
      -0.358823453386886,
      -1.3467874862246563,
      -0.3655227298392684,
      0.006850960324271947,
      0.07250723552880421,
      -0.3654219771461119,
      0.11770206120931499,
      0.7419076059742734,
      -0.045034268941579254,
      -1.6439741428068773,
      0.8803390378124358,
      -0.3595185630295782,
      -0.3679478332941902,
      -0.26185391128794017,
      0.6779535200820106,
      -0.36051351073141397,
      -0.35418488170335816,
      -0.4067139329795427,
      -0.3430398172571508,
      -0.3813244611148602,
      -0.1814442207021974,
      -0.3752024210392389,
      -0.46762786643212256,
      -0.37923951000579426,
      -0.38101107963506636,
      -0.380176499542722,
      -0.37202001017002,
      -1.583359492661719,
      -0.09135416109288666,
      -0.3794475552705648,
      -0.3808022842070527,
      -0.45879530931674156,
      -0.3571399474155085,
      -0.1427881576831076,
      -1.9871627752948278,
      -1.623423042943488,
      -1.9746941347352298,
      -0.11958660012208334,
      -0.35605408725193327,
      -0.3664305574459082,
      -0.44393884099046743,
      -0.180192935409244,
      -1.709965388637482,
      -0.35931984672233486,
      -0.22767829327708025,
      -0.3564486314370549,
      -0.368556230986828,
      -0.4582959767157116,
      -0.36001575195841146,
      0.8915430326622231,
      -0.3574365628956122,
      -0.36967384519605323,
      -0.36906388093580855,
      -0.45506423411849745,
      -0.3698773571406879,
      -0.005770859182301572,
      -0.35027581407047764,
      -0.005858888873877561,
      -0.3602147870131798,
      -0.3738650213646113,
      -0.45879530931674156,
      -0.36572430537405604,
      -0.018000285870121653,
      0.032538179260006656,
      -0.36997914888659006,
      -0.3703865546218168,
      -0.08830984124613889,
      -0.0030507515046188267,
      0.8381877044736047,
      -1.9625735020593764,
      -1.3990271043132518,
      -0.3617104645857431,
      -0.36501919994877163,
      -0.3702846673528678,
      -0.4601714416221018,
      -0.16896251435997456,
      -0.45642857603763454,
      -0.3639134848969273,
      -0.36835333704158046,
      -0.368150537840182,
      0.024033897900904915,
      0.8936785559111416,
      -0.17894524495311184,
      -0.3715088950328772,
      -0.35066514128785814,
      -0.1763301867318636,
      -0.35193287055106537,
      2.7783556102308804,
      -0.36602684421032644,
      -0.13626089265478286,
      -0.4576726172260256,
      -0.07515236702446287,
      -0.2215593164287672,
      -0.2235167441663184,
      -0.10952309103982923,
      -0.3703865546218168,
      -0.0007389288868995428,
      1.0456515097769092,
      -1.9469215565165803,
      -0.11221396516162846,
      1.0270681426963957,
      -0.08134070657817674,
      -0.1790108235839504,
      0.0033743540197499165,
      -1.5543957967264024,
      -0.3571399474155085,
      -0.14861933203440328,
      -0.35723879673467956,
      1.1793593032081082,
      -0.05527063969670431,
      0.03157003214110036,
      -0.05031730920479589,
      -0.3709983807130083,
      -1.6903698325741012,
      -0.03021146258506115,
      -0.11548784080960604,
      -0.3692671071828035,
      -0.35941919351034746,
      -0.361011840656318,
      -0.37417328671428884,
      -0.36947042857317597,
      -0.3459197646934294,
      -1.709965388637482,
      0.057209512507790355,
      0.013932120711203876,
      -0.13265038281120747,
      -0.36562350591163223,
      -0.36754270781527576,
      -1.9625735020593764,
      -0.2196826878598487,
      -0.3708963498228635,
      -1.7825160557860937,
      -0.344093581819785,
      -0.3622101706377709,
      -0.3589226866746256,
      -0.1815101777957866,
      -1.6903698325741012,
      -0.35793137265849595,
      -1.665546248849069,
      -0.17809362264767695,
      -0.35300846252287754,
      -0.3630108981877709,
      -1.958607314841775,
      -0.3697755892475677,
      -0.3697755892475677,
      -0.22119779598676134,
      -0.45210228243690287,
      -0.3648179513437324,
      -0.36461679595250146,
      -0.35575841415627135,
      -0.36754270781527576,
      2.2190249265642077,
      -0.3269790928711038,
      -0.36673358884457546,
      -1.4461169733561257,
      -0.14062149557439904,
      -0.3697755892475677,
      -0.3701828039814842,
      -0.3692671071828035,
      -0.35723879673467956,
      -0.3604139133265736,
      -0.3609121289162627,
      -0.081759909778585,
      -1.8961962790440432,
      -0.36602684421032644,
      -0.36653154442041347,
      0.6465115511957135,
      -0.3459197646934294,
      -0.3653212478213177,
      -0.35300846252287754,
      -0.364717362001788,
      -0.17757037622064314,
      -0.44708854978349116,
      -0.36632959394855624,
      -0.368556230986828,
      -0.45038376048091466,
      2.5590473560135805,
      -0.36602684421032644,
      -0.07376047895413781,
      0.7728569088565913,
      -0.2925149880325264,
      -0.3597173703033192,
      -0.35398859040876085,
      -0.2584544832237906,
      -1.9706162223147903,
      -0.36031433875731855,
      -0.36401388819916697,
      -0.35477428846458386,
      -0.3589226866746256,
      -0.34284849809903334,
      -1.6108339156354676,
      -0.044697177238308315,
      -0.36501919994877163,
      -0.22468087817052243,
      -0.3508599358557811,
      -0.34746358140697464,
      -0.22054781659593825,
      -0.3533022687006655,
      -0.36632959394855624,
      -0.44297427761361685,
      -0.35931984672233486,
      -0.36572430537405604,
      -1.9393021596463884,
      -0.20936303806829662,
      -0.3504704340521811,
      -0.10924374808178186,
      -0.4478186611606642,
      0.7363805645720257,
      0.1347188405003946,
      -1.8386319977650252,
      -0.3584267468218246,
      -0.1433919315630638,
      0.00462226570078263,
      -0.3609121289162627,
      -0.05305672930217456,
      -0.36947042857317597,
      -0.36131111330987653,
      -0.3561526897002858,
      -0.3472703039307524
    ]
  }
}