{
  "results": {
    "ABCROWN": [
      2.0,
      2.0,
      2.0,
      1.0,
      2.0,
      2.0,
      2.0,
      0.0,
      0.0,
      2.0,
      0.0,
      0.0,
      0.0,
      2.0,
      2.0,
      2.0,
      2.0,
      1.0,
      2.0,
      0.0,
      0.0,
      2.0,
      1.0,
      2.0,
      2.0,
      2.0,
      2.0,
      2.0,
      2.0,
      2.0,
      2.0,
      2.0,
      0.0,
      2.0,
      2.0,
      2.0,
      2.0,
      1.0,
      2.0,
      0.0,
      2.0,
      0.0,
      2.0,
      2.0,
      2.0,
      0.0,
      0.0,
      0.0,
      2.0,
      0.0,
      2.0,
      1.0,
      0.0,
      2.0,
      0.0,
      2.0,
      2.0,
      2.0,
      2.0,
      2.0,
      2.0,
      0.0,
      2.0,
      2.0,
      0.0,
      0.0,
      2.0,
      0.0,
      0.0,
      2.0,
      0.0,
      2.0,
      2.0,
      2.0,
      0.0,
      2.0,
      0.0,
      2.0,
      1.0,
      2.0,
      2.0,
      2.0,
      2.0,
      2.0,
      2.0,
      0.0,
      0.0,
      2.0,
      2.0,
      0.0,
      2.0,
      0.0,
      2.0,
      2.0,
      0.0,
      0.0,
      2.0,
      0.0,
      0.0,
      1.0,
      2.0,
      2.0,
      0.0,
      2.0,
      2.0,
      0.0,
      2.0,
      2.0,
      0.0,
      2.0,
      2.0,
      2.0,
      2.0,
      2.0,
      0.0,
      2.0,
      2.0,
      2.0,
      0.0,
      2.0,
      0.0,
      2.0,
      1.0,
      1.0,
      0.0,
      2.0,
      0.0,
      2.0,
      2.0,
      2.0,
      0.0,
      2.0,
      2.0,
      0.0,
      2.0,
      2.0,
      2.0,
      2.0,
      2.0,
      2.0,
      2.0,
      2.0,
      0.0,
      0.0,
      2.0,
      2.0,
      0.0,
      2.0,
      2.0,
      0.0,
      0.0,
      2.0,
      2.0,
      2.0,
      0.0,
      0.0,
      2.0,
      2.0,
      2.0,
      0.0,
      0.0,
      0.0,
      2.0,
      0.0,
      2.0,
      2.0,
      0.0,
      2.0,
      2.0,
      2.0,
      0.0,
      0.0,
      2.0,
      0.0,
      2.0,
      0.0,
      0.0,
      2.0,
      0.0,
      2.0,
      2.0,
      0.0,
      0.0,
      2.0,
      2.0,
      2.0,
      2.0,
      0.0,
      2.0,
      0.0,
      1.0,
      0.0,
      0.0,
      0.0,
      2.0,
      2.0,
      2.0,
      2.0,
      2.0,
      2.0,
      2.0,
      0.0,
      2.0,
      2.0,
      2.0,
      2.0,
      2.0,
      0.0,
      2.0,
      0.0,
      2.0,
      0.0,
      0.0,
      2.0,
      0.0,
      0.0,
      0.0,
      0.0,
      0.0,
      0.0,
      0.0,
      1.0,
      2.0,
      2.0,
      0.0,
      2.0,
      2.0,
      2.0,
      2.0,
      2.0,
      1.0,
      2.0,
      0.0,
      0.0,
      2.0,
      2.0,
      1.0,
      2.0,
      0.0,
      2.0,
      2.0,
      2.0,
      2.0,
      0.0,
      2.0,
      2.0,
      2.0,
      0.0,
      0.0,
      0.0,
      2.0,
      1.0,
      2.0,
      0.0,
      0.0,
      2.0,
      2.0,
      2.0,
      0.0,
      2.0,
      2.0,
      2.0,
      2.0,
      0.0,
      2.0,
      2.0,
      2.0,
      0.0,
      1.0,
      0.0,
      2.0,
      2.0,
      2.0,
      2.0,
      1.0,
      2.0,
      2.0,
      2.0,
      2.0,
      2.0,
      2.0,
      0.0,
      2.0,
      0.0,
      2.0,
      0.0,
      2.0,
      2.0,
      0.0,
      0.0,
      1.0,
      2.0,
      2.0,
      0.0,
      2.0,
      2.0,
      2.0,
      2.0,
      2.0,
      2.0,
      0.0,
      0.0,
      0.0,
      1.0,
      2.0,
      2.0,
      2.0,
      2.0,
      2.0,
      0.0,
      2.0,
      0.0,
      0.0,
      0.0,
      0.0,
      2.0,
      0.0,
      2.0,
      0.0,
      2.0,
      2.0,
      0.0,
      2.0,
      2.0,
      2.0,
      2.0,
      0.0,
      0.0,
      0.0,
      0.0,
      2.0,
      2.0,
      2.0,
      2.0,
      2.0,
      0.0,
      2.0,
      1.0,
      0.0,
      2.0,
      2.0,
      2.0,
      2.0,
      2.0,
      2.0,
      2.0,
      0.0,
      0.0,
      2.0,
      2.0,
      0.0,
      2.0,
      2.0,
      2.0,
      0.0,
      2.0,
      2.0,
      2.0,
      2.0,
      2.0,
      0.0,
      2.0,
      0.0,
      0.0,
      2.0,
      2.0,
      2.0,
      2.0,
      2.0,
      2.0,
      0.0,
      2.0,
      2.0,
      2.0,
      0.0,
      2.0,
      2.0,
      0.0,
      2.0,
      0.0,
      2.0,
      2.0,
      2.0,
      2.0,
      0.0,
      2.0,
      0.0,
      2.0,
      1.0,
      0.0,
      2.0,
      0.0,
      2.0,
      2.0,
      2.0,
      2.0,
      0.0,
      0.0,
      2.0,
      2.0,
      2.0,
      0.0,
      0.0,
      1.0,
      2.0,
      2.0,
      2.0,
      0.0,
      2.0,
      2.0,
      0.0,
      2.0,
      2.0,
      2.0,
      2.0,
      2.0,
      2.0,
      2.0,
      0.0,
      2.0,
      0.0,
      2.0,
      2.0,
      2.0,
      0.0,
      0.0,
      2.0,
      0.0,
      0.0,
      0.0,
      0.0,
      2.0,
      2.0,
      0.0,
      2.0,
      2.0,
      2.0,
      2.0,
      2.0,
      2.0,
      1.0,
      2.0,
      2.0,
      2.0,
      2.0,
      0.0,
      2.0,
      2.0,
      0.0,
      0.0,
      2.0,
      0.0,
      2.0,
      2.0,
      2.0,
      0.0,
      2.0,
      2.0,
      2.0,
      0.0,
      2.0,
      0.0,
      2.0,
      2.0,
      0.0,
      2.0,
      0.0,
      2.0,
      0.0,
      0.0,
      2.0,
      2.0,
      2.0,
      2.0,
      0.0,
      1.0,
      0.0,
      2.0,
      0.0,
      2.0,
      0.0,
      2.0,
      0.0,
      2.0,
      0.0,
      2.0,
      0.0,
      2.0,
      2.0,
      0.0,
      2.0,
      1.0,
      0.0,
      2.0,
      0.0,
      2.0,
      2.0,
      2.0,
      2.0,
      0.0
    ],
    "VERINET": [
      2.0,
      2.0,
      2.0,
      2.0,
      2.0,
      2.0,
      2.0,
      0.0,
      0.0,
      2.0,
      0.0,
      0.0,
      0.0,
      2.0,
      2.0,
      2.0,
      2.0,
      2.0,
      2.0,
      0.0,
      0.0,
      2.0,
      1.0,
      2.0,
      2.0,
      2.0,
      2.0,
      2.0,
      2.0,
      2.0,
      2.0,
      2.0,
      0.0,
      2.0,
      2.0,
      2.0,
      2.0,
      2.0,
      2.0,
      0.0,
      2.0,
      0.0,
      2.0,
      2.0,
      2.0,
      0.0,
      0.0,
      0.0,
      2.0,
      0.0,
      2.0,
      2.0,
      0.0,
      2.0,
      0.0,
      2.0,
      2.0,
      2.0,
      2.0,
      2.0,
      2.0,
      0.0,
      2.0,
      2.0,
      0.0,
      2.0,
      2.0,
      0.0,
      0.0,
      2.0,
      0.0,
      2.0,
      2.0,
      2.0,
      0.0,
      2.0,
      0.0,
      2.0,
      2.0,
      2.0,
      2.0,
      2.0,
      2.0,
      2.0,
      2.0,
      0.0,
      0.0,
      2.0,
      2.0,
      0.0,
      2.0,
      0.0,
      2.0,
      2.0,
      0.0,
      2.0,
      2.0,
      0.0,
      0.0,
      1.0,
      2.0,
      2.0,
      0.0,
      2.0,
      2.0,
      0.0,
      2.0,
      2.0,
      0.0,
      2.0,
      2.0,
      2.0,
      2.0,
      2.0,
      0.0,
      2.0,
      2.0,
      2.0,
      0.0,
      2.0,
      0.0,
      2.0,
      2.0,
      2.0,
      0.0,
      2.0,
      0.0,
      2.0,
      2.0,
      2.0,
      0.0,
      2.0,
      2.0,
      0.0,
      2.0,
      2.0,
      2.0,
      2.0,
      2.0,
      2.0,
      2.0,
      2.0,
      0.0,
      0.0,
      2.0,
      2.0,
      0.0,
      2.0,
      2.0,
      0.0,
      0.0,
      2.0,
      2.0,
      2.0,
      0.0,
      0.0,
      2.0,
      2.0,
      2.0,
      0.0,
      0.0,
      0.0,
      2.0,
      0.0,
      2.0,
      2.0,
      0.0,
      2.0,
      2.0,
      2.0,
      0.0,
      0.0,
      2.0,
      0.0,
      2.0,
      0.0,
      2.0,
      2.0,
      0.0,
      2.0,
      2.0,
      0.0,
      0.0,
      2.0,
      2.0,
      2.0,
      2.0,
      0.0,
      2.0,
      0.0,
      1.0,
      0.0,
      0.0,
      0.0,
      2.0,
      2.0,
      2.0,
      2.0,
      2.0,
      2.0,
      2.0,
      0.0,
      2.0,
      2.0,
      2.0,
      2.0,
      2.0,
      0.0,
      2.0,
      0.0,
      2.0,
      0.0,
      0.0,
      2.0,
      0.0,
      0.0,
      0.0,
      0.0,
      0.0,
      0.0,
      0.0,
      2.0,
      2.0,
      2.0,
      0.0,
      2.0,
      2.0,
      2.0,
      2.0,
      2.0,
      2.0,
      2.0,
      0.0,
      0.0,
      2.0,
      2.0,
      1.0,
      2.0,
      0.0,
      2.0,
      2.0,
      2.0,
      2.0,
      0.0,
      2.0,
      2.0,
      2.0,
      0.0,
      0.0,
      0.0,
      2.0,
      1.0,
      2.0,
      0.0,
      0.0,
      2.0,
      2.0,
      2.0,
      0.0,
      2.0,
      2.0,
      2.0,
      2.0,
      0.0,
      2.0,
      2.0,
      2.0,
      0.0,
      1.0,
      2.0,
      2.0,
      2.0,
      2.0,
      2.0,
      1.0,
      2.0,
      2.0,
      2.0,
      2.0,
      2.0,
      2.0,
      0.0,
      2.0,
      0.0,
      2.0,
      0.0,
      2.0,
      2.0,
      0.0,
      0.0,
      2.0,
      2.0,
      2.0,
      0.0,
      2.0,
      2.0,
      2.0,
      2.0,
      2.0,
      2.0,
      0.0,
      0.0,
      0.0,
      1.0,
      2.0,
      2.0,
      2.0,
      2.0,
      2.0,
      0.0,
      2.0,
      0.0,
      0.0,
      0.0,
      0.0,
      2.0,
      0.0,
      2.0,
      0.0,
      2.0,
      2.0,
      0.0,
      2.0,
      2.0,
      2.0,
      2.0,
      0.0,
      0.0,
      0.0,
      2.0,
      2.0,
      2.0,
      2.0,
      2.0,
      2.0,
      0.0,
      2.0,
      2.0,
      0.0,
      2.0,
      2.0,
      2.0,
      2.0,
      2.0,
      2.0,
      2.0,
      0.0,
      0.0,
      2.0,
      2.0,
      0.0,
      2.0,
      2.0,
      2.0,
      0.0,
      2.0,
      2.0,
      2.0,
      2.0,
      2.0,
      0.0,
      2.0,
      0.0,
      2.0,
      2.0,
      2.0,
      2.0,
      2.0,
      2.0,
      2.0,
      0.0,
      2.0,
      2.0,
      2.0,
      0.0,
      2.0,
      2.0,
      0.0,
      2.0,
      0.0,
      0.0,
      2.0,
      2.0,
      2.0,
      0.0,
      2.0,
      0.0,
      2.0,
      1.0,
      0.0,
      2.0,
      0.0,
      2.0,
      2.0,
      2.0,
      2.0,
      0.0,
      0.0,
      2.0,
      2.0,
      2.0,
      0.0,
      0.0,
      2.0,
      2.0,
      2.0,
      2.0,
      0.0,
      2.0,
      2.0,
      0.0,
      2.0,
      2.0,
      2.0,
      2.0,
      2.0,
      2.0,
      2.0,
      0.0,
      2.0,
      0.0,
      2.0,
      2.0,
      2.0,
      0.0,
      0.0,
      2.0,
      0.0,
      0.0,
      0.0,
      0.0,
      2.0,
      2.0,
      0.0,
      2.0,
      2.0,
      2.0,
      2.0,
      2.0,
      2.0,
      1.0,
      2.0,
      2.0,
      2.0,
      2.0,
      0.0,
      2.0,
      2.0,
      0.0,
      0.0,
      2.0,
      0.0,
      2.0,
      2.0,
      2.0,
      0.0,
      2.0,
      2.0,
      2.0,
      0.0,
      2.0,
      0.0,
      2.0,
      2.0,
      0.0,
      2.0,
      0.0,
      2.0,
      0.0,
      0.0,
      2.0,
      2.0,
      2.0,
      2.0,
      0.0,
      2.0,
      0.0,
      2.0,
      0.0,
      2.0,
      0.0,
      2.0,
      0.0,
      2.0,
      0.0,
      2.0,
      0.0,
      2.0,
      2.0,
      0.0,
      2.0,
      2.0,
      0.0,
      2.0,
      0.0,
      2.0,
      2.0,
      2.0,
      2.0,
      0.0
    ],
    "OVAL-BAB": [
      2.0,
      2.0,
      2.0,
      2.0,
      2.0,
      2.0,
      2.0,
      0.0,
      0.0,
      2.0,
      0.0,
      0.0,
      0.0,
      2.0,
      2.0,
      2.0,
      2.0,
      1.0,
      2.0,
      0.0,
      0.0,
      2.0,
      1.0,
      2.0,
      2.0,
      2.0,
      2.0,
      2.0,
      2.0,
      2.0,
      2.0,
      2.0,
      0.0,
      2.0,
      2.0,
      2.0,
      2.0,
      2.0,
      2.0,
      0.0,
      2.0,
      0.0,
      2.0,
      2.0,
      2.0,
      0.0,
      0.0,
      0.0,
      2.0,
      0.0,
      2.0,
      1.0,
      0.0,
      2.0,
      0.0,
      2.0,
      2.0,
      2.0,
      2.0,
      2.0,
      2.0,
      0.0,
      2.0,
      2.0,
      0.0,
      0.0,
      2.0,
      0.0,
      0.0,
      2.0,
      0.0,
      2.0,
      2.0,
      2.0,
      0.0,
      2.0,
      0.0,
      2.0,
      2.0,
      2.0,
      2.0,
      2.0,
      2.0,
      2.0,
      2.0,
      0.0,
      0.0,
      2.0,
      2.0,
      0.0,
      2.0,
      0.0,
      2.0,
      2.0,
      0.0,
      2.0,
      2.0,
      0.0,
      0.0,
      1.0,
      2.0,
      2.0,
      0.0,
      2.0,
      2.0,
      0.0,
      2.0,
      2.0,
      0.0,
      2.0,
      2.0,
      2.0,
      2.0,
      2.0,
      0.0,
      2.0,
      2.0,
      2.0,
      0.0,
      2.0,
      0.0,
      2.0,
      1.0,
      2.0,
      0.0,
      2.0,
      0.0,
      2.0,
      2.0,
      2.0,
      0.0,
      2.0,
      2.0,
      0.0,
      2.0,
      2.0,
      2.0,
      2.0,
      2.0,
      2.0,
      2.0,
      2.0,
      0.0,
      0.0,
      2.0,
      2.0,
      0.0,
      2.0,
      2.0,
      2.0,
      0.0,
      2.0,
      2.0,
      2.0,
      0.0,
      0.0,
      2.0,
      2.0,
      2.0,
      0.0,
      0.0,
      0.0,
      2.0,
      0.0,
      2.0,
      2.0,
      0.0,
      2.0,
      2.0,
      2.0,
      0.0,
      0.0,
      2.0,
      0.0,
      2.0,
      0.0,
      0.0,
      2.0,
      0.0,
      2.0,
      2.0,
      0.0,
      0.0,
      2.0,
      2.0,
      2.0,
      2.0,
      0.0,
      0.0,
      0.0,
      1.0,
      0.0,
      0.0,
      0.0,
      2.0,
      2.0,
      2.0,
      2.0,
      2.0,
      2.0,
      2.0,
      0.0,
      2.0,
      2.0,
      2.0,
      2.0,
      2.0,
      0.0,
      2.0,
      0.0,
      2.0,
      0.0,
      0.0,
      2.0,
      0.0,
      0.0,
      0.0,
      0.0,
      0.0,
      0.0,
      0.0,
      2.0,
      2.0,
      2.0,
      0.0,
      2.0,
      2.0,
      2.0,
      2.0,
      2.0,
      2.0,
      2.0,
      0.0,
      0.0,
      2.0,
      2.0,
      1.0,
      2.0,
      0.0,
      2.0,
      2.0,
      2.0,
      2.0,
      0.0,
      2.0,
      2.0,
      2.0,
      0.0,
      0.0,
      0.0,
      2.0,
      1.0,
      2.0,
      0.0,
      0.0,
      2.0,
      2.0,
      2.0,
      0.0,
      2.0,
      2.0,
      2.0,
      2.0,
      0.0,
      2.0,
      2.0,
      2.0,
      0.0,
      1.0,
      0.0,
      2.0,
      2.0,
      2.0,
      2.0,
      2.0,
      2.0,
      2.0,
      2.0,
      2.0,
      2.0,
      2.0,
      0.0,
      2.0,
      0.0,
      2.0,
      0.0,
      2.0,
      2.0,
      0.0,
      0.0,
      1.0,
      2.0,
      2.0,
      0.0,
      2.0,
      2.0,
      2.0,
      2.0,
      2.0,
      2.0,
      0.0,
      0.0,
      0.0,
      1.0,
      2.0,
      2.0,
      2.0,
      2.0,
      2.0,
      0.0,
      2.0,
      0.0,
      0.0,
      0.0,
      0.0,
      2.0,
      0.0,
      2.0,
      0.0,
      2.0,
      2.0,
      0.0,
      2.0,
      2.0,
      2.0,
      2.0,
      0.0,
      0.0,
      0.0,
      0.0,
      0.0,
      2.0,
      2.0,
      2.0,
      2.0,
      0.0,
      2.0,
      2.0,
      0.0,
      2.0,
      2.0,
      2.0,
      2.0,
      2.0,
      2.0,
      2.0,
      0.0,
      0.0,
      2.0,
      2.0,
      0.0,
      2.0,
      2.0,
      2.0,
      0.0,
      2.0,
      2.0,
      2.0,
      2.0,
      2.0,
      0.0,
      2.0,
      0.0,
      0.0,
      2.0,
      2.0,
      2.0,
      2.0,
      2.0,
      2.0,
      0.0,
      2.0,
      2.0,
      2.0,
      0.0,
      2.0,
      2.0,
      0.0,
      2.0,
      0.0,
      2.0,
      2.0,
      2.0,
      2.0,
      0.0,
      2.0,
      0.0,
      2.0,
      1.0,
      0.0,
      2.0,
      0.0,
      2.0,
      2.0,
      2.0,
      2.0,
      0.0,
      0.0,
      2.0,
      2.0,
      2.0,
      0.0,
      0.0,
      2.0,
      2.0,
      2.0,
      2.0,
      0.0,
      2.0,
      2.0,
      0.0,
      2.0,
      2.0,
      2.0,
      2.0,
      2.0,
      2.0,
      2.0,
      0.0,
      2.0,
      0.0,
      2.0,
      2.0,
      2.0,
      0.0,
      0.0,
      2.0,
      0.0,
      0.0,
      0.0,
      0.0,
      2.0,
      2.0,
      0.0,
      2.0,
      2.0,
      2.0,
      2.0,
      2.0,
      2.0,
      1.0,
      2.0,
      2.0,
      2.0,
      2.0,
      0.0,
      2.0,
      2.0,
      0.0,
      0.0,
      2.0,
      0.0,
      2.0,
      2.0,
      2.0,
      0.0,
      2.0,
      2.0,
      2.0,
      0.0,
      2.0,
      0.0,
      2.0,
      2.0,
      0.0,
      2.0,
      0.0,
      2.0,
      0.0,
      0.0,
      2.0,
      2.0,
      2.0,
      2.0,
      0.0,
      2.0,
      0.0,
      2.0,
      0.0,
      2.0,
      0.0,
      2.0,
      0.0,
      2.0,
      0.0,
      2.0,
      0.0,
      2.0,
      2.0,
      0.0,
      2.0,
      1.0,
      0.0,
      2.0,
      0.0,
      2.0,
      2.0,
      2.0,
      2.0,
      0.0
    ],
    "Algorithm Selection": [
      2.0,
      2.0,
      2.0,
      1.0,
      2.0,
      2.0,
      2.0,
      0.0,
      0.0,
      2.0,
      0.0,
      0.0,
      0.0,
      2.0,
      2.0,
      2.0,
      2.0,
      1.0,
      2.0,
      0.0,
      0.0,
      2.0,
      1.0,
      2.0,
      2.0,
      2.0,
      2.0,
      2.0,
      2.0,
      2.0,
      2.0,
      2.0,
      0.0,
      2.0,
      2.0,
      2.0,
      2.0,
      1.0,
      2.0,
      0.0,
      2.0,
      0.0,
      2.0,
      2.0,
      2.0,
      0.0,
      0.0,
      0.0,
      2.0,
      0.0,
      2.0,
      1.0,
      0.0,
      2.0,
      0.0,
      2.0,
      2.0,
      2.0,
      2.0,
      2.0,
      2.0,
      0.0,
      2.0,
      2.0,
      0.0,
      0.0,
      2.0,
      0.0,
      0.0,
      2.0,
      0.0,
      2.0,
      2.0,
      2.0,
      0.0,
      2.0,
      0.0,
      2.0,
      1.0,
      2.0,
      2.0,
      2.0,
      2.0,
      2.0,
      2.0,
      0.0,
      0.0,
      2.0,
      2.0,
      0.0,
      2.0,
      0.0,
      2.0,
      2.0,
      0.0,
      0.0,
      2.0,
      0.0,
      0.0,
      1.0,
      2.0,
      2.0,
      0.0,
      2.0,
      2.0,
      0.0,
      2.0,
      2.0,
      0.0,
      2.0,
      2.0,
      2.0,
      2.0,
      2.0,
      0.0,
      2.0,
      2.0,
      2.0,
      0.0,
      2.0,
      0.0,
      2.0,
      1.0,
      1.0,
      0.0,
      2.0,
      0.0,
      2.0,
      2.0,
      2.0,
      0.0,
      2.0,
      2.0,
      0.0,
      2.0,
      2.0,
      2.0,
      2.0,
      2.0,
      2.0,
      2.0,
      2.0,
      0.0,
      0.0,
      2.0,
      2.0,
      0.0,
      2.0,
      2.0,
      0.0,
      0.0,
      2.0,
      2.0,
      2.0,
      0.0,
      0.0,
      2.0,
      2.0,
      2.0,
      0.0,
      0.0,
      0.0,
      2.0,
      0.0,
      2.0,
      2.0,
      0.0,
      2.0,
      2.0,
      2.0,
      0.0,
      0.0,
      2.0,
      0.0,
      2.0,
      0.0,
      0.0,
      2.0,
      0.0,
      2.0,
      2.0,
      0.0,
      0.0,
      2.0,
      2.0,
      2.0,
      2.0,
      0.0,
      0.0,
      0.0,
      1.0,
      0.0,
      0.0,
      0.0,
      2.0,
      2.0,
      2.0,
      2.0,
      2.0,
      2.0,
      2.0,
      0.0,
      2.0,
      2.0,
      2.0,
      2.0,
      2.0,
      0.0,
      2.0,
      0.0,
      2.0,
      0.0,
      0.0,
      2.0,
      0.0,
      0.0,
      0.0,
      0.0,
      0.0,
      0.0,
      0.0,
      2.0,
      2.0,
      2.0,
      0.0,
      2.0,
      2.0,
      2.0,
      2.0,
      2.0,
      1.0,
      2.0,
      0.0,
      0.0,
      2.0,
      2.0,
      1.0,
      2.0,
      0.0,
      2.0,
      2.0,
      2.0,
      2.0,
      0.0,
      2.0,
      2.0,
      2.0,
      0.0,
      0.0,
      0.0,
      2.0,
      1.0,
      2.0,
      0.0,
      0.0,
      2.0,
      2.0,
      2.0,
      0.0,
      2.0,
      2.0,
      2.0,
      2.0,
      0.0,
      2.0,
      2.0,
      2.0,
      0.0,
      1.0,
      0.0,
      2.0,
      2.0,
      2.0,
      2.0,
      1.0,
      2.0,
      2.0,
      2.0,
      2.0,
      2.0,
      2.0,
      0.0,
      2.0,
      0.0,
      2.0,
      0.0,
      2.0,
      2.0,
      0.0,
      0.0,
      1.0,
      2.0,
      2.0,
      0.0,
      2.0,
      2.0,
      2.0,
      2.0,
      2.0,
      2.0,
      0.0,
      0.0,
      0.0,
      1.0,
      2.0,
      2.0,
      2.0,
      2.0,
      2.0,
      0.0,
      2.0,
      0.0,
      0.0,
      0.0,
      0.0,
      2.0,
      0.0,
      2.0,
      0.0,
      2.0,
      2.0,
      0.0,
      2.0,
      2.0,
      2.0,
      2.0,
      0.0,
      0.0,
      0.0,
      0.0,
      0.0,
      2.0,
      2.0,
      2.0,
      2.0,
      0.0,
      2.0,
      2.0,
      0.0,
      2.0,
      2.0,
      2.0,
      2.0,
      2.0,
      2.0,
      2.0,
      0.0,
      0.0,
      2.0,
      2.0,
      0.0,
      2.0,
      2.0,
      2.0,
      0.0,
      2.0,
      2.0,
      2.0,
      2.0,
      2.0,
      0.0,
      2.0,
      0.0,
      0.0,
      2.0,
      2.0,
      2.0,
      2.0,
      2.0,
      2.0,
      0.0,
      2.0,
      2.0,
      2.0,
      0.0,
      2.0,
      2.0,
      0.0,
      2.0,
      0.0,
      2.0,
      2.0,
      2.0,
      2.0,
      0.0,
      2.0,
      0.0,
      2.0,
      1.0,
      0.0,
      2.0,
      0.0,
      2.0,
      2.0,
      2.0,
      2.0,
      0.0,
      0.0,
      2.0,
      2.0,
      2.0,
      0.0,
      0.0,
      1.0,
      2.0,
      2.0,
      2.0,
      0.0,
      2.0,
      2.0,
      0.0,
      2.0,
      2.0,
      2.0,
      2.0,
      2.0,
      2.0,
      2.0,
      0.0,
      2.0,
      0.0,
      2.0,
      2.0,
      2.0,
      0.0,
      0.0,
      2.0,
      0.0,
      0.0,
      0.0,
      0.0,
      2.0,
      2.0,
      0.0,
      2.0,
      2.0,
      2.0,
      2.0,
      2.0,
      2.0,
      1.0,
      2.0,
      2.0,
      2.0,
      2.0,
      0.0,
      2.0,
      2.0,
      0.0,
      0.0,
      2.0,
      0.0,
      2.0,
      2.0,
      2.0,
      0.0,
      2.0,
      2.0,
      2.0,
      0.0,
      2.0,
      0.0,
      2.0,
      2.0,
      0.0,
      2.0,
      0.0,
      2.0,
      0.0,
      0.0,
      2.0,
      2.0,
      2.0,
      2.0,
      0.0,
      1.0,
      0.0,
      2.0,
      0.0,
      2.0,
      0.0,
      2.0,
      0.0,
      2.0,
      0.0,
      2.0,
      0.0,
      2.0,
      2.0,
      0.0,
      2.0,
      1.0,
      0.0,
      2.0,
      0.0,
      2.0,
      2.0,
      2.0,
      2.0,
      0.0
    ]
  },
  "running_times": {
    "ABCROWN": [
      2.7781512503836434,
      2.7781512503836434,
      2.7781512503836434,
      1.5430344353192536,
      2.7781512503836434,
      2.7781512503836434,
      2.7781512503836434,
      -0.6032777214962266,
      -0.6836102489268046,
      2.7781512503836434,
      -0.5780671867214916,
      -0.7430418474390682,
      -0.7599502278873523,
      2.7781512503836434,
      2.7781512503836434,
      2.7781512503836434,
      2.7781512503836434,
      1.4219476073124386,
      2.7781512503836434,
      -0.6493643917410457,
      -0.5775743236287955,
      2.7781512503836434,
      0.07820298250368571,
      2.7781512503836434,
      2.7781512503836434,
      2.7781512503836434,
      2.7781512503836434,
      2.7781512503836434,
      2.7781512503836434,
      2.7781512503836434,
      2.7781512503836434,
      2.7781512503836434,
      -0.5614576512138892,
      2.7781512503836434,
      2.7781512503836434,
      2.7781512503836434,
      2.7781512503836434,
      1.3464097029075326,
      2.7781512503836434,
      -0.6088883862971974,
      2.7781512503836434,
      -0.6142150411566643,
      2.7781512503836434,
      2.7781512503836434,
      2.7781512503836434,
      -0.6426369693848571,
      -0.6324577264794233,
      -0.6365760670828237,
      2.7781512503836434,
      -0.7741740085381067,
      2.7781512503836434,
      1.5535177260167667,
      -0.6365760670828237,
      2.7781512503836434,
      -0.7801536139756393,
      2.7781512503836434,
      2.7781512503836434,
      2.7781512503836434,
      2.7781512503836434,
      2.7781512503836434,
      2.7781512503836434,
      -0.6358243672293806,
      2.7781512503836434,
      2.7781512503836434,
      -0.6530605373010094,
      -0.5980827494824253,
      2.7781512503836434,
      -0.6187043769961741,
      -0.8706324042770144,
      2.7781512503836434,
      -0.6108339156354675,
      2.7781512503836434,
      2.7781512503836434,
      2.7781512503836434,
      -0.6048484084954574,
      2.7781512503836434,
      -0.8616973018337185,
      2.7781512503836434,
      1.2447470428361402,
      2.7781512503836434,
      2.7781512503836434,
      2.7781512503836434,
      2.7781512503836434,
      2.7781512503836434,
      2.7781512503836434,
      -0.6167233495923496,
      -0.4209026734473562,
      2.7781512503836434,
      2.7781512503836434,
      -0.641113795594131,
      2.7781512503836434,
      -0.7235381958267558,
      2.7781512503836434,
      2.7781512503836434,
      -0.6505282007856144,
      -0.4615519482897828,
      2.7781512503836434,
      -0.6081830763867512,
      -0.6013656754616079,
      -0.027056991894431778,
      2.7781512503836434,
      2.7781512503836434,
      -0.5802094138936372,
      2.7781512503836434,
      2.7781512503836434,
      -0.6925039620867871,
      2.7781512503836434,
      2.7781512503836434,
      -0.6110112148752859,
      2.7781512503836434,
      2.7781512503836434,
      2.7781512503836434,
      2.7781512503836434,
      2.7781512503836434,
      -0.7380238086021874,
      2.7781512503836434,
      2.7781512503836434,
      2.7781512503836434,
      -0.6850799440075802,
      2.7781512503836434,
      -0.8560488835760365,
      2.7781512503836434,
      0.7147152555189096,
      1.1206265697710804,
      -0.6283780728239787,
      2.7781512503836434,
      -0.5826944167554745,
      2.7781512503836434,
      2.7781512503836434,
      2.7781512503836434,
      -0.5826944167554745,
      2.7781512503836434,
      2.7781512503836434,
      -0.5754450233932868,
      2.7781512503836434,
      2.7781512503836434,
      2.7781512503836434,
      2.7781512503836434,
      2.7781512503836434,
      2.7781512503836434,
      2.7781512503836434,
      2.7781512503836434,
      -0.5826944167554745,
      -0.5702477199975919,
      2.7781512503836434,
      2.7781512503836434,
      -0.5554867936659571,
      2.7781512503836434,
      2.7781512503836434,
      -0.657182685364267,
      -0.5122961368362736,
      2.7781512503836434,
      2.7781512503836434,
      2.7781512503836434,
      -0.6380833813313566,
      -0.8696662315049939,
      2.7781512503836434,
      2.7781512503836434,
      2.7781512503836434,
      -0.6152882570617175,
      -0.6388390048049739,
      -0.6435916729610187,
      2.7781512503836434,
      -0.6223295606656769,
      2.7781512503836434,
      2.7781512503836434,
      -0.5979106494279033,
      2.7781512503836434,
      2.7781512503836434,
      2.7781512503836434,
      -0.8221750281353182,
      -0.6577747706392096,
      2.7781512503836434,
      -0.554240163511369,
      2.7781512503836434,
      -0.60223374387355,
      -0.5178413045887236,
      2.7781512503836434,
      -0.6118987984294834,
      2.7781512503836434,
      2.7781512503836434,
      -0.6185239097249701,
      -0.6392173101267199,
      2.7781512503836434,
      2.7781512503836434,
      2.7781512503836434,
      2.7781512503836434,
      -0.5278288533076368,
      2.7781512503836434,
      -0.7958800173440752,
      0.1376705372367551,
      -0.6174426780912142,
      -0.599634726650061,
      -0.5795491408939318,
      2.7781512503836434,
      2.7781512503836434,
      2.7781512503836434,
      2.7781512503836434,
      2.7781512503836434,
      2.7781512503836434,
      2.7781512503836434,
      -0.8616973018337185,
      2.7781512503836434,
      2.7781512503836434,
      2.7781512503836434,
      2.7781512503836434,
      2.7781512503836434,
      -0.7267671659569543,
      2.7781512503836434,
      -0.6307841425898572,
      2.7781512503836434,
      -0.6659485596531082,
      -0.6455073994105635,
      2.7781512503836434,
      -0.6599526823386068,
      -0.6196078399429726,
      -0.7788466780452948,
      -0.826813731587726,
      -0.6738690432892054,
      -0.6605485586935593,
      -0.6369524054789065,
      2.69349259525996,
      2.7781512503836434,
      2.7781512503836434,
      -0.6250684460218119,
      2.7781512503836434,
      2.7781512503836434,
      2.7781512503836434,
      2.7781512503836434,
      2.7781512503836434,
      2.7531079858328136,
      2.7781512503836434,
      -0.5736514262124923,
      -0.5660702343915359,
      2.7781512503836434,
      2.7781512503836434,
      0.615697603781494,
      2.7781512503836434,
      -0.6972362915270183,
      2.7781512503836434,
      2.7781512503836434,
      2.7781512503836434,
      2.7781512503836434,
      -0.7015836199387054,
      2.7781512503836434,
      2.7781512503836434,
      2.7781512503836434,
      -0.5787252087896535,
      -0.5620909644605016,
      -0.5616158929652859,
      2.7781512503836434,
      0.6820186520960869,
      2.7781512503836434,
      -0.552221990705379,
      -0.6345120151091003,
      2.7781512503836434,
      2.7781512503836434,
      2.7781512503836434,
      -0.5124374397436218,
      2.7781512503836434,
      2.7781512503836434,
      2.7781512503836434,
      2.7781512503836434,
      -0.7244583115986905,
      2.7781512503836434,
      2.7781512503836434,
      2.7781512503836434,
      -0.8604357338241503,
      0.6511810624446879,
      -0.5592482995208146,
      2.7781512503836434,
      2.7781512503836434,
      2.7781512503836434,
      2.7781512503836434,
      0.6175769194810008,
      2.7781512503836434,
      2.7781512503836434,
      2.7781512503836434,
      2.7781512503836434,
      2.7781512503836434,
      2.7781512503836434,
      -0.48201279697492183,
      2.7781512503836434,
      -0.3885953622884065,
      2.7781512503836434,
      -0.6088883862971974,
      2.7781512503836434,
      2.7781512503836434,
      -0.8440569820281633,
      -0.6151092034694459,
      1.0797635339466674,
      2.7781512503836434,
      2.7781512503836434,
      -0.8532519863693602,
      2.7781512503836434,
      2.7781512503836434,
      2.7781512503836434,
      2.7781512503836434,
      2.7781512503836434,
      2.7781512503836434,
      -0.6390281162740641,
      -0.4937656403878741,
      -0.6907958203295924,
      -0.02659502558993932,
      2.7781512503836434,
      2.7781512503836434,
      2.7781512503836434,
      2.7781512503836434,
      2.7781512503836434,
      -0.6561976668383449,
      2.7781512503836434,
      -0.700057099977233,
      -0.7942544590573379,
      -0.7856861025756003,
      -0.902395671125589,
      2.7781512503836434,
      -0.7328282715969862,
      2.7781512503836434,
      -0.6187043769961741,
      2.7781512503836434,
      2.7781512503836434,
      -0.3508599358557811,
      2.7781512503836434,
      2.7781512503836434,
      2.7781512503836434,
      2.7781512503836434,
      -0.4101620568525402,
      -0.7375489102695706,
      -0.6677635845085567,
      -0.5391021572434522,
      2.7781512503836434,
      2.7781512503836434,
      2.7781512503836434,
      2.7781512503836434,
      2.7781512503836434,
      -0.5893914574316321,
      2.7781512503836434,
      2.207588593084679,
      -0.5643148620583701,
      2.7781512503836434,
      2.7781512503836434,
      2.7781512503836434,
      2.7781512503836434,
      2.7781512503836434,
      2.7781512503836434,
      2.7781512503836434,
      -0.5836924129401174,
      -0.7354182707619225,
      2.7781512503836434,
      2.7781512503836434,
      -0.6223295606656769,
      2.7781512503836434,
      2.7781512503836434,
      2.7781512503836434,
      -0.8674201523402629,
      2.7781512503836434,
      2.7781512503836434,
      2.7781512503836434,
      2.7781512503836434,
      2.7781512503836434,
      -0.5689580546641145,
      2.7781512503836434,
      -0.645891560852599,
      -0.5517575873655609,
      2.7781512503836434,
      2.7781512503836434,
      2.7781512503836434,
      2.7781512503836434,
      2.7781512503836434,
      2.7781512503836434,
      -0.6217838502501221,
      2.7781512503836434,
      2.7781512503836434,
      2.7781512503836434,
      -0.6214204238842252,
      2.7781512503836434,
      2.7781512503836434,
      -0.8227521637443765,
      2.7781512503836434,
      -0.6004993386853894,
      2.7781512503836434,
      2.7781512503836434,
      2.7781512503836434,
      2.7781512503836434,
      -0.4993519366280881,
      2.7781512503836434,
      -0.6857113390525023,
      2.7781512503836434,
      -0.01854383347787341,
      -0.6449317936511493,
      2.7781512503836434,
      -0.6232406045951201,
      2.7781512503836434,
      2.7781512503836434,
      2.7781512503836434,
      2.7781512503836434,
      -0.6362000545208907,
      -0.6414940885097647,
      2.7781512503836434,
      2.7781512503836434,
      2.7781512503836434,
      -0.6693833327055616,
      -0.6335770427740273,
      2.3297301349887682,
      2.7781512503836434,
      2.7781512503836434,
      2.7781512503836434,
      -0.6848696828163983,
      2.7781512503836434,
      2.7781512503836434,
      -0.7055337738384071,
      2.7781512503836434,
      2.7781512503836434,
      2.7781512503836434,
      2.7781512503836434,
      2.7781512503836434,
      2.7781512503836434,
      2.7781512503836434,
      -0.7039933306863277,
      2.7781512503836434,
      -0.6066003047068982,
      2.7781512503836434,
      2.7781512503836434,
      2.7781512503836434,
      -0.5922692719736645,
      -0.7194216296319237,
      2.7781512503836434,
      -0.8161609629435788,
      -0.8218867476853682,
      -0.7106340484799682,
      -0.7806774915806632,
      2.7781512503836434,
      2.7781512503836434,
      -0.5377517846450026,
      2.7781512503836434,
      2.7781512503836434,
      2.7781512503836434,
      2.7781512503836434,
      2.7781512503836434,
      2.7781512503836434,
      0.6808791744268111,
      2.7781512503836434,
      2.7781512503836434,
      2.7781512503836434,
      2.7781512503836434,
      -0.5840255886234341,
      2.7781512503836434,
      2.7781512503836434,
      -0.624702261782661,
      -0.6661498548974549,
      2.7781512503836434,
      -0.5759354745825122,
      2.7781512503836434,
      2.7781512503836434,
      2.7781512503836434,
      -0.6087119514047025,
      2.7781512503836434,
      2.7781512503836434,
      2.7781512503836434,
      -0.6363880201078557,
      2.7781512503836434,
      -0.5673513399868934,
      2.7781512503836434,
      2.7781512503836434,
      -0.6160052105582672,
      2.7781512503836434,
      -0.5612994670992637,
      2.7781512503836434,
      -0.8005190851376441,
      -0.5442417968958632,
      2.7781512503836434,
      2.7781512503836434,
      2.7781512503836434,
      2.7781512503836434,
      -0.6337638762817068,
      2.4041788747549586,
      -0.8787685448503785,
      2.7781512503836434,
      -0.6038006529042637,
      2.7781512503836434,
      -0.6394065864347511,
      2.7781512503836434,
      -0.5938005763366871,
      2.7781512503836434,
      -0.5774101601485179,
      2.7781512503836434,
      -0.640164517660112,
      2.7781512503836434,
      2.7781512503836434,
      -0.7512912643990821,
      2.7781512503836434,
      1.5491578139142859,
      -0.6333902896075704,
      2.7781512503836434,
      -0.5665502062384039,
      2.7781512503836434,
      2.7781512503836434,
      2.7781512503836434,
      2.7781512503836434,
      -0.5691190535471088
    ],
    "VERINET": [
      2.7781512503836434,
      2.7781512503836434,
      2.7781512503836434,
      2.7781512503836434,
      2.7781512503836434,
      2.7781512503836434,
      2.7781512503836434,
      0.7015679850559274,
      0.7489628612561614,
      2.7781512503836434,
      0.741151598851785,
      0.6989700043360189,
      0.7024305364455253,
      2.7781512503836434,
      2.7781512503836434,
      2.7781512503836434,
      2.7781512503836434,
      2.7781512503836434,
      2.7781512503836434,
      0.7234556720351858,
      0.69284691927723,
      2.7781512503836434,
      0.9148718175400504,
      2.7781512503836434,
      2.7781512503836434,
      2.7781512503836434,
      2.7781512503836434,
      2.7781512503836434,
      2.7781512503836434,
      2.7781512503836434,
      2.7781512503836434,
      2.7781512503836434,
      0.7275412570285564,
      2.7781512503836434,
      2.7781512503836434,
      2.7781512503836434,
      2.7781512503836434,
      2.7781512503836434,
      2.7781512503836434,
      0.7291647896927701,
      2.7781512503836434,
      0.7315887651867387,
      2.7781512503836434,
      2.7781512503836434,
      2.7781512503836434,
      0.7323937598229685,
      0.7109631189952758,
      0.7176705030022621,
      2.7781512503836434,
      0.6910814921229684,
      2.7781512503836434,
      2.7781512503836434,
      0.7387805584843692,
      2.7781512503836434,
      0.7267272090265723,
      2.7781512503836434,
      2.7781512503836434,
      2.7781512503836434,
      2.7781512503836434,
      2.7781512503836434,
      2.7781512503836434,
      0.7331972651065695,
      2.7781512503836434,
      2.7781512503836434,
      0.7387805584843692,
      2.7781512503836434,
      2.7781512503836434,
      0.7267272090265723,
      0.7745169657285496,
      2.7781512503836434,
      0.7307822756663892,
      2.7781512503836434,
      2.7781512503836434,
      2.7781512503836434,
      0.7075701760979364,
      2.7781512503836434,
      0.7403626894942439,
      2.7781512503836434,
      2.7781512503836434,
      2.7781512503836434,
      2.7781512503836434,
      2.7781512503836434,
      2.7781512503836434,
      2.7781512503836434,
      2.7781512503836434,
      0.7209857441537391,
      0.7339992865383869,
      2.7781512503836434,
      2.7781512503836434,
      0.7339992865383869,
      2.7781512503836434,
      0.6972293427597176,
      2.7781512503836434,
      2.7781512503836434,
      0.7193312869837266,
      2.7781512503836434,
      2.7781512503836434,
      0.7331972651065695,
      0.7363965022766424,
      0.7109631189952758,
      2.7781512503836434,
      2.7781512503836434,
      0.7024305364455253,
      2.7781512503836434,
      2.7781512503836434,
      0.7363965022766424,
      2.7781512503836434,
      2.7781512503836434,
      0.69284691927723,
      2.7781512503836434,
      2.7781512503836434,
      2.7781512503836434,
      2.7781512503836434,
      2.7781512503836434,
      0.7234556720351858,
      2.7781512503836434,
      2.7781512503836434,
      2.7781512503836434,
      1.2662316966898932,
      2.7781512503836434,
      0.7520484478194386,
      2.7781512503836434,
      2.7781512503836434,
      2.7781512503836434,
      0.6812412373755872,
      2.7781512503836434,
      0.7101173651118162,
      2.7781512503836434,
      2.7781512503836434,
      2.7781512503836434,
      1.0849335749367162,
      2.7781512503836434,
      2.7781512503836434,
      0.7185016888672743,
      2.7781512503836434,
      2.7781512503836434,
      2.7781512503836434,
      2.7781512503836434,
      2.7781512503836434,
      2.7781512503836434,
      2.7781512503836434,
      2.7781512503836434,
      0.8055008581584001,
      0.7723217067229198,
      2.7781512503836434,
      2.7781512503836434,
      0.7283537820212285,
      2.7781512503836434,
      2.7781512503836434,
      2.006380458549693,
      0.7118072290411911,
      2.7781512503836434,
      2.7781512503836434,
      2.7781512503836434,
      0.7032913781186614,
      0.7075701760979364,
      2.7781512503836434,
      2.7781512503836434,
      2.7781512503836434,
      0.693726948923647,
      0.7058637122839193,
      0.7201593034059569,
      2.7781512503836434,
      0.7299742856995556,
      2.7781512503836434,
      2.7781512503836434,
      0.7134905430939426,
      2.7781512503836434,
      2.7781512503836434,
      2.7781512503836434,
      0.7339992865383869,
      0.7395723444500919,
      2.7781512503836434,
      0.6857417386022636,
      2.7781512503836434,
      0.725094521081469,
      2.7781512503836434,
      2.7781512503836434,
      0.909020854211156,
      2.7781512503836434,
      2.7781512503836434,
      0.7355988996981799,
      0.7450747915820575,
      2.7781512503836434,
      2.7781512503836434,
      2.7781512503836434,
      2.7781512503836434,
      0.7109631189952758,
      2.7781512503836434,
      0.7387805584843692,
      0.9647309210536293,
      0.7226339225338123,
      0.7363965022766424,
      0.7067177823367587,
      2.7781512503836434,
      2.7781512503836434,
      2.7781512503836434,
      2.7781512503836434,
      2.7781512503836434,
      2.7781512503836434,
      2.7781512503836434,
      0.92272545799326,
      2.7781512503836434,
      2.7781512503836434,
      2.7781512503836434,
      2.7781512503836434,
      2.7781512503836434,
      0.7299742856995556,
      2.7781512503836434,
      0.7371926427047373,
      2.7781512503836434,
      0.7267272090265723,
      0.7041505168397991,
      2.7781512503836434,
      0.7299742856995556,
      0.693726948923647,
      0.9360107957152096,
      0.7032913781186614,
      0.6893088591236202,
      0.7160033436347992,
      0.7267272090265723,
      2.7781512503836434,
      2.7781512503836434,
      2.7781512503836434,
      0.6757783416740851,
      2.7781512503836434,
      2.7781512503836434,
      2.7781512503836434,
      2.7781512503836434,
      2.7781512503836434,
      2.7781512503836434,
      2.7781512503836434,
      0.7218106152125465,
      0.7015679850559274,
      2.7781512503836434,
      2.7781512503836434,
      1.6585837154070628,
      2.7781512503836434,
      0.8254261177678232,
      2.7781512503836434,
      2.7781512503836434,
      2.7781512503836434,
      2.7781512503836434,
      0.7379873263334308,
      2.7781512503836434,
      2.7781512503836434,
      2.7781512503836434,
      0.8102325179950841,
      0.8215135284047731,
      0.696356388733332,
      2.7781512503836434,
      2.0249369680374434,
      2.7781512503836434,
      0.7371926427047373,
      0.7339992865383869,
      2.7781512503836434,
      2.7781512503836434,
      2.7781512503836434,
      0.7291647896927701,
      2.7781512503836434,
      2.7781512503836434,
      2.7781512503836434,
      2.7781512503836434,
      0.7299742856995556,
      2.7781512503836434,
      2.7781512503836434,
      2.7781512503836434,
      0.7176705030022621,
      1.4545399849648188,
      2.7781512503836434,
      2.7781512503836434,
      2.7781512503836434,
      2.7781512503836434,
      2.7781512503836434,
      2.2301678163461913,
      2.7781512503836434,
      2.7781512503836434,
      2.7781512503836434,
      2.7781512503836434,
      2.7781512503836434,
      2.7781512503836434,
      0.7024305364455253,
      2.7781512503836434,
      0.7134905430939426,
      2.7781512503836434,
      0.725094521081469,
      2.7781512503836434,
      2.7781512503836434,
      0.8750612633917001,
      0.7752462597402364,
      2.7781512503836434,
      2.7781512503836434,
      2.7781512503836434,
      0.741151598851785,
      2.7781512503836434,
      2.7781512503836434,
      2.7781512503836434,
      2.7781512503836434,
      2.7781512503836434,
      2.7781512503836434,
      0.7363965022766424,
      0.7307822756663892,
      0.7671558660821804,
      0.7442929831226762,
      2.7781512503836434,
      2.7781512503836434,
      2.7781512503836434,
      2.7781512503836434,
      2.7781512503836434,
      0.7176705030022621,
      2.7781512503836434,
      0.7134905430939426,
      0.9339931638312423,
      0.7007037171450193,
      0.714329759745233,
      2.7781512503836434,
      1.5748411950633847,
      2.7781512503836434,
      0.7032913781186614,
      2.7781512503836434,
      2.7781512503836434,
      0.7209857441537391,
      2.7781512503836434,
      2.7781512503836434,
      2.7781512503836434,
      2.7781512503836434,
      0.7218106152125465,
      0.7109631189952758,
      0.6893088591236202,
      2.7781512503836434,
      2.7781512503836434,
      2.7781512503836434,
      2.7781512503836434,
      2.7781512503836434,
      2.7781512503836434,
      0.7474118078864233,
      2.7781512503836434,
      2.7781512503836434,
      0.7299742856995556,
      2.7781512503836434,
      2.7781512503836434,
      2.7781512503836434,
      2.7781512503836434,
      2.7781512503836434,
      2.7781512503836434,
      2.7781512503836434,
      0.7218106152125465,
      0.7299742856995556,
      2.7781512503836434,
      2.7781512503836434,
      0.7283537820212285,
      2.7781512503836434,
      2.7781512503836434,
      2.7781512503836434,
      0.7092699609758307,
      2.7781512503836434,
      2.7781512503836434,
      2.7781512503836434,
      2.7781512503836434,
      2.7781512503836434,
      1.0799044676667207,
      2.7781512503836434,
      0.7234556720351858,
      2.7781512503836434,
      2.7781512503836434,
      2.7781512503836434,
      2.7781512503836434,
      2.7781512503836434,
      2.7781512503836434,
      2.7781512503836434,
      0.7355988996981799,
      2.7781512503836434,
      2.7781512503836434,
      2.7781512503836434,
      0.7435097647284298,
      2.7781512503836434,
      2.7781512503836434,
      0.7558748556724915,
      2.7781512503836434,
      0.8796692056320535,
      1.737749073891557,
      2.7781512503836434,
      2.7781512503836434,
      2.7781512503836434,
      1.5714759036819437,
      2.7781512503836434,
      0.7442929831226762,
      2.7781512503836434,
      0.7283537820212285,
      0.7134905430939426,
      2.7781512503836434,
      0.7176705030022621,
      2.7781512503836434,
      2.7781512503836434,
      2.7781512503836434,
      2.7781512503836434,
      0.7275412570285564,
      0.6954816764901974,
      2.7781512503836434,
      2.7781512503836434,
      2.7781512503836434,
      0.7315887651867387,
      0.7419390777291989,
      2.7781512503836434,
      2.7781512503836434,
      2.7781512503836434,
      2.7781512503836434,
      0.7275412570285564,
      2.7781512503836434,
      2.7781512503836434,
      0.7118072290411911,
      2.7781512503836434,
      2.7781512503836434,
      2.7781512503836434,
      2.7781512503836434,
      2.7781512503836434,
      2.7781512503836434,
      2.7781512503836434,
      0.7134905430939426,
      2.7781512503836434,
      0.693726948923647,
      2.7781512503836434,
      2.7781512503836434,
      2.7781512503836434,
      0.705007959333336,
      0.6866362692622934,
      2.7781512503836434,
      0.7134905430939426,
      0.7201593034059569,
      0.714329759745233,
      0.7481880270062004,
      2.7781512503836434,
      2.7781512503836434,
      1.1172712956557642,
      2.7781512503836434,
      2.7781512503836434,
      2.7781512503836434,
      2.7781512503836434,
      2.7781512503836434,
      2.7781512503836434,
      1.544811911757776,
      2.7781512503836434,
      2.7781512503836434,
      2.7781512503836434,
      2.7781512503836434,
      0.7218106152125465,
      2.7781512503836434,
      2.7781512503836434,
      0.7307822756663892,
      0.7267272090265723,
      2.7781512503836434,
      2.6908691577892556,
      2.7781512503836434,
      2.7781512503836434,
      2.7781512503836434,
      0.7363965022766424,
      2.7781512503836434,
      2.7781512503836434,
      2.7781512503836434,
      0.7067177823367587,
      2.7781512503836434,
      0.6848453616444125,
      2.7781512503836434,
      2.7781512503836434,
      0.7275412570285564,
      2.7781512503836434,
      0.7307822756663892,
      2.7781512503836434,
      0.7387805584843692,
      0.741151598851785,
      2.7781512503836434,
      2.7781512503836434,
      2.7781512503836434,
      2.7781512503836434,
      0.7497363155690611,
      2.7781512503836434,
      0.7226339225338123,
      2.7781512503836434,
      0.9344984512435677,
      2.7781512503836434,
      0.714329759745233,
      2.7781512503836434,
      0.7355988996981799,
      2.7781512503836434,
      0.8536982117761743,
      2.7781512503836434,
      0.7395723444500919,
      2.7781512503836434,
      2.7781512503836434,
      1.1878026387184193,
      2.7781512503836434,
      2.7781512503836434,
      0.7226339225338123,
      2.7781512503836434,
      1.9045532629767727,
      2.7781512503836434,
      2.7781512503836434,
      2.7781512503836434,
      2.7781512503836434,
      0.7015679850559274
    ],
    "OVAL-BAB": [
      2.7781512503836434,
      2.7781512503836434,
      2.7781512503836434,
      2.7769289987524908,
      2.7781512503836434,
      2.7781512503836434,
      2.770351436818914,
      0.009388998195988405,
      0.045253792938286706,
      2.7781512503836434,
      0.08009752656008581,
      -0.046420655665284014,
      0.07647923704316031,
      2.7781512503836434,
      2.7781512503836434,
      2.7781512503836434,
      2.7781512503836434,
      2.774332840951228,
      2.7781512503836434,
      0.06131189615719434,
      -0.0003359744760780658,
      2.7781512503836434,
      0.07458775922348115,
      2.7781512503836434,
      2.7781512503836434,
      2.7781512503836434,
      2.7781512503836434,
      2.7781512503836434,
      2.7781512503836434,
      2.7781512503836434,
      2.7781512503836434,
      2.7781512503836434,
      0.16203088823006412,
      2.7781512503836434,
      2.7781512503836434,
      2.77200227939088,
      2.7781512503836434,
      2.7781512503836434,
      2.773282480967707,
      0.10505389828612662,
      2.769978422851787,
      0.12484552518838946,
      2.7781512503836434,
      2.7781512503836434,
      2.7781512503836434,
      0.09938102016421953,
      0.04555854182913916,
      0.14044912342060947,
      2.7689315665141603,
      0.05372779291414504,
      2.7781512503836434,
      2.294973540494656,
      0.046397064757552994,
      2.7781512503836434,
      0.1546572679777551,
      2.751609656955763,
      2.7781512503836434,
      2.7781512503836434,
      2.7781512503836434,
      2.7781512503836434,
      2.7781512503836434,
      0.14428222417115588,
      2.7781512503836434,
      2.7781512503836434,
      0.09303504931544192,
      0.21100777081267658,
      2.7781512503836434,
      0.14460499293718598,
      0.1072587831514649,
      2.7781512503836434,
      0.094497895534994,
      2.7781512503836434,
      2.7781512503836434,
      2.7781512503836434,
      0.0712729756045822,
      2.7781512503836434,
      0.0716447183242248,
      2.7781512503836434,
      2.7781512503836434,
      2.7780827572569984,
      2.7780134798376586,
      2.7781512503836434,
      2.771017344012584,
      2.7781512503836434,
      2.7781512503836434,
      0.08547503015088481,
      0.14667623730388377,
      2.7781512503836434,
      2.7781512503836434,
      0.08464077795479102,
      2.7781512503836434,
      -0.015128993722399293,
      2.7781512503836434,
      2.7781512503836434,
      0.11719823530666175,
      2.7781512503836434,
      2.7781512503836434,
      0.11196956639321545,
      0.10403111350787929,
      -0.05217465604588323,
      2.7696007972434056,
      2.7781512503836434,
      0.04086757968578958,
      2.7781512503836434,
      2.7781512503836434,
      0.005039930684341368,
      2.7781512503836434,
      2.7781512503836434,
      0.055870101982413496,
      2.7781512503836434,
      2.7781512503836434,
      2.7781512503836434,
      2.7781512503836434,
      2.7781512503836434,
      0.06944250821951543,
      2.7781512503836434,
      2.7781512503836434,
      2.703758011299318,
      1.0945201013137364,
      2.7754831975177883,
      -0.028539862285326883,
      2.7781512503836434,
      0.5540829627215612,
      2.7744357025930646,
      0.05386103685454701,
      2.7693160036709576,
      0.13515971145714167,
      2.7781512503836434,
      2.7781512503836434,
      2.7781512503836434,
      0.278098472307969,
      2.76698763319694,
      2.7692210695374135,
      0.018880624308601542,
      2.7781512503836434,
      2.7781512503836434,
      2.7781512503836434,
      2.7781512503836434,
      2.777600287267292,
      2.7781512503836434,
      2.7781512503836434,
      2.7781512503836434,
      0.16125748080701363,
      0.12194578784276283,
      2.7781512503836434,
      2.7781512503836434,
      0.012247344898827532,
      2.7781512503836434,
      2.7781512503836434,
      2.7781512503836434,
      0.07368557815639817,
      2.7781512503836434,
      2.7781512503836434,
      2.7781512503836434,
      0.0690398965589092,
      0.059736815485792745,
      2.7686397916467027,
      2.7781512503836434,
      2.7781512503836434,
      0.06330650542586215,
      0.06448248542091901,
      0.044933321642273434,
      2.7781512503836434,
      0.21734034169641933,
      2.7781512503836434,
      2.7781512503836434,
      0.14629181801704985,
      2.7781512503836434,
      2.7781512503836434,
      2.7781512503836434,
      0.052052047670196076,
      0.15376518025533248,
      2.7781512503836434,
      0.03240003130323324,
      2.7781512503836434,
      0.023472305771298857,
      0.5689029793542185,
      2.7781512503836434,
      0.18942769380538685,
      2.7781512503836434,
      2.7781512503836434,
      0.11132386621785438,
      0.12887721366745128,
      2.7781512503836434,
      2.7781512503836434,
      2.766967247051533,
      2.7781512503836434,
      -0.029760274572140536,
      1.5273960653037122,
      0.3176598552303976,
      0.05457075153161214,
      0.17845343928651358,
      0.09298531263362028,
      0.0790706160248347,
      2.7710310122538977,
      2.7700074448772334,
      2.7781512503836434,
      2.7781512503836434,
      2.7735553625692475,
      2.7781512503836434,
      2.7781512503836434,
      0.041597704958000234,
      2.7781512503836434,
      2.7781512503836434,
      2.7781512503836434,
      2.7781512503836434,
      2.7781512503836434,
      0.0838191801518501,
      2.771278302298336,
      0.05786527372080025,
      2.7781512503836434,
      0.07159007394200814,
      0.019427987177523538,
      2.7781512503836434,
      0.12307850461853809,
      -0.007032320291476196,
      0.8505852016459832,
      0.034751659154112415,
      0.06758314516665244,
      0.0985069491745569,
      0.0950235442929921,
      2.7781512503836434,
      2.7781512503836434,
      2.7781512503836434,
      0.025227082416839484,
      2.7781512503836434,
      2.7781512503836434,
      2.7781512503836434,
      2.7781512503836434,
      2.7781512503836434,
      2.7781512503836434,
      2.7781512503836434,
      0.08478988311800519,
      -0.039576598919939046,
      2.7673504267179667,
      2.764087555939091,
      0.08371894121610825,
      2.7781512503836434,
      0.1260252340167904,
      2.7781512503836434,
      2.7781512503836434,
      2.7781512503836434,
      2.7745805557437087,
      0.15129497902980513,
      2.7687030330861044,
      2.7781512503836434,
      2.7781512503836434,
      0.06536523924064601,
      0.048611284557810525,
      0.08905967170779733,
      2.7781512503836434,
      0.15980046846083443,
      2.7781512503836434,
      0.12238946522327913,
      0.0691183125745783,
      2.7781512503836434,
      2.7781512503836434,
      2.7781512503836434,
      0.11208790356682004,
      2.7781512503836434,
      2.7749442211645134,
      2.7781512503836434,
      2.7781512503836434,
      0.11001443710685843,
      2.777883485024994,
      2.7781512503836434,
      2.7781512503836434,
      0.00601757931691662,
      0.08992871118544438,
      0.5450472550868799,
      2.7781512503836434,
      2.7781512503836434,
      2.7744114350480875,
      2.7781512503836434,
      2.7682202596348175,
      2.7781512503836434,
      2.7781512503836434,
      2.7781512503836434,
      2.7781512503836434,
      2.7781512503836434,
      2.7781512503836434,
      0.003332283259269298,
      2.7781512503836434,
      0.1325814115308959,
      2.7781512503836434,
      0.07417886151361289,
      2.767374602269721,
      2.7781512503836434,
      0.0846587486175082,
      0.12552377428205228,
      0.6418689232256581,
      2.7773390403114124,
      2.7781512503836434,
      0.11292949853717135,
      2.7781512503836434,
      2.7781512503836434,
      2.7767574284843284,
      2.7781512503836434,
      2.7781512503836434,
      2.7781512503836434,
      0.03574586134677649,
      0.014499292695877958,
      0.05766969204269137,
      -0.019738027822879346,
      2.7781512503836434,
      2.7781512503836434,
      2.7781512503836434,
      2.7781512503836434,
      2.7781512503836434,
      0.09793852601150005,
      2.7737058512689083,
      0.06422808726398001,
      0.00924249790456724,
      0.04285576328247265,
      0.008389485701003816,
      2.7781512503836434,
      0.9190854843262636,
      2.7781512503836434,
      0.06558983385958927,
      2.7781512503836434,
      2.7781512503836434,
      0.0263597590614413,
      2.7781512503836434,
      2.7781512503836434,
      2.7781512503836434,
      2.7762542987651324,
      -0.06032272057847352,
      0.11536797397780325,
      0.01233483688106555,
      0.39960691265104076,
      0.38930755260399075,
      2.7781512503836434,
      2.7781512503836434,
      2.7744815161788474,
      2.7781512503836434,
      0.03852633085738963,
      2.7781512503836434,
      2.7781512503836434,
      0.13737033445216212,
      2.7781512503836434,
      2.7781512503836434,
      2.7781512503836434,
      2.7781512503836434,
      2.7706764519526477,
      2.7781512503836434,
      2.7781512503836434,
      0.057106347441768145,
      0.13799592730943117,
      2.7781512503836434,
      2.734366532801174,
      0.12670391147808052,
      2.7781512503836434,
      2.7781512503836434,
      2.7781512503836434,
      0.12254510209481903,
      2.7781512503836434,
      2.7781512503836434,
      2.7781512503836434,
      2.7781512503836434,
      2.7781512503836434,
      0.7107022895741086,
      2.7781512503836434,
      0.12472499909443051,
      0.4962963655445245,
      2.7781512503836434,
      2.7781512503836434,
      2.7781512503836434,
      2.7781512503836434,
      2.7781512503836434,
      2.7781512503836434,
      0.013906939438091768,
      2.7781512503836434,
      2.7781512503836434,
      2.7781512503836434,
      0.07567843936635252,
      2.7781512503836434,
      2.7781512503836434,
      0.067063654715013,
      2.7781512503836434,
      0.0312849308078804,
      2.7781512503836434,
      2.7781512503836434,
      2.7748733191815993,
      2.7781512503836434,
      0.379419620315165,
      2.7781512503836434,
      0.10047188942869419,
      2.7715279294510675,
      -0.014381349320533249,
      0.10810237977092538,
      2.7781512503836434,
      -0.03149224534229356,
      2.7781512503836434,
      2.7781512503836434,
      2.7781512503836434,
      2.7781512503836434,
      0.0725277800515848,
      0.03592995354513435,
      2.7781512503836434,
      2.7781512503836434,
      2.7781512503836434,
      -0.04969907944294154,
      0.05114358738206897,
      2.7781512503836434,
      2.7781512503836434,
      2.77153191019675,
      2.7781512503836434,
      0.08114086263707113,
      2.7781512503836434,
      2.7781512503836434,
      0.06878828082907221,
      2.7781512503836434,
      2.7781512503836434,
      2.7781512503836434,
      2.7781512503836434,
      2.7781512503836434,
      2.7781512503836434,
      2.7781512503836434,
      0.8039506014531625,
      2.7781512503836434,
      0.06511873619709513,
      2.7781512503836434,
      2.7781512503836434,
      2.7781512503836434,
      0.0842462362386005,
      0.010355691958184931,
      2.7781512503836434,
      0.06921100012213414,
      0.05453329193658048,
      0.10249001091835092,
      -0.03463705105286263,
      2.7703148872135115,
      2.7781512503836434,
      0.40470254751051643,
      2.7781512503836434,
      2.7781512503836434,
      2.7781512503836434,
      2.7781512503836434,
      2.7781512503836434,
      2.7781512503836434,
      0.09399943758309029,
      2.7709367782584375,
      2.7781512503836434,
      2.776318846392931,
      2.7781512503836434,
      0.10212385869646516,
      2.7781512503836434,
      2.7781512503836434,
      0.154690907613624,
      0.05377280282755355,
      2.7781512503836434,
      0.3553252887741376,
      2.767836582516822,
      2.7781512503836434,
      2.776094582659321,
      0.05916332241894824,
      2.7700449456236376,
      2.7781512503836434,
      2.7781512503836434,
      0.035435273571336655,
      2.7781512503836434,
      0.09738445808915498,
      2.7781512503836434,
      2.7781512503836434,
      0.7966037496400479,
      2.7781512503836434,
      0.2975301980527537,
      2.7781512503836434,
      0.041030258597702145,
      0.1365648269636494,
      2.7781512503836434,
      2.7781512503836434,
      2.767808757809879,
      2.7781512503836434,
      0.04269115190906032,
      2.7781512503836434,
      0.089755339788828,
      2.7781512503836434,
      0.14677773778518716,
      2.7781512503836434,
      0.015470775302882522,
      2.7781512503836434,
      0.06328502095311757,
      2.7764573669446504,
      0.1878718574362463,
      2.7768281102938843,
      0.12485066199606562,
      2.7781512503836434,
      2.7781512503836434,
      0.2234708403461305,
      2.7781512503836434,
      2.6829470203547747,
      0.1181371812903925,
      2.7781512503836434,
      1.7051164808983519,
      2.7781512503836434,
      2.7781512503836434,
      2.7781512503836434,
      2.7781512503836434,
      0.019848804117469945
    ],
    "Algorithm Selection": [
      1.4771212547196624,
      1.4771212547196624,
      3.167317334748176,
      2.020155690038916,
      1.7781512503836436,
      1.4771212547196624,
      1.4771212547196624,
      -0.12615646677656414,
      -0.20648899420714212,
      2.1760912590556813,
      -0.10094593200182918,
      -0.26592059271940577,
      -0.28282897316768985,
      1.4771212547196624,
      1.4771212547196624,
      1.4771212547196624,
      1.4771212547196624,
      1.899068862032101,
      1.4771212547196624,
      -0.17224313702138316,
      -0.10045306890913294,
      1.4771212547196624,
      0.5517090139431436,
      1.4771212547196624,
      2.0791812460476247,
      1.7781512503836436,
      1.4771212547196624,
      1.4771212547196624,
      1.4771212547196624,
      1.4771212547196624,
      1.4771212547196624,
      1.4771212547196624,
      -0.08433639649422679,
      1.4771212547196624,
      1.4771212547196624,
      1.4771212547196624,
      1.4771212547196624,
      1.823530957627195,
      1.4771212547196624,
      -0.131767131577535,
      1.4771212547196624,
      -0.1370937864370018,
      1.4771212547196624,
      1.4771212547196624,
      1.4771212547196624,
      -0.16551571466519469,
      -0.1553364717597609,
      -0.15945481236316122,
      1.4771212547196624,
      -0.29705275381844426,
      1.4771212547196624,
      2.030638980736429,
      -0.15945481236316122,
      1.954242509439325,
      -0.3030323592559769,
      1.4771212547196624,
      1.4771212547196624,
      1.4771212547196624,
      1.4771212547196624,
      1.4771212547196624,
      1.4771212547196624,
      -0.15870311250971816,
      1.4771212547196624,
      1.4771212547196624,
      -0.175939282581347,
      -0.12096149476276288,
      1.4771212547196624,
      -0.14158312227651162,
      -0.39351114955735195,
      1.4771212547196624,
      -0.13371266091580503,
      1.4771212547196624,
      1.4771212547196624,
      1.4771212547196624,
      -0.12772715377579494,
      1.4771212547196624,
      -0.3845760471140561,
      1.4771212547196624,
      1.7218682975558026,
      1.4771212547196624,
      1.4771212547196624,
      1.4771212547196624,
      1.4771212547196624,
      1.4771212547196624,
      1.4771212547196624,
      -0.1396020948726872,
      0.05621858127230623,
      1.4771212547196624,
      1.4771212547196624,
      -0.16399254087446855,
      1.4771212547196624,
      -0.24641694110709347,
      1.4771212547196624,
      1.4771212547196624,
      -0.17340694606595192,
      0.01556930642987964,
      1.4771212547196624,
      -0.1310618216670887,
      -0.12424442074194544,
      0.4249465986737792,
      1.4771212547196624,
      1.4771212547196624,
      -0.1030881591739748,
      1.4771212547196624,
      1.4771212547196624,
      -0.21538270736712464,
      1.4771212547196624,
      1.4771212547196624,
      -0.13388996015562343,
      1.4771212547196624,
      1.4771212547196624,
      1.4771212547196624,
      1.4771212547196624,
      1.4771212547196624,
      -0.2609025538825249,
      1.4771212547196624,
      1.4771212547196624,
      3.1808792660189806,
      -0.20795868928791778,
      1.4771212547196624,
      -0.37892762885637404,
      1.4771212547196624,
      1.0312042174412237,
      1.5977478244907428,
      -0.1512568181043163,
      1.4771212547196624,
      -0.10557316203581206,
      1.4771212547196624,
      1.4771212547196624,
      1.4771212547196624,
      -0.10557316203581206,
      1.4771212547196624,
      1.4771212547196624,
      -0.09832376867362443,
      1.4771212547196624,
      1.4771212547196624,
      1.4771212547196624,
      1.4771212547196624,
      1.4771212547196624,
      1.4771212547196624,
      1.4771212547196624,
      1.4771212547196624,
      -0.10557316203581206,
      -0.09312646527792949,
      1.4771212547196624,
      1.4771212547196624,
      -0.07836553894629474,
      1.4771212547196624,
      1.4771212547196624,
      -0.18006143064460461,
      -0.03517488211661117,
      1.4771212547196624,
      1.4771212547196624,
      1.4771212547196624,
      -0.16096212661169407,
      -0.3925449767853314,
      1.4771212547196624,
      1.4771212547196624,
      1.4771212547196624,
      -0.1381670023420551,
      -0.16171775008531147,
      -0.1664704182413563,
      1.4771212547196624,
      -0.1452083059460145,
      1.7781512503836436,
      1.4771212547196624,
      -0.12078939470824081,
      1.4771212547196624,
      1.4771212547196624,
      1.4771212547196624,
      -0.34505377341565574,
      -0.1806535159195472,
      1.4771212547196624,
      -0.07711890879170649,
      1.4771212547196624,
      -0.1251124891538876,
      -0.04072004986906114,
      2.4771212547196626,
      -0.1347775437098209,
      1.4771212547196624,
      1.7781512503836436,
      -0.1414026550053076,
      -0.16209605540705746,
      1.4771212547196624,
      1.4771212547196624,
      1.4771212547196624,
      1.4771212547196624,
      -0.05070759858797438,
      2.004517320023375,
      -0.3187587626244128,
      0.5316920062512746,
      -0.14032142337155182,
      -0.12251347193039863,
      -0.10242788617426944,
      1.4771212547196624,
      1.4771212547196624,
      1.4771212547196624,
      1.4771212547196624,
      1.4771212547196624,
      1.4771212547196624,
      2.7923916894982534,
      -0.3845760471140561,
      1.4771212547196624,
      1.4771212547196624,
      1.4771212547196624,
      1.4771212547196624,
      1.4771212547196624,
      -0.24964591123729193,
      1.4771212547196624,
      -0.1536628878701947,
      1.4771212547196624,
      -0.1888273049334457,
      -0.16838614469090102,
      1.4771212547196624,
      -0.18283142761894441,
      -0.1424865852233102,
      -0.30172542332563235,
      -0.3496924768680636,
      -0.1967477885695429,
      -0.18342730397389695,
      -0.15983115075924412,
      2.7558748556724915,
      1.4771212547196624,
      1.4771212547196624,
      -0.14794719130214945,
      1.4771212547196624,
      1.4771212547196624,
      1.4771212547196624,
      1.4771212547196624,
      1.4771212547196624,
      3.230229240552476,
      1.4771212547196624,
      -0.09653017149282986,
      -0.08894897967187351,
      1.4771212547196624,
      1.4771212547196624,
      0.5608401959357707,
      1.4771212547196624,
      -0.2201150368073558,
      1.4771212547196624,
      1.4771212547196624,
      1.4771212547196624,
      1.4771212547196624,
      -0.22446236521904303,
      1.4771212547196624,
      1.4771212547196624,
      1.4771212547196624,
      -0.10160395406999113,
      -0.08496970974083905,
      -0.08449463824562341,
      1.4771212547196624,
      0.6369217231804969,
      1.4771212547196624,
      -0.07510073598571666,
      -0.15739076038943778,
      1.4771212547196624,
      1.4771212547196624,
      1.4771212547196624,
      -0.035316185023959334,
      1.4771212547196624,
      1.4771212547196624,
      1.4771212547196624,
      1.4771212547196624,
      -0.24733705687902802,
      1.4771212547196624,
      1.4771212547196624,
      2.7558748556724915,
      -0.38331447910448785,
      0.5670499659051068,
      -0.08212704480115215,
      1.4771212547196624,
      1.4771212547196624,
      1.4771212547196624,
      1.4771212547196624,
      1.0946981742006632,
      1.4771212547196624,
      1.4771212547196624,
      1.4771212547196624,
      1.4771212547196624,
      1.4771212547196624,
      1.4771212547196624,
      -0.004891542255259376,
      1.4771212547196624,
      0.08852589243125589,
      1.4771212547196624,
      -0.131767131577535,
      1.4771212547196624,
      1.4771212547196624,
      -0.3669357273085008,
      -0.1379879487497834,
      1.1189901779453206,
      1.4771212547196624,
      1.4771212547196624,
      -0.37613073164969774,
      1.4771212547196624,
      1.4771212547196624,
      1.4771212547196624,
      1.4771212547196624,
      1.4771212547196624,
      1.4771212547196624,
      -0.16190686155440168,
      -0.016644385668211706,
      -0.21367456560992992,
      0.4505262291297231,
      1.4771212547196624,
      1.4771212547196624,
      1.4771212547196624,
      1.4771212547196624,
      1.4771212547196624,
      -0.17907641211868244,
      1.4771212547196624,
      -0.2229358452575706,
      -0.3171332043376755,
      -0.3085648478559379,
      -0.42527441640592656,
      1.4771212547196624,
      -0.2557070168773237,
      1.4771212547196624,
      -0.14158312227651162,
      1.7781512503836436,
      1.4771212547196624,
      0.12626131886388134,
      1.4771212547196624,
      1.4771212547196624,
      1.4771212547196624,
      2.322219294733919,
      0.0669591978671222,
      -0.26042765554990815,
      -0.1906423297888942,
      -0.06198090252378982,
      0.8664288073236532,
      1.4771212547196624,
      1.4771212547196624,
      1.4771212547196624,
      1.4771212547196624,
      -0.11227020271196969,
      1.4771212547196624,
      1.4771212547196624,
      -0.08719360733870765,
      1.4771212547196624,
      1.4771212547196624,
      1.4771212547196624,
      1.4771212547196624,
      1.4771212547196624,
      1.4771212547196624,
      1.4771212547196624,
      -0.10657115822045499,
      -0.25829701604226,
      1.7781512503836436,
      1.4771212547196624,
      -0.1452083059460145,
      1.4771212547196624,
      1.4771212547196624,
      1.4771212547196624,
      -0.39029889762060055,
      1.4771212547196624,
      1.4771212547196624,
      1.4771212547196624,
      1.4771212547196624,
      3.100370545117563,
      -0.09183679994445205,
      1.4771212547196624,
      -0.16877030613293653,
      -0.0746363326458985,
      1.4771212547196624,
      1.4771212547196624,
      1.4771212547196624,
      1.4771212547196624,
      1.4771212547196624,
      1.954242509439325,
      -0.1446625955304596,
      1.4771212547196624,
      1.4771212547196624,
      1.4771212547196624,
      -0.1442991691645628,
      1.4771212547196624,
      1.4771212547196624,
      -0.3456309090247141,
      1.4771212547196624,
      -0.12337808396572701,
      1.954242509439325,
      1.4771212547196624,
      1.4771212547196624,
      1.4771212547196624,
      -0.022230681908425642,
      1.4771212547196624,
      -0.2085900843328398,
      1.4771212547196624,
      0.458577421241789,
      -0.1678105389314868,
      1.4771212547196624,
      -0.1461193498754576,
      1.4771212547196624,
      1.4771212547196624,
      1.4771212547196624,
      1.4771212547196624,
      -0.15907879980122822,
      -0.16437283379010226,
      1.4771212547196624,
      1.4771212547196624,
      1.4771212547196624,
      -0.19226207798589917,
      -0.15645578805436483,
      2.806851389708431,
      1.4771212547196624,
      1.4771212547196624,
      1.4771212547196624,
      -0.20774842809673585,
      1.4771212547196624,
      1.7781512503836436,
      -0.22841251911874466,
      1.7781512503836436,
      1.4771212547196624,
      1.7781512503836436,
      1.4771212547196624,
      1.4771212547196624,
      1.4771212547196624,
      1.4771212547196624,
      -0.22687207596666528,
      1.4771212547196624,
      -0.12947904998723572,
      1.4771212547196624,
      1.4771212547196624,
      1.4771212547196624,
      -0.11514801725400205,
      -0.24230037491226122,
      1.4771212547196624,
      -0.3390397082239163,
      -0.34476549296570574,
      -0.23351279376030584,
      -0.3035562368610008,
      1.4771212547196624,
      1.4771212547196624,
      -0.06063052992534022,
      1.4771212547196624,
      1.4771212547196624,
      1.4771212547196624,
      1.4771212547196624,
      1.4771212547196624,
      1.4771212547196624,
      0.5711206923027528,
      1.4771212547196624,
      1.4771212547196624,
      1.954242509439325,
      1.4771212547196624,
      -0.10690433390377165,
      1.4771212547196624,
      1.4771212547196624,
      -0.1475810070629986,
      -0.18902860017779252,
      1.4771212547196624,
      -0.0988142198628497,
      1.4771212547196624,
      1.4771212547196624,
      1.4771212547196624,
      -0.13159069668503998,
      1.4771212547196624,
      1.4771212547196624,
      1.4771212547196624,
      -0.1592667653881932,
      1.4771212547196624,
      -0.09023008526723085,
      1.4771212547196624,
      1.4771212547196624,
      -0.13888395583860474,
      1.4771212547196624,
      -0.08417821237960121,
      3.255272505103306,
      -0.32339783041798176,
      -0.06712054217620078,
      1.4771212547196624,
      1.4771212547196624,
      1.4771212547196624,
      1.7781512503836436,
      -0.15664262156204442,
      2.881300129474621,
      -0.401647290130716,
      1.4771212547196624,
      -0.12667939818460122,
      1.4771212547196624,
      -0.16228533171508874,
      1.4771212547196624,
      -0.1166793216170247,
      1.4771212547196624,
      -0.10028890542885537,
      1.4771212547196624,
      -0.16304326294044955,
      1.4771212547196624,
      1.4771212547196624,
      -0.2741700096794196,
      1.4771212547196624,
      2.026279068633948,
      -0.15626903488790797,
      1.4771212547196624,
      -0.08942895151874147,
      1.4771212547196624,
      1.4771212547196624,
      1.4771212547196624,
      1.4771212547196624,
      -0.0919977988274464
    ]
  }
}