{
  "results": {
    "Vanilla Verifier": [
      0.0,
      1.0,
      1.0,
      1.0,
      1.0,
      1.0,
      0.0,
      1.0,
      1.0,
      1.0,
      1.0,
      1.0,
      1.0,
      1.0,
      0.0,
      0.0,
      1.0,
      1.0,
      1.0,
      1.0,
      1.0,
      1.0,
      1.0,
      1.0,
      1.0,
      1.0,
      1.0,
      0.0,
      1.0,
      1.0,
      1.0,
      0.0,
      0.0,
      0.0,
      0.0,
      1.0,
      0.0,
      1.0,
      1.0,
      0.0,
      0.0,
      1.0,
      1.0,
      0.0,
      1.0,
      1.0,
      1.0,
      1.0,
      1.0,
      1.0,
      0.0,
      1.0,
      0.0,
      1.0,
      1.0,
      1.0,
      1.0,
      1.0,
      0.0,
      0.0,
      0.0,
      1.0,
      0.0,
      1.0,
      1.0,
      0.0,
      1.0,
      1.0,
      0.0,
      1.0,
      1.0,
      1.0,
      1.0,
      1.0,
      0.0,
      1.0,
      1.0,
      1.0,
      1.0,
      0.0,
      0.0,
      0.0,
      1.0,
      1.0,
      0.0,
      1.0,
      0.0,
      0.0,
      0.0,
      0.0,
      1.0,
      1.0,
      1.0,
      1.0,
      1.0,
      1.0,
      1.0,
      1.0,
      1.0,
      0.0,
      1.0,
      1.0,
      0.0,
      1.0,
      1.0,
      0.0,
      0.0,
      1.0,
      0.0,
      1.0,
      1.0,
      0.0,
      0.0,
      1.0,
      0.0,
      1.0,
      1.0,
      1.0,
      0.0,
      1.0,
      1.0,
      1.0,
      1.0,
      0.0,
      1.0,
      1.0,
      0.0,
      1.0,
      0.0,
      0.0,
      0.0,
      1.0,
      1.0,
      0.0,
      1.0,
      1.0,
      0.0,
      1.0,
      1.0,
      1.0,
      1.0,
      1.0,
      1.0,
      1.0,
      0.0,
      1.0,
      1.0,
      1.0,
      1.0,
      0.0,
      0.0,
      1.0,
      1.0,
      1.0,
      1.0,
      1.0,
      1.0,
      1.0,
      1.0,
      0.0,
      1.0,
      1.0,
      0.0,
      1.0,
      1.0,
      1.0,
      1.0,
      1.0,
      1.0,
      0.0,
      1.0,
      1.0,
      0.0,
      0.0,
      1.0,
      0.0,
      1.0,
      1.0,
      1.0,
      1.0,
      1.0,
      1.0,
      1.0,
      1.0,
      1.0,
      1.0,
      0.0,
      1.0,
      0.0,
      0.0,
      1.0,
      1.0,
      1.0,
      1.0,
      1.0,
      0.0,
      0.0,
      1.0,
      0.0,
      0.0,
      1.0,
      0.0,
      1.0,
      0.0,
      1.0,
      1.0,
      1.0,
      1.0,
      0.0,
      0.0,
      1.0,
      1.0,
      1.0,
      1.0,
      1.0,
      1.0,
      1.0,
      1.0,
      1.0,
      1.0,
      1.0,
      1.0,
      1.0,
      1.0,
      1.0,
      1.0,
      0.0,
      0.0,
      1.0,
      0.0,
      1.0,
      1.0,
      1.0,
      1.0,
      0.0,
      1.0,
      1.0,
      1.0,
      1.0,
      1.0,
      1.0,
      0.0,
      1.0,
      0.0,
      1.0,
      1.0,
      1.0,
      0.0,
      0.0,
      1.0,
      1.0,
      0.0,
      1.0,
      0.0,
      0.0,
      0.0,
      0.0,
      1.0,
      1.0,
      1.0,
      0.0,
      1.0,
      0.0,
      0.0,
      1.0,
      0.0,
      1.0,
      1.0,
      1.0,
      1.0,
      0.0,
      1.0,
      1.0,
      1.0,
      1.0,
      1.0,
      1.0,
      1.0,
      0.0,
      0.0,
      0.0,
      0.0,
      1.0,
      1.0,
      1.0,
      1.0,
      1.0,
      1.0,
      1.0,
      1.0,
      1.0,
      1.0,
      1.0,
      1.0,
      0.0,
      1.0,
      0.0,
      0.0,
      0.0,
      0.0,
      1.0,
      1.0,
      1.0,
      1.0,
      1.0,
      0.0,
      1.0,
      0.0,
      1.0,
      1.0,
      1.0,
      0.0,
      1.0,
      0.0,
      1.0,
      1.0,
      1.0,
      0.0,
      0.0,
      0.0,
      1.0,
      1.0,
      1.0,
      1.0,
      1.0,
      0.0,
      1.0,
      1.0,
      1.0,
      1.0,
      1.0,
      1.0,
      1.0,
      1.0,
      1.0,
      1.0,
      1.0,
      1.0,
      1.0,
      1.0,
      0.0,
      1.0,
      1.0,
      1.0,
      1.0,
      1.0,
      1.0,
      0.0,
      1.0,
      0.0,
      1.0,
      1.0,
      1.0,
      1.0,
      1.0,
      1.0,
      1.0,
      1.0,
      1.0,
      1.0,
      1.0,
      0.0,
      1.0,
      1.0,
      1.0,
      0.0,
      1.0,
      1.0,
      1.0,
      1.0,
      0.0,
      1.0,
      1.0,
      0.0,
      1.0,
      1.0,
      0.0,
      1.0,
      1.0,
      0.0,
      1.0,
      1.0,
      1.0,
      1.0,
      0.0,
      1.0,
      0.0,
      1.0,
      1.0,
      0.0,
      1.0,
      1.0,
      0.0,
      0.0,
      1.0,
      1.0,
      1.0,
      1.0,
      1.0,
      1.0,
      1.0,
      1.0,
      0.0,
      1.0,
      1.0,
      1.0,
      1.0,
      1.0,
      1.0,
      0.0,
      1.0,
      1.0,
      1.0,
      0.0,
      1.0,
      0.0,
      1.0,
      1.0,
      1.0,
      1.0,
      1.0,
      1.0,
      1.0,
      1.0,
      1.0,
      1.0,
      1.0,
      1.0,
      0.0,
      1.0,
      1.0,
      1.0,
      1.0,
      0.0,
      0.0,
      1.0,
      0.0,
      1.0,
      1.0,
      1.0,
      1.0,
      1.0,
      0.0,
      1.0,
      1.0,
      1.0,
      1.0,
      0.0,
      1.0,
      1.0,
      1.0,
      1.0,
      1.0,
      1.0,
      0.0,
      1.0,
      0.0,
      1.0,
      1.0,
      1.0,
      1.0,
      0.0,
      1.0,
      0.0,
      0.0,
      0.0,
      0.0,
      1.0,
      1.0,
      0.0,
      1.0,
      0.0,
      1.0,
      1.0,
      1.0,
      1.0,
      0.0,
      1.0,
      1.0,
      1.0,
      0.0,
      0.0,
      1.0,
      1.0,
      1.0,
      1.0,
      1.0,
      0.0,
      0.0,
      0.0,
      1.0,
      1.0,
      1.0,
      1.0,
      1.0,
      0.0,
      1.0,
      1.0,
      1.0,
      1.0,
      1.0,
      1.0,
      0.0,
      1.0,
      1.0,
      1.0,
      1.0,
      0.0,
      1.0,
      1.0,
      1.0,
      1.0,
      1.0,
      0.0,
      0.0,
      0.0,
      1.0,
      0.0,
      1.0,
      1.0,
      1.0,
      1.0,
      1.0,
      1.0,
      0.0,
      1.0,
      1.0,
      1.0,
      1.0,
      0.0,
      1.0,
      1.0,
      1.0,
      1.0,
      0.0,
      1.0,
      0.0,
      1.0,
      1.0,
      1.0,
      1.0,
      1.0,
      1.0,
      1.0,
      0.0,
      1.0,
      1.0,
      0.0,
      1.0,
      1.0,
      1.0,
      1.0,
      0.0,
      1.0,
      1.0,
      1.0,
      1.0,
      0.0,
      0.0,
      1.0,
      1.0,
      1.0,
      1.0,
      1.0,
      1.0,
      1.0,
      0.0,
      1.0,
      1.0,
      0.0,
      0.0,
      1.0,
      0.0,
      1.0,
      0.0,
      1.0,
      1.0,
      1.0,
      1.0,
      1.0,
      0.0,
      1.0,
      1.0,
      1.0,
      0.0,
      1.0,
      1.0,
      0.0,
      0.0,
      0.0,
      0.0,
      1.0,
      1.0,
      1.0,
      1.0,
      1.0,
      2.0,
      1.0,
      1.0,
      1.0,
      0.0,
      0.0,
      0.0,
      1.0,
      1.0,
      1.0,
      1.0,
      1.0,
      0.0,
      1.0,
      1.0,
      1.0,
      1.0,
      0.0,
      0.0,
      1.0,
      1.0,
      1.0,
      1.0,
      1.0,
      1.0,
      1.0,
      1.0,
      1.0,
      0.0,
      1.0,
      1.0,
      2.0,
      0.0,
      0.0,
      1.0,
      0.0,
      1.0,
      0.0,
      1.0,
      1.0,
      1.0,
      1.0,
      1.0,
      0.0,
      1.0,
      1.0,
      0.0,
      0.0,
      1.0,
      0.0,
      1.0,
      1.0,
      1.0,
      1.0,
      1.0,
      1.0,
      1.0,
      1.0,
      1.0,
      1.0,
      0.0,
      1.0,
      1.0,
      1.0,
      1.0,
      1.0,
      1.0,
      0.0,
      1.0,
      1.0,
      0.0,
      1.0,
      1.0,
      1.0,
      1.0,
      1.0,
      0.0,
      0.0,
      1.0,
      1.0,
      1.0,
      1.0,
      1.0,
      1.0,
      1.0,
      0.0,
      0.0,
      1.0,
      1.0,
      1.0,
      1.0,
      1.0,
      0.0,
      1.0,
      0.0,
      1.0,
      1.0,
      0.0,
      1.0,
      1.0,
      1.0,
      1.0,
      1.0,
      1.0,
      1.0,
      1.0,
      1.0,
      1.0,
      1.0,
      0.0,
      1.0,
      1.0,
      0.0,
      1.0,
      1.0,
      0.0,
      1.0,
      0.0,
      0.0,
      1.0,
      0.0,
      1.0,
      1.0,
      1.0,
      0.0,
      1.0,
      1.0,
      1.0,
      1.0,
      1.0,
      1.0,
      1.0,
      0.0,
      0.0,
      1.0,
      1.0,
      1.0,
      0.0,
      0.0,
      0.0,
      1.0,
      0.0,
      1.0,
      1.0,
      1.0,
      0.0,
      0.0,
      1.0,
      1.0,
      0.0,
      1.0,
      0.0,
      0.0,
      1.0,
      1.0,
      1.0,
      1.0,
      1.0,
      1.0,
      1.0,
      1.0,
      0.0,
      1.0,
      1.0,
      0.0,
      1.0,
      1.0,
      0.0,
      1.0,
      1.0,
      1.0,
      1.0,
      1.0,
      1.0,
      1.0,
      1.0,
      1.0,
      0.0,
      1.0,
      0.0,
      1.0,
      0.0,
      1.0,
      1.0,
      1.0,
      1.0,
      0.0,
      1.0,
      1.0,
      1.0,
      1.0,
      1.0,
      1.0,
      1.0,
      0.0,
      1.0,
      0.0,
      1.0,
      1.0,
      1.0,
      1.0,
      1.0,
      1.0,
      1.0,
      1.0,
      1.0,
      1.0,
      1.0,
      1.0,
      1.0,
      1.0,
      0.0,
      1.0,
      1.0,
      1.0,
      1.0,
      1.0,
      1.0,
      1.0,
      1.0,
      0.0,
      1.0,
      1.0,
      0.0,
      1.0,
      1.0,
      1.0,
      0.0,
      1.0,
      1.0,
      1.0,
      1.0,
      1.0,
      0.0,
      1.0,
      1.0,
      1.0,
      1.0,
      1.0,
      0.0,
      1.0,
      1.0,
      1.0,
      1.0,
      1.0,
      1.0,
      0.0,
      1.0,
      0.0,
      1.0,
      1.0,
      0.0,
      0.0,
      1.0,
      1.0,
      1.0,
      1.0,
      1.0,
      1.0,
      0.0,
      1.0,
      0.0,
      1.0,
      1.0,
      1.0,
      1.0,
      1.0,
      1.0,
      1.0,
      1.0,
      1.0,
      1.0,
      0.0,
      0.0,
      1.0,
      2.0,
      1.0,
      0.0,
      1.0,
      1.0,
      1.0,
      0.0,
      1.0,
      1.0,
      1.0,
      0.0,
      1.0,
      0.0,
      0.0,
      1.0,
      1.0,
      1.0,
      1.0,
      0.0,
      1.0,
      1.0,
      1.0,
      0.0,
      1.0,
      1.0,
      0.0,
      1.0,
      1.0,
      1.0,
      0.0,
      0.0,
      1.0,
      1.0,
      1.0,
      0.0,
      0.0,
      1.0,
      1.0,
      1.0,
      1.0,
      1.0,
      1.0,
      1.0,
      0.0,
      1.0,
      1.0,
      1.0,
      1.0,
      1.0,
      1.0,
      1.0,
      1.0,
      1.0,
      1.0,
      0.0,
      1.0,
      1.0,
      0.0,
      1.0,
      1.0,
      1.0,
      1.0,
      0.0,
      1.0,
      0.0,
      1.0,
      0.0,
      1.0,
      1.0,
      1.0,
      0.0,
      1.0,
      1.0,
      0.0,
      1.0,
      1.0,
      1.0,
      1.0,
      1.0,
      1.0,
      1.0,
      1.0,
      1.0,
      1.0,
      1.0,
      0.0,
      1.0,
      0.0,
      1.0,
      0.0,
      1.0,
      1.0,
      1.0,
      1.0,
      0.0,
      1.0,
      1.0,
      1.0,
      0.0,
      1.0,
      1.0,
      1.0,
      1.0,
      1.0,
      1.0,
      1.0,
      0.0,
      0.0,
      1.0,
      1.0,
      0.0,
      1.0,
      1.0,
      1.0,
      1.0,
      0.0,
      1.0,
      0.0,
      1.0,
      0.0,
      1.0,
      0.0,
      0.0,
      1.0,
      0.0,
      1.0,
      1.0,
      0.0,
      1.0
    ],
    "Timeout Prediction": [
      0.0,
      1.0,
      1.0,
      1.0,
      1.0,
      1.0,
      0.0,
      1.0,
      1.0,
      1.0,
      1.0,
      1.0,
      1.0,
      1.0,
      0.0,
      0.0,
      1.0,
      1.0,
      1.0,
      1.0,
      1.0,
      1.0,
      1.0,
      1.0,
      1.0,
      1.0,
      1.0,
      0.0,
      1.0,
      1.0,
      1.0,
      0.0,
      0.0,
      0.0,
      0.0,
      1.0,
      0.0,
      1.0,
      1.0,
      0.0,
      0.0,
      1.0,
      1.0,
      0.0,
      1.0,
      1.0,
      1.0,
      1.0,
      1.0,
      1.0,
      0.0,
      1.0,
      0.0,
      1.0,
      1.0,
      1.0,
      1.0,
      1.0,
      0.0,
      0.0,
      0.0,
      1.0,
      0.0,
      1.0,
      1.0,
      0.0,
      1.0,
      1.0,
      0.0,
      1.0,
      1.0,
      1.0,
      1.0,
      1.0,
      0.0,
      1.0,
      1.0,
      1.0,
      1.0,
      0.0,
      0.0,
      0.0,
      1.0,
      1.0,
      0.0,
      1.0,
      0.0,
      0.0,
      0.0,
      0.0,
      1.0,
      1.0,
      1.0,
      1.0,
      1.0,
      1.0,
      1.0,
      1.0,
      1.0,
      0.0,
      1.0,
      1.0,
      0.0,
      1.0,
      1.0,
      0.0,
      0.0,
      1.0,
      0.0,
      1.0,
      1.0,
      0.0,
      0.0,
      1.0,
      0.0,
      1.0,
      1.0,
      1.0,
      0.0,
      1.0,
      1.0,
      1.0,
      1.0,
      0.0,
      1.0,
      1.0,
      0.0,
      1.0,
      0.0,
      0.0,
      0.0,
      1.0,
      1.0,
      0.0,
      1.0,
      1.0,
      0.0,
      1.0,
      1.0,
      1.0,
      1.0,
      1.0,
      1.0,
      1.0,
      0.0,
      1.0,
      1.0,
      1.0,
      1.0,
      0.0,
      0.0,
      1.0,
      1.0,
      1.0,
      1.0,
      1.0,
      1.0,
      1.0,
      1.0,
      0.0,
      1.0,
      1.0,
      0.0,
      1.0,
      1.0,
      1.0,
      1.0,
      1.0,
      1.0,
      0.0,
      1.0,
      1.0,
      0.0,
      0.0,
      1.0,
      0.0,
      1.0,
      1.0,
      1.0,
      1.0,
      1.0,
      1.0,
      1.0,
      1.0,
      1.0,
      1.0,
      0.0,
      1.0,
      0.0,
      0.0,
      1.0,
      1.0,
      1.0,
      1.0,
      1.0,
      0.0,
      0.0,
      1.0,
      0.0,
      0.0,
      1.0,
      0.0,
      1.0,
      0.0,
      1.0,
      1.0,
      1.0,
      1.0,
      0.0,
      0.0,
      1.0,
      1.0,
      1.0,
      1.0,
      1.0,
      1.0,
      1.0,
      1.0,
      1.0,
      1.0,
      1.0,
      1.0,
      1.0,
      1.0,
      1.0,
      1.0,
      0.0,
      0.0,
      1.0,
      0.0,
      1.0,
      1.0,
      1.0,
      1.0,
      0.0,
      1.0,
      1.0,
      1.0,
      1.0,
      1.0,
      1.0,
      0.0,
      1.0,
      0.0,
      1.0,
      1.0,
      1.0,
      0.0,
      0.0,
      1.0,
      1.0,
      0.0,
      1.0,
      0.0,
      0.0,
      0.0,
      0.0,
      1.0,
      1.0,
      1.0,
      0.0,
      1.0,
      0.0,
      0.0,
      1.0,
      0.0,
      1.0,
      1.0,
      1.0,
      1.0,
      0.0,
      1.0,
      1.0,
      1.0,
      1.0,
      1.0,
      1.0,
      1.0,
      0.0,
      0.0,
      0.0,
      0.0,
      1.0,
      1.0,
      1.0,
      1.0,
      1.0,
      1.0,
      1.0,
      1.0,
      1.0,
      1.0,
      1.0,
      1.0,
      0.0,
      1.0,
      0.0,
      0.0,
      0.0,
      0.0,
      1.0,
      1.0,
      1.0,
      1.0,
      1.0,
      0.0,
      1.0,
      0.0,
      1.0,
      1.0,
      1.0,
      0.0,
      1.0,
      0.0,
      1.0,
      1.0,
      1.0,
      0.0,
      0.0,
      0.0,
      1.0,
      1.0,
      1.0,
      1.0,
      1.0,
      0.0,
      1.0,
      1.0,
      1.0,
      1.0,
      1.0,
      1.0,
      1.0,
      1.0,
      1.0,
      1.0,
      1.0,
      1.0,
      1.0,
      1.0,
      0.0,
      1.0,
      1.0,
      1.0,
      1.0,
      1.0,
      1.0,
      0.0,
      1.0,
      0.0,
      1.0,
      1.0,
      1.0,
      1.0,
      1.0,
      1.0,
      1.0,
      1.0,
      1.0,
      1.0,
      1.0,
      0.0,
      1.0,
      1.0,
      1.0,
      0.0,
      1.0,
      1.0,
      1.0,
      1.0,
      0.0,
      1.0,
      1.0,
      0.0,
      1.0,
      1.0,
      0.0,
      1.0,
      1.0,
      0.0,
      1.0,
      1.0,
      1.0,
      1.0,
      0.0,
      1.0,
      0.0,
      1.0,
      1.0,
      0.0,
      1.0,
      1.0,
      0.0,
      0.0,
      1.0,
      1.0,
      1.0,
      1.0,
      1.0,
      1.0,
      1.0,
      1.0,
      0.0,
      1.0,
      1.0,
      1.0,
      1.0,
      1.0,
      1.0,
      0.0,
      1.0,
      1.0,
      1.0,
      0.0,
      1.0,
      0.0,
      1.0,
      1.0,
      1.0,
      1.0,
      1.0,
      1.0,
      1.0,
      1.0,
      1.0,
      1.0,
      1.0,
      1.0,
      0.0,
      1.0,
      1.0,
      1.0,
      1.0,
      0.0,
      0.0,
      1.0,
      0.0,
      1.0,
      1.0,
      1.0,
      1.0,
      1.0,
      0.0,
      1.0,
      1.0,
      1.0,
      1.0,
      0.0,
      1.0,
      1.0,
      1.0,
      1.0,
      1.0,
      1.0,
      0.0,
      1.0,
      0.0,
      1.0,
      1.0,
      1.0,
      1.0,
      0.0,
      1.0,
      0.0,
      0.0,
      0.0,
      0.0,
      1.0,
      1.0,
      0.0,
      1.0,
      0.0,
      1.0,
      1.0,
      1.0,
      1.0,
      0.0,
      1.0,
      1.0,
      1.0,
      0.0,
      0.0,
      1.0,
      1.0,
      1.0,
      1.0,
      1.0,
      0.0,
      0.0,
      0.0,
      1.0,
      1.0,
      1.0,
      1.0,
      1.0,
      0.0,
      1.0,
      1.0,
      1.0,
      1.0,
      1.0,
      1.0,
      0.0,
      1.0,
      1.0,
      1.0,
      1.0,
      0.0,
      1.0,
      1.0,
      1.0,
      1.0,
      1.0,
      0.0,
      0.0,
      0.0,
      1.0,
      0.0,
      1.0,
      1.0,
      1.0,
      1.0,
      1.0,
      1.0,
      0.0,
      1.0,
      1.0,
      1.0,
      1.0,
      0.0,
      1.0,
      1.0,
      1.0,
      1.0,
      0.0,
      1.0,
      0.0,
      1.0,
      1.0,
      1.0,
      1.0,
      1.0,
      1.0,
      1.0,
      0.0,
      1.0,
      1.0,
      0.0,
      1.0,
      1.0,
      1.0,
      1.0,
      0.0,
      1.0,
      1.0,
      1.0,
      1.0,
      0.0,
      0.0,
      1.0,
      1.0,
      1.0,
      1.0,
      1.0,
      1.0,
      1.0,
      0.0,
      1.0,
      1.0,
      0.0,
      0.0,
      1.0,
      0.0,
      1.0,
      0.0,
      1.0,
      1.0,
      1.0,
      1.0,
      1.0,
      0.0,
      1.0,
      1.0,
      1.0,
      0.0,
      1.0,
      1.0,
      0.0,
      0.0,
      0.0,
      0.0,
      1.0,
      1.0,
      1.0,
      1.0,
      1.0,
      2.0,
      1.0,
      1.0,
      1.0,
      0.0,
      0.0,
      0.0,
      1.0,
      1.0,
      1.0,
      1.0,
      1.0,
      0.0,
      1.0,
      1.0,
      1.0,
      1.0,
      0.0,
      0.0,
      1.0,
      1.0,
      1.0,
      1.0,
      1.0,
      1.0,
      1.0,
      1.0,
      1.0,
      0.0,
      1.0,
      1.0,
      2.0,
      0.0,
      0.0,
      1.0,
      0.0,
      1.0,
      0.0,
      1.0,
      1.0,
      1.0,
      1.0,
      1.0,
      0.0,
      1.0,
      1.0,
      0.0,
      0.0,
      1.0,
      0.0,
      1.0,
      1.0,
      1.0,
      1.0,
      1.0,
      1.0,
      1.0,
      1.0,
      1.0,
      1.0,
      0.0,
      1.0,
      1.0,
      1.0,
      1.0,
      1.0,
      1.0,
      0.0,
      1.0,
      1.0,
      0.0,
      1.0,
      1.0,
      1.0,
      1.0,
      1.0,
      0.0,
      0.0,
      1.0,
      1.0,
      1.0,
      1.0,
      1.0,
      1.0,
      1.0,
      0.0,
      0.0,
      1.0,
      1.0,
      1.0,
      1.0,
      1.0,
      0.0,
      1.0,
      0.0,
      1.0,
      1.0,
      0.0,
      1.0,
      1.0,
      1.0,
      1.0,
      1.0,
      1.0,
      1.0,
      1.0,
      1.0,
      1.0,
      1.0,
      0.0,
      1.0,
      1.0,
      0.0,
      1.0,
      1.0,
      0.0,
      1.0,
      0.0,
      0.0,
      1.0,
      0.0,
      1.0,
      1.0,
      1.0,
      0.0,
      1.0,
      1.0,
      1.0,
      1.0,
      1.0,
      1.0,
      1.0,
      0.0,
      0.0,
      1.0,
      1.0,
      1.0,
      0.0,
      0.0,
      0.0,
      1.0,
      0.0,
      1.0,
      1.0,
      1.0,
      0.0,
      0.0,
      1.0,
      1.0,
      0.0,
      1.0,
      0.0,
      0.0,
      1.0,
      1.0,
      1.0,
      1.0,
      1.0,
      1.0,
      1.0,
      1.0,
      0.0,
      1.0,
      1.0,
      0.0,
      1.0,
      1.0,
      0.0,
      1.0,
      1.0,
      1.0,
      1.0,
      1.0,
      1.0,
      1.0,
      1.0,
      1.0,
      0.0,
      1.0,
      0.0,
      1.0,
      0.0,
      1.0,
      1.0,
      1.0,
      1.0,
      0.0,
      1.0,
      1.0,
      1.0,
      1.0,
      1.0,
      1.0,
      1.0,
      0.0,
      1.0,
      0.0,
      1.0,
      1.0,
      1.0,
      1.0,
      1.0,
      1.0,
      1.0,
      1.0,
      1.0,
      1.0,
      1.0,
      1.0,
      1.0,
      1.0,
      0.0,
      1.0,
      1.0,
      1.0,
      1.0,
      1.0,
      1.0,
      1.0,
      1.0,
      0.0,
      1.0,
      1.0,
      0.0,
      1.0,
      1.0,
      1.0,
      0.0,
      1.0,
      1.0,
      1.0,
      1.0,
      1.0,
      0.0,
      1.0,
      1.0,
      1.0,
      1.0,
      1.0,
      0.0,
      1.0,
      1.0,
      1.0,
      1.0,
      1.0,
      1.0,
      0.0,
      1.0,
      0.0,
      1.0,
      1.0,
      0.0,
      0.0,
      1.0,
      1.0,
      1.0,
      1.0,
      1.0,
      1.0,
      0.0,
      1.0,
      0.0,
      1.0,
      1.0,
      1.0,
      1.0,
      1.0,
      1.0,
      1.0,
      1.0,
      1.0,
      1.0,
      0.0,
      0.0,
      1.0,
      2.0,
      1.0,
      0.0,
      1.0,
      1.0,
      1.0,
      0.0,
      1.0,
      1.0,
      1.0,
      0.0,
      1.0,
      0.0,
      0.0,
      1.0,
      1.0,
      1.0,
      1.0,
      0.0,
      1.0,
      1.0,
      1.0,
      0.0,
      1.0,
      1.0,
      0.0,
      1.0,
      1.0,
      1.0,
      0.0,
      0.0,
      1.0,
      1.0,
      1.0,
      0.0,
      0.0,
      1.0,
      1.0,
      1.0,
      1.0,
      1.0,
      1.0,
      1.0,
      0.0,
      1.0,
      1.0,
      1.0,
      1.0,
      1.0,
      1.0,
      1.0,
      1.0,
      1.0,
      1.0,
      0.0,
      1.0,
      1.0,
      0.0,
      1.0,
      1.0,
      1.0,
      1.0,
      0.0,
      1.0,
      0.0,
      1.0,
      0.0,
      1.0,
      1.0,
      1.0,
      0.0,
      1.0,
      1.0,
      0.0,
      1.0,
      1.0,
      1.0,
      1.0,
      1.0,
      1.0,
      1.0,
      1.0,
      1.0,
      1.0,
      1.0,
      0.0,
      1.0,
      0.0,
      1.0,
      0.0,
      1.0,
      1.0,
      1.0,
      1.0,
      0.0,
      1.0,
      1.0,
      1.0,
      0.0,
      1.0,
      1.0,
      1.0,
      1.0,
      1.0,
      1.0,
      1.0,
      0.0,
      0.0,
      1.0,
      1.0,
      0.0,
      1.0,
      1.0,
      1.0,
      1.0,
      0.0,
      1.0,
      0.0,
      1.0,
      0.0,
      1.0,
      0.0,
      0.0,
      1.0,
      0.0,
      1.0,
      1.0,
      0.0,
      1.0
    ]
  },
  "running_times": {
    "Vanilla Verifier": [
      -0.59328954139021,
      0.9626628706680376,
      -0.5262211653532752,
      -0.38184726662148055,
      0.5021675583102915,
      0.5211904051885767,
      -0.5848596478041272,
      0.520784748713658,
      0.5095250980938186,
      0.9749857958101829,
      0.5176312941525835,
      0.5003462699170854,
      0.514361776370574,
      0.665158685292156,
      -1.6819366650372385,
      -0.5813673126459346,
      0.5171562948237949,
      -0.5125787886405256,
      -0.3512497873019806,
      0.5759840911285008,
      -0.4071573168688998,
      0.5497877182912781,
      -0.2576677176428517,
      -0.4143137215475031,
      1.049330459364052,
      0.5620786390082062,
      0.5985278815896796,
      -1.4647058799572295,
      0.5776411346955267,
      -0.3942641061232534,
      0.8684857361807288,
      -0.43250310889577737,
      -1.3788237182249647,
      -0.41805034162668214,
      -0.4451475656279455,
      1.1037113808170007,
      -0.4296906145641202,
      -0.24048324053781198,
      1.7520661267040014,
      -0.42562143558691756,
      -0.43592602102285327,
      0.6007878185072967,
      0.6462958744734056,
      -0.42934032997846594,
      0.6005263987315099,
      -0.38668683854454045,
      -0.36121133284260165,
      -0.3064489144040865,
      0.7079021567253236,
      1.3178085298116735,
      -0.42666415993393236,
      0.5961460748344449,
      -0.4251588049366154,
      0.5928426831311002,
      0.8081028924204842,
      -0.36141091670728304,
      0.6669015626988812,
      0.5814376192313901,
      -0.4284076166386928,
      -0.4265481779645147,
      -1.424812155072339,
      0.5783870397109975,
      -0.4300411819034059,
      -0.38468134338852106,
      -0.37540854087315223,
      -0.4285240963180562,
      0.5954190560524389,
      0.5830059633888955,
      -0.4068247365218974,
      0.6757875039082792,
      0.9504962913346652,
      1.4893002144071754,
      0.8796863937278812,
      0.7163623233602032,
      -1.630784142589857,
      -0.2751509123706145,
      0.5807311527409778,
      0.5822111343202181,
      0.6260630696225737,
      -0.3983745204460553,
      -0.3917949922956738,
      -0.3956659268970889,
      -0.3644157336887699,
      0.5897709344582682,
      -0.40329297031855377,
      0.5986373280462209,
      -1.4045037781744258,
      -1.4190750243243806,
      -0.40439356513439695,
      -1.7746907182741372,
      -0.3393242116614759,
      1.0375738939879429,
      -0.2255560310750349,
      0.652352725284198,
      0.6196671388059388,
      0.6086543775120995,
      0.6200527290943953,
      -0.3608124400642461,
      0.6654684163039077,
      -1.3196644865854368,
      -0.3630108981877709,
      1.145572403878877,
      -0.40219515759570706,
      0.647910845166054,
      -0.302160631781637,
      -0.40904676481201424,
      -1.4596705252091262,
      0.7226832713756247,
      -0.40483458520977045,
      -0.20453710560962013,
      -0.31273865375649357,
      -1.6216020990518623,
      -0.4088240496882086,
      -0.29998893767788765,
      -0.39318885308103657,
      -0.1400815147992842,
      0.8011841059512875,
      0.6099463972076676,
      -1.632644078973981,
      0.595341876565994,
      0.6089857572325402,
      0.6432552250247715,
      1.0309759744692302,
      -0.40131890109283663,
      0.11021922368940354,
      -0.35773338109732644,
      -0.4015377995258495,
      -0.030304588881526744,
      -0.39147396642280585,
      -1.322393047279507,
      -1.348721986001856,
      1.3007497853456083,
      0.6089323259900048,
      -0.3977229156998074,
      -0.35193287055106537,
      0.7058722613037501,
      -0.4031830640844095,
      0.7551580595324072,
      0.7131880276730864,
      0.6602106982040694,
      0.624189243859756,
      -0.33310778893346377,
      2.4366509139859995,
      0.640362163527487,
      -0.4007721372262037,
      0.6113833847089759,
      1.0503952250681379,
      0.6359559862832721,
      0.6038910201835583,
      -1.4522252946121774,
      -0.3988094673846665,
      0.6421280342880303,
      0.6325180284245132,
      0.6034799817889321,
      0.6058220121562085,
      1.4404241639793174,
      1.0493963569983844,
      0.6621531751524308,
      -0.34198860334288755,
      -0.38436553112258404,
      -0.11776015198117658,
      0.6174721439721926,
      -1.8961962790440432,
      0.6058327757405283,
      0.6023964391947224,
      0.6299394005351698,
      -0.1823024452369759,
      1.7221113032896869,
      -0.33404397054604323,
      -0.3855246339096047,
      0.60591887481288,
      1.5593786903261737,
      -0.40296333502234655,
      -1.407823242604133,
      0.6073477767684134,
      -1.5391021572434522,
      0.6932871570056555,
      0.612932127083471,
      0.6018536524396919,
      -0.13029902632612209,
      0.8646059984408926,
      0.6111495330107913,
      -0.3281794398167511,
      0.6061125353391593,
      1.3355220872781177,
      0.6205732537412934,
      -1.3477536589966768,
      0.6626256349822157,
      -1.6695862266508092,
      -1.8601209135987635,
      0.6173568617094002,
      0.6013536887684903,
      0.6065425831345698,
      0.7552725212553071,
      0.6209996189059311,
      -1.3736596326249577,
      -1.3555614105321614,
      0.7912554349366292,
      -0.38795825535473044,
      -0.3862638587381287,
      0.7539811711278676,
      -0.6289321377282637,
      1.0363453937664189,
      -1.58838029403677,
      0.4972476454159097,
      1.4760022298225486,
      -0.535212480354063,
      -0.5250556645346122,
      -0.583359492661719,
      -0.5953372991262778,
      0.5532274510288577,
      0.5329835648629623,
      0.6169478869289271,
      -0.3346066497202881,
      0.5095922712308376,
      0.5608746322896734,
      0.5257960697118919,
      0.5114822886260014,
      -0.519418213170831,
      0.5457893980055621,
      0.7307903479795074,
      0.6430478043287589,
      0.6903733069160591,
      0.6031443726201823,
      0.7092275473343201,
      -0.3523236867591291,
      -1.7375489102695705,
      -0.48320029591837566,
      0.5563025007672873,
      -1.575118363368933,
      0.5728599898933122,
      -0.3063609738384518,
      -0.41816407594235205,
      0.5752571417097515,
      -0.47508485246013316,
      0.6489451821656725,
      1.4621688096569774,
      -0.3714067441487408,
      0.5758111182698875,
      0.5785360671053181,
      -0.3990271043132517,
      -1.3645162531850878,
      -0.4008814349446372,
      -0.45333397492981575,
      -0.3823707022421579,
      0.5737532302778234,
      0.6021794058917357,
      -0.4400933749638875,
      -1.3840499483435988,
      0.5811528919662888,
      0.5711612524127256,
      -0.43997375108710773,
      -0.3921162556430101,
      -1.5128616245228135,
      -0.43415218132648237,
      -0.43616308133545506,
      -0.4514877436589645,
      0.6316060917517103,
      0.6622949670769994,
      0.6417318343956582,
      -1.5058454059815571,
      0.5866885532400522,
      -0.4303920324531756,
      -0.43238555726915545,
      0.5886749931215283,
      -0.4463596637686458,
      -0.39351114955735195,
      0.6034908035743607,
      1.407776583841622,
      1.0579588307608698,
      -0.4335625078049297,
      -0.21239785381766246,
      0.7875879810954333,
      0.7554937284151192,
      -0.2220659511622206,
      -0.38520820804358247,
      0.7168877351394243,
      0.5816766459601761,
      -0.4396150770279845,
      -0.44153143747620505,
      -1.7619538968712045,
      -0.4198736745884175,
      0.5836634358455982,
      -0.37716452047847976,
      0.5779855577456475,
      0.9572384350433439,
      -0.37613073164969774,
      0.6294707630323888,
      -0.10385974855798041,
      -0.17108243838331408,
      0.9382244246374893,
      0.8854008023601224,
      -0.3598168080786599,
      0.6618978329705119,
      -0.4082677610481644,
      1.040068042960068,
      -1.4306260903849541,
      -1.3555614105321614,
      -1.4596705252091262,
      -1.585026652029182,
      1.319545338923661,
      0.7425208942012637,
      1.5314635887312162,
      -0.15602015552183995,
      0.7524633275018252,
      -0.38436553112258404,
      0.7203991331728834,
      -1.586700235918748,
      0.628552398380802,
      -0.34794715175189506,
      0.586103235445237,
      -0.42342831593470925,
      -0.3495953301319682,
      -0.40450377817442584,
      1.0947400773274925,
      0.847967292955639,
      1.0358138288447192,
      -0.4098271684036857,
      -1.4001169279263121,
      -0.4240043797967324,
      1.8408541684724582,
      -0.34198860334288755,
      0.6337612531351143,
      1.8478686681154506,
      0.624364614263031,
      -1.348721986001856,
      1.5325696690444144,
      0.5976293787457663,
      -0.34843126113420814,
      0.6143276217508506,
      0.61761882260783,
      0.7062482516702632,
      0.7083104002023299,
      -0.3478503945983471,
      0.5969048408813603,
      0.6239208932516295,
      0.5940056017883414,
      0.7386616659850448,
      -0.33790355458207655,
      0.7083189011953697,
      -1.6903698325741012,
      0.624828488500072,
      0.634920407280106,
      0.5959148826640114,
      0.8655362764253242,
      0.6404516216805098,
      0.6131438541166735,
      -1.4749551929631548,
      -0.23150989482875495,
      -1.3635121036466347,
      0.6335088531873458,
      0.6054882086577447,
      0.6317784932109055,
      1.031299371937026,
      -0.3359224098149253,
      0.6433539619768629,
      -0.33677036546713224,
      0.8168707364005382,
      0.7461981289915504,
      -0.10879717273970452,
      0.6108836395070081,
      -1.5670307091255944,
      0.6109793799229971,
      1.0031803907712522,
      -0.2709162429563881,
      -0.3920091414528251,
      0.7818558609230454,
      0.6622098974775821,
      -0.17146899335489862,
      -0.3393242116614759,
      -0.38184726662148055,
      0.683092087197129,
      -0.34717369743899534,
      -0.38489201255680594,
      -0.33998877871066924,
      0.7918519885644458,
      -1.4034029043735399,
      -0.3526170298853802,
      -0.10551778498990941,
      -1.5451551399914898,
      0.6926971367332714,
      0.6275399491989606,
      0.8549554791902111,
      0.6105217628959148,
      -1.269217724333611,
      0.6361668210356062,
      -0.38795825535473044,
      0.6195315798227682,
      0.6085902102857171,
      -0.3962062958630371,
      -0.340654364253823,
      0.8484785501789879,
      -1.5228787452803376,
      -0.3881705205016262,
      1.1596844729977598,
      -0.09183679994445211,
      0.6170422999134443,
      -0.2186036948032093,
      0.9287234980526415,
      -0.3335756274812404,
      -0.6470460882899123,
      1.196452541703389,
      -0.6124322205828113,
      0.5438322204735402,
      0.5785589898585116,
      -0.5279753022997186,
      -0.4824082692880922,
      -0.49825627037200554,
      -0.508778423760717,
      -0.5603515704365263,
      0.8939336709280239,
      0.5103707212801141,
      0.5291222348209624,
      -0.5611413405794381,
      0.5897485959307884,
      -1.5451551399914898,
      1.174655717316623,
      0.6751823814533959,
      0.5680138804300253,
      -0.38069792412439185,
      0.6931199192342886,
      -0.17217857231719783,
      -0.3934036908207148,
      1.3782452350534804,
      0.6110325599245211,
      0.6137361412618713,
      -0.26448094118482884,
      -0.43226803745193093,
      -0.4343882750979413,
      0.5818586733037129,
      -0.4008814349446372,
      0.7013348021680134,
      1.440995617633535,
      -1.5086383061657274,
      -0.4500163888403112,
      0.5945803725082334,
      -0.4555598626823076,
      -0.3839448050234139,
      -0.01349698461325953,
      0.5719183603628137,
      1.1482817505788718,
      -0.38048927916150144,
      -1.5934598195660448,
      0.8693960162916041,
      -0.37934352018037915,
      -0.37788963963878053,
      -0.39458720184694884,
      -1.764471553092451,
      -0.38647529714634754,
      0.7617549878842522,
      0.697560605754006,
      1.7428570488317299,
      0.6390081035232407,
      0.6169793602043557,
      -1.2992962828549806,
      0.5780888314190883,
      -0.4255057317146725,
      -0.3802807343882729,
      0.5799664189650807,
      1.0486748149922294,
      0.5774917998372253,
      -0.4282911681913124,
      1.0150452391744156,
      -0.4355706730020165,
      -1.490797477668897,
      -1.4045037781744258,
      -1.359518563029578,
      1.7195434095751119,
      0.6660216278955743,
      -0.4336803784751887,
      -0.36602684421032644,
      -0.4142009909869991,
      -0.285921835018144,
      0.6516946592276465,
      -0.3672391115205612,
      0.5897485959307884,
      -0.4212462155735654,
      -0.22388020094701225,
      0.5883389472339536,
      0.6433835786856866,
      -1.4881166390211256,
      -0.41646118074564786,
      2.098693900368683,
      0.5930866002854498,
      -0.36111157529492444,
      0.5932971458200115,
      -0.3026834582676166,
      -1.8239087409443189,
      -0.39674733801835316,
      -0.41499072009753896,
      0.8931956456420568,
      0.6305905778392911,
      0.6369891018122291,
      -0.35115229162710637,
      0.6350109932877609,
      -1.4473317838878068,
      0.6306820713927744,
      -0.19443118245144422,
      0.6110538301019132,
      -0.3451499094386058,
      0.5898379431474597,
      -0.35684353438029376,
      -0.39555793373927683,
      -0.36381310480127577,
      -0.2018329402840608,
      0.6336905959346162,
      0.6038693962798544,
      -0.4209026734473562,
      0.5868684924328911,
      0.667350204407376,
      0.587486465410964,
      0.7887762407364219,
      -0.19715788726092556,
      -0.41646118074564786,
      -1.3819519032879073,
      -0.3992448503603819,
      0.6149393784992522,
      -1.530177984021837,
      -0.35056777675838335,
      -0.34717369743899534,
      1.328669036626327,
      -0.35027581407047764,
      0.6527490190868434,
      0.690045380289448,
      -0.40131890109283663,
      0.598144601640786,
      1.2685803118252565,
      -0.25344363858963087,
      -0.2627278234644566,
      -0.38310457359924005,
      0.8489461620485549,
      0.6082371209721694,
      -0.24473510858775324,
      0.6216124351375326,
      -1.6038006529042637,
      0.6209372501434635,
      -1.3635121036466347,
      0.9203842421783575,
      1.115673737685975,
      -0.2583757424961879,
      0.6250138995525124,
      0.6056928283323707,
      0.6051433679800674,
      1.4917635804615945,
      -0.36744148546732813,
      0.6132496789379538,
      -0.3391345219961308,
      -1.5718652059712113,
      2.114162448708799,
      -0.3335756274812404,
      -0.3376199799837524,
      -0.1304162922865762,
      -1.3904055907747799,
      0.6044312681532895,
      0.6535501670797761,
      0.6101169554119278,
      0.6107772365071856,
      -0.3816380688901218,
      -0.39126008093121206,
      -0.23054882059796242,
      0.6764283804419234,
      0.615950051656401,
      0.605638990395859,
      0.6052619378496549,
      0.6152870627502501,
      0.5996756960589872,
      -0.3862638587381287,
      0.6782360413955298,
      -0.34843126113420814,
      -0.3702846673528678,
      -0.3928667956084333,
      -0.33856594960607994,
      -0.4016472901307161,
      -0.19969542244380148,
      -0.3723269682333841,
      -0.20204035626280387,
      -0.2767906895948886,
      0.9687630481972486,
      0.6227216123719105,
      -0.3351700588569095,
      -0.40197592766581036,
      0.6178073366619682,
      0.7768972258721076,
      -0.34640161815671017,
      -0.4062710012920891,
      0.7117397605802968,
      -0.26480045157768667,
      -0.39544996742873867,
      -1.3777859770337046,
      -0.38038499425719363,
      -0.40033522121158327,
      0.6589267449862752,
      -0.24435378054332005,
      0.6035665485228733,
      0.6183933020800159,
      -0.3358282946380691,
      2.779630180237355,
      0.6165595288778304,
      1.1149677463320542,
      0.7851019486186022,
      -0.6169030700509057,
      -0.5958507507903049,
      -1.679853713888946,
      0.6530966864691755,
      0.4987790632865937,
      -0.5329841815615645,
      0.50711343009751,
      0.7057867635316213,
      -0.5601937886066698,
      0.5359014542266837,
      0.5392392423736396,
      1.4401468246394946,
      -0.5041782466140943,
      -1.6126101736612706,
      -0.5802094138936372,
      0.5488682907918564,
      0.5173146856647701,
      0.5099279811573473,
      0.7196544011983894,
      0.5460735695945912,
      0.5882829142972504,
      -0.40904676481201424,
      0.7400704294351904,
      0.540154219758759,
      -0.5749551254486112,
      1.0205021568619497,
      0.5600262489128923,
      2.7783344116435464,
      -0.4732731326853644,
      -1.4672456210075022,
      -0.24572813131654084,
      -0.46571999479491855,
      0.5520838978512889,
      -0.4779471991311775,
      -0.36632959394855624,
      0.5565798780890685,
      0.6134612512527062,
      0.6479401527533313,
      0.5651627928332397,
      -0.46750041390533753,
      2.0444558723098827,
      -0.3853136577179874,
      -0.4438181533470888,
      -0.4601714416221018,
      -0.3129171553956293,
      -0.43497907165470623,
      0.605563606070499,
      0.6046687645201794,
      0.42803755303530794,
      0.6415038556828313,
      1.5097359868459272,
      -0.3957739469155299,
      2.2615785396720716,
      1.373994548616696,
      -0.3703865546218168,
      0.5727322340176818,
      -0.42585293584927725,
      -0.39512622944736425,
      0.5870483571032448,
      -0.26680273489343054,
      -0.38742804593482383,
      0.5786850433786899,
      1.1256666552305026,
      -1.3115801779972893,
      0.6398648379550779,
      0.594834355583318,
      -1.3555614105321614,
      0.609252814885003,
      0.5774458403174297,
      -0.23195418589758326,
      0.6062953576874299,
      -0.2321765019924832,
      -0.43592602102285327,
      -1.6675615400843946,
      -0.37171326891048556,
      0.579989266348199,
      1.347601242663674,
      -0.3684547721656906,
      -0.2933675491267053,
      0.5910423349435228,
      0.5801605834199803,
      -0.42666415993393236,
      -0.42980743890427414,
      0.5810389487721672,
      0.5904070999550848,
      -0.35369431971524123,
      -0.3609121289162627,
      0.7260014207439482,
      -0.40219515759570706,
      0.8253482104249102,
      -0.40483458520977045,
      -0.3513473048687771,
      -0.21688286250953287,
      -0.4008814349446372,
      0.7035321083282002,
      0.6815306705631764,
      0.6391775920802146,
      1.2609819738694714,
      -0.1290111862394247,
      0.5860243823869757,
      1.0508783478479367,
      -0.09312646527792956,
      -0.12749410065407502,
      0.6620397082721241,
      0.6024723752344149,
      -1.454692883534176,
      1.716961075421783,
      0.6547827826810092,
      -1.342944147142896,
      -0.33338843158097003,
      1.2542724773216263,
      -1.5670307091255944,
      0.6819734916478776,
      -0.41005039867429227,
      -0.39136701050996303,
      1.0764875217945011,
      -1.4841261562883208,
      0.7359978840917938,
      0.7478156149651696,
      0.59027324779574,
      -0.4106089768630669,
      -0.3448615651886179,
      0.6605239769302131,
      0.5973221466588429,
      0.5995555909859803,
      0.7830813562766958,
      -0.34132097141755124,
      -0.3529105712834451,
      -0.40815658877521555,
      -1.537602002101044,
      0.7232093104051114,
      -0.3359224098149253,
      -0.3538904780211521,
      -1.4788619162959638,
      -0.3865810549654269,
      -0.395342027952129,
      0.6253947738662713,
      -1.3178549236261683,
      0.6095517246232983,
      0.623993157805401,
      0.627775375229303,
      -0.3890206200770029,
      -1.38933983691012,
      0.6174616650309115,
      -0.11781711236973003,
      -0.36461679595250146,
      -0.3439976793170428,
      -1.530177984021837,
      -1.595166283380062,
      -0.3330142816703394,
      0.6039775050332511,
      0.605563606070499,
      0.6313118371004245,
      0.6238279640103688,
      0.6087613018255882,
      0.6105962915577546,
      -0.2248995011209752,
      -1.3565473235138126,
      -0.3561526897002858,
      -0.3332948638801011,
      -0.3816380688901218,
      0.6213840284816531,
      -0.114638779968488,
      -0.40395299245456084,
      -0.33629907461035186,
      -0.3386606599939601,
      0.6616802007837302,
      0.6415831662008965,
      -0.34275287011628364,
      -0.3420840631700448,
      0.8062681810922926,
      -0.3255062827036498,
      0.8668778143374989,
      -0.388382889445664,
      0.6567400614674078,
      -1.2992962828549806,
      -0.3482375526198891,
      -1.4801720062242814,
      0.641910169077627,
      0.6276627960937485,
      1.1232536664000394,
      -0.34275287011628364,
      -0.39783144862100284,
      -0.23500240071511946,
      0.616107757092463,
      0.6808610633535207,
      0.9562260763593808,
      -0.34084471905937025,
      0.6125189622425367,
      2.505387825123994,
      -0.38184726662148055,
      -0.34141628459293727,
      -1.258060922270801,
      0.611617110554336,
      1.032195540597734,
      0.6770591773921614,
      0.608504639233393,
      -0.3311483519174812,
      0.6191246488110936,
      0.5957386536047723,
      0.6631636129811933,
      -0.6294869104014075,
      2.0303045604786667,
      -0.47172622283295623,
      0.49998933433418385,
      -0.5350635708782673,
      0.517565353082339,
      -0.6133227160391622,
      0.5939281706820063,
      -0.5107448316307395,
      0.5732198271144219,
      0.506139584266144,
      0.8119568562460184,
      0.5814262337241236,
      1.084068410592443,
      -0.48174934869150005,
      -0.5597207867644117,
      -0.5010006364198468,
      0.7432902102245429,
      -0.5651118791326841,
      0.6985181030454157,
      0.5565075358653749,
      0.6465605536986037,
      -1.350665141287858,
      -0.42136079003192767,
      -0.43226803745193093,
      -0.41150419899279,
      0.6341244515521872,
      -0.4246966665776009,
      -0.47495519296315475,
      0.557362814089654,
      -0.3891269996199483,
      0.5990529732186681,
      1.2266720668409383,
      1.0158415716843658,
      -0.4561801948573423,
      0.8200831786195226,
      0.6062523475876767,
      0.7944392467847542,
      0.6984050542123487,
      0.5737648187261024,
      0.5865197925102743,
      -0.41770931728100597,
      -0.3863695650747594,
      -0.4281747509591709,
      -0.27556027660292537,
      0.6308650006947316,
      -1.3615107430453628,
      -0.4490382477018239,
      0.6124447628263396,
      -0.3808022842070527,
      -0.2149550416684559,
      1.5152378253184304,
      0.5934079182742934,
      -0.35773338109732644,
      -0.4279420100736954,
      -0.3851027839668654,
      -1.576754126063192,
      -0.3701828039814842,
      -0.3784083241407822,
      -0.3784083241407822,
      0.868344618843333,
      0.6078623183483567,
      -0.38721614328026455,
      -0.3679478332941902,
      1.162268603238059,
      -0.3573376685579645,
      0.5802176740961288,
      -0.40871273494150073,
      -0.4056074496245733,
      0.5846138761717827,
      2.778778136103467,
      -0.34132097141755124,
      -1.4225082001627747,
      -0.25758911941950746,
      0.6798184043122135,
      0.5990857703753139,
      -0.40011692792631215,
      1.4777909991834235,
      0.6176607216920046,
      -0.3403689883929994,
      -0.42342831593470925,
      1.4508000970370758,
      -0.40804544495326456,
      -0.42067379624474494,
      0.6712376579501715,
      0.8166323204659702,
      1.5469471585439578,
      1.2914376749003977,
      -1.5528419686577808,
      0.6508609686715497,
      -0.3482375526198891,
      -0.2008663066979371,
      -0.4147649366342247,
      0.995011819985268,
      1.032920808723266,
      -1.39577394691553,
      -0.16774662980299201,
      -0.28743447212669165,
      0.5944367511267654,
      -1.4975728800155672,
      -0.40351286626345584,
      2.0258066539232193,
      0.9488382486968213,
      0.7598037764696662,
      -1.5497508916806388,
      -0.3984832163499898,
      1.0510444179227643,
      -0.3330142816703394,
      0.6519463904753197,
      -0.3491099221436876,
      0.6300208511134099,
      0.7603697013726175,
      0.59470186120636,
      -0.39115317767358837,
      -0.3489159107569886,
      0.6112558448474837,
      0.9857227890625595,
      -0.3533022687006655,
      0.5965641099827944,
      0.6525847460266594,
      0.5991404267996933,
      -0.2814983111327257,
      -0.33695902510602577,
      -0.355364496231847,
      -0.4004444090140197,
      -0.3526170298853802,
      0.5998721600149453,
      -1.5985994592184558,
      1.0448022959179841,
      1.41655563690593,
      -0.3430398172571508,
      -0.33677036546713224,
      -1.58838029403677,
      -0.3075937651663695,
      -1.5451551399914898,
      1.2227086693802276,
      -0.3865810549654269,
      0.6436401722606072,
      -0.21388771628017347,
      0.707212374468409,
      -0.3996806702483389,
      0.7246198911996599,
      -0.32975414692587596,
      -1.4841261562883208,
      0.7487150646689362,
      -0.1777665197611559,
      0.6148761332650097,
      -0.3368646850422458,
      0.6048629831737083,
      1.235528446907549,
      0.7166709755601356,
      0.8782402170748815,
      0.612062965455022,
      0.6130274170222257,
      0.6130062432870598,
      -0.38732208168349824,
      -0.34294414714289606,
      -0.40549695617991083,
      0.6111707974601751,
      -0.40439356513439695,
      0.6069829406244881,
      -0.13247358880025667,
      -0.34046409284578355,
      -0.3040807471686,
      -0.3949105381184196,
      0.607369228176479,
      1.253025258882288,
      0.7407652123275236,
      -1.2932822176632413,
      -0.33105526554226616,
      0.6069292623911515,
      0.6157081253732453,
      0.712245518739124,
      0.6197192656117271,
      0.6345981705879691,
      1.4452086439830627,
      -1.5497508916806388,
      -0.40011692792631215,
      0.6267816245216076,
      1.1196813949582616,
      -0.3865810549654269,
      0.6133872126662135,
      0.6000358121146182,
      -0.3043432400638097,
      -0.24718356881172862,
      -0.38142897187987024,
      0.6173568617094002,
      -0.40505526330491665,
      -0.33998877871066924,
      -1.5003129173815961,
      -0.1469713852870103,
      -1.6003262785189618,
      -1.5718652059712113,
      0.6069077892400024,
      -0.3777859770337047,
      -0.33413769979684477,
      -0.32513885926218844,
      -0.4015377995258495,
      -0.34189316449360707
    ],
    "Timeout Prediction": [
      -0.59328954139021,
      0.9626628706680376,
      -0.5262211653532752,
      -0.38184726662148055,
      0.5021675583102915,
      0.5211904051885767,
      -0.5848596478041272,
      0.520784748713658,
      0.5095250980938186,
      0.9749857958101829,
      0.5176312941525835,
      0.5003462699170854,
      0.514361776370574,
      0.665158685292156,
      -1.6819366650372385,
      -0.5813673126459346,
      0.5171562948237949,
      -0.5125787886405256,
      -0.3512497873019806,
      0.5759840911285008,
      -0.4071573168688998,
      0.5497877182912781,
      -0.2576677176428517,
      -0.4143137215475031,
      1.049330459364052,
      0.5620786390082062,
      0.5985278815896796,
      -1.4647058799572295,
      0.5776411346955267,
      -0.3942641061232534,
      0.8684857361807288,
      -0.43250310889577737,
      -1.3788237182249647,
      -0.41805034162668214,
      -0.4451475656279455,
      1.1037113808170007,
      -0.4296906145641202,
      -0.24048324053781198,
      1.7520661267040014,
      -0.42562143558691756,
      -0.43592602102285327,
      0.6007878185072967,
      0.6462958744734056,
      -0.42934032997846594,
      0.6005263987315099,
      -0.38668683854454045,
      -0.36121133284260165,
      -0.3064489144040865,
      0.7079021567253236,
      1.3178085298116735,
      -0.42666415993393236,
      0.5961460748344449,
      -0.4251588049366154,
      0.5928426831311002,
      0.8081028924204842,
      -0.36141091670728304,
      0.6669015626988812,
      0.5814376192313901,
      -0.4284076166386928,
      -0.4265481779645147,
      -1.424812155072339,
      0.5783870397109975,
      -0.4300411819034059,
      -0.38468134338852106,
      -0.37540854087315223,
      -0.4285240963180562,
      0.5954190560524389,
      0.5830059633888955,
      -0.4068247365218974,
      0.6757875039082792,
      0.9504962913346652,
      1.4893002144071754,
      0.8796863937278812,
      0.7163623233602032,
      -1.630784142589857,
      -0.2751509123706145,
      0.5807311527409778,
      0.5822111343202181,
      0.6260630696225737,
      -0.3983745204460553,
      -0.3917949922956738,
      -0.3956659268970889,
      -0.3644157336887699,
      0.5897709344582682,
      -0.40329297031855377,
      0.5986373280462209,
      -1.4045037781744258,
      -1.4190750243243806,
      -0.40439356513439695,
      -1.7746907182741372,
      -0.3393242116614759,
      1.0375738939879429,
      -0.2255560310750349,
      0.652352725284198,
      0.6196671388059388,
      0.6086543775120995,
      0.6200527290943953,
      -0.3608124400642461,
      0.6654684163039077,
      -1.3196644865854368,
      -0.3630108981877709,
      1.145572403878877,
      -0.40219515759570706,
      0.647910845166054,
      -0.302160631781637,
      -0.40904676481201424,
      -1.4596705252091262,
      0.7226832713756247,
      -0.40483458520977045,
      -0.20453710560962013,
      -0.31273865375649357,
      -1.6216020990518623,
      -0.4088240496882086,
      -0.29998893767788765,
      -0.39318885308103657,
      -0.1400815147992842,
      0.8011841059512875,
      0.6099463972076676,
      -1.632644078973981,
      0.595341876565994,
      0.6089857572325402,
      0.6432552250247715,
      1.0309759744692302,
      -0.40131890109283663,
      0.11021922368940354,
      -0.35773338109732644,
      -0.4015377995258495,
      -0.030304588881526744,
      -0.39147396642280585,
      -1.322393047279507,
      -1.348721986001856,
      1.3007497853456083,
      0.6089323259900048,
      -0.3977229156998074,
      -0.35193287055106537,
      0.7058722613037501,
      -0.4031830640844095,
      0.7551580595324072,
      0.7131880276730864,
      0.6602106982040694,
      0.624189243859756,
      -0.33310778893346377,
      2.4366509139859995,
      0.640362163527487,
      -0.4007721372262037,
      0.6113833847089759,
      1.0503952250681379,
      0.6359559862832721,
      0.6038910201835583,
      -1.4522252946121774,
      -0.3988094673846665,
      0.6421280342880303,
      0.6325180284245132,
      0.6034799817889321,
      0.6058220121562085,
      1.4404241639793174,
      1.0493963569983844,
      0.6621531751524308,
      -0.34198860334288755,
      -0.38436553112258404,
      -0.11776015198117658,
      0.6174721439721926,
      -1.8961962790440432,
      0.6058327757405283,
      0.6023964391947224,
      0.6299394005351698,
      -0.1823024452369759,
      1.7221113032896869,
      -0.33404397054604323,
      -0.3855246339096047,
      0.60591887481288,
      1.5593786903261737,
      -0.40296333502234655,
      -1.407823242604133,
      0.6073477767684134,
      -1.5391021572434522,
      0.6932871570056555,
      0.612932127083471,
      0.6018536524396919,
      -0.13029902632612209,
      0.8646059984408926,
      0.6111495330107913,
      -0.3281794398167511,
      0.6061125353391593,
      1.3355220872781177,
      0.6205732537412934,
      -1.3477536589966768,
      0.6626256349822157,
      -1.6695862266508092,
      -1.8601209135987635,
      0.6173568617094002,
      0.6013536887684903,
      0.6065425831345698,
      0.7552725212553071,
      0.6209996189059311,
      -1.3736596326249577,
      -1.3555614105321614,
      0.7912554349366292,
      -0.38795825535473044,
      -0.3862638587381287,
      0.7539811711278676,
      -0.6289321377282637,
      1.0363453937664189,
      -1.58838029403677,
      0.4972476454159097,
      1.4760022298225486,
      -0.535212480354063,
      -0.5250556645346122,
      -0.583359492661719,
      -0.5953372991262778,
      0.5532274510288577,
      0.5329835648629623,
      0.6169478869289271,
      -0.3346066497202881,
      0.5095922712308376,
      0.5608746322896734,
      0.5257960697118919,
      0.5114822886260014,
      -0.519418213170831,
      0.5457893980055621,
      0.7307903479795074,
      0.6430478043287589,
      0.6903733069160591,
      0.6031443726201823,
      0.7092275473343201,
      -0.3523236867591291,
      -1.7375489102695705,
      -0.48320029591837566,
      0.5563025007672873,
      -1.575118363368933,
      0.5728599898933122,
      -0.3063609738384518,
      -0.41816407594235205,
      0.5752571417097515,
      -0.47508485246013316,
      0.6489451821656725,
      1.4621688096569774,
      -0.3714067441487408,
      0.5758111182698875,
      0.5785360671053181,
      -0.3990271043132517,
      -1.3645162531850878,
      -0.4008814349446372,
      -0.45333397492981575,
      -0.3823707022421579,
      0.5737532302778234,
      0.6021794058917357,
      -0.4400933749638875,
      -1.3840499483435988,
      0.5811528919662888,
      0.5711612524127256,
      -0.43997375108710773,
      -0.3921162556430101,
      -1.5128616245228135,
      -0.43415218132648237,
      -0.43616308133545506,
      -0.4514877436589645,
      0.6316060917517103,
      0.6622949670769994,
      0.6417318343956582,
      -1.5058454059815571,
      0.5866885532400522,
      -0.4303920324531756,
      -0.43238555726915545,
      0.5886749931215283,
      -0.4463596637686458,
      -0.39351114955735195,
      0.6034908035743607,
      1.407776583841622,
      1.0579588307608698,
      -0.4335625078049297,
      -0.21239785381766246,
      0.7875879810954333,
      0.7554937284151192,
      -0.2220659511622206,
      -0.38520820804358247,
      0.7168877351394243,
      0.5816766459601761,
      -0.4396150770279845,
      -0.44153143747620505,
      -1.7619538968712045,
      -0.4198736745884175,
      0.5836634358455982,
      -0.37716452047847976,
      0.5779855577456475,
      0.9572384350433439,
      -0.37613073164969774,
      0.6294707630323888,
      -0.10385974855798041,
      -0.17108243838331408,
      0.9382244246374893,
      0.8854008023601224,
      -0.3598168080786599,
      0.6618978329705119,
      -0.4082677610481644,
      1.040068042960068,
      -1.4306260903849541,
      -1.3555614105321614,
      -1.4596705252091262,
      -1.585026652029182,
      1.319545338923661,
      0.7425208942012637,
      1.5314635887312162,
      -0.15602015552183995,
      0.7524633275018252,
      -0.38436553112258404,
      0.7203991331728834,
      -1.586700235918748,
      0.628552398380802,
      -0.34794715175189506,
      0.586103235445237,
      -0.42342831593470925,
      -0.3495953301319682,
      -0.40450377817442584,
      1.0947400773274925,
      0.847967292955639,
      1.0358138288447192,
      -0.4098271684036857,
      -1.4001169279263121,
      -0.4240043797967324,
      1.8408541684724582,
      -0.34198860334288755,
      0.6337612531351143,
      1.8478686681154506,
      0.624364614263031,
      -1.348721986001856,
      1.5325696690444144,
      0.5976293787457663,
      -0.34843126113420814,
      0.6143276217508506,
      0.61761882260783,
      0.7062482516702632,
      0.7083104002023299,
      -0.3478503945983471,
      0.5969048408813603,
      0.6239208932516295,
      0.5940056017883414,
      0.7386616659850448,
      -0.33790355458207655,
      0.7083189011953697,
      -1.6903698325741012,
      0.624828488500072,
      0.634920407280106,
      0.5959148826640114,
      0.8655362764253242,
      0.6404516216805098,
      0.6131438541166735,
      -1.4749551929631548,
      -0.23150989482875495,
      -1.3635121036466347,
      0.6335088531873458,
      0.6054882086577447,
      0.6317784932109055,
      1.031299371937026,
      -0.3359224098149253,
      0.6433539619768629,
      -0.33677036546713224,
      0.8168707364005382,
      0.7461981289915504,
      -0.10879717273970452,
      0.6108836395070081,
      -1.5670307091255944,
      0.6109793799229971,
      1.0031803907712522,
      -0.2709162429563881,
      -0.3920091414528251,
      0.7818558609230454,
      0.6622098974775821,
      -0.17146899335489862,
      -0.3393242116614759,
      -0.38184726662148055,
      0.683092087197129,
      -0.34717369743899534,
      -0.38489201255680594,
      -0.33998877871066924,
      0.7918519885644458,
      -1.4034029043735399,
      -0.3526170298853802,
      -0.10551778498990941,
      -1.5451551399914898,
      0.6926971367332714,
      0.6275399491989606,
      0.8549554791902111,
      0.6105217628959148,
      -1.269217724333611,
      0.6361668210356062,
      -0.38795825535473044,
      0.6195315798227682,
      0.6085902102857171,
      -0.3962062958630371,
      -0.340654364253823,
      0.8484785501789879,
      -1.5228787452803376,
      -0.3881705205016262,
      1.1596844729977598,
      -0.09183679994445211,
      0.6170422999134443,
      -0.2186036948032093,
      0.9287234980526415,
      -0.3335756274812404,
      -0.6470460882899123,
      1.196452541703389,
      -0.6124322205828113,
      0.5438322204735402,
      0.5785589898585116,
      -0.5279753022997186,
      -0.4824082692880922,
      -0.49825627037200554,
      -0.508778423760717,
      -0.5603515704365263,
      0.8939336709280239,
      0.5103707212801141,
      0.5291222348209624,
      -0.5611413405794381,
      0.5897485959307884,
      -1.5451551399914898,
      1.174655717316623,
      0.6751823814533959,
      0.5680138804300253,
      -0.38069792412439185,
      0.6931199192342886,
      -0.17217857231719783,
      -0.3934036908207148,
      1.3782452350534804,
      0.6110325599245211,
      0.6137361412618713,
      -0.26448094118482884,
      -0.43226803745193093,
      -0.4343882750979413,
      0.5818586733037129,
      -0.4008814349446372,
      0.7013348021680134,
      1.440995617633535,
      -1.5086383061657274,
      -0.4500163888403112,
      0.5945803725082334,
      -0.4555598626823076,
      -0.3839448050234139,
      -0.01349698461325953,
      0.5719183603628137,
      1.1482817505788718,
      -0.38048927916150144,
      -1.5934598195660448,
      0.8693960162916041,
      -0.37934352018037915,
      -0.37788963963878053,
      -0.39458720184694884,
      -1.764471553092451,
      -0.38647529714634754,
      0.7617549878842522,
      0.697560605754006,
      1.7428570488317299,
      0.6390081035232407,
      0.6169793602043557,
      -1.2992962828549806,
      0.5780888314190883,
      -0.4255057317146725,
      -0.3802807343882729,
      0.5799664189650807,
      1.0486748149922294,
      0.5774917998372253,
      -0.4282911681913124,
      1.0150452391744156,
      -0.4355706730020165,
      -1.490797477668897,
      -1.4045037781744258,
      -1.359518563029578,
      1.7195434095751119,
      0.6660216278955743,
      -0.4336803784751887,
      -0.36602684421032644,
      -0.4142009909869991,
      -0.285921835018144,
      0.6516946592276465,
      -0.3672391115205612,
      0.5897485959307884,
      -0.4212462155735654,
      -0.22388020094701225,
      0.5883389472339536,
      0.6433835786856866,
      -1.4881166390211256,
      -0.41646118074564786,
      2.098693900368683,
      0.5930866002854498,
      -0.36111157529492444,
      0.5932971458200115,
      -0.3026834582676166,
      -1.8239087409443189,
      -0.39674733801835316,
      -0.41499072009753896,
      0.8931956456420568,
      0.6305905778392911,
      0.6369891018122291,
      -0.35115229162710637,
      0.6350109932877609,
      -1.4473317838878068,
      0.6306820713927744,
      -0.19443118245144422,
      0.6110538301019132,
      -0.3451499094386058,
      0.5898379431474597,
      -0.35684353438029376,
      -0.39555793373927683,
      -0.36381310480127577,
      -0.2018329402840608,
      0.6336905959346162,
      0.6038693962798544,
      -0.4209026734473562,
      0.5868684924328911,
      0.667350204407376,
      0.587486465410964,
      0.7887762407364219,
      -0.19715788726092556,
      -0.41646118074564786,
      -1.3819519032879073,
      -0.3992448503603819,
      0.6149393784992522,
      -1.530177984021837,
      -0.35056777675838335,
      -0.34717369743899534,
      1.328669036626327,
      -0.35027581407047764,
      0.6527490190868434,
      0.690045380289448,
      -0.40131890109283663,
      0.598144601640786,
      1.2685803118252565,
      -0.25344363858963087,
      -0.2627278234644566,
      -0.38310457359924005,
      0.8489461620485549,
      0.6082371209721694,
      -0.24473510858775324,
      0.6216124351375326,
      -1.6038006529042637,
      0.6209372501434635,
      -1.3635121036466347,
      0.9203842421783575,
      1.115673737685975,
      -0.2583757424961879,
      0.6250138995525124,
      0.6056928283323707,
      0.6051433679800674,
      1.4917635804615945,
      -0.36744148546732813,
      0.6132496789379538,
      -0.3391345219961308,
      -1.5718652059712113,
      2.114162448708799,
      -0.3335756274812404,
      -0.3376199799837524,
      -0.1304162922865762,
      -1.3904055907747799,
      0.6044312681532895,
      0.6535501670797761,
      0.6101169554119278,
      0.6107772365071856,
      -0.3816380688901218,
      -0.39126008093121206,
      -0.23054882059796242,
      0.6764283804419234,
      0.615950051656401,
      0.605638990395859,
      0.6052619378496549,
      0.6152870627502501,
      0.5996756960589872,
      -0.3862638587381287,
      0.6782360413955298,
      -0.34843126113420814,
      -0.3702846673528678,
      -0.3928667956084333,
      -0.33856594960607994,
      -0.4016472901307161,
      -0.19969542244380148,
      -0.3723269682333841,
      -0.20204035626280387,
      -0.2767906895948886,
      0.9687630481972486,
      0.6227216123719105,
      -0.3351700588569095,
      -0.40197592766581036,
      0.6178073366619682,
      0.7768972258721076,
      -0.34640161815671017,
      -0.4062710012920891,
      0.7117397605802968,
      -0.26480045157768667,
      -0.39544996742873867,
      -1.3777859770337046,
      -0.38038499425719363,
      -0.40033522121158327,
      0.6589267449862752,
      -0.24435378054332005,
      0.6035665485228733,
      0.6183933020800159,
      -0.3358282946380691,
      2.779630180237355,
      0.6165595288778304,
      1.1149677463320542,
      0.7851019486186022,
      -0.6169030700509057,
      -0.5958507507903049,
      -1.679853713888946,
      0.6530966864691755,
      0.4987790632865937,
      -0.5329841815615645,
      0.50711343009751,
      0.7057867635316213,
      -0.5601937886066698,
      0.5359014542266837,
      0.5392392423736396,
      1.4401468246394946,
      -0.5041782466140943,
      -1.6126101736612706,
      -0.5802094138936372,
      0.5488682907918564,
      0.5173146856647701,
      0.5099279811573473,
      0.7196544011983894,
      0.5460735695945912,
      0.5882829142972504,
      -0.40904676481201424,
      0.7400704294351904,
      0.540154219758759,
      -0.5749551254486112,
      1.0205021568619497,
      0.5600262489128923,
      2.7783344116435464,
      -0.4732731326853644,
      -1.4672456210075022,
      -0.24572813131654084,
      -0.46571999479491855,
      0.5520838978512889,
      -0.4779471991311775,
      -0.36632959394855624,
      0.5565798780890685,
      0.6134612512527062,
      0.6479401527533313,
      0.5651627928332397,
      -0.46750041390533753,
      2.0444558723098827,
      -0.3853136577179874,
      -0.4438181533470888,
      -0.4601714416221018,
      -0.3129171553956293,
      -0.43497907165470623,
      0.605563606070499,
      0.6046687645201794,
      0.42803755303530794,
      0.6415038556828313,
      1.5097359868459272,
      -0.3957739469155299,
      2.2615785396720716,
      1.373994548616696,
      -0.3703865546218168,
      0.5727322340176818,
      -0.42585293584927725,
      -0.39512622944736425,
      0.5870483571032448,
      -0.26680273489343054,
      -0.38742804593482383,
      0.5786850433786899,
      1.1256666552305026,
      -1.3115801779972893,
      0.6398648379550779,
      0.594834355583318,
      -1.3555614105321614,
      0.609252814885003,
      0.5774458403174297,
      -0.23195418589758326,
      0.6062953576874299,
      -0.2321765019924832,
      -0.43592602102285327,
      -1.6675615400843946,
      -0.37171326891048556,
      0.579989266348199,
      1.347601242663674,
      -0.3684547721656906,
      -0.2933675491267053,
      0.5910423349435228,
      0.5801605834199803,
      -0.42666415993393236,
      -0.42980743890427414,
      0.5810389487721672,
      0.5904070999550848,
      -0.35369431971524123,
      -0.3609121289162627,
      0.7260014207439482,
      -0.40219515759570706,
      0.8253482104249102,
      -0.40483458520977045,
      -0.3513473048687771,
      -0.21688286250953287,
      -0.4008814349446372,
      0.7035321083282002,
      0.6815306705631764,
      0.6391775920802146,
      1.2609819738694714,
      -0.1290111862394247,
      0.5860243823869757,
      1.0508783478479367,
      -0.09312646527792956,
      -0.12749410065407502,
      0.6620397082721241,
      0.6024723752344149,
      -1.454692883534176,
      1.716961075421783,
      0.6547827826810092,
      -1.342944147142896,
      -0.33338843158097003,
      1.2542724773216263,
      -1.5670307091255944,
      0.6819734916478776,
      -0.41005039867429227,
      -0.39136701050996303,
      1.0764875217945011,
      -1.4841261562883208,
      0.7359978840917938,
      0.7478156149651696,
      0.59027324779574,
      -0.4106089768630669,
      -0.3448615651886179,
      0.6605239769302131,
      0.5973221466588429,
      0.5995555909859803,
      0.7830813562766958,
      -0.34132097141755124,
      -0.3529105712834451,
      -0.40815658877521555,
      -1.537602002101044,
      0.7232093104051114,
      -0.3359224098149253,
      -0.3538904780211521,
      -1.4788619162959638,
      -0.3865810549654269,
      -0.395342027952129,
      0.6253947738662713,
      -1.3178549236261683,
      0.6095517246232983,
      0.623993157805401,
      0.627775375229303,
      -0.3890206200770029,
      -1.38933983691012,
      0.6174616650309115,
      -0.11781711236973003,
      -0.36461679595250146,
      -0.3439976793170428,
      -1.530177984021837,
      -1.595166283380062,
      -0.3330142816703394,
      0.6039775050332511,
      0.605563606070499,
      0.6313118371004245,
      0.6238279640103688,
      0.6087613018255882,
      0.6105962915577546,
      -0.2248995011209752,
      -1.3565473235138126,
      -0.3561526897002858,
      -0.3332948638801011,
      -0.3816380688901218,
      0.6213840284816531,
      -0.114638779968488,
      -0.40395299245456084,
      -0.33629907461035186,
      -0.3386606599939601,
      0.6616802007837302,
      0.6415831662008965,
      -0.34275287011628364,
      -0.3420840631700448,
      0.8062681810922926,
      -0.3255062827036498,
      0.8668778143374989,
      -0.388382889445664,
      0.6567400614674078,
      -1.2992962828549806,
      -0.3482375526198891,
      -1.4801720062242814,
      0.641910169077627,
      0.6276627960937485,
      1.1232536664000394,
      -0.34275287011628364,
      -0.39783144862100284,
      -0.23500240071511946,
      0.616107757092463,
      0.6808610633535207,
      0.9562260763593808,
      -0.34084471905937025,
      0.6125189622425367,
      2.505387825123994,
      -0.38184726662148055,
      -0.34141628459293727,
      -1.258060922270801,
      0.611617110554336,
      1.032195540597734,
      0.6770591773921614,
      0.608504639233393,
      -0.3311483519174812,
      0.6191246488110936,
      0.5957386536047723,
      0.6631636129811933,
      -0.6294869104014075,
      2.0303045604786667,
      -0.47172622283295623,
      0.49998933433418385,
      -0.5350635708782673,
      0.517565353082339,
      -0.6133227160391622,
      0.5939281706820063,
      -0.5107448316307395,
      0.5732198271144219,
      0.506139584266144,
      0.8119568562460184,
      0.5814262337241236,
      1.084068410592443,
      -0.48174934869150005,
      -0.5597207867644117,
      -0.5010006364198468,
      0.7432902102245429,
      -0.5651118791326841,
      0.6985181030454157,
      0.5565075358653749,
      0.6465605536986037,
      -1.350665141287858,
      -0.42136079003192767,
      -0.43226803745193093,
      -0.41150419899279,
      0.6341244515521872,
      -0.4246966665776009,
      -0.47495519296315475,
      0.557362814089654,
      -0.3891269996199483,
      0.5990529732186681,
      1.2266720668409383,
      1.0158415716843658,
      -0.4561801948573423,
      0.8200831786195226,
      0.6062523475876767,
      0.7944392467847542,
      0.6984050542123487,
      0.5737648187261024,
      0.5865197925102743,
      -0.41770931728100597,
      -0.3863695650747594,
      -0.4281747509591709,
      -0.27556027660292537,
      0.6308650006947316,
      -1.3615107430453628,
      -0.4490382477018239,
      0.6124447628263396,
      -0.3808022842070527,
      -0.2149550416684559,
      1.5152378253184304,
      0.5934079182742934,
      -0.35773338109732644,
      -0.4279420100736954,
      -0.3851027839668654,
      -1.576754126063192,
      -0.3701828039814842,
      -0.3784083241407822,
      -0.3784083241407822,
      0.868344618843333,
      0.6078623183483567,
      -0.38721614328026455,
      -0.3679478332941902,
      1.162268603238059,
      -0.3573376685579645,
      0.5802176740961288,
      -0.40871273494150073,
      -0.4056074496245733,
      0.5846138761717827,
      2.778778136103467,
      -0.34132097141755124,
      -1.4225082001627747,
      -0.25758911941950746,
      0.6798184043122135,
      0.5990857703753139,
      -0.40011692792631215,
      1.4777909991834235,
      0.6176607216920046,
      -0.3403689883929994,
      -0.42342831593470925,
      1.4508000970370758,
      -0.40804544495326456,
      -0.42067379624474494,
      0.6712376579501715,
      0.8166323204659702,
      1.5469471585439578,
      1.2914376749003977,
      -1.5528419686577808,
      0.6508609686715497,
      -0.3482375526198891,
      -0.2008663066979371,
      -0.4147649366342247,
      0.995011819985268,
      1.032920808723266,
      -1.39577394691553,
      -0.16774662980299201,
      -0.28743447212669165,
      0.5944367511267654,
      -1.4975728800155672,
      -0.40351286626345584,
      2.0258066539232193,
      0.9488382486968213,
      0.7598037764696662,
      -1.5497508916806388,
      -0.3984832163499898,
      1.0510444179227643,
      -0.3330142816703394,
      0.6519463904753197,
      -0.3491099221436876,
      0.6300208511134099,
      0.7603697013726175,
      0.59470186120636,
      -0.39115317767358837,
      -0.3489159107569886,
      0.6112558448474837,
      0.9857227890625595,
      -0.3533022687006655,
      0.5965641099827944,
      0.6525847460266594,
      0.5991404267996933,
      -0.2814983111327257,
      -0.33695902510602577,
      -0.355364496231847,
      -0.4004444090140197,
      -0.3526170298853802,
      0.5998721600149453,
      -1.5985994592184558,
      1.0448022959179841,
      1.41655563690593,
      -0.3430398172571508,
      -0.33677036546713224,
      -1.58838029403677,
      -0.3075937651663695,
      -1.5451551399914898,
      1.2227086693802276,
      -0.3865810549654269,
      0.6436401722606072,
      -0.21388771628017347,
      0.707212374468409,
      -0.3996806702483389,
      0.7246198911996599,
      -0.32975414692587596,
      -1.4841261562883208,
      0.7487150646689362,
      -0.1777665197611559,
      0.6148761332650097,
      -0.3368646850422458,
      0.6048629831737083,
      1.235528446907549,
      0.7166709755601356,
      0.8782402170748815,
      0.612062965455022,
      0.6130274170222257,
      0.6130062432870598,
      -0.38732208168349824,
      -0.34294414714289606,
      -0.40549695617991083,
      0.6111707974601751,
      -0.40439356513439695,
      0.6069829406244881,
      -0.13247358880025667,
      -0.34046409284578355,
      -0.3040807471686,
      -0.3949105381184196,
      0.607369228176479,
      1.253025258882288,
      0.7407652123275236,
      -1.2932822176632413,
      -0.33105526554226616,
      0.6069292623911515,
      0.6157081253732453,
      0.712245518739124,
      0.6197192656117271,
      0.6345981705879691,
      1.4452086439830627,
      -1.5497508916806388,
      -0.40011692792631215,
      0.6267816245216076,
      1.1196813949582616,
      -0.3865810549654269,
      0.6133872126662135,
      0.6000358121146182,
      -0.3043432400638097,
      -0.24718356881172862,
      -0.38142897187987024,
      0.6173568617094002,
      -0.40505526330491665,
      -0.33998877871066924,
      -1.5003129173815961,
      -0.1469713852870103,
      -1.6003262785189618,
      -1.5718652059712113,
      0.6069077892400024,
      -0.3777859770337047,
      -0.33413769979684477,
      -0.32513885926218844,
      -0.4015377995258495,
      -0.34189316449360707
    ]
  }
}