{
  "0": {
    "test_acc": 1.0,
    "tp": 0,
    "tn": 8,
    "fp": 0,
    "fn": 0,
    "tpr": NaN,
    "fpr": 0.0,
    "tnr": 1.0,
    "fnr": NaN,
    "f1_score": 0.0,
    "precision": 0.0,
    "recall": 0.0
  },
  "1": {
    "test_acc": 1.0,
    "tp": 0,
    "tn": 8,
    "fp": 0,
    "fn": 0,
    "tpr": NaN,
    "fpr": 0.0,
    "tnr": 1.0,
    "fnr": NaN,
    "f1_score": 0.0,
    "precision": 0.0,
    "recall": 0.0
  },
  "2": {
    "test_acc": 0.8888888888888888,
    "tp": 0,
    "tn": 8,
    "fp": 0,
    "fn": 1,
    "tpr": 0.0,
    "fpr": 0.0,
    "tnr": 1.0,
    "fnr": 1.0,
    "f1_score": 0.0,
    "precision": 0.0,
    "recall": 0.0
  },
  "3": {
    "test_acc": 0.8888888888888888,
    "tp": 0,
    "tn": 8,
    "fp": 0,
    "fn": 1,
    "tpr": 0.0,
    "fpr": 0.0,
    "tnr": 1.0,
    "fnr": 1.0,
    "f1_score": 0.0,
    "precision": 0.0,
    "recall": 0.0
  },
  "4": {
    "test_acc": 0.8888888888888888,
    "tp": 0,
    "tn": 8,
    "fp": 0,
    "fn": 1,
    "tpr": 0.0,
    "fpr": 0.0,
    "tnr": 1.0,
    "fnr": 1.0,
    "f1_score": 0.0,
    "precision": 0.0,
    "recall": 0.0
  },
  "sum": {
    "tp": 0.0,
    "fp": 0.0,
    "tn": 40.0,
    "fn": 3.0,
    "tpr": 0.0,
    "tnr": 1.0,
    "fpr": 0.0,
    "fnr": 1.0
  },
  "avg": {
    "test_acc": 0.9333333333333332,
    "tp": 0.0,
    "tn": 8.0,
    "fp": 0.0,
    "fn": 0.6,
    "fpr": 0.0,
    "tnr": 1.0,
    "f1_score": 0.0,
    "precision": 0.0,
    "recall": 0.0,
    "tpr": 0.0,
    "fnr": 1.0
  }
}