{
  "results": {
    "ABCROWN": [
      2.0,
      1.0,
      1.0,
      2.0,
      1.0,
      1.0,
      2.0,
      2.0,
      2.0,
      1.0,
      1.0,
      1.0,
      2.0,
      2.0,
      2.0,
      2.0,
      1.0,
      2.0,
      1.0,
      2.0,
      1.0,
      1.0,
      1.0,
      2.0,
      2.0,
      1.0,
      2.0,
      1.0,
      1.0,
      1.0,
      2.0,
      1.0,
      1.0,
      1.0,
      1.0,
      1.0,
      1.0,
      2.0,
      2.0,
      2.0,
      2.0,
      2.0,
      2.0,
      1.0,
      2.0,
      1.0,
      1.0,
      2.0,
      2.0,
      2.0,
      1.0,
      1.0,
      2.0,
      1.0,
      1.0,
      1.0,
      1.0,
      1.0,
      2.0,
      1.0,
      2.0,
      2.0,
      2.0,
      1.0,
      1.0,
      2.0,
      1.0,
      2.0,
      2.0,
      1.0,
      2.0,
      2.0,
      1.0,
      2.0,
      1.0,
      2.0,
      1.0,
      2.0,
      2.0,
      2.0,
      2.0,
      1.0,
      1.0,
      2.0,
      2.0,
      2.0,
      1.0,
      1.0,
      2.0,
      2.0,
      1.0,
      2.0,
      1.0,
      2.0,
      1.0,
      1.0,
      1.0,
      1.0,
      2.0,
      2.0,
      1.0,
      1.0,
      2.0,
      2.0,
      1.0,
      1.0,
      1.0,
      1.0,
      2.0,
      2.0,
      1.0,
      2.0,
      1.0,
      1.0,
      1.0,
      1.0,
      2.0,
      1.0,
      1.0,
      1.0,
      1.0,
      1.0,
      1.0,
      2.0,
      1.0,
      1.0,
      1.0,
      2.0,
      1.0,
      1.0,
      1.0,
      2.0,
      1.0,
      1.0,
      1.0,
      2.0,
      2.0,
      2.0,
      1.0,
      1.0,
      1.0,
      1.0,
      2.0,
      2.0,
      1.0,
      2.0,
      1.0,
      1.0,
      2.0,
      1.0,
      2.0,
      2.0,
      2.0,
      2.0,
      1.0,
      2.0,
      1.0,
      2.0,
      1.0,
      1.0,
      2.0,
      2.0,
      1.0,
      2.0,
      2.0,
      1.0,
      2.0,
      2.0,
      2.0,
      2.0,
      1.0,
      2.0,
      2.0,
      2.0,
      1.0,
      2.0,
      2.0,
      1.0,
      1.0,
      2.0,
      1.0,
      2.0,
      2.0,
      1.0,
      2.0,
      2.0,
      1.0,
      2.0,
      2.0,
      2.0,
      2.0,
      1.0,
      2.0,
      1.0,
      2.0,
      2.0,
      1.0,
      2.0,
      2.0,
      2.0,
      2.0,
      1.0,
      2.0,
      1.0,
      2.0,
      1.0,
      1.0,
      2.0,
      1.0,
      1.0,
      1.0,
      2.0,
      2.0,
      1.0,
      2.0,
      1.0,
      1.0,
      2.0,
      1.0,
      1.0,
      2.0,
      1.0,
      1.0,
      2.0,
      1.0,
      2.0,
      2.0,
      1.0,
      2.0,
      2.0,
      2.0,
      2.0,
      2.0,
      1.0,
      2.0,
      2.0,
      1.0,
      1.0,
      1.0,
      2.0,
      2.0,
      1.0,
      1.0,
      2.0,
      2.0,
      2.0,
      2.0,
      1.0,
      1.0,
      1.0,
      2.0,
      2.0,
      2.0,
      1.0,
      1.0,
      1.0,
      2.0,
      1.0,
      2.0,
      1.0,
      2.0,
      2.0,
      2.0,
      2.0,
      2.0,
      1.0,
      1.0,
      1.0,
      2.0,
      1.0,
      2.0,
      2.0,
      1.0,
      1.0,
      2.0,
      1.0,
      2.0,
      1.0,
      2.0,
      1.0,
      2.0,
      1.0,
      1.0,
      1.0,
      2.0,
      1.0,
      1.0,
      1.0,
      2.0,
      2.0,
      1.0,
      2.0,
      2.0,
      1.0,
      1.0,
      2.0,
      1.0,
      2.0,
      1.0,
      2.0,
      1.0,
      1.0,
      2.0,
      2.0,
      1.0,
      2.0,
      2.0,
      2.0,
      2.0,
      1.0,
      2.0,
      1.0,
      1.0,
      2.0,
      1.0,
      1.0,
      2.0,
      2.0,
      1.0,
      1.0,
      2.0,
      1.0,
      2.0,
      1.0,
      2.0,
      2.0,
      1.0,
      2.0,
      2.0,
      2.0,
      2.0,
      1.0,
      2.0,
      1.0,
      2.0,
      1.0,
      1.0,
      1.0,
      2.0,
      2.0,
      1.0,
      2.0,
      1.0,
      2.0,
      2.0,
      2.0,
      1.0,
      1.0,
      2.0,
      1.0,
      1.0,
      1.0,
      1.0,
      2.0,
      2.0,
      1.0,
      2.0,
      1.0,
      2.0,
      2.0,
      2.0,
      2.0,
      1.0,
      2.0,
      1.0,
      1.0,
      1.0,
      1.0,
      2.0,
      1.0,
      2.0,
      2.0,
      2.0,
      1.0,
      1.0,
      1.0,
      1.0,
      1.0,
      1.0,
      2.0,
      1.0,
      1.0,
      2.0,
      1.0,
      2.0,
      1.0,
      2.0,
      2.0,
      2.0,
      2.0,
      2.0,
      2.0,
      1.0,
      1.0,
      1.0,
      1.0,
      1.0,
      2.0,
      1.0,
      2.0,
      1.0,
      2.0,
      2.0,
      2.0,
      2.0,
      1.0,
      1.0,
      2.0,
      1.0,
      2.0,
      1.0,
      1.0,
      1.0,
      1.0,
      1.0,
      2.0,
      1.0,
      2.0,
      2.0,
      1.0,
      2.0,
      1.0,
      2.0,
      1.0,
      2.0,
      2.0,
      1.0,
      1.0,
      1.0,
      2.0,
      1.0,
      1.0,
      1.0,
      1.0,
      2.0,
      1.0,
      1.0,
      1.0,
      2.0,
      1.0,
      1.0,
      2.0,
      1.0,
      2.0,
      1.0,
      2.0,
      2.0,
      1.0,
      1.0,
      2.0,
      1.0,
      2.0,
      1.0,
      2.0,
      2.0,
      2.0,
      2.0,
      2.0,
      2.0,
      2.0,
      1.0,
      2.0,
      1.0,
      2.0,
      1.0,
      1.0,
      1.0,
      1.0,
      2.0,
      1.0,
      1.0,
      2.0,
      1.0,
      1.0,
      2.0,
      2.0,
      1.0,
      2.0,
      2.0,
      1.0,
      2.0,
      1.0,
      2.0,
      1.0,
      2.0,
      2.0,
      2.0,
      2.0,
      1.0,
      2.0,
      1.0,
      2.0,
      1.0,
      1.0,
      1.0,
      2.0,
      2.0,
      2.0,
      2.0,
      1.0
    ],
    "Algorithm Selection": [
      2.0,
      1.0,
      1.0,
      2.0,
      1.0,
      1.0,
      2.0,
      2.0,
      2.0,
      1.0,
      1.0,
      1.0,
      2.0,
      2.0,
      2.0,
      2.0,
      1.0,
      2.0,
      1.0,
      2.0,
      1.0,
      1.0,
      1.0,
      2.0,
      2.0,
      1.0,
      2.0,
      1.0,
      1.0,
      1.0,
      2.0,
      1.0,
      1.0,
      1.0,
      1.0,
      1.0,
      1.0,
      2.0,
      2.0,
      2.0,
      2.0,
      2.0,
      2.0,
      1.0,
      2.0,
      1.0,
      1.0,
      2.0,
      2.0,
      2.0,
      1.0,
      1.0,
      2.0,
      1.0,
      1.0,
      1.0,
      1.0,
      1.0,
      2.0,
      1.0,
      2.0,
      2.0,
      2.0,
      1.0,
      1.0,
      2.0,
      1.0,
      2.0,
      2.0,
      1.0,
      2.0,
      2.0,
      1.0,
      2.0,
      1.0,
      2.0,
      1.0,
      2.0,
      2.0,
      2.0,
      2.0,
      1.0,
      1.0,
      2.0,
      2.0,
      2.0,
      1.0,
      1.0,
      2.0,
      2.0,
      1.0,
      2.0,
      1.0,
      2.0,
      1.0,
      1.0,
      1.0,
      1.0,
      2.0,
      2.0,
      1.0,
      1.0,
      2.0,
      2.0,
      1.0,
      1.0,
      1.0,
      1.0,
      2.0,
      2.0,
      1.0,
      2.0,
      1.0,
      1.0,
      1.0,
      1.0,
      2.0,
      1.0,
      1.0,
      1.0,
      1.0,
      1.0,
      1.0,
      2.0,
      1.0,
      1.0,
      1.0,
      2.0,
      1.0,
      1.0,
      1.0,
      2.0,
      1.0,
      1.0,
      1.0,
      2.0,
      2.0,
      2.0,
      1.0,
      1.0,
      1.0,
      1.0,
      2.0,
      2.0,
      1.0,
      2.0,
      1.0,
      1.0,
      2.0,
      1.0,
      2.0,
      2.0,
      2.0,
      2.0,
      1.0,
      2.0,
      1.0,
      2.0,
      1.0,
      1.0,
      2.0,
      2.0,
      1.0,
      2.0,
      2.0,
      1.0,
      2.0,
      2.0,
      2.0,
      2.0,
      1.0,
      2.0,
      2.0,
      2.0,
      1.0,
      2.0,
      2.0,
      1.0,
      1.0,
      2.0,
      1.0,
      2.0,
      2.0,
      1.0,
      2.0,
      2.0,
      1.0,
      2.0,
      2.0,
      2.0,
      2.0,
      1.0,
      2.0,
      1.0,
      2.0,
      2.0,
      1.0,
      2.0,
      2.0,
      2.0,
      2.0,
      1.0,
      2.0,
      1.0,
      2.0,
      1.0,
      1.0,
      2.0,
      1.0,
      1.0,
      1.0,
      2.0,
      2.0,
      1.0,
      2.0,
      1.0,
      1.0,
      2.0,
      1.0,
      1.0,
      2.0,
      1.0,
      1.0,
      2.0,
      1.0,
      2.0,
      2.0,
      1.0,
      2.0,
      2.0,
      2.0,
      2.0,
      2.0,
      1.0,
      2.0,
      2.0,
      1.0,
      1.0,
      1.0,
      2.0,
      2.0,
      1.0,
      1.0,
      2.0,
      2.0,
      2.0,
      2.0,
      1.0,
      1.0,
      1.0,
      2.0,
      2.0,
      2.0,
      1.0,
      1.0,
      1.0,
      2.0,
      1.0,
      2.0,
      1.0,
      2.0,
      2.0,
      2.0,
      2.0,
      2.0,
      1.0,
      1.0,
      1.0,
      2.0,
      1.0,
      2.0,
      2.0,
      1.0,
      1.0,
      2.0,
      1.0,
      2.0,
      1.0,
      2.0,
      1.0,
      2.0,
      1.0,
      1.0,
      1.0,
      2.0,
      1.0,
      1.0,
      1.0,
      2.0,
      2.0,
      1.0,
      2.0,
      2.0,
      1.0,
      1.0,
      2.0,
      1.0,
      2.0,
      1.0,
      2.0,
      1.0,
      1.0,
      2.0,
      2.0,
      1.0,
      2.0,
      2.0,
      2.0,
      2.0,
      1.0,
      2.0,
      1.0,
      1.0,
      2.0,
      1.0,
      1.0,
      2.0,
      2.0,
      1.0,
      1.0,
      2.0,
      1.0,
      2.0,
      1.0,
      2.0,
      2.0,
      1.0,
      2.0,
      2.0,
      2.0,
      2.0,
      1.0,
      2.0,
      1.0,
      2.0,
      1.0,
      1.0,
      1.0,
      2.0,
      2.0,
      1.0,
      2.0,
      1.0,
      2.0,
      2.0,
      2.0,
      1.0,
      1.0,
      2.0,
      1.0,
      1.0,
      1.0,
      1.0,
      2.0,
      2.0,
      1.0,
      2.0,
      1.0,
      2.0,
      2.0,
      2.0,
      2.0,
      1.0,
      2.0,
      1.0,
      1.0,
      1.0,
      1.0,
      2.0,
      1.0,
      2.0,
      2.0,
      2.0,
      1.0,
      1.0,
      1.0,
      1.0,
      1.0,
      1.0,
      2.0,
      1.0,
      1.0,
      2.0,
      1.0,
      2.0,
      1.0,
      2.0,
      2.0,
      2.0,
      2.0,
      2.0,
      2.0,
      1.0,
      1.0,
      1.0,
      1.0,
      1.0,
      2.0,
      1.0,
      2.0,
      1.0,
      2.0,
      2.0,
      2.0,
      2.0,
      1.0,
      1.0,
      2.0,
      1.0,
      2.0,
      1.0,
      1.0,
      1.0,
      1.0,
      1.0,
      2.0,
      1.0,
      2.0,
      2.0,
      1.0,
      2.0,
      1.0,
      2.0,
      1.0,
      2.0,
      2.0,
      1.0,
      1.0,
      1.0,
      2.0,
      1.0,
      1.0,
      1.0,
      1.0,
      2.0,
      1.0,
      1.0,
      1.0,
      2.0,
      1.0,
      1.0,
      2.0,
      1.0,
      2.0,
      1.0,
      2.0,
      2.0,
      1.0,
      1.0,
      2.0,
      1.0,
      2.0,
      1.0,
      2.0,
      2.0,
      2.0,
      2.0,
      2.0,
      2.0,
      2.0,
      1.0,
      2.0,
      1.0,
      2.0,
      1.0,
      1.0,
      1.0,
      1.0,
      2.0,
      1.0,
      1.0,
      2.0,
      1.0,
      1.0,
      2.0,
      2.0,
      1.0,
      2.0,
      2.0,
      1.0,
      2.0,
      1.0,
      2.0,
      1.0,
      2.0,
      2.0,
      2.0,
      2.0,
      1.0,
      2.0,
      1.0,
      2.0,
      1.0,
      1.0,
      1.0,
      2.0,
      2.0,
      2.0,
      2.0,
      1.0
    ]
  },
  "running_times": {
    "ABCROWN": [
      2.7781512503836434,
      0.4787251788694602,
      0.730951762741137,
      2.7781512503836434,
      1.3235387843076927,
      0.44725108447586165,
      2.7781512503836434,
      2.7781512503836434,
      2.7781512503836434,
      0.4080533142979806,
      0.8403570592033562,
      1.0722940235155631,
      2.7781512503836434,
      2.7781512503836434,
      2.7781512503836434,
      2.7781512503836434,
      1.2676386373369823,
      2.7781512503836434,
      0.21162772316861655,
      2.7781512503836434,
      0.21592822933991776,
      0.5028639261383319,
      0.6127520779120648,
      2.7781512503836434,
      2.7781512503836434,
      0.25132181231558814,
      2.7781512503836434,
      1.1589050211875438,
      0.41758793238319136,
      0.6238692683503023,
      2.7781512503836434,
      1.130420618706655,
      1.2751569624848997,
      0.4791000181082882,
      0.82787952771094,
      0.7990923102459638,
      0.7610779541544812,
      2.7781512503836434,
      2.7781512503836434,
      2.7781512503836434,
      2.7781512503836434,
      2.7781512503836434,
      2.7781512503836434,
      0.5633386704130054,
      2.7781512503836434,
      0.6506086073080773,
      1.299511656877134,
      2.7781512503836434,
      2.7781512503836434,
      2.7781512503836434,
      1.2237969613015338,
      0.9066528333773516,
      2.7781512503836434,
      0.6474123133450558,
      0.8378030074943438,
      1.142013832984359,
      0.37537093802905847,
      0.27163253748712274,
      2.7781512503836434,
      0.48974760567371256,
      2.7781512503836434,
      2.7781512503836434,
      2.7781512503836434,
      0.8710823260571962,
      1.2676925693391994,
      2.7781512503836434,
      0.7982499983784683,
      2.7781512503836434,
      2.7781512503836434,
      0.37042055854851347,
      2.7781512503836434,
      2.7781512503836434,
      0.6012558024321389,
      2.7781512503836434,
      0.618456037222927,
      2.7781512503836434,
      1.4599124249987405,
      2.7781512503836434,
      2.7781512503836434,
      2.7781512503836434,
      2.7781512503836434,
      0.9198204673498528,
      1.234289446933935,
      2.7781512503836434,
      2.7781512503836434,
      2.7781512503836434,
      0.7254215500742587,
      0.5827449656912771,
      2.7781512503836434,
      2.7781512503836434,
      0.707842589142404,
      2.7781512503836434,
      0.6573714147901757,
      2.7781512503836434,
      0.9324585438094295,
      0.3359791423403533,
      1.2652566163395695,
      0.25146787548352434,
      2.7781512503836434,
      2.7781512503836434,
      0.7592219920055101,
      0.4181354984252322,
      2.7781512503836434,
      2.7781512503836434,
      0.3690487889403375,
      0.26507737800359427,
      1.1423362711738894,
      1.2613009422562043,
      2.7781512503836434,
      2.7781512503836434,
      0.8497448591196285,
      2.7781512503836434,
      0.5532760461370995,
      0.20913953605653338,
      0.5379197893658428,
      0.2233141897641347,
      2.7781512503836434,
      1.2263472450247113,
      0.539816028062056,
      0.5601458398490475,
      0.7015507165423601,
      0.9087798101213982,
      0.8073388071125711,
      2.7781512503836434,
      0.4364647981416185,
      0.7036524234125088,
      0.5692919595285864,
      2.7781512503836434,
      0.41440505275888345,
      1.1355587826181732,
      0.4493395261749675,
      2.7781512503836434,
      1.1525176647167679,
      0.25261034056737297,
      0.6058543021089046,
      2.7781512503836434,
      2.7781512503836434,
      2.7781512503836434,
      0.9318187851799338,
      1.662387579471464,
      0.6494127520818965,
      0.9007056917229683,
      2.7781512503836434,
      2.7781512503836434,
      0.598867075866121,
      2.7781512503836434,
      0.48048124406175535,
      0.6653558124014827,
      2.7781512503836434,
      0.8120037270129147,
      2.7781512503836434,
      2.7781512503836434,
      2.7781512503836434,
      2.7781512503836434,
      0.4118721293832415,
      2.7781512503836434,
      0.7335503370229107,
      2.7781512503836434,
      0.38560627359831223,
      0.3266635067246791,
      2.7781512503836434,
      2.7781512503836434,
      0.41106385746092355,
      2.7781512503836434,
      2.7781512503836434,
      0.4434663930886537,
      2.7781512503836434,
      2.7781512503836434,
      2.7781512503836434,
      2.7781512503836434,
      0.8535887119692566,
      2.7781512503836434,
      2.7781512503836434,
      2.7781512503836434,
      0.4928162432461805,
      2.7781512503836434,
      2.7781512503836434,
      0.5925209465189428,
      0.6164545076014974,
      2.7781512503836434,
      1.1589471895019647,
      2.7781512503836434,
      2.7781512503836434,
      1.469475914705118,
      2.7781512503836434,
      2.7781512503836434,
      0.7956019798941798,
      2.7781512503836434,
      2.7781512503836434,
      2.7781512503836434,
      2.7781512503836434,
      0.49898559808523435,
      2.7781512503836434,
      0.3246322199229106,
      2.7781512503836434,
      2.7781512503836434,
      0.5937511334385241,
      2.7781512503836434,
      2.7781512503836434,
      2.7781512503836434,
      2.7781512503836434,
      0.3246116533289209,
      2.7781512503836434,
      0.77956041878952,
      2.7781512503836434,
      0.8274403571066423,
      0.7572441510219701,
      2.7781512503836434,
      0.3204993964058663,
      0.21298618473666817,
      0.22567104308114408,
      2.7781512503836434,
      2.7781512503836434,
      0.4000542112748741,
      2.7781512503836434,
      0.6864664501564743,
      0.7276144465602697,
      2.7781512503836434,
      0.8780849835665415,
      0.35420451137031306,
      2.7781512503836434,
      0.3481490343841626,
      0.542775648234625,
      2.7781512503836434,
      0.6381996307472356,
      2.7781512503836434,
      2.7781512503836434,
      0.4406100082723449,
      2.7781512503836434,
      2.7781512503836434,
      2.7781512503836434,
      2.7781512503836434,
      2.7781512503836434,
      0.8847500635961806,
      2.7781512503836434,
      2.7781512503836434,
      0.9755926285377265,
      0.8036482724014811,
      0.7955533050344533,
      2.7781512503836434,
      2.7781512503836434,
      0.6474807731736759,
      0.5499591293827493,
      2.7781512503836434,
      2.7781512503836434,
      2.7781512503836434,
      2.7781512503836434,
      0.48445644190542936,
      0.2252575769240989,
      0.22013424957025204,
      2.7781512503836434,
      2.7781512503836434,
      2.7781512503836434,
      1.210107074251073,
      1.058213380702656,
      1.2196342917292897,
      2.7781512503836434,
      0.5491749829517589,
      2.7781512503836434,
      1.1482632296368789,
      2.7781512503836434,
      2.7781512503836434,
      2.7781512503836434,
      2.7781512503836434,
      2.7781512503836434,
      0.9729060295639389,
      0.8773943847537297,
      0.2373677730217613,
      2.7781512503836434,
      0.4814139612537449,
      2.7781512503836434,
      2.7781512503836434,
      0.4351911596851774,
      0.5215826155303273,
      2.7781512503836434,
      0.33477533167795537,
      2.7781512503836434,
      0.9097271460605298,
      2.7781512503836434,
      0.9865702106959701,
      2.7781512503836434,
      0.32508443875408993,
      1.4021788156554829,
      0.4102034170894535,
      2.7781512503836434,
      0.7799137998502627,
      0.38307895381208956,
      0.595925894606198,
      2.7781512503836434,
      2.7781512503836434,
      0.4474216301218401,
      2.7781512503836434,
      2.7781512503836434,
      1.1217403523724856,
      0.24868424001548003,
      2.7781512503836434,
      0.8805620858218454,
      2.7781512503836434,
      1.3071792939465905,
      2.7781512503836434,
      0.22904157317339702,
      0.7334701186067711,
      2.7781512503836434,
      2.7781512503836434,
      0.8308131351407133,
      2.7781512503836434,
      2.7781512503836434,
      2.7781512503836434,
      2.7781512503836434,
      0.4151904409430482,
      2.7781512503836434,
      0.7619353521008937,
      0.5920767804073543,
      2.7781512503836434,
      0.6417714706539592,
      0.6480573633287416,
      2.7781512503836434,
      2.7781512503836434,
      0.7379873263334308,
      0.5058686835419541,
      2.7781512503836434,
      0.7658026215537858,
      2.7781512503836434,
      0.3851950183198801,
      2.7781512503836434,
      2.7781512503836434,
      0.4881416102359195,
      2.7781512503836434,
      2.7781512503836434,
      2.7781512503836434,
      2.7781512503836434,
      0.8416597432130047,
      2.7781512503836434,
      0.24124755126371628,
      2.7781512503836434,
      0.5086778251654933,
      0.48582076353082526,
      0.33167019053261315,
      2.7781512503836434,
      2.7781512503836434,
      0.5149725425040593,
      2.7781512503836434,
      0.4811702132094998,
      2.7781512503836434,
      2.7781512503836434,
      2.7781512503836434,
      0.6075086365079783,
      0.6170318105953451,
      2.7781512503836434,
      1.329576849104741,
      0.9135012597371119,
      0.3906878772855106,
      0.48247339120587907,
      2.7781512503836434,
      2.7781512503836434,
      0.4176211378638944,
      2.7781512503836434,
      0.547553195630555,
      2.7781512503836434,
      2.7781512503836434,
      2.7781512503836434,
      2.7781512503836434,
      0.4036523349113296,
      2.7781512503836434,
      0.3589432196323347,
      1.567264044971998,
      0.26862476833587096,
      0.8787572617331704,
      2.7781512503836434,
      0.2461537657861006,
      2.7781512503836434,
      2.7781512503836434,
      2.7781512503836434,
      0.35560475095880406,
      0.9068197154665455,
      0.6922827630145375,
      0.20932731587806488,
      0.4053634378769715,
      0.32405598681495124,
      2.7781512503836434,
      0.8571937413083149,
      1.1846346565862738,
      2.7781512503836434,
      0.5583725221691569,
      2.7781512503836434,
      0.36144450808632844,
      2.7781512503836434,
      2.7781512503836434,
      2.7781512503836434,
      2.7781512503836434,
      2.7781512503836434,
      2.7781512503836434,
      0.9153945582120219,
      1.1072846075979303,
      0.610894278373339,
      0.7074339054718094,
      0.7461124209205323,
      2.7781512503836434,
      0.6954291376895725,
      2.7781512503836434,
      0.3354779600174358,
      2.7781512503836434,
      2.7781512503836434,
      2.7781512503836434,
      2.7781512503836434,
      1.341620469646497,
      0.7523558041535008,
      2.7781512503836434,
      0.24062412018725945,
      2.7781512503836434,
      1.2299632619794294,
      0.3170390303983434,
      0.4108278278453838,
      0.8268001813885064,
      0.22021272470648184,
      2.7781512503836434,
      0.5455297744978241,
      2.7781512503836434,
      2.7781512503836434,
      0.6604860157849678,
      2.7781512503836434,
      0.6434822864641703,
      2.7781512503836434,
      0.4763823258327629,
      2.7781512503836434,
      2.7781512503836434,
      1.1009354497437136,
      0.7305158051251929,
      0.7242348964905267,
      2.7781512503836434,
      0.6593266040197162,
      0.43722719219072853,
      0.4777143852979584,
      0.7999605274059836,
      2.7781512503836434,
      0.552814172921466,
      0.3399282077785137,
      0.27692113206577396,
      2.7781512503836434,
      1.4469796237545138,
      0.8218081984252851,
      2.7781512503836434,
      0.22468841745728743,
      2.7781512503836434,
      0.8624355175542064,
      2.7781512503836434,
      2.7781512503836434,
      0.8899288750065226,
      0.3938734041493833,
      2.7781512503836434,
      0.6219029608912305,
      2.7781512503836434,
      1.0813437066740954,
      2.7781512503836434,
      2.7781512503836434,
      2.7781512503836434,
      2.7781512503836434,
      2.7781512503836434,
      2.7781512503836434,
      2.7781512503836434,
      0.32122548541717577,
      2.7781512503836434,
      0.6916472100007671,
      2.7781512503836434,
      0.3556239010120251,
      0.601505912563215,
      0.41448867223695207,
      0.7100750341519988,
      2.7781512503836434,
      0.7937275401065007,
      0.43354583057661983,
      2.7781512503836434,
      0.4289281148933202,
      1.266638510132473,
      2.7781512503836434,
      2.7781512503836434,
      1.2486278949251404,
      2.7781512503836434,
      2.7781512503836434,
      0.5429996075770545,
      2.7781512503836434,
      0.2210228052048413,
      2.7781512503836434,
      0.42918684490471276,
      2.7781512503836434,
      2.7781512503836434,
      2.7781512503836434,
      2.7781512503836434,
      0.3261104609708298,
      2.7781512503836434,
      1.2437274090875685,
      2.7781512503836434,
      0.8605416279653593,
      0.7195301549480823,
      0.8207070754110652,
      2.7781512503836434,
      2.7781512503836434,
      2.7781512503836434,
      2.7781512503836434,
      0.6986919668861235
    ],
    "Algorithm Selection": [
      2.7781512503836434,
      0.4787251788694602,
      0.730951762741137,
      2.7781512503836434,
      1.3235387843076927,
      0.44725108447586165,
      2.7781512503836434,
      2.7781512503836434,
      2.7781512503836434,
      0.4080533142979806,
      0.8403570592033562,
      1.0722940235155631,
      2.7781512503836434,
      2.7781512503836434,
      2.7781512503836434,
      2.7781512503836434,
      1.2676386373369823,
      2.7781512503836434,
      0.21162772316861655,
      2.7781512503836434,
      0.21592822933991776,
      0.5028639261383319,
      0.6127520779120648,
      2.7781512503836434,
      2.7781512503836434,
      0.25132181231558814,
      2.7781512503836434,
      1.1589050211875438,
      0.41758793238319136,
      0.6238692683503023,
      2.7781512503836434,
      1.130420618706655,
      1.2751569624848997,
      0.4791000181082882,
      0.82787952771094,
      0.7990923102459638,
      0.7610779541544812,
      2.7781512503836434,
      2.7781512503836434,
      2.7781512503836434,
      2.7781512503836434,
      2.7781512503836434,
      2.7781512503836434,
      0.5633386704130054,
      2.7781512503836434,
      0.6506086073080773,
      1.299511656877134,
      2.7781512503836434,
      2.7781512503836434,
      2.7781512503836434,
      1.2237969613015338,
      0.9066528333773516,
      2.7781512503836434,
      0.6474123133450558,
      0.8378030074943438,
      1.142013832984359,
      0.37537093802905847,
      0.27163253748712274,
      2.7781512503836434,
      0.48974760567371256,
      2.7781512503836434,
      2.7781512503836434,
      2.7781512503836434,
      0.8710823260571962,
      1.2676925693391994,
      2.7781512503836434,
      0.7982499983784683,
      2.7781512503836434,
      2.7781512503836434,
      0.37042055854851347,
      2.7781512503836434,
      2.7781512503836434,
      0.6012558024321389,
      2.7781512503836434,
      0.618456037222927,
      2.7781512503836434,
      1.4599124249987405,
      2.7781512503836434,
      2.7781512503836434,
      2.7781512503836434,
      2.7781512503836434,
      0.9198204673498528,
      1.234289446933935,
      2.7781512503836434,
      2.7781512503836434,
      2.7781512503836434,
      0.7254215500742587,
      0.5827449656912771,
      2.7781512503836434,
      2.7781512503836434,
      0.707842589142404,
      2.7781512503836434,
      0.6573714147901757,
      2.7781512503836434,
      0.9324585438094295,
      0.3359791423403533,
      1.2652566163395695,
      0.25146787548352434,
      2.7781512503836434,
      2.7781512503836434,
      0.7592219920055101,
      0.4181354984252322,
      2.7781512503836434,
      2.7781512503836434,
      0.3690487889403375,
      0.26507737800359427,
      1.1423362711738894,
      1.2613009422562043,
      2.7781512503836434,
      2.7781512503836434,
      0.8497448591196285,
      2.7781512503836434,
      0.5532760461370995,
      0.20913953605653338,
      0.5379197893658428,
      0.2233141897641347,
      2.7781512503836434,
      1.2263472450247113,
      0.539816028062056,
      0.5601458398490475,
      0.7015507165423601,
      0.9087798101213982,
      0.8073388071125711,
      2.7781512503836434,
      0.4364647981416185,
      0.7036524234125088,
      0.5692919595285864,
      2.7781512503836434,
      0.41440505275888345,
      1.1355587826181732,
      0.4493395261749675,
      2.7781512503836434,
      1.1525176647167679,
      0.25261034056737297,
      0.6058543021089046,
      2.7781512503836434,
      2.7781512503836434,
      2.7781512503836434,
      0.9318187851799338,
      1.662387579471464,
      0.6494127520818965,
      0.9007056917229683,
      2.7781512503836434,
      2.7781512503836434,
      0.598867075866121,
      2.7781512503836434,
      0.48048124406175535,
      0.6653558124014827,
      2.7781512503836434,
      0.8120037270129147,
      2.7781512503836434,
      2.7781512503836434,
      2.7781512503836434,
      2.7781512503836434,
      0.4118721293832415,
      2.7781512503836434,
      0.7335503370229107,
      2.7781512503836434,
      0.38560627359831223,
      0.3266635067246791,
      2.7781512503836434,
      2.7781512503836434,
      0.41106385746092355,
      2.7781512503836434,
      2.7781512503836434,
      0.4434663930886537,
      2.7781512503836434,
      2.7781512503836434,
      2.7781512503836434,
      2.7781512503836434,
      0.8535887119692566,
      2.7781512503836434,
      2.7781512503836434,
      2.7781512503836434,
      0.4928162432461805,
      2.7781512503836434,
      2.7781512503836434,
      0.5925209465189428,
      0.6164545076014974,
      2.7781512503836434,
      1.1589471895019647,
      2.7781512503836434,
      2.7781512503836434,
      1.469475914705118,
      2.7781512503836434,
      2.7781512503836434,
      0.7956019798941798,
      2.7781512503836434,
      2.7781512503836434,
      2.7781512503836434,
      2.7781512503836434,
      0.49898559808523435,
      2.7781512503836434,
      0.3246322199229106,
      2.7781512503836434,
      2.7781512503836434,
      0.5937511334385241,
      2.7781512503836434,
      2.7781512503836434,
      2.7781512503836434,
      2.7781512503836434,
      0.3246116533289209,
      2.7781512503836434,
      0.77956041878952,
      2.7781512503836434,
      0.8274403571066423,
      0.7572441510219701,
      2.7781512503836434,
      0.3204993964058663,
      0.21298618473666817,
      0.22567104308114408,
      2.7781512503836434,
      2.7781512503836434,
      0.4000542112748741,
      2.7781512503836434,
      0.6864664501564743,
      0.7276144465602697,
      2.7781512503836434,
      0.8780849835665415,
      0.35420451137031306,
      2.7781512503836434,
      0.3481490343841626,
      0.542775648234625,
      2.7781512503836434,
      0.6381996307472356,
      2.7781512503836434,
      2.7781512503836434,
      0.4406100082723449,
      2.7781512503836434,
      2.7781512503836434,
      2.7781512503836434,
      2.7781512503836434,
      2.7781512503836434,
      0.8847500635961806,
      2.7781512503836434,
      2.7781512503836434,
      0.9755926285377265,
      0.8036482724014811,
      0.7955533050344533,
      2.7781512503836434,
      2.7781512503836434,
      0.6474807731736759,
      0.5499591293827493,
      2.7781512503836434,
      2.7781512503836434,
      2.7781512503836434,
      2.7781512503836434,
      0.48445644190542936,
      0.2252575769240989,
      0.22013424957025204,
      2.7781512503836434,
      2.7781512503836434,
      2.7781512503836434,
      1.210107074251073,
      1.058213380702656,
      1.2196342917292897,
      2.7781512503836434,
      0.5491749829517589,
      2.7781512503836434,
      1.1482632296368789,
      2.7781512503836434,
      2.7781512503836434,
      2.7781512503836434,
      2.7781512503836434,
      2.7781512503836434,
      0.9729060295639389,
      0.8773943847537297,
      0.2373677730217613,
      2.7781512503836434,
      0.4814139612537449,
      2.7781512503836434,
      2.7781512503836434,
      0.4351911596851774,
      0.5215826155303273,
      2.7781512503836434,
      0.33477533167795537,
      2.7781512503836434,
      0.9097271460605298,
      2.7781512503836434,
      0.9865702106959701,
      2.7781512503836434,
      0.32508443875408993,
      1.4021788156554829,
      0.4102034170894535,
      2.7781512503836434,
      0.7799137998502627,
      0.38307895381208956,
      0.595925894606198,
      2.7781512503836434,
      2.7781512503836434,
      0.4474216301218401,
      2.7781512503836434,
      2.7781512503836434,
      1.1217403523724856,
      0.24868424001548003,
      2.7781512503836434,
      0.8805620858218454,
      2.7781512503836434,
      1.3071792939465905,
      2.7781512503836434,
      0.22904157317339702,
      0.7334701186067711,
      2.7781512503836434,
      2.7781512503836434,
      0.8308131351407133,
      2.7781512503836434,
      2.7781512503836434,
      2.7781512503836434,
      2.7781512503836434,
      0.4151904409430482,
      2.7781512503836434,
      0.7619353521008937,
      0.5920767804073543,
      2.7781512503836434,
      0.6417714706539592,
      0.6480573633287416,
      2.7781512503836434,
      2.7781512503836434,
      0.7379873263334308,
      0.5058686835419541,
      2.7781512503836434,
      0.7658026215537858,
      2.7781512503836434,
      0.3851950183198801,
      2.7781512503836434,
      2.7781512503836434,
      0.4881416102359195,
      2.7781512503836434,
      2.7781512503836434,
      2.7781512503836434,
      2.7781512503836434,
      0.8416597432130047,
      2.7781512503836434,
      0.24124755126371628,
      2.7781512503836434,
      0.5086778251654933,
      0.48582076353082526,
      0.33167019053261315,
      2.7781512503836434,
      2.7781512503836434,
      0.5149725425040593,
      2.7781512503836434,
      0.4811702132094998,
      2.7781512503836434,
      2.7781512503836434,
      2.7781512503836434,
      0.6075086365079783,
      0.6170318105953451,
      2.7781512503836434,
      1.329576849104741,
      0.9135012597371119,
      0.3906878772855106,
      0.48247339120587907,
      2.7781512503836434,
      2.7781512503836434,
      0.4176211378638944,
      2.7781512503836434,
      0.547553195630555,
      2.7781512503836434,
      2.7781512503836434,
      2.7781512503836434,
      2.7781512503836434,
      0.4036523349113296,
      2.7781512503836434,
      0.3589432196323347,
      1.567264044971998,
      0.26862476833587096,
      0.8787572617331704,
      2.7781512503836434,
      0.2461537657861006,
      2.7781512503836434,
      2.7781512503836434,
      2.7781512503836434,
      0.35560475095880406,
      0.9068197154665455,
      0.6922827630145375,
      0.20932731587806488,
      0.4053634378769715,
      0.32405598681495124,
      2.7781512503836434,
      0.8571937413083149,
      1.1846346565862738,
      2.7781512503836434,
      0.5583725221691569,
      2.7781512503836434,
      0.36144450808632844,
      2.7781512503836434,
      2.7781512503836434,
      2.7781512503836434,
      2.7781512503836434,
      2.7781512503836434,
      2.7781512503836434,
      0.9153945582120219,
      1.1072846075979303,
      0.610894278373339,
      0.7074339054718094,
      0.7461124209205323,
      2.7781512503836434,
      0.6954291376895725,
      2.7781512503836434,
      0.3354779600174358,
      2.7781512503836434,
      2.7781512503836434,
      2.7781512503836434,
      2.7781512503836434,
      1.341620469646497,
      0.7523558041535008,
      2.7781512503836434,
      0.24062412018725945,
      2.7781512503836434,
      1.2299632619794294,
      0.3170390303983434,
      0.4108278278453838,
      0.8268001813885064,
      0.22021272470648184,
      2.7781512503836434,
      0.5455297744978241,
      2.7781512503836434,
      2.7781512503836434,
      0.6604860157849678,
      2.7781512503836434,
      0.6434822864641703,
      2.7781512503836434,
      0.4763823258327629,
      2.7781512503836434,
      2.7781512503836434,
      1.1009354497437136,
      0.7305158051251929,
      0.7242348964905267,
      2.7781512503836434,
      0.6593266040197162,
      0.43722719219072853,
      0.4777143852979584,
      0.7999605274059836,
      2.7781512503836434,
      0.552814172921466,
      0.3399282077785137,
      0.27692113206577396,
      2.7781512503836434,
      1.4469796237545138,
      0.8218081984252851,
      2.7781512503836434,
      0.22468841745728743,
      2.7781512503836434,
      0.8624355175542064,
      2.7781512503836434,
      2.7781512503836434,
      0.8899288750065226,
      0.3938734041493833,
      2.7781512503836434,
      0.6219029608912305,
      2.7781512503836434,
      1.0813437066740954,
      2.7781512503836434,
      2.7781512503836434,
      2.7781512503836434,
      2.7781512503836434,
      2.7781512503836434,
      2.7781512503836434,
      2.7781512503836434,
      0.32122548541717577,
      2.7781512503836434,
      0.6916472100007671,
      2.7781512503836434,
      0.3556239010120251,
      0.601505912563215,
      0.41448867223695207,
      0.7100750341519988,
      2.7781512503836434,
      0.7937275401065007,
      0.43354583057661983,
      2.7781512503836434,
      0.4289281148933202,
      1.266638510132473,
      2.7781512503836434,
      2.7781512503836434,
      1.2486278949251404,
      2.7781512503836434,
      2.7781512503836434,
      0.5429996075770545,
      2.7781512503836434,
      0.2210228052048413,
      2.7781512503836434,
      0.42918684490471276,
      2.7781512503836434,
      2.7781512503836434,
      2.7781512503836434,
      2.7781512503836434,
      0.3261104609708298,
      2.7781512503836434,
      1.2437274090875685,
      2.7781512503836434,
      0.8605416279653593,
      0.7195301549480823,
      0.8207070754110652,
      2.7781512503836434,
      2.7781512503836434,
      2.7781512503836434,
      2.7781512503836434,
      0.6986919668861235
    ]
  }
}