{
  "0": {
    "sbs": "ABCROWN",
    "sbs_running_time": 30391.942400000004,
    "sbs_solved": 50,
    "vbs_running_time": 30391.942400000004,
    "vbs_solved": 50,
    "algo_select_running_time": 30391.942400000004,
    "algo_select_solved": 50,
    "algo_select_acc": 1.0,
    "timeout_acc": 1.0,
    "percentage_ran_in_portfolio": 0.057692307692307696,
    "percentage_ran_with_selected_algo": 0.9423076923076923
  },
  "1": {
    "sbs": "ABCROWN",
    "sbs_running_time": 30336.7194,
    "sbs_solved": 50,
    "vbs_running_time": 30336.7194,
    "vbs_solved": 50,
    "algo_select_running_time": 30336.7194,
    "algo_select_solved": 50,
    "algo_select_acc": 0.9791666666666666,
    "timeout_acc": 0.9791666666666666,
    "percentage_ran_in_portfolio": 0.07692307692307693,
    "percentage_ran_with_selected_algo": 0.9230769230769231
  },
  "2": {
    "sbs": "ABCROWN",
    "sbs_running_time": 30303.009899999994,
    "sbs_solved": 50,
    "vbs_running_time": 30303.009899999994,
    "vbs_solved": 50,
    "algo_select_running_time": 30303.009899999994,
    "algo_select_solved": 50,
    "algo_select_acc": 1.0,
    "timeout_acc": 1.0,
    "percentage_ran_in_portfolio": 0.07692307692307693,
    "percentage_ran_with_selected_algo": 0.9230769230769231
  },
  "3": {
    "sbs": "ABCROWN",
    "sbs_running_time": 30271.429199999984,
    "sbs_solved": 50,
    "vbs_running_time": 30271.429199999984,
    "vbs_solved": 50,
    "algo_select_running_time": 30271.429199999984,
    "algo_select_solved": 50,
    "algo_select_acc": 1.0,
    "timeout_acc": 1.0,
    "percentage_ran_in_portfolio": 0.038461538461538464,
    "percentage_ran_with_selected_algo": 0.9615384615384616
  },
  "4": {
    "sbs": "ABCROWN",
    "sbs_running_time": 29715.053099999986,
    "sbs_solved": 51,
    "vbs_running_time": 29715.053099999986,
    "vbs_solved": 51,
    "algo_select_running_time": 29715.053099999986,
    "algo_select_solved": 51,
    "algo_select_acc": 1.0,
    "timeout_acc": 1.0,
    "percentage_ran_in_portfolio": 0.058823529411764705,
    "percentage_ran_with_selected_algo": 0.9411764705882353
  },
  "avg": {
    "sbs_running_time": 30203.63079999999,
    "sbs_solved": 50.2,
    "vbs_running_time": 30203.63079999999,
    "vbs_solved": 50.2,
    "algo_select_running_time": 30203.63079999999,
    "algo_select_solved": 50.2,
    "algo_select_acc": 0.9958333333333332,
    "timeout_acc": 0.9958333333333332,
    "percentage_ran_in_portfolio": 0.061764705882352944,
    "percentage_ran_with_selected_algo": 0.9382352941176471
  },
  "sum": {
    "sbs_running_time": 151018.15399999995,
    "sbs_solved": 251,
    "vbs_running_time": 151018.15399999995,
    "vbs_solved": 251,
    "algo_select_running_time": 151018.15399999995,
    "algo_select_solved": 251,
    "algo_select_acc": 4.979166666666666,
    "timeout_acc": 4.979166666666666,
    "percentage_ran_in_portfolio": 0.3088235294117647,
    "percentage_ran_with_selected_algo": 4.6911764705882355
  }
}