{
  "results": {
    "Vanilla Verifier": [
      2.0,
      2.0,
      2.0,
      0.0,
      0.0,
      2.0,
      2.0,
      0.0,
      2.0,
      0.0,
      2.0,
      0.0,
      2.0,
      2.0,
      2.0,
      2.0,
      0.0,
      2.0,
      0.0,
      2.0,
      2.0,
      0.0,
      0.0,
      0.0,
      2.0,
      2.0,
      2.0,
      2.0,
      2.0,
      0.0,
      2.0,
      2.0,
      0.0,
      0.0,
      2.0,
      2.0,
      2.0,
      0.0,
      2.0,
      2.0,
      2.0,
      2.0,
      1.0,
      2.0,
      0.0,
      2.0,
      0.0,
      0.0,
      0.0,
      0.0,
      2.0,
      2.0,
      2.0,
      0.0,
      0.0,
      1.0,
      2.0,
      2.0,
      2.0,
      0.0,
      2.0,
      0.0,
      2.0,
      2.0,
      2.0,
      2.0,
      2.0,
      2.0,
      2.0,
      2.0,
      0.0,
      2.0,
      2.0,
      2.0,
      2.0,
      2.0,
      2.0,
      0.0,
      0.0,
      2.0,
      2.0,
      2.0,
      2.0,
      0.0,
      2.0,
      0.0,
      2.0,
      2.0,
      0.0,
      2.0,
      2.0,
      0.0,
      0.0,
      2.0,
      2.0,
      2.0,
      0.0,
      0.0,
      0.0,
      2.0,
      2.0,
      2.0,
      0.0,
      2.0,
      2.0,
      2.0,
      2.0,
      0.0,
      2.0,
      2.0,
      2.0,
      0.0,
      2.0,
      0.0,
      0.0,
      0.0,
      2.0,
      2.0,
      2.0,
      2.0,
      2.0,
      2.0,
      2.0,
      2.0,
      0.0,
      2.0,
      2.0,
      2.0,
      0.0,
      2.0,
      2.0,
      2.0,
      2.0,
      2.0,
      2.0,
      2.0,
      2.0,
      2.0,
      2.0,
      2.0,
      2.0,
      0.0,
      0.0,
      0.0,
      2.0,
      0.0,
      2.0,
      2.0,
      2.0,
      2.0,
      0.0,
      2.0,
      2.0,
      2.0,
      2.0,
      2.0,
      0.0,
      0.0,
      0.0,
      2.0,
      2.0,
      0.0,
      2.0,
      2.0,
      2.0,
      2.0,
      0.0,
      0.0,
      0.0,
      0.0,
      0.0,
      2.0,
      0.0,
      2.0,
      0.0,
      2.0,
      0.0,
      2.0,
      2.0,
      0.0,
      0.0,
      0.0,
      2.0,
      2.0,
      0.0,
      0.0,
      2.0,
      0.0,
      1.0,
      2.0,
      0.0,
      0.0,
      0.0,
      0.0,
      2.0,
      2.0,
      2.0,
      2.0,
      2.0,
      2.0,
      0.0,
      2.0,
      2.0,
      0.0,
      2.0,
      2.0,
      0.0,
      2.0,
      2.0,
      2.0,
      0.0,
      2.0,
      0.0,
      0.0,
      0.0,
      2.0,
      2.0,
      2.0,
      2.0,
      2.0,
      0.0,
      2.0,
      2.0,
      2.0,
      0.0,
      0.0,
      0.0,
      2.0,
      2.0,
      0.0,
      2.0,
      0.0,
      2.0,
      2.0,
      2.0,
      0.0,
      2.0,
      2.0,
      0.0,
      1.0,
      0.0,
      2.0,
      0.0,
      2.0,
      2.0,
      0.0,
      2.0,
      2.0,
      2.0,
      2.0,
      2.0,
      0.0,
      0.0,
      2.0,
      0.0,
      0.0,
      0.0,
      2.0,
      2.0,
      2.0,
      2.0,
      2.0,
      2.0,
      0.0,
      0.0,
      2.0,
      2.0,
      0.0,
      2.0,
      2.0,
      2.0,
      2.0,
      0.0,
      0.0,
      2.0,
      2.0,
      2.0,
      2.0,
      2.0,
      0.0,
      0.0,
      2.0,
      2.0,
      2.0,
      2.0,
      0.0,
      2.0,
      2.0,
      2.0,
      1.0,
      1.0,
      2.0,
      2.0,
      2.0,
      2.0,
      2.0,
      2.0,
      2.0,
      0.0,
      1.0,
      0.0,
      2.0,
      2.0,
      0.0,
      1.0,
      2.0,
      2.0,
      0.0,
      2.0,
      0.0,
      2.0,
      2.0,
      0.0,
      0.0,
      0.0,
      1.0,
      0.0,
      2.0,
      0.0,
      2.0,
      2.0,
      2.0,
      2.0,
      2.0,
      2.0,
      0.0,
      0.0,
      2.0,
      0.0,
      0.0,
      2.0,
      2.0,
      2.0,
      2.0,
      2.0,
      2.0,
      2.0,
      2.0,
      0.0,
      2.0,
      2.0,
      0.0,
      2.0,
      2.0,
      2.0,
      2.0,
      1.0,
      2.0,
      2.0,
      2.0,
      2.0,
      2.0,
      2.0,
      2.0,
      2.0,
      2.0,
      0.0,
      2.0,
      0.0,
      0.0,
      2.0,
      2.0,
      0.0,
      2.0,
      2.0,
      2.0,
      2.0,
      0.0,
      2.0,
      0.0,
      2.0,
      0.0,
      0.0,
      2.0,
      2.0,
      0.0,
      2.0,
      0.0,
      0.0,
      2.0,
      2.0,
      0.0,
      2.0,
      2.0,
      2.0,
      2.0,
      2.0,
      0.0,
      2.0,
      2.0,
      0.0,
      0.0,
      0.0,
      2.0,
      0.0,
      2.0,
      2.0,
      0.0,
      2.0,
      0.0,
      0.0,
      2.0,
      2.0,
      0.0,
      2.0,
      2.0,
      0.0,
      0.0,
      2.0,
      0.0,
      0.0,
      2.0,
      2.0,
      2.0,
      0.0,
      0.0,
      0.0,
      1.0,
      2.0,
      2.0,
      1.0,
      2.0,
      2.0,
      2.0,
      2.0,
      0.0,
      2.0,
      0.0,
      2.0,
      0.0,
      2.0,
      2.0,
      2.0,
      2.0,
      0.0,
      2.0,
      2.0,
      0.0,
      2.0,
      0.0,
      2.0,
      2.0,
      2.0,
      2.0,
      2.0,
      2.0,
      2.0,
      2.0,
      0.0,
      0.0,
      2.0,
      0.0,
      0.0,
      0.0,
      2.0,
      1.0,
      0.0,
      2.0,
      2.0,
      2.0,
      2.0,
      2.0,
      2.0,
      2.0,
      2.0,
      2.0,
      2.0,
      0.0,
      0.0,
      2.0,
      0.0,
      2.0,
      0.0,
      2.0,
      0.0,
      2.0,
      2.0,
      0.0,
      2.0,
      2.0,
      2.0,
      2.0,
      0.0,
      2.0,
      2.0,
      2.0,
      2.0,
      0.0,
      1.0,
      2.0,
      0.0,
      2.0,
      0.0,
      2.0,
      2.0,
      2.0,
      0.0,
      2.0,
      0.0,
      2.0
    ],
    "Timeout Prediction": [
      2.0,
      2.0,
      2.0,
      0.0,
      0.0,
      2.0,
      2.0,
      0.0,
      2.0,
      0.0,
      2.0,
      0.0,
      2.0,
      2.0,
      2.0,
      2.0,
      0.0,
      2.0,
      0.0,
      2.0,
      2.0,
      0.0,
      0.0,
      0.0,
      2.0,
      2.0,
      2.0,
      2.0,
      2.0,
      0.0,
      2.0,
      2.0,
      0.0,
      0.0,
      2.0,
      2.0,
      2.0,
      0.0,
      2.0,
      2.0,
      2.0,
      2.0,
      1.0,
      2.0,
      0.0,
      2.0,
      0.0,
      0.0,
      0.0,
      0.0,
      2.0,
      2.0,
      2.0,
      0.0,
      0.0,
      1.0,
      2.0,
      2.0,
      2.0,
      0.0,
      2.0,
      0.0,
      2.0,
      2.0,
      2.0,
      2.0,
      2.0,
      2.0,
      2.0,
      2.0,
      0.0,
      2.0,
      2.0,
      2.0,
      2.0,
      2.0,
      2.0,
      0.0,
      0.0,
      2.0,
      2.0,
      2.0,
      2.0,
      0.0,
      2.0,
      0.0,
      2.0,
      2.0,
      0.0,
      2.0,
      2.0,
      0.0,
      0.0,
      2.0,
      2.0,
      2.0,
      0.0,
      0.0,
      0.0,
      2.0,
      2.0,
      2.0,
      0.0,
      2.0,
      2.0,
      2.0,
      2.0,
      0.0,
      2.0,
      2.0,
      2.0,
      0.0,
      2.0,
      0.0,
      0.0,
      0.0,
      2.0,
      2.0,
      2.0,
      2.0,
      2.0,
      2.0,
      2.0,
      2.0,
      0.0,
      2.0,
      2.0,
      2.0,
      0.0,
      2.0,
      2.0,
      2.0,
      2.0,
      2.0,
      2.0,
      2.0,
      2.0,
      2.0,
      2.0,
      2.0,
      2.0,
      0.0,
      0.0,
      0.0,
      2.0,
      0.0,
      2.0,
      2.0,
      2.0,
      2.0,
      0.0,
      2.0,
      2.0,
      2.0,
      2.0,
      2.0,
      0.0,
      0.0,
      0.0,
      2.0,
      2.0,
      0.0,
      2.0,
      2.0,
      2.0,
      2.0,
      0.0,
      0.0,
      0.0,
      0.0,
      0.0,
      2.0,
      0.0,
      2.0,
      0.0,
      2.0,
      0.0,
      2.0,
      2.0,
      0.0,
      0.0,
      0.0,
      2.0,
      2.0,
      0.0,
      0.0,
      2.0,
      0.0,
      1.0,
      2.0,
      0.0,
      0.0,
      0.0,
      0.0,
      2.0,
      2.0,
      2.0,
      2.0,
      2.0,
      2.0,
      0.0,
      2.0,
      2.0,
      0.0,
      2.0,
      2.0,
      0.0,
      2.0,
      2.0,
      2.0,
      0.0,
      2.0,
      0.0,
      0.0,
      0.0,
      2.0,
      2.0,
      2.0,
      2.0,
      2.0,
      0.0,
      2.0,
      2.0,
      2.0,
      0.0,
      0.0,
      0.0,
      2.0,
      2.0,
      0.0,
      2.0,
      0.0,
      2.0,
      2.0,
      2.0,
      0.0,
      2.0,
      2.0,
      0.0,
      1.0,
      0.0,
      2.0,
      0.0,
      2.0,
      2.0,
      0.0,
      2.0,
      2.0,
      2.0,
      2.0,
      2.0,
      0.0,
      0.0,
      2.0,
      0.0,
      0.0,
      0.0,
      2.0,
      2.0,
      2.0,
      2.0,
      2.0,
      2.0,
      0.0,
      0.0,
      2.0,
      2.0,
      0.0,
      2.0,
      2.0,
      2.0,
      2.0,
      0.0,
      0.0,
      2.0,
      2.0,
      2.0,
      2.0,
      2.0,
      0.0,
      0.0,
      2.0,
      2.0,
      2.0,
      2.0,
      0.0,
      2.0,
      2.0,
      2.0,
      1.0,
      1.0,
      2.0,
      2.0,
      2.0,
      2.0,
      2.0,
      2.0,
      2.0,
      0.0,
      1.0,
      0.0,
      2.0,
      2.0,
      0.0,
      1.0,
      2.0,
      2.0,
      0.0,
      2.0,
      0.0,
      2.0,
      2.0,
      0.0,
      0.0,
      0.0,
      1.0,
      0.0,
      2.0,
      0.0,
      2.0,
      2.0,
      2.0,
      2.0,
      2.0,
      2.0,
      0.0,
      0.0,
      2.0,
      0.0,
      0.0,
      2.0,
      2.0,
      2.0,
      2.0,
      2.0,
      2.0,
      2.0,
      2.0,
      0.0,
      2.0,
      2.0,
      0.0,
      2.0,
      2.0,
      2.0,
      2.0,
      1.0,
      2.0,
      2.0,
      2.0,
      2.0,
      2.0,
      2.0,
      2.0,
      2.0,
      2.0,
      0.0,
      2.0,
      0.0,
      0.0,
      2.0,
      2.0,
      0.0,
      2.0,
      2.0,
      2.0,
      2.0,
      0.0,
      2.0,
      0.0,
      2.0,
      0.0,
      0.0,
      2.0,
      2.0,
      0.0,
      2.0,
      0.0,
      0.0,
      2.0,
      2.0,
      0.0,
      2.0,
      2.0,
      2.0,
      2.0,
      2.0,
      0.0,
      2.0,
      2.0,
      0.0,
      0.0,
      0.0,
      2.0,
      0.0,
      2.0,
      2.0,
      0.0,
      2.0,
      0.0,
      0.0,
      2.0,
      2.0,
      0.0,
      2.0,
      2.0,
      0.0,
      0.0,
      2.0,
      0.0,
      0.0,
      2.0,
      2.0,
      2.0,
      0.0,
      0.0,
      0.0,
      1.0,
      2.0,
      2.0,
      1.0,
      2.0,
      2.0,
      2.0,
      2.0,
      0.0,
      2.0,
      0.0,
      2.0,
      0.0,
      2.0,
      2.0,
      2.0,
      2.0,
      0.0,
      2.0,
      2.0,
      0.0,
      2.0,
      0.0,
      2.0,
      2.0,
      2.0,
      2.0,
      2.0,
      2.0,
      2.0,
      2.0,
      0.0,
      0.0,
      2.0,
      0.0,
      0.0,
      0.0,
      2.0,
      1.0,
      0.0,
      2.0,
      2.0,
      2.0,
      2.0,
      2.0,
      2.0,
      2.0,
      2.0,
      2.0,
      2.0,
      0.0,
      0.0,
      2.0,
      0.0,
      2.0,
      0.0,
      2.0,
      0.0,
      2.0,
      2.0,
      0.0,
      2.0,
      2.0,
      2.0,
      2.0,
      0.0,
      2.0,
      2.0,
      2.0,
      2.0,
      0.0,
      1.0,
      2.0,
      0.0,
      2.0,
      0.0,
      2.0,
      2.0,
      2.0,
      0.0,
      2.0,
      0.0,
      2.0
    ]
  },
  "running_times": {
    "Vanilla Verifier": [
      2.7696007972434056,
      2.8020533890175803,
      2.7805249662574023,
      0.009388998195988405,
      0.045253792938286706,
      2.77153191019675,
      2.781455404432776,
      0.019427987177523538,
      2.781585947592828,
      0.06878828082907221,
      2.81964797179444,
      0.034751659154112415,
      2.780236477010397,
      2.8237724159464936,
      2.7803338350422546,
      2.778838057213998,
      -0.0003359744760780658,
      2.7794647999431774,
      1.0945201013137364,
      2.778716299646777,
      2.7786073149903987,
      0.0263597590614413,
      -0.06032272057847352,
      0.025227082416839484,
      2.7792318999449317,
      2.8037870536878278,
      2.7744815161788474,
      2.7790185255249873,
      2.779782528469318,
      0.278098472307969,
      2.76698763319694,
      2.7692210695374135,
      0.06921100012213414,
      -0.039576598919939046,
      2.7817485243088043,
      2.824565030566634,
      2.7788049703124558,
      0.1260252340167904,
      2.7807374052547638,
      2.7800355801566097,
      2.7812420546749914,
      2.7803978214376786,
      0.09399943758309029,
      2.8107976134513453,
      0.12238946522327913,
      2.7812922286975814,
      0.07368557815639817,
      0.11208790356682004,
      0.154690907613624,
      0.05377280282755355,
      2.7806829470981125,
      2.7689315665141603,
      2.802301669551886,
      0.00601757931691662,
      0.05372779291414504,
      0.08992871118544438,
      2.8082774661210896,
      2.7831511878364146,
      2.767836582516822,
      0.12472499909443051,
      2.781946576567493,
      0.14629181801704985,
      2.7801152609566304,
      2.8173276288642812,
      2.780185193394018,
      2.781021161042432,
      2.7990388757450084,
      2.7821837455755265,
      2.7794009863157423,
      2.7803193053678825,
      0.013906939438091768,
      2.779900901558862,
      2.8089183058878704,
      2.7785572700003067,
      2.7806348064910273,
      2.779662600827215,
      2.7976560604234577,
      0.11132386621785438,
      0.015470775302882522,
      2.7748733191815993,
      2.78069481851922,
      2.7780827572569984,
      2.7780134798376586,
      0.06328502095311757,
      2.7809761528300676,
      0.1878718574362463,
      2.766967247051533,
      2.7715279294510675,
      0.08547503015088481,
      2.7819691761257324,
      2.810128595480519,
      0.3176598552303976,
      0.08464077795479102,
      2.7795457165527875,
      2.7809081557988766,
      2.7820128532256145,
      0.09298531263362028,
      0.0790706160248347,
      1.7051164808983519,
      2.7805705736348023,
      2.786772839083297,
      2.779534700800971,
      -0.04969907944294154,
      2.7804480041160753,
      2.780207822585922,
      2.781577697271683,
      2.7798755419527947,
      0.05786527372080025,
      2.779428415914619,
      2.7813777559219512,
      2.7798609271440746,
      0.12307850461853809,
      2.7814911213984415,
      0.055870101982413496,
      0.8505852016459832,
      0.008389485701003816,
      2.7795965358339862,
      2.7913252809696885,
      2.7790238937786946,
      2.7802780184650264,
      2.7808102831457044,
      2.7762542987651324,
      2.781290569036135,
      2.7693160036709576,
      0.39960691265104076,
      2.7813257387866934,
      2.779937623491158,
      2.8213550062841892,
      0.018880624308601542,
      2.7673504267179667,
      2.780561178766014,
      2.764087555939091,
      2.7806138866966363,
      2.777600287267292,
      2.824942546769342,
      2.7797103283424947,
      2.7794925289212116,
      2.7799433051203337,
      2.7802081925467963,
      2.7999441310871322,
      2.7687030330861044,
      0.048611284557810525,
      0.08905967170779733,
      0.13799592730943117,
      2.778559201653365,
      0.10212385869646516,
      2.7806305362577177,
      2.781379811166618,
      2.778818453153349,
      2.7794109146110775,
      0.0690398965589092,
      2.7749442211645134,
      2.7821220152144797,
      2.7686397916467027,
      2.780231573404398,
      2.779702504458282,
      0.5450472550868799,
      0.044933321642273434,
      0.046397064757552994,
      2.7802872008031736,
      2.779557009137437,
      0.4962963655445245,
      2.7863981835054257,
      2.780733889068606,
      2.780999456055496,
      2.78056485646247,
      0.09738445808915498,
      0.2975301980527537,
      0.003332283259269298,
      0.14460499293718598,
      0.5689029793542185,
      2.7783194918647536,
      0.07417886151361289,
      2.780453892027896,
      0.18942769380538685,
      2.767808757809879,
      0.04269115190906032,
      2.7833961665687834,
      2.8248339333344985,
      0.12887721366745128,
      0.0312849308078804,
      0.0712729756045822,
      2.7808983633435447,
      2.7814193503280755,
      0.379419620315165,
      0.0846587486175082,
      2.7764573669446504,
      0.12552377428205228,
      0.6418689232256581,
      2.7815639273717556,
      1.5273960653037122,
      -0.015128993722399293,
      0.1181371812903925,
      0.11719823530666175,
      2.7700074448772334,
      2.7818404677501487,
      2.7798295042107726,
      2.7804083191276896,
      2.7735553625692475,
      2.7799475372853806,
      0.03574586134677649,
      2.8004492223124435,
      2.7894284157874827,
      0.04086757968578958,
      2.8186862294982955,
      2.779460969075967,
      0.05114358738206897,
      2.7801012600974517,
      2.770351436818914,
      2.771278302298336,
      0.08009752656008581,
      2.7797794219122705,
      0.08114086263707113,
      -0.046420655665284014,
      0.09793852601150005,
      2.7905386074137914,
      2.802117269458941,
      2.8157088832374075,
      2.7955327135509513,
      2.7802692418439667,
      0.06944250821951543,
      2.7803463214442323,
      2.8029644785528602,
      2.703758011299318,
      0.06558983385958927,
      0.05386103685454701,
      0.01233483688106555,
      2.7831096245468743,
      2.7808689806298794,
      0.0842462362386005,
      2.7797772388477617,
      0.010355691958184931,
      2.7793057839945825,
      2.780355930659876,
      2.7812930575929853,
      0.03852633085738963,
      2.778660674862544,
      2.77981827782971,
      0.10249001091835092,
      0.08371894121610825,
      -0.03463705105286263,
      2.7703148872135115,
      0.13737033445216212,
      2.7790940623327813,
      2.7807157039535073,
      0.15129497902980513,
      2.77200227939088,
      2.7814570136900065,
      2.782184974508094,
      2.7709367782584375,
      2.780322122761673,
      0.012247344898827532,
      0.0691183125745783,
      2.734366532801174,
      0.10505389828612662,
      0.059736815485792745,
      0.12670391147808052,
      2.7908286147149357,
      2.7820094785203042,
      2.7792110520556976,
      2.8237802792003373,
      2.779061547126171,
      2.7803894548114996,
      0.21734034169641933,
      0.3553252887741376,
      2.780307174033058,
      2.776094582659321,
      0.05916332241894824,
      2.7807958698879234,
      2.7682202596348175,
      2.783812246850048,
      2.7802808879190506,
      0.7966037496400479,
      0.03240003130323324,
      2.812180905300472,
      2.778229868245793,
      2.7800818535625864,
      2.7789578125448697,
      2.7819897267384066,
      0.089755339788828,
      0.067063654715013,
      2.7811872448288018,
      2.779604681465229,
      2.7773390403114124,
      2.780434497570983,
      -0.03149224534229356,
      2.779777563194258,
      2.7799373084817747,
      2.7799798859736775,
      2.6829470203547747,
      0.05457075153161214,
      2.8100891504310144,
      2.7767574284843284,
      2.779556932967521,
      2.778419756552115,
      2.7814207885150735,
      2.7710310122538977,
      2.7790277797381986,
      0.019848804117469945,
      -0.05217465604588323,
      0.014499292695877958,
      2.7769289987524908,
      2.7992841714609735,
      0.05766969204269137,
      -0.019738027822879346,
      2.7803281404037943,
      2.8246234268391683,
      0.0838191801518501,
      2.8068361483954107,
      0.07159007394200814,
      2.779244103531507,
      2.7807422550299443,
      0.06422808726398001,
      0.04285576328247265,
      0.0985069491745569,
      2.774332840951228,
      0.0950235442929921,
      2.78104392390315,
      0.9190854843262636,
      2.780188042008824,
      2.7754831975177883,
      2.7801065428030927,
      2.7808227044869973,
      2.7943043756704697,
      2.781053646943607,
      0.06511873619709513,
      0.11536797397780325,
      2.7798333500660473,
      0.13515971145714167,
      0.38930755260399075,
      2.7792179010556075,
      2.8150822369788746,
      2.813674899612738,
      2.809080430428992,
      2.7932392373318597,
      2.7808672177615255,
      2.7800434267546366,
      2.779875652719997,
      0.16203088823006412,
      2.780625608888126,
      2.7745805557437087,
      0.16125748080701363,
      2.793709276143251,
      2.780784446337824,
      2.7802269301977263,
      2.7806040923141313,
      0.15980046846083443,
      2.776318846392931,
      2.780687735462932,
      2.8198345170220613,
      2.791990450522474,
      2.769978422851787,
      2.7801629571232978,
      2.8144295998533573,
      2.80935813193719,
      2.780838525892061,
      0.11001443710685843,
      2.777883485024994,
      0.09938102016421953,
      0.04555854182913916,
      2.781307221160477,
      2.7785875661125945,
      0.1546572679777551,
      2.751609656955763,
      2.780436680568348,
      2.7700449456236376,
      2.8040649459959286,
      0.035435273571336655,
      2.7808789980346815,
      0.14428222417115588,
      2.7821029972970925,
      0.052052047670196076,
      0.15376518025533248,
      2.779725079873011,
      2.778468356229339,
      0.023472305771298857,
      2.778951884905963,
      0.1365648269636494,
      0.1072587831514649,
      2.7808750357676217,
      2.8115660833122207,
      0.14677773778518716,
      2.7813540871403912,
      2.7790804958888473,
      2.781999547817669,
      2.8405945640475556,
      2.7807653767168876,
      0.0716447183242248,
      2.7989537153210815,
      2.7768281102938843,
      0.12485066199606562,
      -0.029760274572140536,
      0.10810237977092538,
      2.8004170040090197,
      0.2234708403461305,
      2.7808651814351166,
      2.7801235429615745,
      0.0725277800515848,
      2.8083709684219795,
      0.10403111350787929,
      0.041597704958000234,
      2.7804650943828997,
      2.7813693533085027,
      0.005039930684341368,
      2.7804505821308747,
      2.780386959724157,
      0.07647923704316031,
      -0.007032320291476196,
      2.7737058512689083,
      0.00924249790456724,
      0.06758314516665244,
      2.7806941240583054,
      2.79539395861195,
      2.8206702917653184,
      0.06131189615719434,
      -0.028539862285326883,
      0.8039506014531625,
      0.5540829627215612,
      2.7744357025930646,
      2.7806404984630655,
      0.07458775922348115,
      2.7802192043078966,
      2.7794915763730086,
      2.7814838318409474,
      2.7811030869385136,
      0.05453329193658048,
      2.8050391986339593,
      0.08478988311800519,
      2.826221429097577,
      0.40470254751051643,
      2.7800427586497367,
      2.7812580594628895,
      2.8257548002963326,
      2.7804111227852744,
      0.12194578784276283,
      2.7706764519526477,
      2.7874728888335922,
      0.06536523924064601,
      2.7815232122519467,
      0.057106347441768145,
      2.7798333624943146,
      2.780795316268449,
      2.773282480967707,
      2.781817077954237,
      2.780338503408682,
      2.7810633586910614,
      2.7787765005856366,
      2.7809505162179367,
      0.12254510209481903,
      0.12484552518838946,
      2.779050976976759,
      0.14044912342060947,
      0.06330650542586215,
      0.06448248542091901,
      2.803364029911534,
      2.294973540494656,
      0.7107022895741086,
      2.779574656598797,
      2.7804374296865046,
      2.7744114350480875,
      2.7809055447200506,
      2.780243156434539,
      2.781072908390557,
      2.7799832739716064,
      2.7797375593504565,
      2.778766667337742,
      2.788811688029594,
      0.09303504931544192,
      0.21100777081267658,
      2.800907196194626,
      0.041030258597702145,
      2.7810652564014737,
      0.1325814115308959,
      2.779995100346393,
      0.094497895534994,
      2.7804556755405296,
      2.780175088726367,
      0.07567843936635252,
      2.8003575801661422,
      2.767374602269721,
      2.8130721205855003,
      2.78978565302707,
      0.10047188942869419,
      2.771017344012584,
      2.7791037348216263,
      2.781264191322136,
      2.803264398033191,
      0.11292949853717135,
      -0.014381349320533249,
      2.8144114981897888,
      0.14667623730388377,
      2.7793877249138985,
      0.17845343928651358,
      2.779561364959442,
      2.7815963895809044,
      2.781222306046348,
      0.03592995354513435,
      2.78027671273616,
      0.11196956639321545,
      2.779517592042221
    ],
    "Timeout Prediction": [
      1.3010299956639813,
      1.3010299956639813,
      1.3010299956639813,
      0.009388998195988405,
      0.045253792938286706,
      2.77153191019675,
      1.3010299956639813,
      0.019427987177523538,
      1.3010299956639813,
      0.06878828082907221,
      1.3010299956639813,
      0.034751659154112415,
      2.780236477010397,
      1.3010299956639813,
      1.3010299956639813,
      1.3010299956639813,
      -0.0003359744760780658,
      1.3010299956639813,
      1.0945201013137364,
      2.778716299646777,
      2.7786073149903987,
      0.0263597590614413,
      -0.06032272057847352,
      0.025227082416839484,
      1.3010299956639813,
      1.3010299956639813,
      1.3010299956639813,
      1.3010299956639813,
      1.3010299956639813,
      0.278098472307969,
      1.3010299956639813,
      1.3010299956639813,
      0.06921100012213414,
      -0.039576598919939046,
      1.3010299956639813,
      1.3010299956639813,
      1.3010299956639813,
      0.1260252340167904,
      1.3010299956639813,
      1.3010299956639813,
      1.3010299956639813,
      1.3010299956639813,
      0.09399943758309029,
      2.8107976134513453,
      0.12238946522327913,
      1.3010299956639813,
      0.07368557815639817,
      0.11208790356682004,
      0.154690907613624,
      0.05377280282755355,
      2.7806829470981125,
      1.3010299956639813,
      1.3010299956639813,
      0.00601757931691662,
      0.05372779291414504,
      0.08992871118544438,
      1.3010299956639813,
      2.7831511878364146,
      1.3010299956639813,
      0.12472499909443051,
      1.3010299956639813,
      0.14629181801704985,
      2.7801152609566304,
      1.3010299956639813,
      1.3010299956639813,
      1.3010299956639813,
      1.3010299956639813,
      1.3010299956639813,
      1.3010299956639813,
      1.3010299956639813,
      0.013906939438091768,
      1.3010299956639813,
      1.3010299956639813,
      2.7785572700003067,
      1.3010299956639813,
      1.3010299956639813,
      1.3010299956639813,
      0.11132386621785438,
      0.015470775302882522,
      1.3010299956639813,
      2.78069481851922,
      1.3010299956639813,
      1.3010299956639813,
      0.06328502095311757,
      1.3010299956639813,
      0.1878718574362463,
      1.3010299956639813,
      1.3010299956639813,
      0.08547503015088481,
      1.3010299956639813,
      1.3010299956639813,
      0.3176598552303976,
      0.08464077795479102,
      1.3010299956639813,
      2.7809081557988766,
      1.3010299956639813,
      0.09298531263362028,
      0.0790706160248347,
      1.7051164808983519,
      1.3010299956639813,
      2.786772839083297,
      1.3010299956639813,
      -0.04969907944294154,
      1.3010299956639813,
      1.3010299956639813,
      1.3010299956639813,
      1.3010299956639813,
      0.05786527372080025,
      1.3010299956639813,
      1.3010299956639813,
      1.3010299956639813,
      0.12307850461853809,
      1.3010299956639813,
      0.055870101982413496,
      0.8505852016459832,
      0.008389485701003816,
      1.3010299956639813,
      1.3010299956639813,
      1.3010299956639813,
      1.3010299956639813,
      1.3010299956639813,
      2.7762542987651324,
      1.3010299956639813,
      1.3010299956639813,
      0.39960691265104076,
      1.3010299956639813,
      1.3010299956639813,
      1.3010299956639813,
      0.018880624308601542,
      1.3010299956639813,
      2.780561178766014,
      1.3010299956639813,
      1.3010299956639813,
      1.3010299956639813,
      1.3010299956639813,
      1.3010299956639813,
      1.3010299956639813,
      1.3010299956639813,
      1.3010299956639813,
      1.3010299956639813,
      1.3010299956639813,
      0.048611284557810525,
      0.08905967170779733,
      0.13799592730943117,
      1.3010299956639813,
      0.10212385869646516,
      2.7806305362577177,
      1.3010299956639813,
      1.3010299956639813,
      1.3010299956639813,
      0.0690398965589092,
      1.3010299956639813,
      1.3010299956639813,
      2.7686397916467027,
      2.780231573404398,
      2.779702504458282,
      0.5450472550868799,
      0.044933321642273434,
      0.046397064757552994,
      1.3010299956639813,
      1.3010299956639813,
      0.4962963655445245,
      1.3010299956639813,
      1.3010299956639813,
      1.3010299956639813,
      2.78056485646247,
      0.09738445808915498,
      0.2975301980527537,
      0.003332283259269298,
      0.14460499293718598,
      0.5689029793542185,
      1.3010299956639813,
      0.07417886151361289,
      1.3010299956639813,
      0.18942769380538685,
      1.3010299956639813,
      0.04269115190906032,
      1.3010299956639813,
      1.3010299956639813,
      0.12887721366745128,
      0.0312849308078804,
      0.0712729756045822,
      1.3010299956639813,
      2.7814193503280755,
      0.379419620315165,
      0.0846587486175082,
      1.3010299956639813,
      0.12552377428205228,
      0.6418689232256581,
      2.7815639273717556,
      1.5273960653037122,
      -0.015128993722399293,
      0.1181371812903925,
      0.11719823530666175,
      2.7700074448772334,
      1.3010299956639813,
      2.7798295042107726,
      1.3010299956639813,
      2.7735553625692475,
      1.3010299956639813,
      0.03574586134677649,
      1.3010299956639813,
      1.3010299956639813,
      0.04086757968578958,
      1.3010299956639813,
      1.3010299956639813,
      0.05114358738206897,
      1.3010299956639813,
      1.3010299956639813,
      2.771278302298336,
      0.08009752656008581,
      1.3010299956639813,
      0.08114086263707113,
      -0.046420655665284014,
      0.09793852601150005,
      1.3010299956639813,
      1.3010299956639813,
      1.3010299956639813,
      1.3010299956639813,
      1.3010299956639813,
      0.06944250821951543,
      1.3010299956639813,
      1.3010299956639813,
      2.703758011299318,
      0.06558983385958927,
      0.05386103685454701,
      0.01233483688106555,
      1.3010299956639813,
      1.3010299956639813,
      0.0842462362386005,
      1.3010299956639813,
      0.010355691958184931,
      2.7793057839945825,
      1.3010299956639813,
      1.3010299956639813,
      0.03852633085738963,
      1.3010299956639813,
      1.3010299956639813,
      0.10249001091835092,
      0.08371894121610825,
      -0.03463705105286263,
      2.7703148872135115,
      0.13737033445216212,
      1.3010299956639813,
      1.3010299956639813,
      0.15129497902980513,
      2.77200227939088,
      1.3010299956639813,
      1.3010299956639813,
      1.3010299956639813,
      2.780322122761673,
      0.012247344898827532,
      0.0691183125745783,
      2.734366532801174,
      0.10505389828612662,
      0.059736815485792745,
      0.12670391147808052,
      1.3010299956639813,
      1.3010299956639813,
      2.7792110520556976,
      1.3010299956639813,
      1.3010299956639813,
      2.7803894548114996,
      0.21734034169641933,
      0.3553252887741376,
      1.3010299956639813,
      1.3010299956639813,
      0.05916332241894824,
      2.7807958698879234,
      2.7682202596348175,
      1.3010299956639813,
      1.3010299956639813,
      0.7966037496400479,
      0.03240003130323324,
      2.812180905300472,
      1.3010299956639813,
      1.3010299956639813,
      1.3010299956639813,
      1.3010299956639813,
      0.089755339788828,
      0.067063654715013,
      1.3010299956639813,
      1.3010299956639813,
      2.7773390403114124,
      1.3010299956639813,
      -0.03149224534229356,
      1.3010299956639813,
      1.3010299956639813,
      2.7799798859736775,
      2.6829470203547747,
      0.05457075153161214,
      1.3010299956639813,
      1.3010299956639813,
      2.779556932967521,
      2.778419756552115,
      1.3010299956639813,
      1.3010299956639813,
      1.3010299956639813,
      0.019848804117469945,
      -0.05217465604588323,
      0.014499292695877958,
      2.7769289987524908,
      2.7992841714609735,
      0.05766969204269137,
      -0.019738027822879346,
      1.3010299956639813,
      1.3010299956639813,
      0.0838191801518501,
      2.8068361483954107,
      0.07159007394200814,
      2.779244103531507,
      1.3010299956639813,
      0.06422808726398001,
      0.04285576328247265,
      0.0985069491745569,
      2.774332840951228,
      0.0950235442929921,
      1.3010299956639813,
      0.9190854843262636,
      1.3010299956639813,
      1.3010299956639813,
      1.3010299956639813,
      2.7808227044869973,
      1.3010299956639813,
      2.781053646943607,
      0.06511873619709513,
      0.11536797397780325,
      1.3010299956639813,
      0.13515971145714167,
      0.38930755260399075,
      1.3010299956639813,
      1.3010299956639813,
      2.813674899612738,
      1.3010299956639813,
      2.7932392373318597,
      1.3010299956639813,
      1.3010299956639813,
      2.779875652719997,
      0.16203088823006412,
      1.3010299956639813,
      1.3010299956639813,
      0.16125748080701363,
      1.3010299956639813,
      1.3010299956639813,
      1.3010299956639813,
      2.7806040923141313,
      0.15980046846083443,
      2.776318846392931,
      1.3010299956639813,
      1.3010299956639813,
      1.3010299956639813,
      2.769978422851787,
      1.3010299956639813,
      2.8144295998533573,
      1.3010299956639813,
      1.3010299956639813,
      0.11001443710685843,
      1.3010299956639813,
      0.09938102016421953,
      0.04555854182913916,
      1.3010299956639813,
      2.7785875661125945,
      0.1546572679777551,
      2.751609656955763,
      1.3010299956639813,
      2.7700449456236376,
      1.3010299956639813,
      0.035435273571336655,
      2.7808789980346815,
      0.14428222417115588,
      1.3010299956639813,
      0.052052047670196076,
      0.15376518025533248,
      1.3010299956639813,
      1.3010299956639813,
      0.023472305771298857,
      1.3010299956639813,
      0.1365648269636494,
      0.1072587831514649,
      1.3010299956639813,
      2.8115660833122207,
      0.14677773778518716,
      1.3010299956639813,
      2.7790804958888473,
      1.3010299956639813,
      1.3010299956639813,
      1.3010299956639813,
      0.0716447183242248,
      1.3010299956639813,
      1.3010299956639813,
      0.12485066199606562,
      -0.029760274572140536,
      0.10810237977092538,
      1.3010299956639813,
      0.2234708403461305,
      1.3010299956639813,
      1.3010299956639813,
      0.0725277800515848,
      1.3010299956639813,
      0.10403111350787929,
      0.041597704958000234,
      1.3010299956639813,
      1.3010299956639813,
      0.005039930684341368,
      2.7804505821308747,
      1.3010299956639813,
      0.07647923704316031,
      -0.007032320291476196,
      1.3010299956639813,
      0.00924249790456724,
      0.06758314516665244,
      2.7806941240583054,
      1.3010299956639813,
      2.8206702917653184,
      0.06131189615719434,
      -0.028539862285326883,
      0.8039506014531625,
      0.5540829627215612,
      2.7744357025930646,
      1.3010299956639813,
      0.07458775922348115,
      1.3010299956639813,
      1.3010299956639813,
      1.3010299956639813,
      1.3010299956639813,
      0.05453329193658048,
      1.3010299956639813,
      0.08478988311800519,
      1.3010299956639813,
      0.40470254751051643,
      1.3010299956639813,
      2.7812580594628895,
      1.3010299956639813,
      1.3010299956639813,
      0.12194578784276283,
      1.3010299956639813,
      1.3010299956639813,
      0.06536523924064601,
      2.7815232122519467,
      0.057106347441768145,
      2.7798333624943146,
      1.3010299956639813,
      1.3010299956639813,
      1.3010299956639813,
      2.780338503408682,
      1.3010299956639813,
      1.3010299956639813,
      1.3010299956639813,
      0.12254510209481903,
      0.12484552518838946,
      1.3010299956639813,
      0.14044912342060947,
      0.06330650542586215,
      0.06448248542091901,
      1.3010299956639813,
      2.294973540494656,
      0.7107022895741086,
      1.3010299956639813,
      1.3010299956639813,
      1.3010299956639813,
      1.3010299956639813,
      1.3010299956639813,
      1.3010299956639813,
      1.3010299956639813,
      1.3010299956639813,
      2.778766667337742,
      1.3010299956639813,
      0.09303504931544192,
      0.21100777081267658,
      1.3010299956639813,
      0.041030258597702145,
      1.3010299956639813,
      0.1325814115308959,
      1.3010299956639813,
      0.094497895534994,
      1.3010299956639813,
      2.780175088726367,
      0.07567843936635252,
      2.8003575801661422,
      2.767374602269721,
      2.8130721205855003,
      1.3010299956639813,
      0.10047188942869419,
      1.3010299956639813,
      2.7791037348216263,
      2.781264191322136,
      1.3010299956639813,
      0.11292949853717135,
      -0.014381349320533249,
      1.3010299956639813,
      0.14667623730388377,
      1.3010299956639813,
      0.17845343928651358,
      1.3010299956639813,
      1.3010299956639813,
      1.3010299956639813,
      0.03592995354513435,
      1.3010299956639813,
      0.11196956639321545,
      1.3010299956639813
    ]
  }
}