{
  "0": {
    "test_acc": 0.8970588235294118,
    "tp": 61,
    "tn": 0,
    "fp": 2,
    "fn": 5,
    "tpr": 0.9242424242424242,
    "fpr": 1.0,
    "tnr": 0.0,
    "fnr": 0.07575757575757576,
    "f1_score": 0.9457364341085271,
    "precision": 0.9682539682539683,
    "recall": 0.9242424242424242
  },
  "1": {
    "test_acc": 0.8970588235294118,
    "tp": 59,
    "tn": 2,
    "fp": 0,
    "fn": 7,
    "tpr": 0.8939393939393939,
    "fpr": 0.0,
    "tnr": 1.0,
    "fnr": 0.10606060606060606,
    "f1_score": 0.944,
    "precision": 1.0,
    "recall": 0.8939393939393939
  },
  "2": {
    "test_acc": 0.8805970149253731,
    "tp": 57,
    "tn": 2,
    "fp": 0,
    "fn": 8,
    "tpr": 0.8769230769230769,
    "fpr": 0.0,
    "tnr": 1.0,
    "fnr": 0.12307692307692308,
    "f1_score": 0.9344262295081968,
    "precision": 1.0,
    "recall": 0.8769230769230769
  },
  "3": {
    "test_acc": 0.9402985074626866,
    "tp": 62,
    "tn": 1,
    "fp": 1,
    "fn": 3,
    "tpr": 0.9538461538461539,
    "fpr": 0.5,
    "tnr": 0.5,
    "fnr": 0.046153846153846156,
    "f1_score": 0.96875,
    "precision": 0.9841269841269841,
    "recall": 0.9538461538461539
  },
  "4": {
    "test_acc": 0.8676470588235294,
    "tp": 59,
    "tn": 0,
    "fp": 3,
    "fn": 6,
    "tpr": 0.9076923076923077,
    "fpr": 1.0,
    "tnr": 0.0,
    "fnr": 0.09230769230769231,
    "f1_score": 0.9291338582677167,
    "precision": 0.9516129032258065,
    "recall": 0.9076923076923077
  },
  "sum": {
    "tp": 298.0,
    "fp": 6.0,
    "tn": 5.0,
    "fn": 29.0,
    "tpr": 0.9113149847094801,
    "tnr": 0.45454545454545453,
    "fpr": 0.5454545454545454,
    "fnr": 0.08868501529051988
  },
  "avg": {
    "test_acc": 0.8965320456540826,
    "tp": 59.6,
    "tn": 1.0,
    "fp": 1.2,
    "fn": 5.8,
    "tpr": 0.9113286713286713,
    "fpr": 0.5,
    "tnr": 0.5,
    "fnr": 0.08867132867132868,
    "f1_score": 0.9444093043768881,
    "precision": 0.9807987711213517,
    "recall": 0.9113286713286713
  }
}