{
  "results": {
    "Vanilla Verifier": [
      2.0,
      2.0,
      1.0,
      1.0,
      2.0,
      2.0,
      2.0,
      0.0,
      2.0,
      2.0,
      2.0,
      2.0,
      0.0,
      2.0,
      1.0,
      2.0,
      2.0,
      2.0,
      2.0,
      0.0,
      2.0,
      2.0,
      2.0,
      2.0,
      0.0,
      2.0,
      2.0,
      2.0,
      2.0,
      1.0,
      2.0,
      2.0,
      1.0,
      2.0,
      2.0,
      2.0,
      2.0,
      2.0,
      1.0,
      2.0,
      2.0,
      2.0,
      2.0,
      0.0,
      2.0,
      2.0,
      2.0,
      2.0,
      2.0,
      2.0,
      0.0,
      2.0,
      2.0,
      2.0,
      2.0,
      2.0,
      2.0,
      2.0,
      0.0,
      2.0,
      2.0,
      1.0,
      1.0,
      0.0,
      0.0,
      0.0,
      2.0,
      2.0,
      2.0,
      1.0,
      2.0,
      2.0,
      2.0,
      2.0,
      2.0,
      2.0,
      1.0,
      2.0,
      0.0,
      2.0,
      2.0,
      0.0,
      0.0,
      2.0,
      2.0,
      2.0,
      2.0,
      2.0,
      2.0,
      2.0,
      1.0,
      1.0,
      2.0,
      2.0,
      2.0,
      2.0,
      1.0,
      2.0,
      2.0,
      2.0,
      2.0,
      2.0,
      0.0,
      2.0,
      2.0,
      2.0,
      2.0,
      2.0,
      2.0,
      2.0,
      1.0,
      2.0,
      2.0,
      2.0,
      2.0,
      0.0,
      1.0,
      2.0,
      0.0,
      1.0,
      1.0,
      2.0,
      2.0,
      2.0,
      2.0,
      2.0,
      2.0,
      2.0,
      2.0,
      2.0,
      2.0,
      2.0,
      2.0,
      2.0,
      0.0,
      2.0,
      1.0,
      0.0,
      2.0,
      1.0,
      1.0,
      2.0,
      2.0,
      1.0,
      2.0,
      1.0,
      2.0,
      2.0,
      2.0,
      1.0,
      2.0,
      2.0,
      2.0,
      0.0,
      2.0,
      2.0,
      2.0,
      2.0,
      1.0,
      0.0,
      2.0,
      2.0,
      2.0,
      2.0,
      2.0,
      2.0,
      2.0,
      2.0,
      2.0,
      1.0,
      2.0,
      2.0,
      2.0,
      1.0,
      2.0,
      0.0,
      2.0,
      2.0,
      2.0,
      2.0,
      0.0,
      2.0,
      2.0,
      0.0,
      2.0,
      0.0,
      2.0,
      2.0,
      1.0,
      2.0,
      2.0,
      2.0,
      2.0,
      1.0,
      2.0,
      2.0,
      2.0,
      2.0,
      2.0,
      2.0,
      2.0,
      1.0,
      2.0,
      2.0,
      2.0,
      2.0,
      2.0,
      1.0,
      2.0,
      2.0,
      2.0,
      2.0,
      1.0,
      2.0,
      2.0,
      2.0,
      0.0,
      2.0,
      2.0,
      0.0,
      2.0,
      1.0,
      1.0,
      0.0,
      2.0,
      2.0,
      2.0,
      1.0,
      2.0,
      2.0,
      0.0,
      1.0,
      0.0,
      2.0,
      2.0,
      2.0,
      2.0,
      2.0,
      2.0,
      2.0,
      2.0,
      2.0,
      2.0,
      2.0,
      2.0,
      2.0,
      2.0,
      2.0,
      2.0,
      2.0,
      2.0,
      1.0,
      0.0,
      2.0,
      2.0,
      2.0,
      2.0,
      2.0,
      0.0,
      1.0,
      2.0,
      2.0,
      2.0,
      2.0,
      2.0,
      2.0,
      0.0,
      2.0,
      2.0,
      0.0,
      2.0,
      2.0,
      1.0,
      1.0,
      2.0,
      1.0,
      2.0,
      2.0,
      0.0,
      2.0,
      1.0,
      2.0,
      2.0,
      2.0,
      2.0,
      0.0,
      2.0,
      2.0,
      2.0,
      2.0,
      2.0,
      2.0,
      2.0,
      2.0,
      2.0,
      2.0,
      2.0,
      0.0,
      2.0,
      0.0,
      0.0,
      1.0,
      0.0,
      2.0,
      2.0,
      2.0,
      2.0,
      0.0,
      1.0,
      1.0,
      0.0,
      1.0,
      1.0,
      2.0,
      2.0,
      2.0,
      2.0,
      2.0,
      2.0,
      2.0,
      2.0,
      2.0,
      0.0,
      2.0,
      2.0,
      2.0,
      2.0,
      2.0,
      2.0,
      2.0,
      2.0,
      2.0,
      2.0,
      2.0,
      0.0,
      2.0,
      0.0,
      0.0,
      0.0,
      1.0,
      2.0,
      2.0,
      1.0,
      2.0,
      1.0,
      2.0,
      2.0,
      1.0,
      2.0,
      2.0,
      2.0,
      2.0,
      2.0,
      2.0,
      2.0,
      2.0,
      2.0,
      2.0,
      2.0,
      2.0,
      2.0,
      2.0,
      2.0,
      0.0,
      2.0,
      2.0,
      2.0,
      2.0,
      2.0,
      0.0,
      2.0,
      2.0,
      2.0,
      2.0,
      2.0,
      2.0,
      2.0,
      2.0,
      2.0,
      1.0,
      2.0,
      2.0,
      2.0,
      2.0,
      0.0,
      2.0,
      1.0,
      1.0,
      2.0,
      1.0,
      2.0,
      2.0,
      2.0,
      2.0,
      2.0,
      1.0,
      2.0,
      2.0,
      2.0,
      2.0,
      2.0,
      2.0,
      2.0,
      0.0,
      2.0,
      2.0,
      2.0,
      2.0,
      2.0,
      2.0,
      2.0,
      1.0,
      2.0,
      1.0,
      2.0,
      2.0,
      2.0,
      2.0,
      2.0,
      0.0,
      2.0,
      2.0,
      1.0,
      1.0,
      2.0,
      2.0,
      2.0,
      2.0,
      2.0,
      2.0,
      2.0,
      2.0,
      2.0,
      2.0,
      2.0,
      2.0,
      0.0,
      2.0,
      2.0,
      2.0,
      2.0,
      2.0,
      2.0,
      2.0,
      0.0,
      2.0,
      1.0,
      0.0,
      1.0,
      2.0,
      2.0,
      1.0,
      2.0,
      2.0,
      0.0,
      2.0,
      2.0,
      2.0,
      1.0,
      0.0,
      2.0,
      2.0,
      2.0,
      2.0,
      2.0,
      0.0,
      2.0,
      0.0,
      2.0,
      0.0,
      2.0,
      2.0,
      2.0,
      2.0,
      2.0,
      2.0,
      1.0,
      2.0,
      2.0,
      2.0,
      2.0,
      2.0,
      2.0,
      0.0,
      2.0,
      2.0,
      2.0,
      0.0,
      2.0,
      2.0,
      2.0,
      2.0,
      0.0,
      2.0,
      2.0,
      0.0,
      2.0,
      1.0,
      1.0,
      1.0
    ],
    "Timeout Prediction": [
      2.0,
      2.0,
      1.0,
      1.0,
      2.0,
      2.0,
      2.0,
      0.0,
      2.0,
      2.0,
      2.0,
      2.0,
      0.0,
      2.0,
      1.0,
      2.0,
      2.0,
      2.0,
      2.0,
      0.0,
      2.0,
      2.0,
      2.0,
      2.0,
      0.0,
      2.0,
      2.0,
      2.0,
      2.0,
      1.0,
      2.0,
      2.0,
      1.0,
      2.0,
      2.0,
      2.0,
      2.0,
      2.0,
      1.0,
      2.0,
      2.0,
      2.0,
      2.0,
      0.0,
      2.0,
      2.0,
      2.0,
      2.0,
      2.0,
      2.0,
      0.0,
      2.0,
      2.0,
      2.0,
      2.0,
      2.0,
      2.0,
      2.0,
      0.0,
      2.0,
      2.0,
      1.0,
      1.0,
      0.0,
      0.0,
      0.0,
      2.0,
      2.0,
      2.0,
      1.0,
      2.0,
      2.0,
      2.0,
      2.0,
      2.0,
      2.0,
      1.0,
      2.0,
      0.0,
      2.0,
      2.0,
      0.0,
      0.0,
      2.0,
      2.0,
      2.0,
      2.0,
      2.0,
      2.0,
      2.0,
      1.0,
      1.0,
      2.0,
      2.0,
      2.0,
      2.0,
      1.0,
      2.0,
      2.0,
      2.0,
      2.0,
      2.0,
      0.0,
      2.0,
      2.0,
      2.0,
      2.0,
      2.0,
      2.0,
      2.0,
      1.0,
      2.0,
      2.0,
      2.0,
      2.0,
      0.0,
      1.0,
      2.0,
      0.0,
      1.0,
      1.0,
      2.0,
      2.0,
      2.0,
      2.0,
      2.0,
      2.0,
      2.0,
      2.0,
      2.0,
      2.0,
      2.0,
      2.0,
      2.0,
      0.0,
      2.0,
      1.0,
      0.0,
      2.0,
      1.0,
      1.0,
      2.0,
      2.0,
      1.0,
      2.0,
      1.0,
      2.0,
      2.0,
      2.0,
      1.0,
      2.0,
      2.0,
      2.0,
      0.0,
      2.0,
      2.0,
      2.0,
      2.0,
      1.0,
      0.0,
      2.0,
      2.0,
      2.0,
      2.0,
      2.0,
      2.0,
      2.0,
      2.0,
      2.0,
      1.0,
      2.0,
      2.0,
      2.0,
      1.0,
      2.0,
      0.0,
      2.0,
      2.0,
      2.0,
      2.0,
      0.0,
      2.0,
      2.0,
      0.0,
      2.0,
      0.0,
      2.0,
      2.0,
      1.0,
      2.0,
      2.0,
      2.0,
      2.0,
      1.0,
      2.0,
      2.0,
      2.0,
      2.0,
      2.0,
      2.0,
      2.0,
      1.0,
      2.0,
      2.0,
      2.0,
      2.0,
      2.0,
      1.0,
      2.0,
      2.0,
      2.0,
      2.0,
      1.0,
      2.0,
      2.0,
      2.0,
      0.0,
      2.0,
      2.0,
      0.0,
      2.0,
      1.0,
      1.0,
      0.0,
      2.0,
      2.0,
      2.0,
      1.0,
      2.0,
      2.0,
      0.0,
      1.0,
      0.0,
      2.0,
      2.0,
      2.0,
      2.0,
      2.0,
      2.0,
      2.0,
      2.0,
      2.0,
      2.0,
      2.0,
      2.0,
      2.0,
      2.0,
      2.0,
      2.0,
      2.0,
      2.0,
      1.0,
      0.0,
      2.0,
      2.0,
      2.0,
      2.0,
      2.0,
      0.0,
      1.0,
      2.0,
      2.0,
      2.0,
      2.0,
      2.0,
      2.0,
      0.0,
      2.0,
      2.0,
      0.0,
      2.0,
      2.0,
      1.0,
      1.0,
      2.0,
      1.0,
      2.0,
      2.0,
      0.0,
      2.0,
      1.0,
      2.0,
      2.0,
      2.0,
      2.0,
      0.0,
      2.0,
      2.0,
      2.0,
      2.0,
      2.0,
      2.0,
      2.0,
      2.0,
      2.0,
      2.0,
      2.0,
      0.0,
      2.0,
      0.0,
      0.0,
      1.0,
      0.0,
      2.0,
      2.0,
      2.0,
      2.0,
      0.0,
      1.0,
      1.0,
      0.0,
      1.0,
      1.0,
      2.0,
      2.0,
      2.0,
      2.0,
      2.0,
      2.0,
      2.0,
      2.0,
      2.0,
      0.0,
      2.0,
      2.0,
      2.0,
      2.0,
      2.0,
      2.0,
      2.0,
      2.0,
      2.0,
      2.0,
      2.0,
      0.0,
      2.0,
      0.0,
      0.0,
      0.0,
      1.0,
      2.0,
      2.0,
      1.0,
      2.0,
      1.0,
      2.0,
      2.0,
      1.0,
      2.0,
      2.0,
      2.0,
      2.0,
      2.0,
      2.0,
      2.0,
      2.0,
      2.0,
      2.0,
      2.0,
      2.0,
      2.0,
      2.0,
      2.0,
      0.0,
      2.0,
      2.0,
      2.0,
      2.0,
      2.0,
      0.0,
      2.0,
      2.0,
      2.0,
      2.0,
      2.0,
      2.0,
      2.0,
      2.0,
      2.0,
      1.0,
      2.0,
      2.0,
      2.0,
      2.0,
      0.0,
      2.0,
      1.0,
      1.0,
      2.0,
      1.0,
      2.0,
      2.0,
      2.0,
      2.0,
      2.0,
      1.0,
      2.0,
      2.0,
      2.0,
      2.0,
      2.0,
      2.0,
      2.0,
      0.0,
      2.0,
      2.0,
      2.0,
      2.0,
      2.0,
      2.0,
      2.0,
      1.0,
      2.0,
      1.0,
      2.0,
      2.0,
      2.0,
      2.0,
      2.0,
      0.0,
      2.0,
      2.0,
      1.0,
      1.0,
      2.0,
      2.0,
      2.0,
      2.0,
      2.0,
      2.0,
      2.0,
      2.0,
      2.0,
      2.0,
      2.0,
      2.0,
      0.0,
      2.0,
      2.0,
      2.0,
      2.0,
      2.0,
      2.0,
      2.0,
      0.0,
      2.0,
      1.0,
      0.0,
      1.0,
      2.0,
      2.0,
      1.0,
      2.0,
      2.0,
      0.0,
      2.0,
      2.0,
      2.0,
      1.0,
      0.0,
      2.0,
      2.0,
      2.0,
      2.0,
      2.0,
      0.0,
      2.0,
      0.0,
      2.0,
      0.0,
      2.0,
      2.0,
      2.0,
      2.0,
      2.0,
      2.0,
      1.0,
      2.0,
      2.0,
      2.0,
      2.0,
      2.0,
      2.0,
      0.0,
      2.0,
      2.0,
      2.0,
      0.0,
      2.0,
      2.0,
      2.0,
      2.0,
      0.0,
      2.0,
      2.0,
      0.0,
      2.0,
      1.0,
      1.0,
      1.0
    ]
  },
  "running_times": {
    "Vanilla Verifier": [
      2.779055089381888,
      2.7800579544245285,
      0.8959747323590646,
      0.9324737646771533,
      2.77956041878952,
      2.7802380803808004,
      2.778903375831701,
      0.7267272090265723,
      2.7801444242071742,
      2.7793727936407193,
      2.7794521834040617,
      2.7801228083755043,
      1.1017470739463662,
      2.778975626989249,
      0.8859263398014311,
      2.7790334192621184,
      2.7796902656557165,
      2.778896150054801,
      2.779040642755518,
      0.7134905430939426,
      2.7791923083697374,
      2.779170645095913,
      2.7786937794759377,
      2.778896150054801,
      0.7558748556724915,
      2.7791778663072546,
      2.7791778663072546,
      2.779091203845499,
      2.779964259394256,
      2.183782151277061,
      2.779423316078324,
      2.7791417590497822,
      0.8680563618230416,
      2.779358357578961,
      2.779004524086998,
      2.7794954807952448,
      2.7803677248255965,
      2.7788600193668573,
      1.1078880251827987,
      2.778925052441096,
      2.7793367025865487,
      2.780036334288524,
      2.7796758401431294,
      0.7075701760979364,
      2.779286170071414,
      2.7788672457449186,
      2.7802164692102265,
      2.7789828514439465,
      2.779661414151369,
      2.779127315306203,
      0.6901960800285137,
      2.778888924157677,
      2.780021920266554,
      2.7802020611657063,
      2.7793655756698223,
      2.77883111265213,
      2.7802957049120116,
      2.7797119030262167,
      0.8241258339165489,
      2.779047866128773,
      2.7790767584204317,
      0.9339931638312423,
      0.8727388274726688,
      0.6972293427597176,
      0.7209857441537391,
      0.693726948923647,
      2.7791417590497822,
      2.7802740966088053,
      2.779055089381888,
      1.4917817755841658,
      2.778925052441096,
      2.7792139705630183,
      2.7786793208255416,
      2.7797263273410096,
      2.779834494434055,
      2.778903375831701,
      1.6679196853173615,
      2.7797551745334417,
      0.8686444383948257,
      2.7790189719148706,
      2.7802957049120116,
      0.7759743311293691,
      0.7944880466591696,
      2.779351139368131,
      2.780209265247716,
      2.7802740966088053,
      2.779047866128773,
      2.778939502912978,
      2.7797407511767407,
      2.7801372190494913,
      1.0310042813635367,
      2.0830724122845354,
      2.779343921037328,
      2.7787877489721513,
      2.779545988963227,
      2.7787443809619394,
      0.9444826721501687,
      2.7793872292226354,
      2.7807276453543044,
      2.780655685107271,
      2.778939502912978,
      2.779055089381888,
      0.7259116322950482,
      2.779257291708381,
      2.7802164692102265,
      2.7793006085328638,
      2.7793944468336624,
      2.7790261956485707,
      2.780410931041706,
      2.7792717311299304,
      1.3159703454569178,
      2.7804685326442447,
      2.780209265247716,
      2.779120093254271,
      2.7793872292226354,
      0.7979596437371962,
      0.9324737646771533,
      2.7788672457449186,
      0.7774268223893114,
      0.967547976218862,
      1.1218879851036812,
      2.7793006085328638,
      2.7792717311299304,
      2.7789828514439465,
      2.7801804482026413,
      2.780259690476022,
      2.778953952904059,
      2.7803461201055297,
      2.7793727936407193,
      2.779170645095913,
      2.778845566249998,
      2.778903375831701,
      2.7789828514439465,
      2.7794882648631365,
      0.7259116322950482,
      2.7790984263778564,
      0.8615344108590378,
      0.7218106152125465,
      2.7787805212711834,
      0.9978230807457255,
      0.8744818176994665,
      2.778888924157677,
      2.778758837446534,
      1.2425414282983842,
      2.780194856964193,
      0.8621313793130372,
      2.7799498429799177,
      2.7793367025865487,
      2.7791417590497822,
      1.1335389083702174,
      2.779004524086998,
      2.7788672457449186,
      2.779466616347414,
      0.8463371121298052,
      2.779351139368131,
      2.779199529220886,
      2.7799498429799177,
      2.7806053058389697,
      0.8567288903828826,
      0.7218106152125465,
      2.779228411424957,
      2.778903375831701,
      2.7788600193668573,
      2.779343921037328,
      2.7809146862140697,
      2.779654200975789,
      2.779286170071414,
      2.7801516292453217,
      2.7792211910540097,
      1.5281450782531065,
      2.780187652643173,
      2.7789322777371392,
      2.779329484015789,
      2.4186658130534755,
      2.7788816981403244,
      0.7032913781186614,
      2.779286170071414,
      2.7794593999356945,
      2.778953952904059,
      2.778946727968617,
      0.725094521081469,
      2.7789322777371392,
      2.7789972999928167,
      0.7283537820212285,
      2.7801444242071742,
      0.7201593034059569,
      2.779242851806734,
      2.7786865502109097,
      1.8536373819585943,
      2.779004524086998,
      2.778773293449927,
      2.7791345372380385,
      2.779293389362141,
      0.9304395947667001,
      2.7801444242071742,
      2.7794305330896476,
      2.780598108323546,
      2.77978401980988,
      2.779466616347414,
      2.7793367025865487,
      2.7793727936407193,
      1.0572856444182146,
      2.779062312514867,
      2.7788238856728076,
      2.779120093254271,
      2.7796469876804037,
      2.779329484015789,
      0.8864907251724818,
      2.7800579544245285,
      2.779199529220886,
      2.7805477223753607,
      2.7789611777193093,
      0.9508514588885464,
      2.780259690476022,
      2.779228411424957,
      2.779242851806734,
      0.756636108245848,
      2.7794305330896476,
      2.7793222653250442,
      0.7403626894942439,
      2.7803821273752396,
      1.34143452457814,
      1.4097641042663462,
      0.7611758131557314,
      2.7795892770038537,
      2.7793727936407193,
      2.7792789506606788,
      2.278547833775853,
      2.779257291708381,
      2.7789828514439465,
      0.7226339225338123,
      0.877371345869774,
      0.7403626894942439,
      2.7789684024143715,
      2.779358357578961,
      2.778946727968617,
      2.779351139368131,
      2.779170645095913,
      2.778946727968617,
      2.7791345372380385,
      2.780209265247716,
      2.7805621189570635,
      2.7788672457449186,
      2.779401664324741,
      2.779199529220886,
      2.7797407511767407,
      2.779120093254271,
      2.778896150054801,
      2.7794088816958746,
      2.7792356316758635,
      2.7803101098502165,
      1.7676010680503356,
      0.7015679850559274,
      2.778896150054801,
      2.7806844706369107,
      2.780662881668552,
      2.779011748061014,
      2.778838339511192,
      0.6893088591236202,
      0.9242792860618817,
      2.779004524086998,
      2.7793222653250442,
      2.7800075057661746,
      2.7789611777193093,
      2.7791417590497822,
      2.779004524086998,
      0.7218106152125465,
      2.778838339511192,
      2.779517127872229,
      0.6910814921229684,
      2.780432532537963,
      2.7789684024143715,
      0.9201233262907239,
      1.212187604403958,
      2.7790334192621184,
      0.8591382972945308,
      2.779603705391958,
      2.7804397327979564,
      0.7267272090265723,
      2.7804253321585923,
      0.877371345869774,
      2.779206749951978,
      2.779185087398528,
      2.778758837446534,
      2.7790695355277135,
      0.8549130223078556,
      2.779423316078324,
      2.779286170071414,
      2.7796469876804037,
      2.778939502912978,
      2.778274283058044,
      2.778939502912978,
      2.7793944468336624,
      2.779985883118516,
      2.7789972999928167,
      2.779228411424957,
      2.7789972999928167,
      0.7803173121401513,
      2.7796830529593177,
      0.7535830588929066,
      0.7209857441537391,
      0.8744818176994665,
      0.7419390777291989,
      2.779170645095913,
      2.778845566249998,
      2.779228411424957,
      2.7793655756698223,
      0.7299742856995556,
      0.9508514588885464,
      2.42050033913748,
      0.7379873263334308,
      1.095169351431755,
      0.8727388274726688,
      2.7794521834040617,
      2.7801444242071742,
      2.779055089381888,
      2.7790261956485707,
      2.778925052441096,
      2.7789611777193093,
      2.780634094707888,
      2.779661414151369,
      2.7786504020805856,
      0.7512791039833423,
      2.779156202313008,
      2.779040642755518,
      2.7789972999928167,
      2.7788816981403244,
      2.7792717311299304,
      2.779055089381888,
      2.778773293449927,
      2.7797984417296817,
      2.778701008620629,
      2.779156202313008,
      2.7791128710822384,
      0.6893088591236202,
      2.778766065508379,
      0.7291647896927701,
      0.7201593034059569,
      0.7201593034059569,
      1.786964259435733,
      2.7788094313533658,
      2.7807492311035524,
      1.824451270036613,
      2.7791128710822384,
      1.190051417759206,
      2.7790334192621184,
      2.7802740966088053,
      0.9965116721541787,
      2.780223673053241,
      2.7792789506606788,
      2.7800147130761674,
      2.7801083972233296,
      2.7801444242071742,
      2.7793944468336624,
      2.780432532537963,
      2.7790839811930255,
      2.7792789506606788,
      2.7792789506606788,
      2.779769597411144,
      2.7791128710822384,
      2.7789828514439465,
      2.7797551745334417,
      2.7798561246201774,
      0.7958800173440752,
      2.7789828514439465,
      2.7788672457449186,
      2.779906590865361,
      2.7790334192621184,
      2.778925052441096,
      0.7134905430939426,
      2.779307827583586,
      2.779185087398528,
      2.779545988963227,
      2.779257291708381,
      2.778896150054801,
      2.778794976552835,
      2.780504529766606,
      2.778888924157677,
      2.7788022040132385,
      2.2262131207241076,
      2.779228411424957,
      2.7789322777371392,
      2.778845566249998,
      2.7789828514439465,
      0.7839035792727349,
      2.778852792868552,
      1.1931245983544616,
      0.9211660506377387,
      2.7788094313533658,
      0.92272545799326,
      2.779257291708381,
      2.7792789506606788,
      2.779257291708381,
      2.7788022040132385,
      2.7787877489721513,
      0.960470777534299,
      2.780849950416652,
      2.7790767584204317,
      2.7792211910540097,
      2.7787443809619394,
      2.778925052441096,
      2.779040642755518,
      2.778990075778468,
      0.69810054562339,
      2.7793655756698223,
      2.7786865502109097,
      2.778845566249998,
      2.779329484015789,
      2.778975626989249,
      2.77978401980988,
      2.7793367025865487,
      0.8715729355458788,
      2.7793150465143115,
      2.660229691227859,
      2.7790189719148706,
      2.7800579544245285,
      2.779423316078324,
      2.779517127872229,
      2.7792717311299304,
      0.7551122663950712,
      2.77969747823233,
      2.7788238856728076,
      0.9003671286564703,
      1.7338390006971494,
      2.7797407511767407,
      2.7800147130761674,
      2.779863334442825,
      2.7801083972233296,
      2.779351139368131,
      2.7789322777371392,
      2.780374926160122,
      2.780187652643173,
      2.7787877489721513,
      2.778903375831701,
      2.7790984263778564,
      2.7788816981403244,
      0.7209857441537391,
      2.7800795734842887,
      2.780374926160122,
      2.7788816981403244,
      2.779582062630042,
      2.7795026966074605,
      2.7791923083697374,
      2.7789611777193093,
      0.7505083948513462,
      2.779668627207148,
      0.8830933585756899,
      0.6989700043360189,
      1.3832766504076504,
      2.7788816981403244,
      2.7802164692102265,
      1.1622656142980214,
      2.779062312514867,
      2.7791634237644987,
      0.724275869600789,
      2.7788672457449186,
      2.7800795734842887,
      2.778910601488381,
      0.8790958795000727,
      0.7176705030022621,
      2.7792211910540097,
      2.778816658573221,
      2.7795892770038537,
      2.779004524086998,
      2.779120093254271,
      0.7168377232995244,
      2.7793150465143115,
      0.7201593034059569,
      2.7789828514439465,
      0.7134905430939426,
      2.7794954807952448,
      2.779545988963227,
      2.779156202313008,
      2.7790695355277135,
      2.7788816981403244,
      2.7790695355277135,
      0.8680563618230416,
      2.7797263273410096,
      2.779040642755518,
      2.7800723672506114,
      2.779848914677836,
      2.778939502912978,
      2.779654200975789,
      0.724275869600789,
      2.779170645095913,
      2.778896150054801,
      2.7811160247857054,
      0.8704039052790271,
      2.780036334288524,
      2.7788744720027396,
      2.7788600193668573,
      2.7790334192621184,
      0.7589118923979735,
      2.779877753729054,
      2.779091203845499,
      0.7715874808812554,
      2.778896150054801,
      0.9222062774390164,
      0.9242792860618817,
      2.222143969500662
    ],
    "Timeout Prediction": [
      1.3010299956639813,
      1.3010299956639813,
      0.8959747323590646,
      0.9324737646771533,
      1.3010299956639813,
      1.3010299956639813,
      2.778903375831701,
      0.7267272090265723,
      1.3010299956639813,
      1.3010299956639813,
      1.3010299956639813,
      1.3010299956639813,
      1.1017470739463662,
      1.3010299956639813,
      0.8859263398014311,
      1.3010299956639813,
      1.3010299956639813,
      2.778896150054801,
      1.3010299956639813,
      0.7134905430939426,
      1.3010299956639813,
      1.3010299956639813,
      1.3010299956639813,
      1.3010299956639813,
      0.7558748556724915,
      1.3010299956639813,
      1.3010299956639813,
      1.3010299956639813,
      1.3010299956639813,
      2.183782151277061,
      1.3010299956639813,
      1.3010299956639813,
      0.8680563618230416,
      1.3010299956639813,
      1.3010299956639813,
      1.3010299956639813,
      1.3010299956639813,
      1.3010299956639813,
      1.1078880251827987,
      1.3010299956639813,
      1.3010299956639813,
      1.3010299956639813,
      1.3010299956639813,
      0.7075701760979364,
      1.3010299956639813,
      2.7788672457449186,
      1.3010299956639813,
      1.3010299956639813,
      1.3010299956639813,
      1.3010299956639813,
      0.6901960800285137,
      2.778888924157677,
      1.3010299956639813,
      1.3010299956639813,
      1.3010299956639813,
      2.77883111265213,
      1.3010299956639813,
      1.3010299956639813,
      0.8241258339165489,
      1.3010299956639813,
      1.3010299956639813,
      0.9339931638312423,
      0.8727388274726688,
      0.6972293427597176,
      0.7209857441537391,
      0.693726948923647,
      1.3010299956639813,
      1.3010299956639813,
      1.3010299956639813,
      1.4917817755841658,
      1.3010299956639813,
      1.3010299956639813,
      2.7786793208255416,
      1.3010299956639813,
      1.3010299956639813,
      1.3010299956639813,
      1.6679196853173615,
      1.3010299956639813,
      0.8686444383948257,
      1.3010299956639813,
      1.3010299956639813,
      0.7759743311293691,
      0.7944880466591696,
      1.3010299956639813,
      1.3010299956639813,
      1.3010299956639813,
      1.3010299956639813,
      2.778939502912978,
      1.3010299956639813,
      1.3010299956639813,
      1.0310042813635367,
      2.0830724122845354,
      1.3010299956639813,
      2.7787877489721513,
      1.3010299956639813,
      2.7787443809619394,
      0.9444826721501687,
      1.3010299956639813,
      1.3010299956639813,
      1.3010299956639813,
      1.3010299956639813,
      1.3010299956639813,
      0.7259116322950482,
      1.3010299956639813,
      1.3010299956639813,
      1.3010299956639813,
      1.3010299956639813,
      1.3010299956639813,
      1.3010299956639813,
      1.3010299956639813,
      1.3159703454569178,
      1.3010299956639813,
      1.3010299956639813,
      1.3010299956639813,
      1.3010299956639813,
      0.7979596437371962,
      0.9324737646771533,
      1.3010299956639813,
      0.7774268223893114,
      0.967547976218862,
      1.1218879851036812,
      1.3010299956639813,
      1.3010299956639813,
      1.3010299956639813,
      1.3010299956639813,
      1.3010299956639813,
      1.3010299956639813,
      1.3010299956639813,
      1.3010299956639813,
      1.3010299956639813,
      1.3010299956639813,
      1.3010299956639813,
      1.3010299956639813,
      1.3010299956639813,
      0.7259116322950482,
      1.3010299956639813,
      0.8615344108590378,
      0.7218106152125465,
      1.3010299956639813,
      0.9978230807457255,
      0.8744818176994665,
      2.778888924157677,
      2.778758837446534,
      1.2425414282983842,
      1.3010299956639813,
      0.8621313793130372,
      1.3010299956639813,
      1.3010299956639813,
      1.3010299956639813,
      1.1335389083702174,
      1.3010299956639813,
      1.3010299956639813,
      1.3010299956639813,
      0.8463371121298052,
      1.3010299956639813,
      1.3010299956639813,
      1.3010299956639813,
      1.3010299956639813,
      0.8567288903828826,
      0.7218106152125465,
      1.3010299956639813,
      2.778903375831701,
      1.3010299956639813,
      1.3010299956639813,
      1.3010299956639813,
      1.3010299956639813,
      1.3010299956639813,
      1.3010299956639813,
      1.3010299956639813,
      1.5281450782531065,
      1.3010299956639813,
      1.3010299956639813,
      1.3010299956639813,
      2.4186658130534755,
      1.3010299956639813,
      0.7032913781186614,
      1.3010299956639813,
      1.3010299956639813,
      1.3010299956639813,
      1.3010299956639813,
      0.725094521081469,
      1.3010299956639813,
      1.3010299956639813,
      0.7283537820212285,
      1.3010299956639813,
      0.7201593034059569,
      1.3010299956639813,
      2.7786865502109097,
      1.8536373819585943,
      1.3010299956639813,
      1.3010299956639813,
      1.3010299956639813,
      1.3010299956639813,
      0.9304395947667001,
      1.3010299956639813,
      1.3010299956639813,
      1.3010299956639813,
      1.3010299956639813,
      1.3010299956639813,
      1.3010299956639813,
      1.3010299956639813,
      1.0572856444182146,
      1.3010299956639813,
      1.3010299956639813,
      1.3010299956639813,
      1.3010299956639813,
      1.3010299956639813,
      0.8864907251724818,
      1.3010299956639813,
      1.3010299956639813,
      1.3010299956639813,
      1.3010299956639813,
      0.9508514588885464,
      1.3010299956639813,
      1.3010299956639813,
      1.3010299956639813,
      0.756636108245848,
      1.3010299956639813,
      1.3010299956639813,
      0.7403626894942439,
      1.3010299956639813,
      1.34143452457814,
      1.4097641042663462,
      0.7611758131557314,
      1.3010299956639813,
      1.3010299956639813,
      1.3010299956639813,
      2.278547833775853,
      1.3010299956639813,
      1.3010299956639813,
      0.7226339225338123,
      0.877371345869774,
      0.7403626894942439,
      2.7789684024143715,
      1.3010299956639813,
      1.3010299956639813,
      1.3010299956639813,
      1.3010299956639813,
      1.3010299956639813,
      1.3010299956639813,
      1.3010299956639813,
      1.3010299956639813,
      1.3010299956639813,
      1.3010299956639813,
      1.3010299956639813,
      1.3010299956639813,
      1.3010299956639813,
      1.3010299956639813,
      1.3010299956639813,
      1.3010299956639813,
      1.3010299956639813,
      1.7676010680503356,
      0.7015679850559274,
      1.3010299956639813,
      1.3010299956639813,
      1.3010299956639813,
      1.3010299956639813,
      1.3010299956639813,
      0.6893088591236202,
      0.9242792860618817,
      1.3010299956639813,
      1.3010299956639813,
      1.3010299956639813,
      1.3010299956639813,
      1.3010299956639813,
      1.3010299956639813,
      0.7218106152125465,
      1.3010299956639813,
      1.3010299956639813,
      0.6910814921229684,
      1.3010299956639813,
      1.3010299956639813,
      0.9201233262907239,
      1.212187604403958,
      1.3010299956639813,
      0.8591382972945308,
      1.3010299956639813,
      1.3010299956639813,
      0.7267272090265723,
      1.3010299956639813,
      0.877371345869774,
      1.3010299956639813,
      1.3010299956639813,
      1.3010299956639813,
      1.3010299956639813,
      0.8549130223078556,
      1.3010299956639813,
      1.3010299956639813,
      1.3010299956639813,
      1.3010299956639813,
      2.778274283058044,
      1.3010299956639813,
      1.3010299956639813,
      1.3010299956639813,
      1.3010299956639813,
      1.3010299956639813,
      1.3010299956639813,
      0.7803173121401513,
      1.3010299956639813,
      0.7535830588929066,
      0.7209857441537391,
      0.8744818176994665,
      0.7419390777291989,
      1.3010299956639813,
      2.778845566249998,
      1.3010299956639813,
      1.3010299956639813,
      0.7299742856995556,
      0.9508514588885464,
      2.42050033913748,
      0.7379873263334308,
      1.095169351431755,
      0.8727388274726688,
      1.3010299956639813,
      1.3010299956639813,
      1.3010299956639813,
      1.3010299956639813,
      1.3010299956639813,
      1.3010299956639813,
      1.3010299956639813,
      1.3010299956639813,
      2.7786504020805856,
      0.7512791039833423,
      1.3010299956639813,
      1.3010299956639813,
      1.3010299956639813,
      1.3010299956639813,
      1.3010299956639813,
      1.3010299956639813,
      2.778773293449927,
      1.3010299956639813,
      2.778701008620629,
      1.3010299956639813,
      1.3010299956639813,
      0.6893088591236202,
      2.778766065508379,
      0.7291647896927701,
      0.7201593034059569,
      0.7201593034059569,
      1.786964259435733,
      2.7788094313533658,
      1.3010299956639813,
      1.824451270036613,
      1.3010299956639813,
      1.190051417759206,
      1.3010299956639813,
      1.3010299956639813,
      0.9965116721541787,
      1.3010299956639813,
      1.3010299956639813,
      1.3010299956639813,
      1.3010299956639813,
      1.3010299956639813,
      1.3010299956639813,
      1.3010299956639813,
      1.3010299956639813,
      1.3010299956639813,
      1.3010299956639813,
      1.3010299956639813,
      1.3010299956639813,
      1.3010299956639813,
      1.3010299956639813,
      1.3010299956639813,
      0.7958800173440752,
      1.3010299956639813,
      2.7788672457449186,
      1.3010299956639813,
      1.3010299956639813,
      1.3010299956639813,
      0.7134905430939426,
      1.3010299956639813,
      1.3010299956639813,
      1.3010299956639813,
      1.3010299956639813,
      1.3010299956639813,
      1.3010299956639813,
      1.3010299956639813,
      1.3010299956639813,
      2.7788022040132385,
      2.2262131207241076,
      1.3010299956639813,
      1.3010299956639813,
      1.3010299956639813,
      2.7789828514439465,
      0.7839035792727349,
      1.3010299956639813,
      1.1931245983544616,
      0.9211660506377387,
      1.3010299956639813,
      0.92272545799326,
      1.3010299956639813,
      1.3010299956639813,
      1.3010299956639813,
      2.7788022040132385,
      2.7787877489721513,
      0.960470777534299,
      1.3010299956639813,
      1.3010299956639813,
      1.3010299956639813,
      1.3010299956639813,
      1.3010299956639813,
      1.3010299956639813,
      1.3010299956639813,
      0.69810054562339,
      1.3010299956639813,
      2.7786865502109097,
      2.778845566249998,
      1.3010299956639813,
      1.3010299956639813,
      1.3010299956639813,
      1.3010299956639813,
      0.8715729355458788,
      1.3010299956639813,
      2.660229691227859,
      1.3010299956639813,
      1.3010299956639813,
      1.3010299956639813,
      1.3010299956639813,
      2.7792717311299304,
      0.7551122663950712,
      1.3010299956639813,
      1.3010299956639813,
      0.9003671286564703,
      1.7338390006971494,
      1.3010299956639813,
      1.3010299956639813,
      1.3010299956639813,
      1.3010299956639813,
      1.3010299956639813,
      1.3010299956639813,
      1.3010299956639813,
      1.3010299956639813,
      1.3010299956639813,
      1.3010299956639813,
      1.3010299956639813,
      1.3010299956639813,
      0.7209857441537391,
      1.3010299956639813,
      1.3010299956639813,
      1.3010299956639813,
      1.3010299956639813,
      1.3010299956639813,
      1.3010299956639813,
      2.7789611777193093,
      0.7505083948513462,
      1.3010299956639813,
      0.8830933585756899,
      0.6989700043360189,
      1.3832766504076504,
      1.3010299956639813,
      1.3010299956639813,
      1.1622656142980214,
      1.3010299956639813,
      1.3010299956639813,
      0.724275869600789,
      1.3010299956639813,
      1.3010299956639813,
      1.3010299956639813,
      0.8790958795000727,
      0.7176705030022621,
      1.3010299956639813,
      1.3010299956639813,
      1.3010299956639813,
      1.3010299956639813,
      1.3010299956639813,
      0.7168377232995244,
      1.3010299956639813,
      0.7201593034059569,
      1.3010299956639813,
      0.7134905430939426,
      1.3010299956639813,
      1.3010299956639813,
      1.3010299956639813,
      1.3010299956639813,
      2.7788816981403244,
      1.3010299956639813,
      0.8680563618230416,
      1.3010299956639813,
      1.3010299956639813,
      1.3010299956639813,
      1.3010299956639813,
      1.3010299956639813,
      1.3010299956639813,
      0.724275869600789,
      1.3010299956639813,
      1.3010299956639813,
      1.3010299956639813,
      0.8704039052790271,
      1.3010299956639813,
      2.7788744720027396,
      1.3010299956639813,
      1.3010299956639813,
      0.7589118923979735,
      1.3010299956639813,
      1.3010299956639813,
      0.7715874808812554,
      1.3010299956639813,
      0.9222062774390164,
      0.9242792860618817,
      2.222143969500662
    ]
  }
}