{
  "0": {
    "test_acc": 0.8846153846153846,
    "tp": 65,
    "tn": 4,
    "fp": 0,
    "fn": 9,
    "tpr": 0.8783783783783784,
    "fpr": 0.0,
    "tnr": 1.0,
    "fnr": 0.12162162162162163,
    "f1_score": 0.935251798561151,
    "precision": 1.0,
    "recall": 0.8783783783783784
  },
  "1": {
    "test_acc": 0.9487179487179487,
    "tp": 70,
    "tn": 4,
    "fp": 0,
    "fn": 4,
    "tpr": 0.9459459459459459,
    "fpr": 0.0,
    "tnr": 1.0,
    "fnr": 0.05405405405405406,
    "f1_score": 0.9722222222222222,
    "precision": 1.0,
    "recall": 0.9459459459459459
  },
  "2": {
    "test_acc": 0.9743589743589743,
    "tp": 72,
    "tn": 4,
    "fp": 0,
    "fn": 2,
    "tpr": 0.972972972972973,
    "fpr": 0.0,
    "tnr": 1.0,
    "fnr": 0.02702702702702703,
    "f1_score": 0.9863013698630138,
    "precision": 1.0,
    "recall": 0.972972972972973
  },
  "3": {
    "test_acc": 0.8589743589743589,
    "tp": 63,
    "tn": 4,
    "fp": 0,
    "fn": 11,
    "tpr": 0.8513513513513513,
    "fpr": 0.0,
    "tnr": 1.0,
    "fnr": 0.14864864864864866,
    "f1_score": 0.9197080291970803,
    "precision": 1.0,
    "recall": 0.8513513513513513
  },
  "4": {
    "test_acc": 0.9230769230769231,
    "tp": 68,
    "tn": 4,
    "fp": 0,
    "fn": 6,
    "tpr": 0.918918918918919,
    "fpr": 0.0,
    "tnr": 1.0,
    "fnr": 0.08108108108108109,
    "f1_score": 0.9577464788732395,
    "precision": 1.0,
    "recall": 0.918918918918919
  },
  "sum": {
    "tp": 338.0,
    "fp": 0.0,
    "tn": 20.0,
    "fn": 32.0,
    "tpr": 0.9135135135135135,
    "tnr": 1.0,
    "fpr": 0.0,
    "fnr": 0.08648648648648649
  },
  "avg": {
    "test_acc": 0.9179487179487179,
    "tp": 67.6,
    "tn": 4.0,
    "fp": 0.0,
    "fn": 6.4,
    "tpr": 0.9135135135135135,
    "fpr": 0.0,
    "tnr": 1.0,
    "fnr": 0.08648648648648649,
    "f1_score": 0.9542459797433412,
    "precision": 1.0,
    "recall": 0.9135135135135135
  }
}