{
  "0": {
    "test_acc": 0.9807692307692307,
    "tp": 50,
    "tn": 1,
    "fp": 1,
    "fn": 0,
    "tpr": 1.0,
    "fpr": 0.5,
    "tnr": 0.5,
    "fnr": 0.0,
    "f1_score": 0.99009900990099,
    "precision": 0.9803921568627451,
    "recall": 1.0
  },
  "1": {
    "test_acc": 0.9615384615384616,
    "tp": 49,
    "tn": 1,
    "fp": 1,
    "fn": 1,
    "tpr": 0.98,
    "fpr": 0.5,
    "tnr": 0.5,
    "fnr": 0.02,
    "f1_score": 0.98,
    "precision": 0.98,
    "recall": 0.98
  },
  "2": {
    "test_acc": 1.0,
    "tp": 50,
    "tn": 2,
    "fp": 0,
    "fn": 0,
    "tpr": 1.0,
    "fpr": 0.0,
    "tnr": 1.0,
    "fnr": 0.0,
    "f1_score": 1.0,
    "precision": 1.0,
    "recall": 1.0
  },
  "3": {
    "test_acc": 1.0,
    "tp": 50,
    "tn": 2,
    "fp": 0,
    "fn": 0,
    "tpr": 1.0,
    "fpr": 0.0,
    "tnr": 1.0,
    "fnr": 0.0,
    "f1_score": 1.0,
    "precision": 1.0,
    "recall": 1.0
  },
  "4": {
    "test_acc": 0.9803921568627451,
    "tp": 49,
    "tn": 1,
    "fp": 1,
    "fn": 0,
    "tpr": 1.0,
    "fpr": 0.5,
    "tnr": 0.5,
    "fnr": 0.0,
    "f1_score": 0.98989898989899,
    "precision": 0.98,
    "recall": 1.0
  },
  "sum": {
    "tp": 248.0,
    "fp": 3.0,
    "tn": 7.0,
    "fn": 1.0,
    "tpr": 0.9959839357429718,
    "tnr": 0.7,
    "fpr": 0.3,
    "fnr": 0.004016064257028112
  },
  "avg": {
    "test_acc": 0.9845399698340875,
    "tp": 49.6,
    "tn": 1.4,
    "fp": 0.6,
    "fn": 0.2,
    "tpr": 0.9960000000000001,
    "fpr": 0.3,
    "tnr": 0.7,
    "fnr": 0.004,
    "f1_score": 0.991999599959996,
    "precision": 0.988078431372549,
    "recall": 0.9960000000000001
  }
}