{
  "0": {
    "test_acc": 0.7317073170731707,
    "tp": 6,
    "tn": 24,
    "fp": 0,
    "fn": 11,
    "tpr": 0.35294117647058826,
    "fpr": 0.0,
    "tnr": 1.0,
    "fnr": 0.6470588235294118,
    "f1_score": 0.5217391304347826,
    "precision": 1.0,
    "recall": 0.35294117647058826
  },
  "1": {
    "test_acc": 0.6585365853658537,
    "tp": 3,
    "tn": 24,
    "fp": 0,
    "fn": 14,
    "tpr": 0.17647058823529413,
    "fpr": 0.0,
    "tnr": 1.0,
    "fnr": 0.8235294117647058,
    "f1_score": 0.3,
    "precision": 1.0,
    "recall": 0.17647058823529413
  },
  "2": {
    "test_acc": 0.55,
    "tp": 0,
    "tn": 22,
    "fp": 2,
    "fn": 16,
    "tpr": 0.0,
    "fpr": 0.08333333333333333,
    "tnr": 0.9166666666666666,
    "fnr": 1.0,
    "f1_score": 0.0,
    "precision": 0.0,
    "recall": 0.0
  },
  "3": {
    "test_acc": 0.675,
    "tp": 3,
    "tn": 24,
    "fp": 0,
    "fn": 13,
    "tpr": 0.1875,
    "fpr": 0.0,
    "tnr": 1.0,
    "fnr": 0.8125,
    "f1_score": 0.3157894736842105,
    "precision": 1.0,
    "recall": 0.1875
  },
  "4": {
    "test_acc": 0.7,
    "tp": 5,
    "tn": 23,
    "fp": 1,
    "fn": 11,
    "tpr": 0.3125,
    "fpr": 0.041666666666666664,
    "tnr": 0.9583333333333334,
    "fnr": 0.6875,
    "f1_score": 0.45454545454545453,
    "precision": 0.8333333333333334,
    "recall": 0.3125
  },
  "sum": {
    "tp": 17.0,
    "fp": 3.0,
    "tn": 117.0,
    "fn": 65.0,
    "tpr": 0.2073170731707317,
    "tnr": 0.975,
    "fpr": 0.025,
    "fnr": 0.7926829268292683
  },
  "avg": {
    "test_acc": 0.6630487804878049,
    "tp": 3.4,
    "tn": 23.4,
    "fp": 0.6,
    "fn": 13.0,
    "tpr": 0.20588235294117646,
    "fpr": 0.025,
    "tnr": 0.975,
    "fnr": 0.7941176470588236,
    "f1_score": 0.31841481173288955,
    "precision": 0.7666666666666667,
    "recall": 0.20588235294117646
  }
}