{
  "results": {
    "ABCROWN": [
      1.0,
      1.0,
      2.0,
      2.0,
      1.0,
      2.0,
      2.0,
      0.0,
      2.0,
      1.0,
      1.0,
      2.0,
      2.0,
      1.0,
      2.0,
      2.0,
      1.0,
      2.0,
      2.0,
      2.0,
      1.0,
      1.0,
      0.0,
      2.0,
      1.0,
      2.0,
      2.0,
      2.0,
      2.0,
      2.0,
      0.0,
      2.0,
      2.0,
      2.0,
      1.0,
      1.0,
      1.0,
      2.0,
      0.0,
      2.0,
      2.0,
      2.0,
      1.0,
      2.0,
      2.0,
      2.0,
      1.0,
      2.0,
      2.0,
      1.0,
      1.0,
      2.0,
      2.0,
      1.0,
      2.0,
      2.0,
      2.0,
      1.0,
      1.0,
      1.0,
      1.0,
      1.0,
      2.0,
      2.0,
      0.0,
      0.0,
      2.0,
      2.0,
      2.0,
      2.0,
      2.0,
      2.0,
      2.0,
      2.0,
      2.0,
      2.0,
      2.0,
      2.0,
      0.0,
      1.0,
      0.0,
      0.0,
      2.0,
      2.0,
      2.0,
      2.0,
      1.0,
      2.0,
      2.0,
      1.0,
      0.0,
      2.0,
      2.0,
      2.0,
      1.0,
      2.0,
      1.0,
      1.0,
      2.0,
      2.0,
      2.0,
      1.0,
      0.0,
      2.0,
      2.0,
      1.0,
      2.0,
      2.0,
      1.0,
      2.0,
      2.0,
      1.0,
      2.0,
      2.0,
      2.0,
      0.0,
      2.0,
      2.0,
      2.0,
      2.0,
      1.0,
      2.0,
      2.0,
      0.0,
      2.0,
      2.0,
      2.0,
      2.0,
      1.0,
      1.0,
      2.0,
      2.0,
      2.0,
      2.0,
      2.0,
      0.0,
      2.0,
      1.0,
      2.0,
      2.0,
      2.0,
      1.0,
      0.0,
      2.0,
      0.0,
      2.0,
      1.0,
      1.0,
      2.0,
      2.0,
      0.0,
      1.0,
      1.0,
      0.0,
      2.0,
      1.0,
      2.0,
      2.0,
      1.0,
      1.0,
      1.0,
      2.0,
      1.0,
      2.0,
      2.0,
      2.0,
      2.0,
      2.0,
      1.0,
      2.0,
      2.0,
      0.0,
      2.0,
      0.0,
      2.0,
      1.0,
      2.0,
      2.0,
      2.0,
      2.0,
      2.0,
      2.0,
      0.0,
      1.0,
      2.0,
      1.0,
      2.0,
      2.0,
      1.0,
      1.0,
      0.0,
      2.0,
      2.0,
      1.0,
      2.0,
      2.0,
      1.0,
      2.0,
      0.0,
      2.0,
      1.0,
      2.0,
      2.0,
      2.0,
      2.0,
      0.0,
      2.0,
      2.0,
      0.0,
      2.0,
      1.0,
      2.0,
      2.0,
      2.0,
      2.0,
      1.0,
      2.0,
      2.0,
      0.0,
      2.0,
      0.0,
      2.0,
      2.0,
      1.0,
      2.0,
      2.0,
      2.0,
      1.0,
      1.0,
      2.0,
      0.0,
      0.0,
      2.0,
      1.0,
      1.0,
      2.0,
      2.0,
      2.0,
      2.0,
      1.0,
      2.0,
      2.0,
      2.0,
      2.0,
      2.0,
      1.0,
      2.0,
      0.0,
      0.0,
      2.0,
      1.0,
      2.0,
      2.0,
      2.0,
      2.0,
      0.0,
      2.0,
      2.0,
      2.0,
      2.0,
      1.0,
      1.0,
      2.0,
      1.0,
      2.0,
      2.0,
      1.0,
      1.0,
      2.0,
      0.0,
      0.0,
      1.0,
      2.0,
      2.0,
      2.0,
      2.0,
      2.0,
      1.0,
      1.0,
      2.0,
      1.0,
      1.0,
      2.0,
      1.0,
      2.0,
      1.0,
      2.0,
      1.0,
      2.0,
      2.0,
      2.0,
      2.0,
      2.0,
      2.0,
      2.0,
      1.0,
      0.0,
      2.0,
      1.0,
      1.0,
      0.0,
      2.0,
      1.0,
      0.0,
      2.0,
      2.0,
      2.0,
      1.0,
      2.0,
      1.0,
      1.0,
      2.0,
      2.0,
      1.0,
      0.0,
      0.0,
      1.0,
      2.0,
      2.0,
      2.0,
      1.0,
      1.0,
      2.0,
      2.0,
      2.0,
      2.0,
      2.0,
      2.0,
      1.0,
      2.0,
      2.0,
      1.0,
      1.0,
      2.0,
      0.0,
      2.0,
      0.0,
      2.0,
      2.0,
      2.0,
      2.0,
      2.0,
      2.0,
      2.0,
      0.0,
      1.0,
      1.0,
      1.0,
      0.0,
      2.0,
      1.0,
      2.0,
      2.0,
      2.0,
      2.0,
      2.0,
      2.0,
      2.0,
      2.0,
      2.0,
      2.0,
      2.0,
      1.0,
      1.0,
      2.0,
      0.0,
      1.0,
      2.0,
      0.0,
      1.0,
      0.0,
      0.0,
      2.0,
      2.0,
      2.0,
      2.0,
      0.0,
      2.0,
      2.0,
      2.0,
      2.0,
      1.0,
      2.0,
      2.0,
      2.0,
      2.0,
      0.0,
      2.0,
      0.0,
      1.0,
      2.0,
      1.0,
      2.0,
      2.0,
      2.0,
      2.0,
      1.0,
      1.0,
      2.0,
      2.0,
      2.0,
      2.0,
      1.0,
      1.0,
      1.0,
      2.0,
      2.0,
      0.0,
      2.0,
      0.0,
      2.0,
      2.0,
      2.0,
      2.0,
      2.0,
      2.0,
      1.0,
      2.0,
      2.0,
      1.0,
      2.0,
      2.0,
      0.0,
      2.0,
      1.0,
      2.0,
      1.0,
      2.0,
      1.0,
      1.0,
      1.0,
      2.0,
      2.0,
      2.0,
      2.0,
      2.0,
      0.0,
      2.0,
      0.0,
      2.0,
      2.0,
      2.0,
      2.0,
      0.0,
      2.0,
      2.0,
      0.0,
      1.0,
      2.0,
      2.0,
      0.0,
      2.0,
      0.0,
      0.0,
      2.0,
      2.0,
      1.0,
      1.0,
      2.0,
      2.0,
      2.0,
      2.0,
      2.0,
      2.0,
      2.0,
      2.0,
      2.0,
      1.0,
      2.0,
      2.0,
      1.0,
      2.0,
      2.0,
      1.0,
      1.0,
      2.0,
      2.0,
      0.0,
      0.0,
      1.0,
      2.0,
      2.0,
      2.0,
      0.0,
      2.0,
      1.0,
      2.0,
      1.0,
      2.0,
      0.0,
      1.0,
      1.0,
      2.0,
      2.0,
      1.0,
      1.0,
      1.0,
      2.0,
      2.0,
      2.0
    ],
    "VERINET": [
      1.0,
      1.0,
      2.0,
      2.0,
      2.0,
      2.0,
      2.0,
      0.0,
      2.0,
      1.0,
      2.0,
      2.0,
      2.0,
      1.0,
      2.0,
      2.0,
      1.0,
      2.0,
      2.0,
      2.0,
      1.0,
      1.0,
      0.0,
      2.0,
      2.0,
      2.0,
      2.0,
      2.0,
      2.0,
      2.0,
      0.0,
      2.0,
      2.0,
      2.0,
      1.0,
      2.0,
      2.0,
      2.0,
      0.0,
      2.0,
      2.0,
      2.0,
      2.0,
      2.0,
      2.0,
      2.0,
      2.0,
      2.0,
      2.0,
      2.0,
      1.0,
      2.0,
      2.0,
      1.0,
      2.0,
      2.0,
      2.0,
      2.0,
      1.0,
      2.0,
      1.0,
      1.0,
      2.0,
      2.0,
      0.0,
      0.0,
      2.0,
      2.0,
      2.0,
      2.0,
      2.0,
      2.0,
      2.0,
      2.0,
      2.0,
      2.0,
      2.0,
      2.0,
      0.0,
      2.0,
      0.0,
      0.0,
      2.0,
      2.0,
      2.0,
      2.0,
      2.0,
      2.0,
      2.0,
      1.0,
      0.0,
      2.0,
      2.0,
      2.0,
      2.0,
      2.0,
      1.0,
      1.0,
      2.0,
      2.0,
      2.0,
      1.0,
      0.0,
      2.0,
      2.0,
      1.0,
      2.0,
      2.0,
      1.0,
      2.0,
      2.0,
      2.0,
      2.0,
      2.0,
      2.0,
      0.0,
      2.0,
      2.0,
      2.0,
      2.0,
      2.0,
      2.0,
      2.0,
      0.0,
      2.0,
      2.0,
      2.0,
      2.0,
      2.0,
      1.0,
      2.0,
      2.0,
      2.0,
      2.0,
      2.0,
      0.0,
      2.0,
      2.0,
      2.0,
      2.0,
      2.0,
      2.0,
      0.0,
      2.0,
      0.0,
      2.0,
      2.0,
      1.0,
      2.0,
      2.0,
      0.0,
      2.0,
      2.0,
      0.0,
      2.0,
      1.0,
      2.0,
      2.0,
      1.0,
      1.0,
      2.0,
      2.0,
      1.0,
      2.0,
      2.0,
      2.0,
      2.0,
      2.0,
      1.0,
      2.0,
      2.0,
      0.0,
      2.0,
      0.0,
      2.0,
      1.0,
      2.0,
      2.0,
      2.0,
      2.0,
      2.0,
      2.0,
      0.0,
      1.0,
      2.0,
      2.0,
      2.0,
      2.0,
      2.0,
      2.0,
      0.0,
      2.0,
      2.0,
      1.0,
      2.0,
      2.0,
      2.0,
      2.0,
      0.0,
      2.0,
      2.0,
      2.0,
      2.0,
      2.0,
      2.0,
      0.0,
      2.0,
      2.0,
      0.0,
      2.0,
      1.0,
      2.0,
      2.0,
      2.0,
      2.0,
      2.0,
      2.0,
      2.0,
      0.0,
      2.0,
      0.0,
      2.0,
      2.0,
      2.0,
      2.0,
      2.0,
      2.0,
      1.0,
      1.0,
      2.0,
      0.0,
      0.0,
      2.0,
      2.0,
      1.0,
      2.0,
      2.0,
      2.0,
      2.0,
      2.0,
      2.0,
      2.0,
      2.0,
      2.0,
      2.0,
      2.0,
      2.0,
      0.0,
      0.0,
      2.0,
      1.0,
      2.0,
      2.0,
      2.0,
      2.0,
      0.0,
      2.0,
      2.0,
      2.0,
      2.0,
      2.0,
      1.0,
      2.0,
      2.0,
      2.0,
      2.0,
      2.0,
      2.0,
      2.0,
      0.0,
      0.0,
      1.0,
      2.0,
      2.0,
      2.0,
      2.0,
      2.0,
      2.0,
      2.0,
      2.0,
      2.0,
      2.0,
      2.0,
      1.0,
      2.0,
      1.0,
      2.0,
      2.0,
      2.0,
      2.0,
      2.0,
      2.0,
      2.0,
      2.0,
      2.0,
      1.0,
      0.0,
      2.0,
      1.0,
      1.0,
      0.0,
      2.0,
      2.0,
      0.0,
      2.0,
      2.0,
      2.0,
      1.0,
      2.0,
      2.0,
      1.0,
      2.0,
      2.0,
      1.0,
      0.0,
      0.0,
      2.0,
      2.0,
      2.0,
      2.0,
      1.0,
      1.0,
      2.0,
      2.0,
      2.0,
      2.0,
      2.0,
      2.0,
      2.0,
      2.0,
      2.0,
      1.0,
      2.0,
      2.0,
      2.0,
      2.0,
      0.0,
      2.0,
      2.0,
      2.0,
      2.0,
      2.0,
      2.0,
      2.0,
      0.0,
      1.0,
      1.0,
      2.0,
      0.0,
      2.0,
      2.0,
      2.0,
      2.0,
      2.0,
      2.0,
      2.0,
      2.0,
      2.0,
      2.0,
      2.0,
      2.0,
      2.0,
      2.0,
      2.0,
      2.0,
      0.0,
      2.0,
      2.0,
      0.0,
      1.0,
      0.0,
      0.0,
      2.0,
      2.0,
      2.0,
      2.0,
      0.0,
      2.0,
      2.0,
      2.0,
      2.0,
      2.0,
      2.0,
      2.0,
      2.0,
      2.0,
      0.0,
      2.0,
      0.0,
      1.0,
      2.0,
      2.0,
      2.0,
      2.0,
      2.0,
      2.0,
      2.0,
      2.0,
      2.0,
      2.0,
      2.0,
      2.0,
      1.0,
      2.0,
      2.0,
      2.0,
      2.0,
      0.0,
      2.0,
      0.0,
      2.0,
      2.0,
      2.0,
      2.0,
      2.0,
      2.0,
      1.0,
      2.0,
      2.0,
      1.0,
      2.0,
      2.0,
      0.0,
      2.0,
      2.0,
      2.0,
      1.0,
      2.0,
      1.0,
      1.0,
      1.0,
      2.0,
      2.0,
      2.0,
      2.0,
      2.0,
      0.0,
      2.0,
      0.0,
      2.0,
      2.0,
      2.0,
      2.0,
      0.0,
      2.0,
      2.0,
      0.0,
      1.0,
      2.0,
      2.0,
      0.0,
      2.0,
      0.0,
      0.0,
      2.0,
      2.0,
      2.0,
      1.0,
      2.0,
      2.0,
      2.0,
      2.0,
      2.0,
      2.0,
      2.0,
      2.0,
      2.0,
      1.0,
      2.0,
      2.0,
      1.0,
      2.0,
      2.0,
      2.0,
      1.0,
      2.0,
      2.0,
      0.0,
      0.0,
      2.0,
      2.0,
      2.0,
      2.0,
      0.0,
      2.0,
      1.0,
      2.0,
      1.0,
      2.0,
      0.0,
      2.0,
      2.0,
      2.0,
      2.0,
      1.0,
      1.0,
      2.0,
      2.0,
      2.0,
      2.0
    ],
    "Algorithm Selection": [
      1.0,
      1.0,
      2.0,
      2.0,
      1.0,
      2.0,
      2.0,
      0.0,
      2.0,
      1.0,
      1.0,
      2.0,
      2.0,
      1.0,
      2.0,
      2.0,
      1.0,
      2.0,
      2.0,
      2.0,
      1.0,
      1.0,
      0.0,
      2.0,
      1.0,
      2.0,
      2.0,
      2.0,
      2.0,
      2.0,
      0.0,
      2.0,
      2.0,
      2.0,
      1.0,
      1.0,
      1.0,
      2.0,
      0.0,
      2.0,
      2.0,
      2.0,
      2.0,
      2.0,
      2.0,
      2.0,
      1.0,
      2.0,
      2.0,
      1.0,
      1.0,
      2.0,
      2.0,
      1.0,
      2.0,
      2.0,
      2.0,
      1.0,
      1.0,
      1.0,
      1.0,
      1.0,
      2.0,
      2.0,
      0.0,
      0.0,
      2.0,
      2.0,
      2.0,
      2.0,
      2.0,
      2.0,
      2.0,
      2.0,
      2.0,
      2.0,
      2.0,
      2.0,
      0.0,
      1.0,
      0.0,
      0.0,
      2.0,
      2.0,
      2.0,
      2.0,
      1.0,
      2.0,
      2.0,
      1.0,
      0.0,
      2.0,
      2.0,
      2.0,
      1.0,
      2.0,
      1.0,
      1.0,
      2.0,
      2.0,
      2.0,
      1.0,
      0.0,
      2.0,
      2.0,
      1.0,
      2.0,
      2.0,
      1.0,
      2.0,
      2.0,
      1.0,
      2.0,
      2.0,
      2.0,
      0.0,
      2.0,
      2.0,
      2.0,
      2.0,
      1.0,
      2.0,
      2.0,
      0.0,
      2.0,
      2.0,
      2.0,
      2.0,
      1.0,
      1.0,
      2.0,
      2.0,
      2.0,
      2.0,
      2.0,
      0.0,
      2.0,
      1.0,
      2.0,
      2.0,
      2.0,
      1.0,
      0.0,
      2.0,
      0.0,
      2.0,
      1.0,
      1.0,
      2.0,
      2.0,
      0.0,
      1.0,
      1.0,
      0.0,
      2.0,
      1.0,
      2.0,
      2.0,
      1.0,
      1.0,
      1.0,
      2.0,
      1.0,
      2.0,
      2.0,
      2.0,
      2.0,
      2.0,
      1.0,
      2.0,
      2.0,
      0.0,
      2.0,
      0.0,
      2.0,
      1.0,
      2.0,
      2.0,
      2.0,
      2.0,
      2.0,
      2.0,
      0.0,
      1.0,
      2.0,
      1.0,
      2.0,
      2.0,
      2.0,
      1.0,
      0.0,
      2.0,
      2.0,
      1.0,
      2.0,
      2.0,
      1.0,
      2.0,
      0.0,
      2.0,
      2.0,
      2.0,
      2.0,
      2.0,
      2.0,
      0.0,
      2.0,
      2.0,
      0.0,
      2.0,
      1.0,
      2.0,
      2.0,
      2.0,
      2.0,
      1.0,
      2.0,
      2.0,
      0.0,
      2.0,
      0.0,
      2.0,
      2.0,
      1.0,
      2.0,
      2.0,
      2.0,
      1.0,
      1.0,
      2.0,
      0.0,
      0.0,
      2.0,
      1.0,
      1.0,
      2.0,
      2.0,
      2.0,
      2.0,
      1.0,
      2.0,
      2.0,
      2.0,
      2.0,
      2.0,
      1.0,
      2.0,
      0.0,
      0.0,
      2.0,
      1.0,
      2.0,
      2.0,
      2.0,
      2.0,
      0.0,
      2.0,
      2.0,
      2.0,
      2.0,
      1.0,
      1.0,
      2.0,
      1.0,
      2.0,
      2.0,
      2.0,
      1.0,
      2.0,
      0.0,
      0.0,
      1.0,
      2.0,
      2.0,
      2.0,
      2.0,
      2.0,
      1.0,
      1.0,
      2.0,
      1.0,
      1.0,
      2.0,
      1.0,
      2.0,
      1.0,
      2.0,
      1.0,
      2.0,
      2.0,
      2.0,
      2.0,
      2.0,
      2.0,
      2.0,
      1.0,
      0.0,
      2.0,
      1.0,
      1.0,
      0.0,
      2.0,
      1.0,
      0.0,
      2.0,
      2.0,
      2.0,
      1.0,
      2.0,
      1.0,
      1.0,
      2.0,
      2.0,
      1.0,
      0.0,
      0.0,
      2.0,
      2.0,
      2.0,
      2.0,
      1.0,
      1.0,
      2.0,
      2.0,
      2.0,
      2.0,
      2.0,
      2.0,
      2.0,
      2.0,
      2.0,
      1.0,
      1.0,
      2.0,
      0.0,
      2.0,
      0.0,
      2.0,
      2.0,
      2.0,
      2.0,
      2.0,
      2.0,
      2.0,
      0.0,
      1.0,
      1.0,
      1.0,
      0.0,
      2.0,
      1.0,
      2.0,
      2.0,
      2.0,
      2.0,
      2.0,
      2.0,
      2.0,
      2.0,
      2.0,
      2.0,
      2.0,
      1.0,
      1.0,
      2.0,
      0.0,
      1.0,
      2.0,
      0.0,
      1.0,
      0.0,
      0.0,
      2.0,
      2.0,
      2.0,
      2.0,
      0.0,
      2.0,
      2.0,
      2.0,
      2.0,
      1.0,
      2.0,
      2.0,
      2.0,
      2.0,
      0.0,
      2.0,
      0.0,
      1.0,
      2.0,
      1.0,
      2.0,
      2.0,
      2.0,
      2.0,
      1.0,
      1.0,
      2.0,
      2.0,
      2.0,
      2.0,
      1.0,
      1.0,
      2.0,
      2.0,
      2.0,
      0.0,
      2.0,
      0.0,
      2.0,
      2.0,
      2.0,
      2.0,
      2.0,
      2.0,
      1.0,
      2.0,
      2.0,
      1.0,
      2.0,
      2.0,
      0.0,
      2.0,
      2.0,
      2.0,
      1.0,
      2.0,
      1.0,
      1.0,
      1.0,
      2.0,
      2.0,
      2.0,
      2.0,
      2.0,
      0.0,
      2.0,
      0.0,
      2.0,
      2.0,
      2.0,
      2.0,
      0.0,
      2.0,
      2.0,
      0.0,
      1.0,
      2.0,
      2.0,
      0.0,
      2.0,
      0.0,
      0.0,
      2.0,
      2.0,
      1.0,
      1.0,
      2.0,
      2.0,
      2.0,
      2.0,
      2.0,
      2.0,
      2.0,
      2.0,
      2.0,
      1.0,
      2.0,
      2.0,
      1.0,
      2.0,
      2.0,
      1.0,
      1.0,
      2.0,
      2.0,
      0.0,
      0.0,
      1.0,
      2.0,
      2.0,
      2.0,
      0.0,
      2.0,
      1.0,
      2.0,
      1.0,
      2.0,
      0.0,
      1.0,
      1.0,
      2.0,
      2.0,
      1.0,
      1.0,
      1.0,
      2.0,
      2.0,
      2.0
    ]
  },
  "running_times": {
    "ABCROWN": [
      -0.07262963696097648,
      0.12323077669851039,
      2.7781512503836434,
      2.7781512503836434,
      1.6759679605214086,
      2.7781512503836434,
      2.7781512503836434,
      0.5259513412480125,
      2.7781512503836434,
      1.5223842367311693,
      2.2809374025772278,
      2.7781512503836434,
      2.7781512503836434,
      0.019905199804613985,
      2.7781512503836434,
      2.7781512503836434,
      -0.0637879556797512,
      2.7781512503836434,
      2.7781512503836434,
      2.7781512503836434,
      0.6667332024996186,
      1.5292711865633137,
      0.4755404445547436,
      2.7781512503836434,
      1.5492963732075073,
      2.7781512503836434,
      2.7781512503836434,
      2.7781512503836434,
      2.7781512503836434,
      2.7781512503836434,
      0.47190750293956124,
      2.7781512503836434,
      2.7781512503836434,
      2.7781512503836434,
      1.536649331905237,
      1.580960310534559,
      2.387811101184782,
      2.7781512503836434,
      0.5813693017101067,
      2.7781512503836434,
      2.7781512503836434,
      2.7781512503836434,
      1.981952633585423,
      2.7781512503836434,
      2.7781512503836434,
      2.7781512503836434,
      2.059660337676418,
      2.7781512503836434,
      2.7781512503836434,
      1.5636115914477875,
      0.011528153857539481,
      2.7781512503836434,
      2.7781512503836434,
      0.6875735476816827,
      2.7781512503836434,
      2.7781512503836434,
      2.7781512503836434,
      1.5665682911869607,
      1.5469755083971175,
      2.3705441756070145,
      1.54760489134693,
      0.8604098838472845,
      2.7781512503836434,
      2.7781512503836434,
      0.5270754027417088,
      0.5159268032242017,
      2.7781512503836434,
      2.7781512503836434,
      2.7781512503836434,
      2.7781512503836434,
      2.7781512503836434,
      2.7781512503836434,
      2.7781512503836434,
      2.7781512503836434,
      2.7781512503836434,
      2.7781512503836434,
      2.7781512503836434,
      2.7781512503836434,
      0.5043757014787995,
      1.569478080972052,
      0.5437825570203395,
      0.542514216281654,
      2.7781512503836434,
      2.7781512503836434,
      2.7781512503836434,
      2.7781512503836434,
      1.10874087062807,
      2.7781512503836434,
      2.7781512503836434,
      0.0047081965443362675,
      0.5095788374345916,
      2.7781512503836434,
      2.7781512503836434,
      2.7781512503836434,
      2.5808381080921907,
      2.7781512503836434,
      0.7137760587448221,
      0.7229545898169885,
      2.7781512503836434,
      2.7781512503836434,
      2.7781512503836434,
      0.5904628595147674,
      0.5211380837040362,
      2.7781512503836434,
      2.7781512503836434,
      0.03382569395331033,
      2.7781512503836434,
      2.7781512503836434,
      0.8331598663358314,
      2.7781512503836434,
      2.7781512503836434,
      1.6180449572225626,
      2.7781512503836434,
      2.7781512503836434,
      2.7781512503836434,
      0.5184744567666367,
      2.7781512503836434,
      2.7781512503836434,
      2.7781512503836434,
      2.7781512503836434,
      1.660167011096882,
      2.7781512503836434,
      2.7781512503836434,
      0.5139363884142836,
      2.7781512503836434,
      2.7781512503836434,
      2.7781512503836434,
      2.7781512503836434,
      2.333658828162338,
      1.5584517569948118,
      2.7781512503836434,
      2.7781512503836434,
      2.7781512503836434,
      2.7781512503836434,
      2.7781512503836434,
      0.4843995020539068,
      2.7781512503836434,
      1.5694675479254352,
      2.7781512503836434,
      2.7781512503836434,
      2.7781512503836434,
      1.753782160628439,
      -0.05948351506743278,
      2.7781512503836434,
      0.495516586213687,
      2.7781512503836434,
      2.1347252098088534,
      1.563176022861695,
      2.7781512503836434,
      2.7781512503836434,
      0.5468386724514693,
      1.6972712004516108,
      1.5793616689271104,
      0.5381588447830807,
      2.7781512503836434,
      0.029748918566836823,
      2.7781512503836434,
      2.7781512503836434,
      1.542058201240125,
      0.6508415614643832,
      2.294987947856181,
      2.7781512503836434,
      1.550578094507233,
      2.7781512503836434,
      2.7781512503836434,
      2.7781512503836434,
      2.7781512503836434,
      2.7781512503836434,
      0.647373188597217,
      2.7781512503836434,
      2.7781512503836434,
      0.534026106056135,
      2.7781512503836434,
      0.4919077209148307,
      2.7781512503836434,
      0.6283684921820331,
      2.7781512503836434,
      2.7781512503836434,
      2.7781512503836434,
      2.7781512503836434,
      2.7781512503836434,
      2.7781512503836434,
      0.4943633392673082,
      0.8630312495057593,
      2.7781512503836434,
      1.582440648638487,
      2.7781512503836434,
      2.7781512503836434,
      2.52433899141892,
      1.6842024172644048,
      0.5382846105901403,
      2.7781512503836434,
      2.7781512503836434,
      0.80698674047767,
      2.7781512503836434,
      2.7781512503836434,
      1.9196407408375402,
      2.7781512503836434,
      0.5432234514864356,
      2.7781512503836434,
      2.744597899461065,
      2.7781512503836434,
      2.7781512503836434,
      2.7781512503836434,
      2.7781512503836434,
      0.5253558319834664,
      2.7781512503836434,
      2.7781512503836434,
      0.5258607729318538,
      2.7781512503836434,
      0.7904188808065318,
      2.7781512503836434,
      2.7781512503836434,
      2.7781512503836434,
      2.7781512503836434,
      1.548234592505439,
      2.7781512503836434,
      2.7781512503836434,
      0.48749189155849165,
      2.7781512503836434,
      0.5029321374315509,
      2.7781512503836434,
      2.7781512503836434,
      1.63574103028328,
      2.7781512503836434,
      2.7781512503836434,
      2.7781512503836434,
      -0.04905128560059965,
      -0.06940751155740173,
      2.7781512503836434,
      0.5670734416002102,
      0.5445888852864612,
      2.7781512503836434,
      1.5485650660902868,
      -0.11435612816423608,
      2.7781512503836434,
      2.7781512503836434,
      2.7781512503836434,
      2.7781512503836434,
      1.9034806762418537,
      2.7781512503836434,
      2.7781512503836434,
      2.7781512503836434,
      2.7781512503836434,
      2.7781512503836434,
      1.7998097475630845,
      2.7781512503836434,
      0.5469249704113962,
      0.5599664410932146,
      2.7781512503836434,
      0.696723243167566,
      2.7781512503836434,
      2.7781512503836434,
      2.7781512503836434,
      2.7781512503836434,
      0.5269463481579993,
      2.7781512503836434,
      2.7781512503836434,
      2.7781512503836434,
      2.7781512503836434,
      1.5790835900840037,
      -0.008685301823389197,
      2.7781512503836434,
      1.629135274886467,
      2.7781512503836434,
      2.7781512503836434,
      1.7929538069619517,
      1.6312874760564136,
      2.7781512503836434,
      0.5320916062789354,
      0.5457770385001214,
      1.5623678184054568,
      2.7781512503836434,
      2.7781512503836434,
      2.7781512503836434,
      2.7781512503836434,
      2.7781512503836434,
      1.8959852171056357,
      1.5652053431447508,
      2.7781512503836434,
      1.5392793913958176,
      1.9128435510932769,
      2.7781512503836434,
      -0.1250545639144681,
      2.7781512503836434,
      1.569901531870062,
      2.7781512503836434,
      2.2304185197004696,
      2.7781512503836434,
      2.7781512503836434,
      2.7781512503836434,
      2.7781512503836434,
      2.7781512503836434,
      2.7781512503836434,
      2.7781512503836434,
      0.06911285138712091,
      0.5836521085420439,
      2.7781512503836434,
      -0.14880282382583934,
      1.546341508944295,
      1.1621161410623684,
      2.7781512503836434,
      1.6154860657153924,
      0.06863106371431665,
      2.7781512503836434,
      2.7781512503836434,
      2.7781512503836434,
      0.047352760753934194,
      2.7781512503836434,
      1.5494826841518976,
      0.6581259207597151,
      2.7781512503836434,
      2.7781512503836434,
      -0.11013827874181155,
      0.5279777126274044,
      0.47430369711656056,
      2.7018151948820277,
      2.7781512503836434,
      2.7781512503836434,
      2.7781512503836434,
      1.5266183769986592,
      1.5185902637161417,
      2.7781512503836434,
      2.7781512503836434,
      2.7781512503836434,
      2.7781512503836434,
      2.7781512503836434,
      2.7781512503836434,
      1.8929367623530136,
      2.7781512503836434,
      2.7781512503836434,
      -0.15273589822923547,
      1.9531268710897272,
      2.7781512503836434,
      0.4862037080213181,
      2.7781512503836434,
      0.5443533441358603,
      2.7781512503836434,
      2.7781512503836434,
      2.7781512503836434,
      2.7781512503836434,
      2.7781512503836434,
      2.7781512503836434,
      2.7781512503836434,
      0.5310316189267458,
      -0.08565684288055925,
      0.13519627960660124,
      1.572783340877837,
      0.5899049414992605,
      2.7781512503836434,
      1.850782198911975,
      2.7781512503836434,
      2.7781512503836434,
      2.7781512503836434,
      2.7781512503836434,
      2.7781512503836434,
      2.7781512503836434,
      2.7781512503836434,
      2.7781512503836434,
      2.7781512503836434,
      2.7781512503836434,
      2.7781512503836434,
      1.6072812706690809,
      1.622661561306399,
      2.7781512503836434,
      0.522744093118784,
      1.653851903410559,
      2.7781512503836434,
      0.510437763760357,
      0.7655269948954133,
      0.5014563846965155,
      0.47612122693798276,
      2.7781512503836434,
      2.7781512503836434,
      2.7781512503836434,
      2.7781512503836434,
      0.4925369002881332,
      2.7781512503836434,
      2.7781512503836434,
      2.7781512503836434,
      2.7781512503836434,
      2.2780529075851854,
      2.7781512503836434,
      2.7781512503836434,
      2.7781512503836434,
      2.7781512503836434,
      0.4917397856894971,
      2.7781512503836434,
      0.5405171695925721,
      -0.09990609845660166,
      2.7781512503836434,
      1.5594194156152044,
      2.7781512503836434,
      2.7781512503836434,
      2.7781512503836434,
      2.7781512503836434,
      1.562353542460102,
      2.569303199312577,
      2.7781512503836434,
      2.7781512503836434,
      2.7781512503836434,
      2.7781512503836434,
      0.7429999142824847,
      1.5764415604470334,
      1.939816168589074,
      2.7781512503836434,
      2.7781512503836434,
      0.5132176000679389,
      2.7781512503836434,
      0.5460735695945912,
      2.7781512503836434,
      2.7781512503836434,
      2.7781512503836434,
      2.7781512503836434,
      2.7781512503836434,
      2.7781512503836434,
      0.14553823571223318,
      2.7781512503836434,
      2.7781512503836434,
      1.5402831642646766,
      2.7781512503836434,
      2.7781512503836434,
      0.4870534887814274,
      2.7781512503836434,
      2.063539759305635,
      2.7781512503836434,
      0.7327073037382198,
      2.7781512503836434,
      0.10445296732229115,
      0.7931894977206959,
      0.6994387892781468,
      2.7781512503836434,
      2.7781512503836434,
      2.7781512503836434,
      2.7781512503836434,
      2.7781512503836434,
      0.5174334408977742,
      2.7781512503836434,
      0.09892047872233012,
      2.7781512503836434,
      2.7781512503836434,
      2.7781512503836434,
      2.7781512503836434,
      0.5137235380850075,
      2.7781512503836434,
      2.7781512503836434,
      -0.012959713020733253,
      1.5664893451569732,
      2.7781512503836434,
      2.7781512503836434,
      0.5680021375046146,
      2.7781512503836434,
      0.5344449600889468,
      0.5853027755217065,
      2.7781512503836434,
      2.7781512503836434,
      2.0962914848522995,
      1.557492765284043,
      2.7781512503836434,
      2.7781512503836434,
      2.7781512503836434,
      2.7781512503836434,
      2.7781512503836434,
      2.7781512503836434,
      2.7781512503836434,
      2.7781512503836434,
      2.7781512503836434,
      0.8036346211376484,
      2.7781512503836434,
      2.7781512503836434,
      0.1404766168301335,
      2.7781512503836434,
      2.7781512503836434,
      1.697288639965963,
      -0.02507401391023757,
      2.7781512503836434,
      2.7781512503836434,
      0.5500325705737424,
      0.48501121457857305,
      1.8449503547824975,
      2.7781512503836434,
      2.7781512503836434,
      2.7781512503836434,
      0.4909552282005233,
      2.7781512503836434,
      1.0353496765229881,
      2.7781512503836434,
      -0.008818242332126823,
      2.7781512503836434,
      0.5750607721022473,
      1.56365903847287,
      1.566166341811416,
      2.7781512503836434,
      2.7781512503836434,
      0.7224858423544257,
      1.5554535910179392,
      1.6065629998145134,
      2.7781512503836434,
      2.7781512503836434,
      2.7781512503836434
    ],
    "VERINET": [
      0.8959747323590646,
      0.8744818176994665,
      2.7781512503836434,
      2.7781512503836434,
      2.7781512503836434,
      2.7781512503836434,
      2.7781512503836434,
      0.7299742856995556,
      2.7781512503836434,
      2.42050033913748,
      2.7781512503836434,
      2.7781512503836434,
      2.7781512503836434,
      0.8859263398014311,
      2.7781512503836434,
      2.7781512503836434,
      0.9324737646771533,
      2.7781512503836434,
      2.7781512503836434,
      2.7781512503836434,
      0.967547976218862,
      1.1218879851036812,
      0.7403626894942439,
      2.7781512503836434,
      2.7781512503836434,
      2.7781512503836434,
      2.7781512503836434,
      2.7781512503836434,
      2.7781512503836434,
      2.7781512503836434,
      0.7551122663950712,
      2.7781512503836434,
      2.7781512503836434,
      2.7781512503836434,
      2.183782151277061,
      2.7781512503836434,
      2.7781512503836434,
      2.7781512503836434,
      0.6893088591236202,
      2.7781512503836434,
      2.7781512503836434,
      2.7781512503836434,
      2.7781512503836434,
      2.7781512503836434,
      2.7781512503836434,
      2.7781512503836434,
      2.7781512503836434,
      2.7781512503836434,
      2.7781512503836434,
      2.7781512503836434,
      0.8621313793130372,
      2.7781512503836434,
      2.7781512503836434,
      1.1335389083702174,
      2.7781512503836434,
      2.7781512503836434,
      2.7781512503836434,
      2.7781512503836434,
      1.7676010680503356,
      2.7781512503836434,
      1.190051417759206,
      1.3832766504076504,
      2.7781512503836434,
      2.7781512503836434,
      0.6893088591236202,
      0.7176705030022621,
      2.7781512503836434,
      2.7781512503836434,
      2.7781512503836434,
      2.7781512503836434,
      2.7781512503836434,
      2.7781512503836434,
      2.7781512503836434,
      2.7781512503836434,
      2.7781512503836434,
      2.7781512503836434,
      2.7781512503836434,
      2.7781512503836434,
      0.8704039052790271,
      2.7781512503836434,
      0.8686444383948257,
      0.8549130223078556,
      2.7781512503836434,
      2.7781512503836434,
      2.7781512503836434,
      2.7781512503836434,
      2.7781512503836434,
      2.7781512503836434,
      2.7781512503836434,
      0.92272545799326,
      0.7715874808812554,
      2.7781512503836434,
      2.7781512503836434,
      2.7781512503836434,
      2.7781512503836434,
      2.7781512503836434,
      0.960470777534299,
      0.9444826721501687,
      2.7781512503836434,
      2.7781512503836434,
      2.7781512503836434,
      0.9324737646771533,
      0.7419390777291989,
      2.7781512503836434,
      2.7781512503836434,
      0.8864907251724818,
      2.7781512503836434,
      2.7781512503836434,
      1.3159703454569178,
      2.7781512503836434,
      2.7781512503836434,
      2.7781512503836434,
      2.7781512503836434,
      2.7781512503836434,
      2.7781512503836434,
      0.7979596437371962,
      2.7781512503836434,
      2.7781512503836434,
      2.7781512503836434,
      2.7781512503836434,
      2.7781512503836434,
      2.7781512503836434,
      2.7781512503836434,
      0.7558748556724915,
      2.7781512503836434,
      2.7781512503836434,
      2.7781512503836434,
      2.7781512503836434,
      2.7781512503836434,
      1.7338390006971494,
      2.7781512503836434,
      2.7781512503836434,
      2.7781512503836434,
      2.7781512503836434,
      2.7781512503836434,
      0.7259116322950482,
      2.7781512503836434,
      2.7781512503836434,
      2.7781512503836434,
      2.7781512503836434,
      2.7781512503836434,
      2.7781512503836434,
      0.7403626894942439,
      2.7781512503836434,
      0.7075701760979364,
      2.7781512503836434,
      2.7781512503836434,
      1.2425414282983842,
      2.7781512503836434,
      2.7781512503836434,
      0.7201593034059569,
      2.7781512503836434,
      2.7781512503836434,
      0.7505083948513462,
      2.7781512503836434,
      0.8830933585756899,
      2.7781512503836434,
      2.7781512503836434,
      1.824451270036613,
      0.9339931638312423,
      2.7781512503836434,
      2.7781512503836434,
      1.1622656142980214,
      2.7781512503836434,
      2.7781512503836434,
      2.7781512503836434,
      2.7781512503836434,
      2.7781512503836434,
      0.9242792860618817,
      2.7781512503836434,
      2.7781512503836434,
      0.7218106152125465,
      2.7781512503836434,
      0.7201593034059569,
      2.7781512503836434,
      0.9201233262907239,
      2.7781512503836434,
      2.7781512503836434,
      2.7781512503836434,
      2.7781512503836434,
      2.7781512503836434,
      2.7781512503836434,
      0.724275869600789,
      1.6679196853173615,
      2.7781512503836434,
      2.7781512503836434,
      2.7781512503836434,
      2.7781512503836434,
      2.7781512503836434,
      2.7781512503836434,
      0.7759743311293691,
      2.7781512503836434,
      2.7781512503836434,
      1.1931245983544616,
      2.7781512503836434,
      2.7781512503836434,
      2.7781512503836434,
      2.7781512503836434,
      0.7803173121401513,
      2.7781512503836434,
      2.7781512503836434,
      2.7781512503836434,
      2.7781512503836434,
      2.7781512503836434,
      2.7781512503836434,
      1.1017470739463662,
      2.7781512503836434,
      2.7781512503836434,
      0.7379873263334308,
      2.7781512503836434,
      1.095169351431755,
      2.7781512503836434,
      2.7781512503836434,
      2.7781512503836434,
      2.7781512503836434,
      2.7781512503836434,
      2.7781512503836434,
      2.7781512503836434,
      0.7774268223893114,
      2.7781512503836434,
      0.7512791039833423,
      2.7781512503836434,
      2.7781512503836434,
      2.7781512503836434,
      2.7781512503836434,
      2.7781512503836434,
      2.7781512503836434,
      0.9003671286564703,
      0.8680563618230416,
      2.7781512503836434,
      0.7226339225338123,
      0.7218106152125465,
      2.7781512503836434,
      2.7781512503836434,
      0.8744818176994665,
      2.7781512503836434,
      2.7781512503836434,
      2.7781512503836434,
      2.7781512503836434,
      2.7781512503836434,
      2.7781512503836434,
      2.7781512503836434,
      2.7781512503836434,
      2.7781512503836434,
      2.7781512503836434,
      2.7781512503836434,
      2.7781512503836434,
      0.8463371121298052,
      0.7015679850559274,
      2.7781512503836434,
      0.9965116721541787,
      2.7781512503836434,
      2.7781512503836434,
      2.7781512503836434,
      2.7781512503836434,
      0.724275869600789,
      2.7781512503836434,
      2.7781512503836434,
      2.7781512503836434,
      2.7781512503836434,
      2.7781512503836434,
      0.8790958795000727,
      2.7781512503836434,
      2.7781512503836434,
      2.7781512503836434,
      2.7781512503836434,
      2.7781512503836434,
      2.7781512503836434,
      2.7781512503836434,
      0.7958800173440752,
      0.6910814921229684,
      1.5281450782531065,
      2.7781512503836434,
      2.7781512503836434,
      2.7781512503836434,
      2.7781512503836434,
      2.7781512503836434,
      2.7781512503836434,
      2.7781512503836434,
      2.7781512503836434,
      2.7781512503836434,
      2.7781512503836434,
      2.7781512503836434,
      0.877371345869774,
      2.7781512503836434,
      2.2262131207241076,
      2.7781512503836434,
      2.7781512503836434,
      2.7781512503836434,
      2.7781512503836434,
      2.7781512503836434,
      2.7781512503836434,
      2.7781512503836434,
      2.7781512503836434,
      2.7781512503836434,
      0.9222062774390164,
      0.7535830588929066,
      2.7781512503836434,
      0.9242792860618817,
      2.222143969500662,
      0.7209857441537391,
      2.7781512503836434,
      2.7781512503836434,
      0.7267272090265723,
      2.7781512503836434,
      2.7781512503836434,
      2.7781512503836434,
      0.9508514588885464,
      2.7781512503836434,
      2.7781512503836434,
      0.9508514588885464,
      2.7781512503836434,
      2.7781512503836434,
      0.8715729355458788,
      0.7134905430939426,
      0.756636108245848,
      2.7781512503836434,
      2.7781512503836434,
      2.7781512503836434,
      2.7781512503836434,
      1.34143452457814,
      1.4097641042663462,
      2.7781512503836434,
      2.7781512503836434,
      2.7781512503836434,
      2.7781512503836434,
      2.7781512503836434,
      2.7781512503836434,
      2.7781512503836434,
      2.7781512503836434,
      2.7781512503836434,
      0.877371345869774,
      2.7781512503836434,
      2.7781512503836434,
      2.7781512503836434,
      2.7781512503836434,
      0.7291647896927701,
      2.7781512503836434,
      2.7781512503836434,
      2.7781512503836434,
      2.7781512503836434,
      2.7781512503836434,
      2.7781512503836434,
      2.7781512503836434,
      0.6989700043360189,
      0.8727388274726688,
      0.8567288903828826,
      2.7781512503836434,
      0.7209857441537391,
      2.7781512503836434,
      2.7781512503836434,
      2.7781512503836434,
      2.7781512503836434,
      2.7781512503836434,
      2.7781512503836434,
      2.7781512503836434,
      2.7781512503836434,
      2.7781512503836434,
      2.7781512503836434,
      2.7781512503836434,
      2.7781512503836434,
      2.7781512503836434,
      2.7781512503836434,
      2.7781512503836434,
      2.7781512503836434,
      0.7168377232995244,
      2.7781512503836434,
      2.7781512503836434,
      0.7032913781186614,
      1.212187604403958,
      0.7134905430939426,
      0.7134905430939426,
      2.7781512503836434,
      2.7781512503836434,
      2.7781512503836434,
      2.7781512503836434,
      0.725094521081469,
      2.7781512503836434,
      2.7781512503836434,
      2.7781512503836434,
      2.7781512503836434,
      2.7781512503836434,
      2.7781512503836434,
      2.7781512503836434,
      2.7781512503836434,
      2.7781512503836434,
      0.7944880466591696,
      2.7781512503836434,
      0.7839035792727349,
      0.9211660506377387,
      2.7781512503836434,
      2.7781512503836434,
      2.7781512503836434,
      2.7781512503836434,
      2.7781512503836434,
      2.7781512503836434,
      2.7781512503836434,
      2.7781512503836434,
      2.7781512503836434,
      2.7781512503836434,
      2.7781512503836434,
      2.7781512503836434,
      1.0572856444182146,
      2.7781512503836434,
      2.7781512503836434,
      2.7781512503836434,
      2.7781512503836434,
      0.7259116322950482,
      2.7781512503836434,
      0.69810054562339,
      2.7781512503836434,
      2.7781512503836434,
      2.7781512503836434,
      2.7781512503836434,
      2.7781512503836434,
      2.7781512503836434,
      0.8727388274726688,
      2.7781512503836434,
      2.7781512503836434,
      2.660229691227859,
      2.7781512503836434,
      2.7781512503836434,
      0.7611758131557314,
      2.7781512503836434,
      2.7781512503836434,
      2.7781512503836434,
      2.278547833775853,
      2.7781512503836434,
      0.8615344108590378,
      1.1078880251827987,
      0.9978230807457255,
      2.7781512503836434,
      2.7781512503836434,
      2.7781512503836434,
      2.7781512503836434,
      2.7781512503836434,
      0.7209857441537391,
      2.7781512503836434,
      0.6901960800285137,
      2.7781512503836434,
      2.7781512503836434,
      2.7781512503836434,
      2.7781512503836434,
      0.7201593034059569,
      2.7781512503836434,
      2.7781512503836434,
      0.8241258339165489,
      1.786964259435733,
      2.7781512503836434,
      2.7781512503836434,
      0.6972293427597176,
      2.7781512503836434,
      0.7218106152125465,
      0.693726948923647,
      2.7781512503836434,
      2.7781512503836434,
      2.7781512503836434,
      1.4917817755841658,
      2.7781512503836434,
      2.7781512503836434,
      2.7781512503836434,
      2.7781512503836434,
      2.7781512503836434,
      2.7781512503836434,
      2.7781512503836434,
      2.7781512503836434,
      2.7781512503836434,
      2.4186658130534755,
      2.7781512503836434,
      2.7781512503836434,
      0.8591382972945308,
      2.7781512503836434,
      2.7781512503836434,
      2.7781512503836434,
      0.8680563618230416,
      2.7781512503836434,
      2.7781512503836434,
      0.7267272090265723,
      0.7283537820212285,
      2.7781512503836434,
      2.7781512503836434,
      2.7781512503836434,
      2.7781512503836434,
      0.7201593034059569,
      2.7781512503836434,
      1.8536373819585943,
      2.7781512503836434,
      0.9304395947667001,
      2.7781512503836434,
      0.7589118923979735,
      2.7781512503836434,
      2.7781512503836434,
      2.7781512503836434,
      2.7781512503836434,
      1.0310042813635367,
      2.0830724122845354,
      2.7781512503836434,
      2.7781512503836434,
      2.7781512503836434,
      2.7781512503836434
    ],
    "Algorithm Selection": [
      0.2284003587030047,
      0.4242607723624916,
      1.6020599913279623,
      1.3010299956639813,
      1.8888570936784024,
      1.3010299956639813,
      1.3010299956639813,
      0.8269813369119936,
      1.3010299956639813,
      1.6364417563824516,
      2.4486410935582943,
      1.3010299956639813,
      1.3010299956639813,
      0.32093519546859517,
      2.7853298350107667,
      1.3010299956639813,
      0.23724203998423,
      1.3010299956639813,
      1.3010299956639813,
      1.3010299956639813,
      0.9677631981635999,
      1.4229179807676624,
      0.7765704402187248,
      1.3010299956639813,
      1.8503263688714886,
      1.3010299956639813,
      2.7853298350107667,
      1.3010299956639813,
      1.6020599913279623,
      1.6020599913279623,
      0.7729374986035424,
      1.3010299956639813,
      1.3010299956639813,
      1.3010299956639813,
      1.8376793275692183,
      1.8819903061985404,
      2.4052384135673313,
      1.3010299956639813,
      0.882399297374088,
      1.3010299956639813,
      1.3010299956639813,
      1.3010299956639813,
      1.6020599913279623,
      1.9030899869919435,
      1.3010299956639813,
      1.3010299956639813,
      2.189562175489485,
      1.3010299956639813,
      1.3010299956639813,
      1.668488420457219,
      0.31255814952152067,
      1.3010299956639813,
      1.3010299956639813,
      0.9886035433456639,
      1.3010299956639813,
      1.3010299956639813,
      1.3010299956639813,
      1.6708124788474377,
      1.6554755547367264,
      2.438885219028125,
      1.4063698354692675,
      1.1614398795112657,
      1.3010299956639813,
      1.3010299956639813,
      0.8281053984056901,
      0.8169567988881828,
      1.3010299956639813,
      1.3010299956639813,
      1.3010299956639813,
      1.3010299956639813,
      1.3010299956639813,
      1.3010299956639813,
      1.3010299956639813,
      1.3010299956639813,
      1.3010299956639813,
      1.3010299956639813,
      1.3010299956639813,
      1.3010299956639813,
      0.8054056971427807,
      1.6731029635142363,
      0.8448125526843207,
      0.8435442119456351,
      1.3010299956639813,
      1.3010299956639813,
      1.3010299956639813,
      1.3010299956639813,
      1.3587949644716613,
      1.3010299956639813,
      1.3010299956639813,
      0.30573819220831744,
      0.8106088330985729,
      1.3010299956639813,
      1.3010299956639813,
      1.3010299956639813,
      2.5920921117062847,
      1.3010299956639813,
      1.0148060544088033,
      1.0239845854809697,
      1.3010299956639813,
      1.3010299956639813,
      1.3010299956639813,
      0.8914928551787487,
      0.8221680793680175,
      1.3010299956639813,
      1.3010299956639813,
      0.3348556896172915,
      1.3010299956639813,
      1.3010299956639813,
      1.1341898619998125,
      1.3010299956639813,
      1.3010299956639813,
      1.7888729972605817,
      1.3010299956639813,
      1.3010299956639813,
      1.3010299956639813,
      0.8195044524306179,
      1.3010299956639813,
      1.3010299956639813,
      1.3010299956639813,
      1.3010299956639813,
      1.7460609879577869,
      1.3010299956639813,
      1.3010299956639813,
      0.8149663840782648,
      1.3010299956639813,
      1.3010299956639813,
      1.9030899869919435,
      1.3010299956639813,
      2.353348720525607,
      1.6644407622431074,
      1.3010299956639813,
      1.3010299956639813,
      1.3010299956639813,
      1.3010299956639813,
      1.3010299956639813,
      0.785429497717888,
      1.3010299956639813,
      1.8704975435894164,
      1.3010299956639813,
      1.3010299956639813,
      1.3010299956639813,
      1.8242950911328697,
      0.2415464805965484,
      1.3010299956639813,
      0.7965465818776681,
      1.3010299956639813,
      2.293079563326717,
      1.5435714239623655,
      1.3010299956639813,
      1.3010299956639813,
      0.8478686681154505,
      1.8438852871194242,
      1.763151604488773,
      0.839188840447062,
      1.3010299956639813,
      0.330778914230818,
      1.3010299956639813,
      1.3010299956639813,
      1.6516501069655607,
      0.9518715571283644,
      2.587976622596855,
      1.3010299956639813,
      1.4632956099620027,
      1.3010299956639813,
      1.3010299956639813,
      1.3010299956639813,
      1.3010299956639813,
      1.3010299956639813,
      0.9484031842611982,
      1.3010299956639813,
      1.3010299956639813,
      0.8350561017201161,
      1.3010299956639813,
      0.7929377165788118,
      1.3010299956639813,
      0.9293984878460142,
      1.3010299956639813,
      1.3010299956639813,
      1.3010299956639813,
      1.6020599913279623,
      1.3010299956639813,
      1.3010299956639813,
      0.7953933349312894,
      1.1640612451697405,
      1.3010299956639813,
      1.8834706443024682,
      1.3010299956639813,
      1.3010299956639813,
      1.6020599913279623,
      1.9461003636027099,
      0.8393146062541215,
      1.3010299956639813,
      1.3010299956639813,
      1.1080167361416513,
      1.3010299956639813,
      1.3010299956639813,
      1.9689851321451437,
      1.3010299956639813,
      0.8442534471504168,
      1.3010299956639813,
      2.8808135922807914,
      1.3010299956639813,
      1.3010299956639813,
      1.3010299956639813,
      1.3010299956639813,
      0.8263858276474476,
      1.3010299956639813,
      1.3010299956639813,
      0.8268907685958351,
      1.3010299956639813,
      1.091448876470513,
      1.3010299956639813,
      1.3010299956639813,
      1.3010299956639813,
      1.3010299956639813,
      1.8492645881694203,
      1.3010299956639813,
      2.0791812460476247,
      0.7885218872224729,
      1.3010299956639813,
      0.8039621330955321,
      1.3010299956639813,
      1.3010299956639813,
      1.7261205658401944,
      1.3010299956639813,
      1.3010299956639813,
      1.3010299956639813,
      0.2519787100633815,
      0.23162248410657946,
      1.3010299956639813,
      0.8681034372641914,
      0.8456188809504424,
      1.3010299956639813,
      1.6567142138249409,
      0.1866738674997451,
      1.6020599913279623,
      1.3010299956639813,
      1.3010299956639813,
      1.3010299956639813,
      1.9545898061246885,
      1.3010299956639813,
      1.3010299956639813,
      1.3010299956639813,
      1.3010299956639813,
      1.3010299956639813,
      2.0131242701556253,
      1.3010299956639813,
      0.8479549660753773,
      0.8609964367571957,
      1.3010299956639813,
      0.9977532388315471,
      1.3010299956639813,
      1.3010299956639813,
      1.3010299956639813,
      1.3010299956639813,
      0.8279763438219805,
      1.3010299956639813,
      1.3010299956639813,
      1.6020599913279623,
      1.3010299956639813,
      1.7629694960666527,
      0.292344693840592,
      1.3010299956639813,
      1.9168385893993711,
      1.3010299956639813,
      1.3010299956639813,
      1.3010299956639813,
      1.917949554694751,
      1.3010299956639813,
      0.8331216019429166,
      0.8468070341641025,
      1.7520968708761855,
      1.3010299956639813,
      1.3010299956639813,
      1.3010299956639813,
      1.3010299956639813,
      1.3010299956639813,
      2.0744576705376714,
      1.6697407385101297,
      2.7853298350107667,
      1.8103414141032144,
      2.0857078998814695,
      1.3010299956639813,
      0.17597543174951308,
      2.7853298350107667,
      1.6734365612611313,
      1.3010299956639813,
      2.301004154373522,
      1.3010299956639813,
      1.3010299956639813,
      1.3010299956639813,
      1.3010299956639813,
      1.3010299956639813,
      1.3010299956639813,
      1.3010299956639813,
      0.3701428470511021,
      0.884682104206025,
      1.3010299956639813,
      0.15222717183814186,
      1.7418108160364585,
      1.0220157398177203,
      1.6020599913279623,
      1.7871479251025393,
      0.36966105937829785,
      1.3010299956639813,
      1.3010299956639813,
      1.3010299956639813,
      0.3483827564179154,
      1.3010299956639813,
      1.743816171311428,
      0.9591559164236962,
      1.3010299956639813,
      1.3010299956639813,
      0.19089171692216964,
      0.8290077082913856,
      0.7753336927805418,
      2.0,
      1.3010299956639813,
      1.3010299956639813,
      1.3010299956639813,
      1.6397015910553197,
      1.7243233935664126,
      1.3010299956639813,
      1.3010299956639813,
      1.3010299956639813,
      1.3010299956639813,
      1.3010299956639813,
      1.3010299956639813,
      1.3010299956639813,
      1.3010299956639813,
      2.7853298350107667,
      0.1482940974347457,
      1.9989960545396928,
      1.9030899869919435,
      0.7872337036852993,
      1.3010299956639813,
      0.8453833397998415,
      1.3010299956639813,
      1.3010299956639813,
      1.3010299956639813,
      2.7853298350107667,
      1.3010299956639813,
      1.3010299956639813,
      1.3010299956639813,
      0.832061614590727,
      0.21537315278342195,
      0.43622627527058244,
      1.6757087023766406,
      0.8909349371632417,
      1.3010299956639813,
      2.045018474666959,
      1.3010299956639813,
      1.3010299956639813,
      2.0,
      1.3010299956639813,
      1.3010299956639813,
      1.3010299956639813,
      1.3010299956639813,
      1.3010299956639813,
      1.7781512503836436,
      2.7853298350107667,
      1.3010299956639813,
      1.7031520375379507,
      1.715528701156456,
      1.3010299956639813,
      0.8237740887827653,
      1.740885896463729,
      1.3010299956639813,
      0.8114677594243381,
      1.0665569905593946,
      0.8024863803604968,
      0.7771512226019639,
      1.3010299956639813,
      1.3010299956639813,
      1.3010299956639813,
      1.3010299956639813,
      0.7935668959521144,
      1.3010299956639813,
      1.3010299956639813,
      1.6020599913279623,
      2.7853298350107667,
      2.4144614140558596,
      1.3010299956639813,
      2.7853298350107667,
      1.3010299956639813,
      1.3010299956639813,
      0.7927697813534783,
      1.3010299956639813,
      0.8415471652565534,
      0.20112389720737955,
      1.3010299956639813,
      1.665199056700112,
      1.3010299956639813,
      1.3010299956639813,
      1.3010299956639813,
      2.7853298350107667,
      1.7520876478530514,
      2.5808561214337296,
      1.3010299956639813,
      1.3010299956639813,
      1.3010299956639813,
      1.3010299956639813,
      1.0440299099464658,
      1.7612412910962976,
      1.3010299956639813,
      1.3010299956639813,
      1.3010299956639813,
      0.8142475957319201,
      2.7853298350107667,
      0.8471035652585724,
      1.3010299956639813,
      1.3010299956639813,
      1.3010299956639813,
      1.3010299956639813,
      1.3010299956639813,
      1.3010299956639813,
      0.4465682313762144,
      1.3010299956639813,
      1.3010299956639813,
      1.650271573331241,
      1.3010299956639813,
      2.7853298350107667,
      0.7880834844454087,
      1.3010299956639813,
      1.3010299956639813,
      1.3010299956639813,
      1.033737299402201,
      1.3010299956639813,
      0.40548296298627234,
      1.0942194933846772,
      1.000468784942128,
      1.3010299956639813,
      1.3010299956639813,
      1.3010299956639813,
      1.3010299956639813,
      1.3010299956639813,
      0.8184634365617554,
      1.3010299956639813,
      0.3999504743863113,
      1.3010299956639813,
      1.3010299956639813,
      1.3010299956639813,
      1.3010299956639813,
      0.8147535337489887,
      1.3010299956639813,
      1.3010299956639813,
      0.28807028264324797,
      1.6707503808373174,
      1.3010299956639813,
      1.3010299956639813,
      0.8690321331685957,
      1.3010299956639813,
      0.8354749557529281,
      0.8863327711856878,
      1.3010299956639813,
      1.3010299956639813,
      2.129761087461645,
      1.663689620396995,
      1.3010299956639813,
      1.3010299956639813,
      1.3010299956639813,
      1.3010299956639813,
      1.3010299956639813,
      1.3010299956639813,
      1.3010299956639813,
      1.3010299956639813,
      1.3010299956639813,
      1.1046646168016296,
      1.3010299956639813,
      1.3010299956639813,
      0.4415066124941147,
      1.3010299956639813,
      1.3010299956639813,
      1.7767505658376053,
      0.27595598175374364,
      1.3010299956639813,
      1.3010299956639813,
      0.8510625662377237,
      0.7860412102425542,
      1.9029607651608769,
      1.3010299956639813,
      1.3010299956639813,
      2.7853298350107667,
      0.7919852238645044,
      1.3010299956639813,
      1.3190643983685095,
      1.3010299956639813,
      0.2922117533318544,
      1.3010299956639813,
      0.8760907677662285,
      1.8235720322293572,
      1.7545547294595485,
      1.3010299956639813,
      1.3010299956639813,
      1.0235158380184068,
      1.6620936087366678,
      1.7025761385581257,
      1.3010299956639813,
      1.3010299956639813,
      1.3010299956639813
    ]
  }
}