{
  "0": {
    "sbs": "ABCROWN",
    "sbs_running_time": 1365.5340999999992,
    "sbs_solved": 184,
    "vbs_running_time": 754.2177640420332,
    "vbs_solved": 185,
    "algo_select_running_time": 2262.653292126099,
    "algo_select_solved": 185,
    "algo_select_acc": NaN,
    "timeout_acc": NaN,
    "percentage_ran_in_portfolio": 1.0,
    "percentage_ran_with_selected_algo": 0.0
  },
  "1": {
    "sbs": "ABCROWN",
    "sbs_running_time": 840.9681999999996,
    "sbs_solved": 184,
    "vbs_running_time": 539.1952683050112,
    "vbs_solved": 185,
    "algo_select_running_time": 1617.585804915034,
    "algo_select_solved": 185,
    "algo_select_acc": NaN,
    "timeout_acc": NaN,
    "percentage_ran_in_portfolio": 1.0,
    "percentage_ran_with_selected_algo": 0.0
  },
  "2": {
    "sbs": "ABCROWN",
    "sbs_running_time": 936.818499999999,
    "sbs_solved": 185,
    "vbs_running_time": 907.2680363380061,
    "vbs_solved": 185,
    "algo_select_running_time": 2721.80410901402,
    "algo_select_solved": 185,
    "algo_select_acc": NaN,
    "timeout_acc": NaN,
    "percentage_ran_in_portfolio": 1.0,
    "percentage_ran_with_selected_algo": 0.0
  },
  "3": {
    "sbs": "ABCROWN",
    "sbs_running_time": 1962.6677999999986,
    "sbs_solved": 183,
    "vbs_running_time": 740.9917628450613,
    "vbs_solved": 185,
    "algo_select_running_time": 2222.975288535185,
    "algo_select_solved": 185,
    "algo_select_acc": NaN,
    "timeout_acc": NaN,
    "percentage_ran_in_portfolio": 1.0,
    "percentage_ran_with_selected_algo": 0.0
  },
  "4": {
    "sbs": "ABCROWN",
    "sbs_running_time": 1780.679599999999,
    "sbs_solved": 182,
    "vbs_running_time": 152.92886902689335,
    "vbs_solved": 185,
    "algo_select_running_time": 458.78660708068026,
    "algo_select_solved": 185,
    "algo_select_acc": NaN,
    "timeout_acc": NaN,
    "percentage_ran_in_portfolio": 1.0,
    "percentage_ran_with_selected_algo": 0.0
  },
  "avg": {
    "sbs_running_time": 1377.333639999999,
    "sbs_solved": 183.6,
    "vbs_running_time": 618.920340111401,
    "vbs_solved": 185.0,
    "algo_select_running_time": 1856.7610203342035,
    "algo_select_solved": 185.0,
    "algo_select_acc": NaN,
    "timeout_acc": NaN,
    "percentage_ran_in_portfolio": 1.0,
    "percentage_ran_with_selected_algo": 0.0
  },
  "sum": {
    "sbs_running_time": 6886.668199999995,
    "sbs_solved": 918,
    "vbs_running_time": 3094.6017005570047,
    "vbs_solved": 925,
    "algo_select_running_time": 9283.805101671018,
    "algo_select_solved": 925,
    "algo_select_acc": NaN,
    "timeout_acc": NaN,
    "percentage_ran_in_portfolio": 5.0,
    "percentage_ran_with_selected_algo": 0.0
  }
}