{
  "0": {
    "sbs": "ABCROWN",
    "sbs_running_time": 1365.5340999999992,
    "sbs_solved": 184,
    "vbs_running_time": 754.2177640420332,
    "vbs_solved": 185,
    "algo_select_running_time": 2262.653292126099,
    "algo_select_solved": 185,
    "algo_select_acc": NaN,
    "timeout_acc": NaN,
    "percentage_ran_in_portfolio": 1.0,
    "percentage_ran_with_selected_algo": 0.0
  },
  "1": {
    "sbs": "ABCROWN",
    "sbs_running_time": 840.9681999999996,
    "sbs_solved": 184,
    "vbs_running_time": 539.1952683050112,
    "vbs_solved": 185,
    "algo_select_running_time": 1611.0600049150341,
    "algo_select_solved": 185,
    "algo_select_acc": 1.0,
    "timeout_acc": NaN,
    "percentage_ran_in_portfolio": 0.75,
    "percentage_ran_with_selected_algo": 0.25
  },
  "2": {
    "sbs": "ABCROWN",
    "sbs_running_time": 936.818499999999,
    "sbs_solved": 185,
    "vbs_running_time": 907.2680363380061,
    "vbs_solved": 185,
    "algo_select_running_time": 2721.80410901402,
    "algo_select_solved": 185,
    "algo_select_acc": NaN,
    "timeout_acc": NaN,
    "percentage_ran_in_portfolio": 1.0,
    "percentage_ran_with_selected_algo": 0.0
  },
  "3": {
    "sbs": "ABCROWN",
    "sbs_running_time": 1962.6677999999986,
    "sbs_solved": 183,
    "vbs_running_time": 740.9917628450613,
    "vbs_solved": 185,
    "algo_select_running_time": 2220.3894885351847,
    "algo_select_solved": 185,
    "algo_select_acc": 1.0,
    "timeout_acc": NaN,
    "percentage_ran_in_portfolio": 0.6666666666666666,
    "percentage_ran_with_selected_algo": 0.3333333333333333
  },
  "4": {
    "sbs": "ABCROWN",
    "sbs_running_time": 1780.679599999999,
    "sbs_solved": 182,
    "vbs_running_time": 152.92886902689335,
    "vbs_solved": 185,
    "algo_select_running_time": 457.5004070806803,
    "algo_select_solved": 185,
    "algo_select_acc": 1.0,
    "timeout_acc": NaN,
    "percentage_ran_in_portfolio": 0.5,
    "percentage_ran_with_selected_algo": 0.5
  },
  "avg": {
    "sbs_running_time": 1377.333639999999,
    "sbs_solved": 183.6,
    "vbs_running_time": 618.920340111401,
    "vbs_solved": 185.0,
    "algo_select_running_time": 1854.6814603342038,
    "algo_select_solved": 185.0,
    "algo_select_acc": NaN,
    "timeout_acc": NaN,
    "percentage_ran_in_portfolio": 0.7833333333333333,
    "percentage_ran_with_selected_algo": 0.21666666666666665
  },
  "sum": {
    "sbs_running_time": 6886.668199999995,
    "sbs_solved": 918,
    "vbs_running_time": 3094.6017005570047,
    "vbs_solved": 925,
    "algo_select_running_time": 9273.407301671019,
    "algo_select_solved": 925,
    "algo_select_acc": NaN,
    "timeout_acc": NaN,
    "percentage_ran_in_portfolio": 3.9166666666666665,
    "percentage_ran_with_selected_algo": 1.0833333333333333
  }
}