{
  "0": {
    "r2_train": 0.999468756770232,
    "r2_test": 0.9957661849389083,
    "rmse_train": 0.034550821489677655,
    "mae_train": 0.008392392390903137,
    "rmse_train_left": 0.0372924066546529,
    "rmse_train_right": 0.03262607882264901,
    "mae_train_left": 0.013232993537786474,
    "mae_train_right": 0.005214754876537709,
    "spearman_correlation_train": 0.9334639076769885,
    "spearman_correlation_pvalue_train": 0.0,
    "rmse_test": 0.0982171885412677,
    "mae_test": 0.019166666647599438,
    "timeout_acc": 0.9894736842105263,
    "timeout_precision": 1.0,
    "timeout_recall": 0.9823008849557522,
    "timeout_f1": 0.9910714285714286,
    "spearman_correlation_test": 0.8272086541148458,
    "spearman_correlation_pvalue_test": 6.0363227101492755e-49,
    "rmse_test_left": 0.03865192684931239,
    "rmse_test_right": 0.12185007663824282,
    "mae_test_left": 0.02157873435480948,
    "mae_test_right": 0.017627933799896477,
    "spearman_correlation_test_left": 0.8147857444558393,
    "spearman_correlation_pvalue_test_left": 1.0275204270300396e-18,
    "spearman_correlation_test_right": 0.21255589671941624,
    "spearman_correlation_pvalue_test_right": 0.02197803854407435,
    "r2_test_left": 0.9544558718719025,
    "r2_test_right": 0.39356576992167125
  },
  "1": {
    "r2_train": 0.9994380747846942,
    "r2_test": 0.9957374605589138,
    "rmse_train": 0.03565561949951869,
    "mae_train": 0.0086115473319324,
    "rmse_train_left": 0.03566749881218581,
    "rmse_train_right": 0.03564786209193825,
    "mae_train_left": 0.012711445488869865,
    "mae_train_right": 0.005934976264412091,
    "spearman_correlation_train": 0.9344549308331038,
    "spearman_correlation_pvalue_train": 0.0,
    "rmse_test": 0.09721726623864992,
    "mae_test": 0.024767670796869014,
    "timeout_acc": 0.9947368421052631,
    "timeout_precision": 1.0,
    "timeout_recall": 0.9910714285714286,
    "timeout_f1": 0.9955156950672646,
    "spearman_correlation_test": 0.8455744368633881,
    "spearman_correlation_pvalue_test": 3.9101799913416802e-53,
    "rmse_test_left": 0.1261636187518812,
    "rmse_test_right": 0.07234777122803623,
    "mae_test_left": 0.04617030254797767,
    "mae_test_right": 0.010809432698319889,
    "spearman_correlation_test_left": 0.8857752489331437,
    "spearman_correlation_pvalue_test_left": 4.8252795367428463e-26,
    "spearman_correlation_test_right": 0.22874236590754668,
    "spearman_correlation_pvalue_test_right": 0.013936944961952486,
    "r2_test_left": 0.8044565175388203,
    "r2_test_right": 0.7021665513045312
  },
  "2": {
    "r2_train": 0.9994536381414215,
    "r2_test": 0.9957910747999877,
    "rmse_train": 0.035016618684165245,
    "mae_train": 0.008166958907056118,
    "rmse_train_left": 0.03798329072579275,
    "rmse_train_right": 0.03294068131335447,
    "mae_train_left": 0.013126090400952022,
    "mae_train_right": 0.004936500700792771,
    "spearman_correlation_train": 0.9394939223604957,
    "spearman_correlation_pvalue_train": 0.0,
    "rmse_test": 0.09817585564373908,
    "mae_test": 0.028393357098239473,
    "timeout_acc": 0.9682539682539683,
    "timeout_precision": 1.0,
    "timeout_recall": 0.9464285714285714,
    "timeout_f1": 0.9724770642201834,
    "spearman_correlation_test": 0.83437315209517,
    "spearman_correlation_pvalue_test": 2.93699796439487e-50,
    "rmse_test_left": 0.08637967974026593,
    "rmse_test_right": 0.10521771751145662,
    "mae_test_left": 0.04104755079201367,
    "mae_test_right": 0.02006822966812487,
    "spearman_correlation_test_left": 0.7625320056899003,
    "spearman_correlation_pvalue_test_left": 1.8881844461291217e-15,
    "spearman_correlation_test_right": 0.20498127855990572,
    "spearman_correlation_pvalue_test_right": 0.028686525497299546,
    "r2_test_left": 0.8902588523602813,
    "r2_test_right": -0.2274127142283544
  },
  "3": {
    "r2_train": 0.9992889797886639,
    "r2_test": 0.999174515553863,
    "rmse_train": 0.04002181762801366,
    "mae_train": 0.009397739545378161,
    "rmse_train_left": 0.041010961650861204,
    "rmse_train_right": 0.039364106387235136,
    "mae_train_left": 0.013972329452192556,
    "mae_train_right": 0.006417777928520856,
    "spearman_correlation_train": 0.9376214138487342,
    "spearman_correlation_pvalue_train": 0.0,
    "rmse_test": 0.04315440691718351,
    "mae_test": 0.01339494939118246,
    "timeout_acc": 0.9947089947089947,
    "timeout_precision": 1.0,
    "timeout_recall": 0.9910714285714286,
    "timeout_f1": 0.9955156950672646,
    "spearman_correlation_test": 0.8329770171880678,
    "spearman_correlation_pvalue_test": 6.005606350706153e-50,
    "rmse_test_left": 0.03557150268650959,
    "rmse_test_right": 0.04748733449068398,
    "mae_test_left": 0.02337560251303759,
    "mae_test_right": 0.006828730232067241,
    "spearman_correlation_test_left": 0.7837837837837835,
    "spearman_correlation_pvalue_test_left": 9.299142881845745e-17,
    "spearman_correlation_test_right": 0.20854987540707734,
    "spearman_correlation_pvalue_test_right": 0.025966806556967724,
    "r2_test_left": 0.9843438744191682,
    "r2_test_right": 0.8647363878842405
  },
  "4": {
    "r2_train": 0.9993671563038117,
    "r2_test": 0.9905776845181612,
    "rmse_train": 0.037822204043809614,
    "mae_train": 0.007744759161799998,
    "rmse_train_left": 0.019789486811746457,
    "rmse_train_right": 0.045905035519731255,
    "mae_train_left": 0.009421830894516363,
    "mae_train_right": 0.006652287597350778,
    "spearman_correlation_train": 0.9370339534019431,
    "spearman_correlation_pvalue_train": 0.0,
    "rmse_test": 0.14479064557777843,
    "mae_test": 0.033807863969428316,
    "timeout_acc": 0.9576719576719577,
    "timeout_precision": 1.0,
    "timeout_recall": 0.9285714285714286,
    "timeout_f1": 0.962962962962963,
    "spearman_correlation_test": 0.851954065150688,
    "spearman_correlation_pvalue_test": 1.9482958687937857e-54,
    "rmse_test_left": 0.16559523687670266,
    "rmse_test_right": 0.12929040079603732,
    "mae_test_left": 0.04463517774024385,
    "mae_test_right": 0.02668463122547074,
    "spearman_correlation_test_left": 0.8507254623044096,
    "spearman_correlation_pvalue_test_left": 4.418557163229182e-22,
    "spearman_correlation_test_right": 0.299455006194335,
    "spearman_correlation_pvalue_test_right": 0.0012092933031936746,
    "r2_test_left": 0.7423478717463137,
    "r2_test_right": -1.263532636616088
  },
  "avg": {
    "r2_train": 0.9994033211577646,
    "r2_test": 0.9954093840739668,
    "rmse_train": 0.036613416269036976,
    "mae_train": 0.008462679467413964,
    "rmse_train_left": 0.034348728931047824,
    "rmse_train_right": 0.037296752826981625,
    "mae_train_left": 0.012492937954863455,
    "mae_train_right": 0.005831259473522842,
    "spearman_correlation_train": 0.936413625624253,
    "spearman_correlation_pvalue_train": 0.0,
    "rmse_test": 0.09631107258372373,
    "mae_test": 0.023906101580663742,
    "timeout_acc": 0.9809690893901418,
    "timeout_precision": 1.0,
    "timeout_recall": 0.9678887484197218,
    "timeout_f1": 0.9835085691778207,
    "spearman_correlation_test": 0.8384174650824319,
    "spearman_correlation_pvalue_test": 1.3861987285234399e-49,
    "rmse_test_left": 0.09047239298093437,
    "rmse_test_right": 0.0952386601328914,
    "mae_test_left": 0.03536147358961646,
    "mae_test_right": 0.016403791524775842,
    "spearman_correlation_test_left": 0.8195204490334153,
    "spearman_correlation_pvalue_test_left": 3.964407674557156e-16,
    "spearman_correlation_test_right": 0.23085688455765624,
    "spearman_correlation_pvalue_test_right": 0.018355521772697555,
    "r2_test_left": 0.8751725975872973,
    "r2_test_right": 0.09390467165320011
  }
}