{
  "0": {
    "test_acc": 0.9295774647887324,
    "tp": 56,
    "tn": 10,
    "fp": 2,
    "fn": 3,
    "tpr": 0.9491525423728814,
    "fpr": 0.16666666666666666,
    "tnr": 0.8333333333333334,
    "fnr": 0.05084745762711865,
    "f1_score": 0.9572649572649573,
    "precision": 0.9655172413793104,
    "recall": 0.9491525423728814
  },
  "1": {
    "test_acc": 0.9295774647887324,
    "tp": 58,
    "tn": 8,
    "fp": 4,
    "fn": 1,
    "tpr": 0.9830508474576272,
    "fpr": 0.3333333333333333,
    "tnr": 0.6666666666666666,
    "fnr": 0.01694915254237288,
    "f1_score": 0.9586776859504132,
    "precision": 0.9354838709677419,
    "recall": 0.9830508474576272
  },
  "2": {
    "test_acc": 0.9722222222222222,
    "tp": 58,
    "tn": 12,
    "fp": 1,
    "fn": 1,
    "tpr": 0.9830508474576272,
    "fpr": 0.07692307692307693,
    "tnr": 0.9230769230769231,
    "fnr": 0.01694915254237288,
    "f1_score": 0.9830508474576272,
    "precision": 0.9830508474576272,
    "recall": 0.9830508474576272
  },
  "3": {
    "test_acc": 0.9577464788732394,
    "tp": 57,
    "tn": 11,
    "fp": 2,
    "fn": 1,
    "tpr": 0.9827586206896551,
    "fpr": 0.15384615384615385,
    "tnr": 0.8461538461538461,
    "fnr": 0.017241379310344827,
    "f1_score": 0.9743589743589743,
    "precision": 0.9661016949152542,
    "recall": 0.9827586206896551
  },
  "4": {
    "test_acc": 0.9154929577464789,
    "tp": 56,
    "tn": 9,
    "fp": 4,
    "fn": 2,
    "tpr": 0.9655172413793104,
    "fpr": 0.3076923076923077,
    "tnr": 0.6923076923076923,
    "fnr": 0.034482758620689655,
    "f1_score": 0.9491525423728815,
    "precision": 0.9333333333333333,
    "recall": 0.9655172413793104
  },
  "sum": {
    "tp": 285.0,
    "fp": 13.0,
    "tn": 50.0,
    "fn": 8.0,
    "tpr": 0.9726962457337884,
    "tnr": 0.7936507936507936,
    "fpr": 0.20634920634920634,
    "fnr": 0.027303754266211604
  },
  "avg": {
    "test_acc": 0.940923317683881,
    "tp": 57.0,
    "tn": 10.0,
    "fp": 2.6,
    "fn": 1.6,
    "tpr": 0.9727060198714202,
    "fpr": 0.20769230769230768,
    "tnr": 0.7923076923076924,
    "fnr": 0.027293980128579774,
    "f1_score": 0.9645010014809706,
    "precision": 0.9566973976106535,
    "recall": 0.9727060198714202
  }
}