{
  "results": {
    "Vanilla Verifier": [
      1.0,
      0.0,
      1.0,
      0.0,
      1.0,
      1.0,
      1.0,
      1.0,
      1.0,
      0.0,
      1.0,
      1.0,
      1.0,
      1.0,
      1.0,
      1.0,
      0.0,
      1.0,
      1.0,
      1.0,
      1.0,
      1.0,
      1.0,
      1.0,
      1.0,
      1.0,
      1.0,
      0.0,
      1.0,
      1.0,
      1.0,
      0.0,
      0.0,
      1.0,
      0.0,
      2.0,
      1.0,
      1.0,
      1.0,
      1.0,
      2.0,
      1.0,
      1.0,
      1.0,
      1.0,
      0.0,
      1.0,
      1.0,
      1.0,
      0.0,
      2.0,
      1.0,
      1.0,
      1.0,
      1.0,
      1.0,
      1.0,
      1.0,
      1.0,
      1.0,
      1.0,
      1.0,
      0.0,
      1.0,
      1.0,
      1.0,
      1.0,
      2.0,
      1.0,
      1.0,
      1.0,
      1.0,
      1.0,
      1.0,
      1.0,
      1.0,
      1.0,
      1.0,
      0.0,
      1.0,
      1.0,
      1.0,
      1.0,
      2.0,
      1.0,
      1.0,
      2.0,
      1.0,
      1.0,
      1.0,
      0.0,
      1.0,
      2.0,
      1.0,
      1.0,
      1.0,
      1.0,
      1.0,
      1.0,
      0.0,
      1.0,
      1.0,
      1.0,
      1.0,
      1.0,
      2.0,
      1.0,
      1.0,
      1.0,
      1.0,
      1.0,
      1.0,
      1.0,
      1.0,
      1.0,
      1.0,
      1.0,
      0.0,
      1.0,
      1.0,
      1.0,
      2.0,
      1.0,
      1.0,
      1.0,
      1.0,
      1.0,
      2.0,
      1.0,
      2.0,
      0.0,
      1.0,
      1.0,
      1.0,
      1.0,
      1.0,
      1.0,
      0.0,
      1.0,
      1.0,
      1.0,
      1.0,
      0.0,
      0.0,
      1.0,
      1.0,
      0.0,
      2.0,
      1.0,
      1.0,
      1.0,
      0.0,
      1.0,
      1.0,
      1.0,
      1.0,
      1.0,
      1.0,
      1.0,
      1.0,
      1.0,
      1.0,
      1.0,
      0.0,
      1.0,
      1.0,
      1.0,
      1.0,
      1.0,
      1.0,
      1.0,
      1.0,
      0.0,
      1.0,
      1.0,
      0.0,
      1.0,
      1.0,
      1.0,
      1.0,
      1.0,
      0.0,
      1.0,
      1.0,
      1.0,
      0.0,
      1.0,
      1.0,
      1.0,
      1.0,
      0.0,
      1.0,
      1.0,
      1.0,
      1.0,
      1.0,
      1.0,
      1.0,
      1.0,
      1.0,
      1.0,
      1.0,
      1.0,
      1.0,
      1.0,
      1.0,
      1.0,
      0.0,
      1.0,
      0.0,
      1.0,
      1.0,
      1.0,
      1.0,
      0.0,
      1.0,
      2.0,
      0.0,
      1.0,
      1.0,
      1.0,
      1.0,
      1.0,
      1.0,
      1.0,
      1.0,
      1.0,
      1.0,
      1.0,
      1.0,
      1.0,
      1.0,
      1.0,
      1.0,
      0.0,
      1.0,
      1.0,
      1.0,
      1.0,
      1.0,
      1.0,
      1.0,
      2.0,
      1.0,
      0.0,
      2.0,
      1.0,
      1.0,
      1.0,
      1.0,
      1.0,
      2.0,
      1.0,
      1.0,
      1.0,
      1.0,
      0.0,
      1.0,
      0.0,
      1.0,
      1.0,
      0.0,
      2.0,
      0.0,
      1.0,
      2.0,
      1.0,
      1.0,
      1.0,
      1.0,
      1.0,
      1.0,
      1.0,
      1.0,
      1.0,
      1.0,
      1.0,
      2.0,
      1.0,
      1.0,
      1.0,
      1.0,
      1.0,
      1.0,
      1.0,
      1.0,
      1.0,
      0.0,
      1.0,
      1.0,
      1.0,
      1.0,
      1.0,
      1.0,
      0.0,
      1.0,
      1.0,
      1.0,
      0.0,
      1.0,
      1.0,
      1.0,
      2.0,
      1.0,
      1.0,
      1.0,
      0.0,
      1.0,
      1.0,
      1.0,
      1.0,
      1.0,
      1.0,
      1.0,
      1.0,
      1.0,
      1.0,
      1.0,
      2.0,
      1.0,
      1.0,
      1.0,
      1.0,
      1.0,
      1.0,
      1.0,
      1.0,
      1.0,
      1.0,
      1.0,
      0.0,
      1.0,
      1.0,
      1.0,
      1.0,
      1.0,
      1.0,
      2.0,
      1.0,
      1.0,
      1.0,
      1.0,
      1.0,
      2.0,
      1.0,
      2.0,
      1.0,
      1.0,
      1.0,
      1.0,
      1.0,
      1.0,
      1.0,
      1.0,
      1.0,
      1.0,
      1.0,
      1.0,
      0.0,
      1.0,
      1.0,
      1.0,
      1.0,
      1.0,
      1.0,
      1.0,
      1.0,
      1.0,
      1.0,
      1.0,
      1.0,
      1.0,
      1.0,
      1.0,
      1.0,
      1.0,
      1.0,
      1.0,
      1.0,
      1.0,
      1.0,
      1.0,
      0.0,
      1.0,
      1.0,
      0.0,
      1.0,
      1.0,
      1.0,
      2.0,
      0.0,
      1.0,
      1.0,
      1.0,
      2.0,
      1.0,
      1.0,
      1.0,
      1.0,
      1.0,
      1.0,
      1.0,
      1.0,
      1.0,
      1.0,
      1.0,
      1.0,
      0.0,
      1.0,
      1.0,
      1.0,
      1.0,
      1.0,
      1.0,
      1.0,
      0.0,
      1.0,
      1.0,
      0.0,
      0.0,
      2.0,
      1.0,
      1.0,
      1.0,
      0.0,
      1.0,
      1.0,
      0.0,
      1.0,
      0.0,
      1.0,
      1.0,
      1.0,
      1.0,
      1.0,
      0.0,
      1.0,
      1.0,
      1.0,
      1.0,
      1.0,
      0.0,
      1.0,
      1.0,
      1.0,
      1.0,
      1.0,
      1.0,
      2.0,
      1.0,
      1.0,
      1.0,
      1.0,
      1.0,
      1.0,
      1.0,
      2.0,
      1.0,
      1.0,
      1.0,
      1.0,
      1.0,
      0.0,
      1.0,
      0.0,
      1.0,
      0.0,
      0.0,
      1.0,
      2.0,
      1.0,
      1.0,
      1.0,
      2.0,
      1.0,
      1.0,
      1.0,
      0.0,
      1.0,
      0.0,
      0.0,
      0.0,
      1.0,
      1.0,
      2.0,
      1.0,
      1.0,
      1.0,
      1.0,
      1.0,
      0.0,
      2.0,
      0.0,
      0.0,
      2.0,
      0.0,
      1.0,
      1.0,
      1.0,
      1.0,
      1.0,
      1.0,
      1.0,
      1.0,
      1.0,
      1.0,
      1.0,
      1.0,
      1.0,
      1.0,
      1.0,
      1.0,
      1.0,
      1.0,
      2.0,
      1.0,
      1.0,
      1.0,
      1.0,
      1.0,
      1.0,
      0.0,
      1.0,
      0.0,
      1.0,
      1.0,
      1.0,
      1.0,
      1.0,
      1.0,
      1.0,
      0.0,
      0.0,
      1.0,
      1.0,
      1.0,
      1.0,
      1.0,
      1.0,
      1.0,
      1.0,
      1.0,
      2.0,
      1.0,
      1.0,
      2.0,
      1.0,
      1.0,
      1.0,
      0.0,
      1.0,
      1.0,
      1.0,
      1.0,
      1.0,
      1.0,
      1.0,
      0.0,
      1.0,
      1.0,
      1.0,
      1.0,
      0.0,
      2.0,
      1.0,
      0.0,
      0.0,
      1.0,
      1.0,
      1.0,
      1.0,
      0.0,
      1.0,
      2.0,
      1.0,
      1.0,
      1.0,
      1.0,
      1.0,
      1.0,
      0.0,
      1.0,
      1.0,
      1.0,
      1.0,
      1.0,
      1.0,
      1.0,
      0.0,
      1.0,
      1.0,
      1.0,
      1.0,
      2.0,
      0.0,
      1.0,
      0.0,
      1.0,
      1.0,
      1.0,
      2.0,
      0.0,
      1.0,
      2.0,
      1.0,
      1.0,
      1.0,
      1.0,
      1.0,
      1.0,
      0.0,
      2.0,
      1.0,
      1.0,
      1.0,
      1.0,
      1.0,
      1.0,
      1.0,
      2.0,
      1.0,
      1.0,
      1.0,
      1.0,
      1.0,
      0.0,
      1.0,
      0.0,
      0.0,
      1.0,
      1.0,
      1.0,
      0.0,
      1.0,
      1.0,
      1.0,
      1.0,
      1.0,
      1.0,
      1.0,
      1.0,
      1.0,
      1.0,
      0.0,
      1.0,
      2.0,
      1.0,
      1.0,
      1.0,
      1.0,
      1.0,
      1.0,
      1.0,
      1.0,
      1.0,
      1.0,
      2.0,
      1.0,
      1.0,
      1.0,
      2.0,
      0.0,
      0.0,
      1.0,
      1.0,
      1.0,
      1.0,
      0.0,
      1.0,
      1.0,
      1.0,
      0.0,
      1.0,
      1.0,
      1.0,
      1.0,
      1.0,
      2.0,
      1.0,
      1.0,
      1.0,
      1.0,
      1.0,
      1.0,
      0.0,
      0.0,
      1.0,
      1.0,
      0.0,
      1.0,
      1.0,
      1.0,
      0.0,
      1.0,
      1.0,
      2.0,
      1.0,
      0.0,
      1.0,
      1.0,
      1.0,
      0.0,
      1.0,
      1.0,
      1.0,
      1.0,
      1.0,
      1.0,
      1.0,
      1.0,
      0.0,
      1.0,
      1.0,
      1.0,
      1.0,
      1.0,
      1.0,
      1.0,
      1.0,
      1.0,
      1.0,
      1.0,
      1.0,
      1.0,
      1.0,
      1.0,
      1.0,
      0.0,
      0.0,
      1.0,
      1.0,
      1.0,
      1.0,
      1.0,
      1.0,
      0.0,
      1.0,
      0.0,
      1.0,
      0.0,
      1.0,
      1.0,
      1.0,
      0.0,
      1.0,
      2.0,
      1.0,
      1.0,
      1.0,
      1.0,
      1.0,
      0.0,
      1.0,
      1.0,
      2.0,
      1.0,
      1.0,
      0.0,
      2.0,
      1.0,
      1.0,
      1.0,
      1.0,
      1.0,
      1.0,
      0.0,
      0.0,
      1.0,
      1.0,
      1.0,
      1.0,
      0.0,
      1.0,
      1.0,
      1.0,
      1.0,
      1.0,
      1.0,
      0.0,
      1.0,
      1.0,
      1.0,
      1.0,
      0.0,
      1.0,
      1.0,
      1.0,
      0.0,
      1.0,
      1.0,
      0.0,
      0.0,
      2.0,
      1.0,
      1.0,
      2.0,
      1.0,
      1.0,
      0.0,
      1.0,
      1.0,
      1.0,
      1.0,
      0.0,
      0.0,
      1.0,
      0.0,
      0.0,
      1.0,
      0.0,
      1.0,
      1.0,
      1.0,
      1.0,
      1.0,
      1.0,
      0.0,
      1.0,
      1.0,
      1.0,
      1.0,
      0.0,
      1.0,
      1.0,
      2.0,
      1.0,
      1.0,
      1.0,
      1.0,
      1.0,
      1.0,
      1.0,
      1.0,
      0.0,
      1.0,
      2.0,
      1.0,
      1.0,
      1.0,
      1.0,
      1.0,
      1.0,
      0.0,
      1.0,
      1.0,
      1.0,
      1.0,
      1.0,
      1.0,
      1.0,
      0.0,
      1.0,
      1.0,
      0.0,
      1.0,
      1.0,
      1.0,
      1.0,
      1.0,
      1.0,
      1.0,
      2.0,
      0.0,
      1.0,
      1.0,
      0.0,
      1.0,
      1.0,
      1.0,
      1.0,
      1.0,
      1.0,
      2.0,
      1.0,
      1.0,
      1.0,
      1.0,
      1.0,
      0.0,
      1.0,
      1.0,
      1.0,
      1.0,
      1.0,
      0.0,
      1.0,
      1.0,
      1.0,
      1.0,
      1.0,
      0.0,
      1.0,
      1.0,
      1.0,
      1.0,
      1.0,
      1.0,
      1.0,
      1.0,
      1.0,
      0.0,
      1.0,
      1.0,
      1.0,
      1.0,
      1.0,
      2.0,
      0.0,
      0.0,
      1.0,
      1.0,
      1.0,
      1.0,
      1.0,
      1.0,
      2.0,
      1.0,
      2.0,
      1.0,
      1.0,
      1.0,
      1.0,
      0.0,
      1.0,
      0.0,
      1.0,
      1.0,
      1.0,
      1.0
    ],
    "Timeout Prediction": [
      1.0,
      0.0,
      1.0,
      0.0,
      1.0,
      1.0,
      1.0,
      1.0,
      1.0,
      0.0,
      1.0,
      1.0,
      1.0,
      1.0,
      1.0,
      1.0,
      0.0,
      1.0,
      1.0,
      1.0,
      1.0,
      1.0,
      1.0,
      1.0,
      1.0,
      1.0,
      1.0,
      0.0,
      1.0,
      1.0,
      1.0,
      0.0,
      0.0,
      1.0,
      0.0,
      2.0,
      1.0,
      1.0,
      1.0,
      1.0,
      2.0,
      1.0,
      1.0,
      1.0,
      1.0,
      0.0,
      1.0,
      1.0,
      1.0,
      0.0,
      2.0,
      1.0,
      1.0,
      1.0,
      1.0,
      1.0,
      1.0,
      1.0,
      1.0,
      1.0,
      1.0,
      1.0,
      0.0,
      1.0,
      1.0,
      1.0,
      1.0,
      2.0,
      1.0,
      1.0,
      1.0,
      1.0,
      1.0,
      1.0,
      1.0,
      1.0,
      1.0,
      1.0,
      0.0,
      1.0,
      1.0,
      1.0,
      1.0,
      2.0,
      1.0,
      1.0,
      2.0,
      1.0,
      1.0,
      1.0,
      0.0,
      1.0,
      2.0,
      1.0,
      1.0,
      1.0,
      1.0,
      1.0,
      1.0,
      0.0,
      1.0,
      1.0,
      1.0,
      1.0,
      1.0,
      2.0,
      1.0,
      1.0,
      1.0,
      1.0,
      1.0,
      1.0,
      1.0,
      1.0,
      1.0,
      1.0,
      1.0,
      0.0,
      1.0,
      1.0,
      1.0,
      2.0,
      1.0,
      1.0,
      1.0,
      1.0,
      1.0,
      2.0,
      1.0,
      2.0,
      0.0,
      1.0,
      1.0,
      1.0,
      1.0,
      1.0,
      1.0,
      0.0,
      1.0,
      1.0,
      1.0,
      1.0,
      0.0,
      0.0,
      1.0,
      1.0,
      0.0,
      2.0,
      1.0,
      1.0,
      1.0,
      0.0,
      1.0,
      1.0,
      1.0,
      1.0,
      1.0,
      1.0,
      1.0,
      1.0,
      1.0,
      1.0,
      1.0,
      0.0,
      1.0,
      1.0,
      1.0,
      1.0,
      1.0,
      1.0,
      1.0,
      1.0,
      0.0,
      1.0,
      1.0,
      0.0,
      1.0,
      1.0,
      1.0,
      1.0,
      1.0,
      0.0,
      1.0,
      1.0,
      1.0,
      0.0,
      1.0,
      1.0,
      1.0,
      1.0,
      0.0,
      1.0,
      1.0,
      1.0,
      1.0,
      1.0,
      1.0,
      1.0,
      1.0,
      1.0,
      1.0,
      1.0,
      1.0,
      1.0,
      1.0,
      1.0,
      1.0,
      0.0,
      1.0,
      0.0,
      1.0,
      1.0,
      1.0,
      1.0,
      0.0,
      1.0,
      2.0,
      0.0,
      1.0,
      1.0,
      1.0,
      1.0,
      1.0,
      1.0,
      1.0,
      1.0,
      1.0,
      1.0,
      1.0,
      1.0,
      1.0,
      1.0,
      1.0,
      1.0,
      0.0,
      1.0,
      1.0,
      1.0,
      1.0,
      1.0,
      1.0,
      1.0,
      2.0,
      1.0,
      0.0,
      2.0,
      1.0,
      1.0,
      1.0,
      1.0,
      1.0,
      2.0,
      1.0,
      1.0,
      1.0,
      1.0,
      0.0,
      1.0,
      0.0,
      1.0,
      1.0,
      0.0,
      2.0,
      0.0,
      1.0,
      2.0,
      1.0,
      1.0,
      1.0,
      1.0,
      1.0,
      1.0,
      1.0,
      1.0,
      1.0,
      1.0,
      1.0,
      2.0,
      1.0,
      1.0,
      1.0,
      1.0,
      1.0,
      1.0,
      1.0,
      1.0,
      1.0,
      0.0,
      1.0,
      1.0,
      1.0,
      1.0,
      1.0,
      1.0,
      0.0,
      1.0,
      1.0,
      1.0,
      0.0,
      1.0,
      1.0,
      1.0,
      2.0,
      1.0,
      1.0,
      1.0,
      0.0,
      1.0,
      1.0,
      1.0,
      1.0,
      1.0,
      1.0,
      1.0,
      1.0,
      1.0,
      1.0,
      1.0,
      2.0,
      1.0,
      1.0,
      1.0,
      1.0,
      1.0,
      1.0,
      1.0,
      1.0,
      1.0,
      1.0,
      1.0,
      0.0,
      1.0,
      1.0,
      1.0,
      1.0,
      1.0,
      1.0,
      2.0,
      1.0,
      1.0,
      1.0,
      1.0,
      1.0,
      2.0,
      1.0,
      2.0,
      1.0,
      1.0,
      1.0,
      1.0,
      1.0,
      1.0,
      1.0,
      1.0,
      1.0,
      1.0,
      1.0,
      1.0,
      0.0,
      1.0,
      1.0,
      1.0,
      1.0,
      1.0,
      1.0,
      1.0,
      1.0,
      1.0,
      1.0,
      1.0,
      1.0,
      1.0,
      1.0,
      1.0,
      1.0,
      1.0,
      1.0,
      1.0,
      1.0,
      1.0,
      1.0,
      1.0,
      0.0,
      1.0,
      1.0,
      0.0,
      1.0,
      1.0,
      1.0,
      2.0,
      0.0,
      1.0,
      1.0,
      1.0,
      2.0,
      1.0,
      1.0,
      1.0,
      1.0,
      1.0,
      1.0,
      1.0,
      1.0,
      1.0,
      1.0,
      1.0,
      1.0,
      0.0,
      1.0,
      1.0,
      1.0,
      1.0,
      1.0,
      1.0,
      1.0,
      0.0,
      1.0,
      1.0,
      0.0,
      0.0,
      2.0,
      1.0,
      1.0,
      1.0,
      0.0,
      1.0,
      1.0,
      0.0,
      1.0,
      0.0,
      1.0,
      1.0,
      1.0,
      1.0,
      1.0,
      0.0,
      1.0,
      1.0,
      1.0,
      1.0,
      1.0,
      0.0,
      1.0,
      1.0,
      1.0,
      1.0,
      1.0,
      1.0,
      2.0,
      1.0,
      1.0,
      1.0,
      1.0,
      1.0,
      1.0,
      1.0,
      2.0,
      1.0,
      1.0,
      1.0,
      1.0,
      1.0,
      0.0,
      1.0,
      0.0,
      1.0,
      0.0,
      0.0,
      1.0,
      2.0,
      1.0,
      1.0,
      1.0,
      2.0,
      1.0,
      1.0,
      1.0,
      0.0,
      1.0,
      0.0,
      0.0,
      0.0,
      1.0,
      1.0,
      2.0,
      1.0,
      1.0,
      1.0,
      1.0,
      1.0,
      0.0,
      2.0,
      0.0,
      0.0,
      2.0,
      0.0,
      1.0,
      1.0,
      1.0,
      1.0,
      1.0,
      1.0,
      1.0,
      1.0,
      1.0,
      1.0,
      1.0,
      1.0,
      1.0,
      1.0,
      1.0,
      1.0,
      1.0,
      1.0,
      2.0,
      1.0,
      1.0,
      1.0,
      1.0,
      1.0,
      1.0,
      0.0,
      1.0,
      0.0,
      1.0,
      1.0,
      1.0,
      1.0,
      1.0,
      1.0,
      1.0,
      0.0,
      0.0,
      1.0,
      1.0,
      1.0,
      1.0,
      1.0,
      1.0,
      1.0,
      1.0,
      1.0,
      2.0,
      1.0,
      1.0,
      2.0,
      1.0,
      1.0,
      1.0,
      0.0,
      1.0,
      1.0,
      1.0,
      1.0,
      1.0,
      1.0,
      1.0,
      0.0,
      1.0,
      1.0,
      1.0,
      1.0,
      0.0,
      2.0,
      1.0,
      0.0,
      0.0,
      1.0,
      1.0,
      1.0,
      1.0,
      0.0,
      1.0,
      2.0,
      1.0,
      1.0,
      1.0,
      1.0,
      1.0,
      1.0,
      0.0,
      1.0,
      1.0,
      1.0,
      1.0,
      1.0,
      1.0,
      1.0,
      0.0,
      1.0,
      1.0,
      1.0,
      1.0,
      2.0,
      0.0,
      1.0,
      0.0,
      1.0,
      1.0,
      1.0,
      2.0,
      0.0,
      1.0,
      2.0,
      1.0,
      1.0,
      1.0,
      1.0,
      1.0,
      1.0,
      0.0,
      2.0,
      1.0,
      1.0,
      1.0,
      1.0,
      1.0,
      1.0,
      1.0,
      2.0,
      1.0,
      1.0,
      1.0,
      1.0,
      1.0,
      0.0,
      1.0,
      0.0,
      0.0,
      1.0,
      1.0,
      1.0,
      0.0,
      1.0,
      1.0,
      1.0,
      1.0,
      1.0,
      1.0,
      1.0,
      1.0,
      1.0,
      1.0,
      0.0,
      1.0,
      2.0,
      1.0,
      1.0,
      1.0,
      1.0,
      1.0,
      1.0,
      1.0,
      1.0,
      1.0,
      1.0,
      2.0,
      1.0,
      1.0,
      1.0,
      2.0,
      0.0,
      0.0,
      1.0,
      1.0,
      1.0,
      1.0,
      0.0,
      1.0,
      1.0,
      1.0,
      0.0,
      1.0,
      1.0,
      1.0,
      1.0,
      1.0,
      2.0,
      1.0,
      1.0,
      1.0,
      1.0,
      1.0,
      1.0,
      0.0,
      0.0,
      1.0,
      1.0,
      0.0,
      1.0,
      1.0,
      1.0,
      0.0,
      1.0,
      1.0,
      2.0,
      1.0,
      0.0,
      1.0,
      1.0,
      1.0,
      0.0,
      1.0,
      1.0,
      1.0,
      1.0,
      1.0,
      1.0,
      1.0,
      1.0,
      0.0,
      1.0,
      1.0,
      1.0,
      1.0,
      1.0,
      1.0,
      1.0,
      1.0,
      1.0,
      1.0,
      1.0,
      1.0,
      1.0,
      1.0,
      1.0,
      1.0,
      0.0,
      0.0,
      1.0,
      1.0,
      1.0,
      1.0,
      1.0,
      1.0,
      0.0,
      1.0,
      0.0,
      1.0,
      0.0,
      1.0,
      1.0,
      1.0,
      0.0,
      1.0,
      2.0,
      1.0,
      1.0,
      1.0,
      1.0,
      1.0,
      0.0,
      1.0,
      1.0,
      2.0,
      1.0,
      1.0,
      0.0,
      2.0,
      1.0,
      1.0,
      1.0,
      1.0,
      1.0,
      1.0,
      0.0,
      0.0,
      1.0,
      1.0,
      1.0,
      1.0,
      0.0,
      1.0,
      1.0,
      1.0,
      1.0,
      1.0,
      1.0,
      0.0,
      1.0,
      1.0,
      1.0,
      1.0,
      0.0,
      1.0,
      1.0,
      1.0,
      0.0,
      1.0,
      1.0,
      0.0,
      0.0,
      2.0,
      1.0,
      1.0,
      2.0,
      1.0,
      1.0,
      0.0,
      1.0,
      1.0,
      1.0,
      1.0,
      0.0,
      0.0,
      1.0,
      0.0,
      0.0,
      1.0,
      0.0,
      1.0,
      1.0,
      1.0,
      1.0,
      1.0,
      1.0,
      0.0,
      1.0,
      1.0,
      1.0,
      1.0,
      0.0,
      1.0,
      1.0,
      2.0,
      1.0,
      1.0,
      1.0,
      1.0,
      1.0,
      1.0,
      1.0,
      1.0,
      0.0,
      1.0,
      2.0,
      1.0,
      1.0,
      1.0,
      1.0,
      1.0,
      1.0,
      0.0,
      1.0,
      1.0,
      1.0,
      1.0,
      1.0,
      1.0,
      1.0,
      0.0,
      1.0,
      1.0,
      0.0,
      1.0,
      1.0,
      1.0,
      1.0,
      1.0,
      1.0,
      1.0,
      2.0,
      0.0,
      1.0,
      1.0,
      0.0,
      1.0,
      1.0,
      1.0,
      1.0,
      1.0,
      1.0,
      2.0,
      1.0,
      1.0,
      1.0,
      1.0,
      1.0,
      0.0,
      1.0,
      1.0,
      1.0,
      1.0,
      1.0,
      0.0,
      1.0,
      1.0,
      1.0,
      1.0,
      1.0,
      0.0,
      1.0,
      1.0,
      1.0,
      1.0,
      1.0,
      1.0,
      1.0,
      1.0,
      1.0,
      0.0,
      1.0,
      1.0,
      1.0,
      1.0,
      1.0,
      2.0,
      0.0,
      0.0,
      1.0,
      1.0,
      1.0,
      1.0,
      1.0,
      1.0,
      2.0,
      1.0,
      2.0,
      1.0,
      1.0,
      1.0,
      1.0,
      0.0,
      1.0,
      0.0,
      1.0,
      1.0,
      1.0,
      1.0
    ]
  },
  "running_times": {
    "Vanilla Verifier": [
      1.1254487330602625,
      0.8722145633975855,
      0.6009728956867483,
      0.914078585389112,
      1.1293998361358955,
      0.5677319625480691,
      0.5812668052736706,
      0.6114046377115935,
      0.5322446436265822,
      1.8447318374581727,
      0.740993931584886,
      0.5532760461370995,
      0.5454308294653513,
      0.8394780473741984,
      0.6076694366882428,
      0.7110476038670339,
      -0.8569851997459049,
      0.8311015645013594,
      0.5657297878311269,
      0.6088468223264116,
      0.49775871828726803,
      0.7173375827238638,
      0.5166675590990429,
      0.5408298141110799,
      0.7598188773748262,
      0.5768018958289126,
      0.6200318951262973,
      0.6575338875579863,
      0.6475785542124551,
      1.3763214145472837,
      0.5603849229720155,
      0.833083334178343,
      0.6099144100859978,
      0.5303277897780863,
      -0.8181564120552275,
      2.7787205267102477,
      0.6250036010148634,
      0.5657297878311269,
      0.5145477526602861,
      0.6004283257321311,
      2.7786532940417366,
      0.5601458398490475,
      0.7161703478598539,
      0.5330090224954854,
      0.55339751012388,
      1.0727644210507505,
      0.5620548296563785,
      1.3027637084729817,
      0.5425764762605296,
      -1.6020599913279623,
      2.7795380523543978,
      1.13946977558943,
      0.5657297878311269,
      0.5696079675468245,
      0.5471591213274175,
      0.6091673743020197,
      0.5724068675580558,
      0.6266482684740102,
      2.6536359856433136,
      1.0035036147425365,
      0.5238764756381313,
      0.5937289987079108,
      -0.9281179926938746,
      0.7087607236903166,
      0.659821158055705,
      0.5899496013257077,
      0.557988148224913,
      2.7789871860590805,
      0.7474118078864233,
      0.5664374921950703,
      0.6304278750250238,
      0.6725596277632757,
      1.187520720836463,
      0.5763413502057929,
      0.5652573434202137,
      0.6946051989335688,
      1.2025700460974837,
      1.0644205484335936,
      0.6268534146667257,
      0.6769678142947585,
      0.5384480517102173,
      0.9214783803756901,
      0.5763413502057929,
      2.779001634463745,
      1.2944221331129837,
      0.5364321758220135,
      2.778785580674491,
      0.5322446436265822,
      0.5313511645830596,
      1.7827090567920032,
      0.6094876898532853,
      0.5233562066547928,
      2.7789293876331467,
      0.8516863154424276,
      2.138473223970844,
      0.8079407212154993,
      1.2868829198267875,
      0.6338722626583327,
      0.6303261548039468,
      0.8855308331880921,
      0.587935348636356,
      0.8566080684369362,
      0.6196150057428064,
      1.042693618178643,
      1.8989773501103626,
      2.779144647740855,
      0.6019514041335217,
      1.303822199862847,
      0.5630061870617938,
      1.0062520513693647,
      1.077149794716969,
      0.6125719540651762,
      0.5930644316587176,
      1.1339857462685796,
      0.8630252962294704,
      0.6303261548039468,
      0.7013952690139201,
      -1.1611509092627446,
      0.5664374921950703,
      0.7748088303107059,
      0.5796692935547203,
      2.7785882202574723,
      0.6753199833392922,
      0.5405797165044542,
      0.5408298141110799,
      0.8519306786402675,
      0.5330090224954854,
      2.7788484569118497,
      0.5865873046717549,
      2.7786981169771927,
      -1.0222763947111522,
      0.5780658838360916,
      0.5319895514125502,
      1.5134306984441004,
      0.9022205282793146,
      0.5305838596451177,
      0.5708930362183923,
      -0.7144426909922262,
      0.5477747053878226,
      1.1091058637552882,
      0.5255630582700669,
      0.5990092398233435,
      1.2877121754434868,
      0.975569657893662,
      0.5431985856376468,
      0.5804687839510017,
      0.5258219521566626,
      2.780194136537469,
      0.5841049703994527,
      0.5267268673146356,
      0.651278013998144,
      -1.6197887582883939,
      1.8181400822757061,
      0.5726392970428132,
      1.3573248827402091,
      0.5773768919170145,
      0.5652573434202137,
      0.6162654052817081,
      0.6089536992758628,
      0.6374897295125107,
      0.8817839555933846,
      0.5939502952639875,
      0.6288995644206067,
      -1.080921907623926,
      0.5764565324056202,
      0.6859207921945354,
      0.5772619535858148,
      0.5690225860295637,
      0.7107095657243372,
      0.7194141597025934,
      0.6162654052817081,
      0.9157690659836841,
      0.5587085705331657,
      0.5711262770843116,
      0.5596672783880576,
      0.6067037413336743,
      0.5492485568540559,
      0.6555225962534177,
      0.5873741720730654,
      0.6224212739756703,
      0.7653704802916484,
      0.9943171526696367,
      0.5217916496391234,
      0.5656117249020587,
      0.6037937041369629,
      0.5902844037181619,
      0.6469915374771225,
      0.5597869682005565,
      0.530711837981657,
      0.6878855248487055,
      0.5870371177434557,
      0.5625307688622614,
      0.5165353738957996,
      1.2545964099209879,
      0.5508396050657851,
      0.5875987297212449,
      0.5206145218782359,
      0.5540043210119029,
      0.9936125579388903,
      0.946746935033585,
      0.6742179455766999,
      1.932549861015035,
      0.6082050077043262,
      0.5230958382525678,
      0.5285310606354114,
      0.5246557123577771,
      2.5147681642547233,
      1.303649561060314,
      0.5190400386483446,
      0.6103407114521567,
      0.7227161674884948,
      0.5526682161121932,
      0.5419534744582363,
      0.5691397254724595,
      0.7102020146553848,
      0.5422027824340282,
      2.7787942538001795,
      0.6278776945799714,
      0.9353056902899252,
      1.1308481831028587,
      0.5014700721004123,
      0.5427009694481109,
      1.150357257998519,
      0.5422027824340282,
      0.5510838651857803,
      0.7452309845281407,
      0.5554572172046495,
      0.5733358400660676,
      0.7667845154978589,
      0.5593080109070125,
      0.5469126431812426,
      1.1993162742531043,
      0.5538830266438743,
      0.7861122837198266,
      1.0739748198666585,
      0.6035773681514668,
      0.6051972673883778,
      0.5360531551592047,
      0.9275756546911106,
      0.5945030438200892,
      1.1090720809788794,
      0.58849580100721,
      2.7792941112846137,
      1.3070893650486157,
      -1.1426675035687315,
      2.778758837446534,
      0.5753033334223991,
      1.1944865905497057,
      0.6398847419163043,
      0.5369370227046736,
      0.5650209283452937,
      2.778851347554461,
      0.6071332043915667,
      0.6856521841155244,
      0.6203442997544932,
      0.7112165243210901,
      1.1121691480016598,
      0.6983615660551098,
      0.6815125866389622,
      0.5295586730211631,
      0.5674968911042226,
      1.1818435879447726,
      2.778582435449189,
      0.5573868820595071,
      0.7436665214462129,
      2.7788108768069586,
      1.0091108061322127,
      0.8484354553314708,
      1.3263973133471125,
      0.5405797165044542,
      0.6826864782497681,
      0.5344068991378771,
      0.6321534835106326,
      0.5644293269979835,
      0.6878855248487055,
      0.5813806887099868,
      0.5800121125294243,
      2.7790370310238366,
      1.015694988526518,
      1.1910036340679773,
      0.6397852129868201,
      0.7148325124333327,
      0.6944296909570831,
      0.6029277128591893,
      0.7795964912578245,
      0.6141587095091752,
      0.6242820958356683,
      -0.7033348097384688,
      0.600210306409328,
      0.7349597612724453,
      0.599992177584098,
      1.8704448745240838,
      0.7670073639498041,
      0.5351674851149442,
      -0.6675615400843947,
      0.5639554649958128,
      0.5718252490408291,
      0.9568884546500772,
      0.8385342705118686,
      0.5451833682154061,
      0.5590683340345368,
      0.5556988947189014,
      2.7786344959500187,
      0.5810389487721672,
      0.9058498266423187,
      1.1027766148834413,
      -1.1249387366083,
      0.5453071164658241,
      1.6051218063435868,
      0.581835924057648,
      0.6406801532776651,
      0.7990647193510082,
      0.566555330883055,
      0.7025166974381506,
      0.6629466143326246,
      0.5825178836040624,
      0.6181527333785194,
      0.5911759503117914,
      2.779148258577676,
      0.5841049703994527,
      0.8307169494368977,
      1.1661339703051092,
      0.5187770689267749,
      0.5674968911042226,
      0.5364321758220135,
      0.5328817194073973,
      0.566555330883055,
      0.6354837468149122,
      0.5638369186645449,
      0.6164755138885655,
      -0.5702477199975919,
      0.6985354925620011,
      0.6426623314420356,
      0.714916247993585,
      1.181414796254284,
      0.5227049927347499,
      0.5591881890047755,
      2.778894704884994,
      0.5273720828276118,
      0.5212688755983853,
      0.88280904139244,
      1.1046919189002056,
      0.53832233323144,
      2.7788397848685737,
      0.5466660250701842,
      2.779017527153712,
      0.6180480967120927,
      0.6262376851469004,
      0.7085908451503438,
      0.5507174234692827,
      0.5926208213219823,
      0.5754187912143601,
      0.5780658838360916,
      0.61689542640076,
      1.0022524799205383,
      1.3028285882602553,
      0.7737133252770216,
      1.568366020627623,
      0.6505017948783669,
      1.1819007281964047,
      0.5359267413955693,
      1.1130069400009353,
      0.492061604512599,
      0.6786094165589261,
      0.5779511277297551,
      0.5319895514125502,
      0.5385737338068557,
      0.5810389487721672,
      2.122713802244589,
      0.7025166974381506,
      1.448242412634439,
      0.5253040099582389,
      0.5653755027140737,
      0.5607433010547119,
      0.6017341482601049,
      0.5699588180965941,
      0.5863622233078657,
      0.9351040211514496,
      0.6183619311098781,
      0.5666731376061165,
      0.8261396179359147,
      0.5318619490958094,
      1.0315700321411003,
      1.6895752157599382,
      0.7194970166105816,
      -0.7495799976911061,
      0.5291736032617229,
      0.5589484459780396,
      1.1681437754959583,
      2.7786344959500187,
      0.5544891600038189,
      0.8098962466024391,
      0.8842854623396752,
      0.854973673726417,
      2.7786482330970848,
      0.5225746326911768,
      0.5585885831081994,
      1.7423480031398293,
      0.6190933306267428,
      1.7910938735802695,
      0.9526471697589431,
      0.519565500880509,
      2.0775713763656727,
      0.5701925610957259,
      0.6828667956623246,
      0.5467893516312581,
      0.7611758131557314,
      1.1407279628441829,
      0.6302244107524323,
      1.1396587362081774,
      1.384926598392155,
      0.8287887481849531,
      1.0430084098799515,
      0.5698418994037616,
      0.5651391519697895,
      0.6369891018122291,
      1.1817292848826828,
      1.3450991461328956,
      -0.5718652059712112,
      -1.0705810742857071,
      2.779740029996331,
      0.5824042980190282,
      0.7245216271185627,
      1.1495885677877444,
      1.2436580266386963,
      0.5830853663476876,
      0.5595475555804343,
      0.6286953827140234,
      0.8465226684162868,
      -0.6840296545430823,
      0.5639554649958128,
      1.1354506993455138,
      0.5674968911042226,
      1.2034408668304377,
      0.5749567757645068,
      0.5299434016586693,
      0.5485122563410355,
      0.5705429398818975,
      0.5431985856376468,
      0.9148189804474731,
      0.5749567757645068,
      0.7215633183574809,
      0.5229655954919865,
      1.077404246398098,
      0.7353593330017107,
      0.5757649805367194,
      0.5742628297070268,
      0.5651391519697895,
      2.779052200095059,
      1.0467682196608383,
      0.8767372971406645,
      1.8591082620594206,
      0.5657297878311269,
      0.604657972047871,
      0.5474054596674897,
      0.5293019977879806,
      2.77897273717372,
      1.5548040153428608,
      0.7438232216037503,
      0.8115750058705934,
      0.5286596452349899,
      0.979912410334717,
      -1.0132282657337552,
      1.426673888021373,
      1.2915464396922103,
      0.8976270912904415,
      0.7409150764812825,
      0.9008585047019916,
      0.6115108871266564,
      2.7789452829671046,
      0.6136304349252405,
      0.6369891018122291,
      0.6586790285824489,
      2.7791251487032334,
      1.131040931600099,
      0.6444385894678385,
      0.6108730003800517,
      -1.275724130399211,
      0.5843312243675308,
      0.7573960287930241,
      0.926805310111606,
      0.6913467641348218,
      0.6271609523747759,
      0.568201724066995,
      2.7788405075454605,
      0.5768018958289126,
      0.5650209283452937,
      0.5651391519697895,
      0.8555191556678001,
      0.5757649805367194,
      -0.906578314837765,
      2.778816658573221,
      0.6327608884794388,
      -0.7878123955960422,
      2.778628711758099,
      0.9824521513849896,
      0.5408298141110799,
      1.1391546584069043,
      0.6704314093606055,
      0.8414846093353932,
      0.5748411950633846,
      0.8431704645198979,
      0.7209031708134575,
      0.5368108659915415,
      0.6030360562505217,
      0.6807886115066824,
      0.6418705454763127,
      0.5984622004741506,
      1.0097057883905183,
      0.526339277389844,
      0.5493711523331772,
      0.5310955468700279,
      0.7531232446817125,
      0.8272399995056455,
      2.778607743416577,
      0.5613399414589012,
      0.8090881313463463,
      0.7504312486602022,
      0.5763413502057929,
      0.5275010109811202,
      0.885982811354973,
      0.6441430505099189,
      0.6022770843001926,
      -0.826813731587726,
      0.5784099703312358,
      0.5369370227046736,
      0.5385737338068557,
      0.6515687388657918,
      0.8720396679732862,
      1.037027879755775,
      0.7032053706954863,
      1.1566399984154518,
      -0.518557371497695,
      0.55339751012388,
      0.5341530741850625,
      0.5508396050657851,
      0.5937289987079108,
      1.0761669393449327,
      0.5578679615680222,
      0.5828584622244993,
      0.9899834583013991,
      0.6023855901051052,
      2.779176422074592,
      1.818628320532962,
      0.5589484459780396,
      2.7790666463369904,
      0.5991185650553629,
      0.8989992708897891,
      0.52283531366053,
      0.6051972673883778,
      0.5441921107650326,
      0.6104472214421213,
      1.6585837154070628,
      0.7458551951737289,
      0.6427612032653204,
      0.5379449592914869,
      1.0189084443163274,
      0.9646838149760406,
      0.7538893314598335,
      0.5756496147552193,
      1.0215613920373547,
      0.5638369186645449,
      0.8572118423168924,
      2.7786084664796893,
      1.207095540419218,
      1.3370397399203782,
      -0.7011469235902933,
      0.9734049744100607,
      0.9925093350677755,
      0.5363058723510337,
      0.5866998016240491,
      0.8821259197700319,
      1.5624831984057919,
      2.7792038616739476,
      0.7069736761761781,
      0.6886867242841235,
      0.4893959217271294,
      0.7499680835094029,
      0.5313511645830596,
      0.6459132750338442,
      0.9212181211949503,
      0.8393523288954212,
      0.5153438930883808,
      0.7500453120117675,
      1.1383974429905461,
      0.5714759036819438,
      0.5788683286660287,
      0.5120169694961266,
      0.6609602917760836,
      0.563243701140398,
      0.539577883345309,
      0.6023855901051052,
      0.5487578285737043,
      2.7786532940417366,
      1.5838446325342015,
      0.5504729571065634,
      0.9423057528958941,
      0.5717088318086876,
      0.7888044930446484,
      0.6356847625472225,
      2.7786012357943903,
      0.5664374921950703,
      0.6190933306267428,
      2.7786532940417366,
      0.9816827273712854,
      1.6782907017180433,
      0.7554174628109362,
      0.5166675590990429,
      0.6306312440205001,
      0.6158448828747021,
      0.5740312677277188,
      2.7789590102873545,
      0.5498611884719428,
      1.1293675957229856,
      0.5536403362313542,
      0.571009672309305,
      0.5490032620257879,
      0.5423273827739744,
      0.551327988003846,
      2.7786149739935304,
      0.6588695922019623,
      0.5490032620257879,
      1.2999646686241553,
      0.5891673905460476,
      0.5833121519830777,
      0.7196626830180467,
      1.7491254009631043,
      0.8540630118664211,
      0.5747255835940733,
      0.579326203755255,
      0.5754187912143601,
      0.677241845946654,
      -0.8664610916297825,
      0.5778363412927441,
      0.5364321758220135,
      1.6427315440817332,
      0.5656117249020587,
      0.5469126431812426,
      1.212799980625567,
      0.70035752782266,
      0.6210723711436259,
      0.763128376799137,
      0.6759615496421694,
      -1.0268721464003014,
      0.6812412373755872,
      2.7789293876331467,
      0.6708949535202102,
      1.249662987360606,
      0.5593080109070125,
      0.6140531059872193,
      0.6490426340861764,
      0.5878231713189551,
      2.0090767825134166,
      0.7262380468026375,
      0.887054378050957,
      0.8624295561060089,
      2.7786793208255416,
      1.9553220772442779,
      0.627263416568221,
      0.5626496722119166,
      2.778729201135188,
      0.8051609015994341,
      -1.2839966563652008,
      0.5345337560051157,
      0.9584683183669436,
      1.1727488389827436,
      0.7192483984479462,
      -1.6020599913279623,
      0.9909600996821993,
      1.1546977935963878,
      1.7233160842704993,
      0.865222456290179,
      0.568201724066995,
      1.309949384259016,
      0.7895807121644255,
      0.5403294747908738,
      0.6842167951388805,
      2.7785715887259683,
      0.5527898501927819,
      1.2120810159921076,
      0.5371892262436446,
      0.6211762817750351,
      0.9644953395550926,
      0.8284020784915931,
      0.8607571230815421,
      -0.7520267336381934,
      1.1914789604435998,
      0.5403294747908738,
      -0.8068754016455384,
      0.5645477117559479,
      0.7611758131557314,
      0.5958267770732232,
      -0.6695862266508091,
      0.6448323288256362,
      0.7923916894982539,
      2.7786446181005107,
      0.9828137621318624,
      0.6907275438703668,
      0.5373152731120097,
      0.5594277997594899,
      0.6287974855667101,
      1.162474790438118,
      0.5509617522981761,
      0.5582284218033257,
      0.5601458398490475,
      0.5250448070368452,
      0.6815125866389622,
      0.5961570809161724,
      0.5915098089946542,
      0.9681092011281979,
      0.7634279935629372,
      0.5700757053216042,
      0.8676442339030985,
      0.5744942682853275,
      0.5338991007965946,
      0.5128177585648731,
      1.2971036501492565,
      0.5631249603380444,
      1.0754739645889464,
      0.6349808000512285,
      0.5185139398778874,
      0.6449307079135874,
      0.5616975326539935,
      0.538070787043172,
      0.6039018317316714,
      0.5444401373176924,
      0.5520595341878843,
      -0.9355420107730815,
      0.8908120989551245,
      0.5110808455391185,
      0.8196097327515852,
      1.0900463224573558,
      0.5370631427816172,
      0.6131015169669126,
      0.5657297878311269,
      -0.6675615400843947,
      0.6033609243483805,
      0.5255630582700669,
      0.5324995860946625,
      -1.8860566476931633,
      1.4874777564388986,
      0.623559390005437,
      1.6939906104607767,
      0.8323811602470409,
      0.5772619535858148,
      2.7787147436640307,
      1.614116471181783,
      0.6736658762457018,
      0.5912872650584993,
      0.6316466629584195,
      0.5110808455391185,
      0.5806969397124367,
      0.49623754516673524,
      0.6015167836500102,
      2.7789171044766077,
      0.5519376953648372,
      1.5469742758332872,
      0.6878855248487055,
      2.7790969818809943,
      0.6400837313731204,
      0.5108130105124962,
      0.5328817194073973,
      2.04612821976937,
      0.5410797677766288,
      0.5200903281128425,
      -1.5228787452803376,
      -1.8860566476931633,
      0.5175917307119078,
      0.7096091210726486,
      0.5729877081982051,
      0.5985716634821411,
      0.9237101943965628,
      0.5451833682154061,
      0.5361795321372252,
      0.608526033577194,
      0.8946483037935171,
      0.6048737705526357,
      0.6129956560323475,
      -0.9030899869919435,
      0.52608069180203,
      0.5846703844643487,
      0.9128063926612923,
      0.9754777631658746,
      -1.1426675035687315,
      0.5593080109070125,
      0.6553305580093409,
      0.5291736032617229,
      0.6092741724045876,
      0.5981336458132377,
      1.0320947130529023,
      0.5527898501927819,
      0.5585885831081994,
      2.778755946188112,
      1.3225500597780138,
      0.6007551496396181,
      2.778864355208123,
      0.5762261374496049,
      0.6804261708581454,
      0.8297539189249751,
      0.5365584425715301,
      0.5852350633657754,
      0.5593080109070125,
      0.9245377177754898,
      0.9371667037150327,
      1.70184418793154,
      0.5683190850951118,
      -1.5686362358410126,
      0.6139474767803498,
      0.5929535715478659,
      0.5739154404215507,
      0.5644293269979835,
      0.6391875599357539,
      0.617629297757842,
      0.5375672571526752,
      0.5347873586294917,
      0.5927317663939622,
      -0.9281179926938746,
      0.519565500880509,
      0.8367670473942054,
      0.8613551601932601,
      0.6877072796248189,
      0.7037211599270199,
      0.5679669068231542,
      0.5612206789339438,
      2.778750886439558,
      0.5431985856376468,
      0.5526682161121932,
      1.7963800366313847,
      0.7330366829335796,
      0.6242820958356683,
      0.5612206789339438,
      0.5278875659527047,
      0.5764565324056202,
      -0.9172146296835499,
      0.6260322478290189,
      2.7787993130435105,
      1.0650192141362542,
      0.6175245348862923,
      0.7773543130842088,
      0.6110857334148726,
      0.6570558528571039,
      0.6573427368146261,
      -1.2291479883578558,
      1.50996824891543,
      0.6946051989335688,
      0.6449307079135874,
      1.3270113597524094,
      0.6207604899942057,
      0.8709303583486958,
      1.4384157599979512,
      -0.7166987712964504,
      0.6072405038317427,
      0.7079957464229291,
      0.9455178220778396,
      0.9094490469812666,
      0.5788683286660287,
      0.5429498488141788,
      0.5843312243675308,
      0.5530330162024399,
      0.5873741720730654,
      0.5622928644564748,
      2.7787263096794588,
      0.9657189702442208,
      0.5612206789339438,
      0.5664374921950703,
      -1.0506099933550872,
      0.5965970956264602,
      0.5501059993475927,
      0.6183619311098781,
      0.5900612308037425,
      0.5609820555862354,
      0.7149999674120424,
      2.778899762958279,
      0.5670263661590603,
      0.5706596700215341,
      1.2268833283909168,
      0.5153438930883808,
      0.5599066250361125,
      1.2399748011169376,
      0.6302244107524323,
      0.5223137951566674,
      0.585799009013001,
      0.5755342183198643,
      0.5633624094866074,
      0.5330090224954854,
      0.579326203755255,
      0.5332635167787149,
      0.6138418218760693,
      0.8309733973226505,
      0.5375672571526752,
      -1.4202164033831899,
      0.5708930362183923,
      0.563243701140398,
      0.6221103603612195,
      0.5601458398490475,
      0.5647843845039867,
      0.5715923833613072,
      0.5961570809161724,
      0.7365558471626359,
      0.5496162395190853,
      0.683587317572767,
      0.5813806887099868,
      1.2281179241368452,
      0.6278776945799714,
      1.3148569577795712,
      0.5726392970428132,
      2.779674397565517,
      0.9429995933660404,
      0.9571761304048462,
      0.8934288417795451,
      0.6609602917760836,
      0.5259513412480125,
      0.5345337560051157,
      0.6234560480699338,
      0.5653755027140737,
      2.7809556805620614,
      0.6972293427597176,
      2.7787371525391817,
      1.3899630364358884,
      1.1030164903283153,
      0.7266457202409118,
      0.5724068675580558,
      -0.8996294548824371,
      0.9738664498353783,
      -1.0087739243075051,
      0.6100210246641453,
      0.49927458189221735,
      0.48215869541127643,
      1.291435454927122
    ],
    "Timeout Prediction": [
      1.1254487330602625,
      0.8722145633975855,
      0.6009728956867483,
      0.914078585389112,
      1.1293998361358955,
      0.5677319625480691,
      0.5812668052736706,
      0.6114046377115935,
      0.5322446436265822,
      1.8447318374581727,
      0.740993931584886,
      0.5532760461370995,
      0.5454308294653513,
      0.8394780473741984,
      0.6076694366882428,
      0.7110476038670339,
      -0.8569851997459049,
      0.8311015645013594,
      0.5657297878311269,
      0.6088468223264116,
      0.49775871828726803,
      0.7173375827238638,
      0.5166675590990429,
      0.5408298141110799,
      0.7598188773748262,
      0.5768018958289126,
      0.6200318951262973,
      0.6575338875579863,
      0.6475785542124551,
      1.3763214145472837,
      0.5603849229720155,
      0.833083334178343,
      0.6099144100859978,
      0.5303277897780863,
      -0.8181564120552275,
      2.7787205267102477,
      0.6250036010148634,
      0.5657297878311269,
      0.5145477526602861,
      0.6004283257321311,
      2.7786532940417366,
      0.5601458398490475,
      0.7161703478598539,
      0.5330090224954854,
      0.55339751012388,
      1.0727644210507505,
      0.5620548296563785,
      1.3027637084729817,
      0.5425764762605296,
      -1.6020599913279623,
      2.7795380523543978,
      1.13946977558943,
      0.5657297878311269,
      0.5696079675468245,
      0.5471591213274175,
      0.6091673743020197,
      0.5724068675580558,
      0.6266482684740102,
      2.6536359856433136,
      1.0035036147425365,
      0.5238764756381313,
      0.5937289987079108,
      -0.9281179926938746,
      0.7087607236903166,
      0.659821158055705,
      0.5899496013257077,
      0.557988148224913,
      2.7789871860590805,
      0.7474118078864233,
      0.5664374921950703,
      0.6304278750250238,
      0.6725596277632757,
      1.187520720836463,
      0.5763413502057929,
      0.5652573434202137,
      0.6946051989335688,
      1.2025700460974837,
      1.0644205484335936,
      0.6268534146667257,
      0.6769678142947585,
      0.5384480517102173,
      0.9214783803756901,
      0.5763413502057929,
      2.779001634463745,
      1.2944221331129837,
      0.5364321758220135,
      2.778785580674491,
      0.5322446436265822,
      0.5313511645830596,
      1.7827090567920032,
      0.6094876898532853,
      0.5233562066547928,
      2.7789293876331467,
      0.8516863154424276,
      2.138473223970844,
      0.8079407212154993,
      1.2868829198267875,
      0.6338722626583327,
      0.6303261548039468,
      0.8855308331880921,
      0.587935348636356,
      0.8566080684369362,
      0.6196150057428064,
      1.042693618178643,
      1.8989773501103626,
      2.779144647740855,
      0.6019514041335217,
      1.303822199862847,
      0.5630061870617938,
      1.0062520513693647,
      1.077149794716969,
      0.6125719540651762,
      0.5930644316587176,
      1.1339857462685796,
      0.8630252962294704,
      0.6303261548039468,
      0.7013952690139201,
      -1.1611509092627446,
      0.5664374921950703,
      0.7748088303107059,
      0.5796692935547203,
      2.7785882202574723,
      0.6753199833392922,
      0.5405797165044542,
      0.5408298141110799,
      0.8519306786402675,
      0.5330090224954854,
      2.7788484569118497,
      0.5865873046717549,
      2.7786981169771927,
      -1.0222763947111522,
      0.5780658838360916,
      0.5319895514125502,
      1.5134306984441004,
      0.9022205282793146,
      0.5305838596451177,
      0.5708930362183923,
      -0.7144426909922262,
      0.5477747053878226,
      1.1091058637552882,
      0.5255630582700669,
      0.5990092398233435,
      1.2877121754434868,
      0.975569657893662,
      0.5431985856376468,
      0.5804687839510017,
      0.5258219521566626,
      2.780194136537469,
      0.5841049703994527,
      0.5267268673146356,
      0.651278013998144,
      -1.6197887582883939,
      1.8181400822757061,
      0.5726392970428132,
      1.3573248827402091,
      0.5773768919170145,
      0.5652573434202137,
      0.6162654052817081,
      0.6089536992758628,
      0.6374897295125107,
      0.8817839555933846,
      0.5939502952639875,
      0.6288995644206067,
      -1.080921907623926,
      0.5764565324056202,
      0.6859207921945354,
      0.5772619535858148,
      0.5690225860295637,
      0.7107095657243372,
      0.7194141597025934,
      0.6162654052817081,
      0.9157690659836841,
      0.5587085705331657,
      0.5711262770843116,
      0.5596672783880576,
      0.6067037413336743,
      0.5492485568540559,
      0.6555225962534177,
      0.5873741720730654,
      0.6224212739756703,
      0.7653704802916484,
      0.9943171526696367,
      0.5217916496391234,
      0.5656117249020587,
      0.6037937041369629,
      0.5902844037181619,
      0.6469915374771225,
      0.5597869682005565,
      0.530711837981657,
      0.6878855248487055,
      0.5870371177434557,
      0.5625307688622614,
      0.5165353738957996,
      1.2545964099209879,
      0.5508396050657851,
      0.5875987297212449,
      0.5206145218782359,
      0.5540043210119029,
      0.9936125579388903,
      0.946746935033585,
      0.6742179455766999,
      1.932549861015035,
      0.6082050077043262,
      0.5230958382525678,
      0.5285310606354114,
      0.5246557123577771,
      2.5147681642547233,
      1.303649561060314,
      0.5190400386483446,
      0.6103407114521567,
      0.7227161674884948,
      0.5526682161121932,
      0.5419534744582363,
      0.5691397254724595,
      0.7102020146553848,
      0.5422027824340282,
      2.7787942538001795,
      0.6278776945799714,
      0.9353056902899252,
      1.1308481831028587,
      0.5014700721004123,
      0.5427009694481109,
      1.150357257998519,
      0.5422027824340282,
      0.5510838651857803,
      0.7452309845281407,
      0.5554572172046495,
      0.5733358400660676,
      0.7667845154978589,
      0.5593080109070125,
      0.5469126431812426,
      1.1993162742531043,
      0.5538830266438743,
      0.7861122837198266,
      1.0739748198666585,
      0.6035773681514668,
      0.6051972673883778,
      0.5360531551592047,
      0.9275756546911106,
      0.5945030438200892,
      1.1090720809788794,
      0.58849580100721,
      2.7792941112846137,
      1.3070893650486157,
      -1.1426675035687315,
      2.778758837446534,
      0.5753033334223991,
      1.1944865905497057,
      0.6398847419163043,
      0.5369370227046736,
      0.5650209283452937,
      2.778851347554461,
      0.6071332043915667,
      0.6856521841155244,
      0.6203442997544932,
      0.7112165243210901,
      1.1121691480016598,
      0.6983615660551098,
      0.6815125866389622,
      0.5295586730211631,
      0.5674968911042226,
      1.1818435879447726,
      2.778582435449189,
      0.5573868820595071,
      0.7436665214462129,
      2.7788108768069586,
      1.0091108061322127,
      0.8484354553314708,
      1.3263973133471125,
      0.5405797165044542,
      0.6826864782497681,
      0.5344068991378771,
      0.6321534835106326,
      0.5644293269979835,
      0.6878855248487055,
      0.5813806887099868,
      0.5800121125294243,
      2.7790370310238366,
      1.015694988526518,
      1.1910036340679773,
      0.6397852129868201,
      0.7148325124333327,
      0.6944296909570831,
      0.6029277128591893,
      0.7795964912578245,
      0.6141587095091752,
      0.6242820958356683,
      -0.7033348097384688,
      0.600210306409328,
      0.7349597612724453,
      0.599992177584098,
      1.8704448745240838,
      0.7670073639498041,
      0.5351674851149442,
      -0.6675615400843947,
      0.5639554649958128,
      0.5718252490408291,
      0.9568884546500772,
      0.8385342705118686,
      0.5451833682154061,
      0.5590683340345368,
      0.5556988947189014,
      2.7786344959500187,
      0.5810389487721672,
      0.9058498266423187,
      1.1027766148834413,
      -1.1249387366083,
      0.5453071164658241,
      1.6051218063435868,
      0.581835924057648,
      0.6406801532776651,
      0.7990647193510082,
      0.566555330883055,
      0.7025166974381506,
      0.6629466143326246,
      0.5825178836040624,
      0.6181527333785194,
      0.5911759503117914,
      2.779148258577676,
      0.5841049703994527,
      0.8307169494368977,
      1.1661339703051092,
      0.5187770689267749,
      0.5674968911042226,
      0.5364321758220135,
      0.5328817194073973,
      0.566555330883055,
      0.6354837468149122,
      0.5638369186645449,
      0.6164755138885655,
      -0.5702477199975919,
      0.6985354925620011,
      0.6426623314420356,
      0.714916247993585,
      1.181414796254284,
      0.5227049927347499,
      0.5591881890047755,
      2.778894704884994,
      0.5273720828276118,
      0.5212688755983853,
      0.88280904139244,
      1.1046919189002056,
      0.53832233323144,
      2.7788397848685737,
      0.5466660250701842,
      2.779017527153712,
      0.6180480967120927,
      0.6262376851469004,
      0.7085908451503438,
      0.5507174234692827,
      0.5926208213219823,
      0.5754187912143601,
      0.5780658838360916,
      0.61689542640076,
      1.0022524799205383,
      1.3028285882602553,
      0.7737133252770216,
      1.568366020627623,
      0.6505017948783669,
      1.1819007281964047,
      0.5359267413955693,
      1.1130069400009353,
      0.492061604512599,
      0.6786094165589261,
      0.5779511277297551,
      0.5319895514125502,
      0.5385737338068557,
      0.5810389487721672,
      2.122713802244589,
      0.7025166974381506,
      1.448242412634439,
      0.5253040099582389,
      0.5653755027140737,
      0.5607433010547119,
      0.6017341482601049,
      0.5699588180965941,
      0.5863622233078657,
      0.9351040211514496,
      0.6183619311098781,
      0.5666731376061165,
      0.8261396179359147,
      0.5318619490958094,
      1.0315700321411003,
      1.6895752157599382,
      0.7194970166105816,
      -0.7495799976911061,
      0.5291736032617229,
      0.5589484459780396,
      1.1681437754959583,
      2.7786344959500187,
      0.5544891600038189,
      0.8098962466024391,
      0.8842854623396752,
      0.854973673726417,
      2.7786482330970848,
      0.5225746326911768,
      0.5585885831081994,
      1.7423480031398293,
      0.6190933306267428,
      1.7910938735802695,
      0.9526471697589431,
      0.519565500880509,
      2.0775713763656727,
      0.5701925610957259,
      0.6828667956623246,
      0.5467893516312581,
      0.7611758131557314,
      1.1407279628441829,
      0.6302244107524323,
      1.1396587362081774,
      1.384926598392155,
      0.8287887481849531,
      1.0430084098799515,
      0.5698418994037616,
      0.5651391519697895,
      0.6369891018122291,
      1.1817292848826828,
      1.3450991461328956,
      -0.5718652059712112,
      -1.0705810742857071,
      2.779740029996331,
      0.5824042980190282,
      0.7245216271185627,
      1.1495885677877444,
      1.2436580266386963,
      0.5830853663476876,
      0.5595475555804343,
      0.6286953827140234,
      0.8465226684162868,
      -0.6840296545430823,
      0.5639554649958128,
      1.1354506993455138,
      0.5674968911042226,
      1.2034408668304377,
      0.5749567757645068,
      0.5299434016586693,
      0.5485122563410355,
      0.5705429398818975,
      0.5431985856376468,
      0.9148189804474731,
      0.5749567757645068,
      0.7215633183574809,
      0.5229655954919865,
      1.077404246398098,
      0.7353593330017107,
      0.5757649805367194,
      0.5742628297070268,
      0.5651391519697895,
      2.779052200095059,
      1.0467682196608383,
      0.8767372971406645,
      1.8591082620594206,
      0.5657297878311269,
      0.604657972047871,
      0.5474054596674897,
      0.5293019977879806,
      2.77897273717372,
      1.5548040153428608,
      0.7438232216037503,
      0.8115750058705934,
      0.5286596452349899,
      0.979912410334717,
      -1.0132282657337552,
      1.426673888021373,
      1.2915464396922103,
      0.8976270912904415,
      0.7409150764812825,
      0.9008585047019916,
      0.6115108871266564,
      2.7789452829671046,
      0.6136304349252405,
      0.6369891018122291,
      0.6586790285824489,
      2.7791251487032334,
      1.131040931600099,
      0.6444385894678385,
      0.6108730003800517,
      -1.275724130399211,
      0.5843312243675308,
      0.7573960287930241,
      0.926805310111606,
      0.6913467641348218,
      0.6271609523747759,
      0.568201724066995,
      2.7788405075454605,
      0.5768018958289126,
      0.5650209283452937,
      0.5651391519697895,
      0.8555191556678001,
      0.5757649805367194,
      -0.906578314837765,
      2.778816658573221,
      0.6327608884794388,
      -0.7878123955960422,
      2.778628711758099,
      0.9824521513849896,
      0.5408298141110799,
      1.1391546584069043,
      0.6704314093606055,
      0.8414846093353932,
      0.5748411950633846,
      0.8431704645198979,
      0.7209031708134575,
      0.5368108659915415,
      0.6030360562505217,
      0.6807886115066824,
      0.6418705454763127,
      0.5984622004741506,
      1.0097057883905183,
      0.526339277389844,
      0.5493711523331772,
      0.5310955468700279,
      0.7531232446817125,
      0.8272399995056455,
      2.778607743416577,
      0.5613399414589012,
      0.8090881313463463,
      0.7504312486602022,
      0.5763413502057929,
      0.5275010109811202,
      0.885982811354973,
      0.6441430505099189,
      0.6022770843001926,
      -0.826813731587726,
      0.5784099703312358,
      0.5369370227046736,
      0.5385737338068557,
      0.6515687388657918,
      0.8720396679732862,
      1.037027879755775,
      0.7032053706954863,
      1.1566399984154518,
      -0.518557371497695,
      0.55339751012388,
      0.5341530741850625,
      0.5508396050657851,
      0.5937289987079108,
      1.0761669393449327,
      0.5578679615680222,
      0.5828584622244993,
      0.9899834583013991,
      0.6023855901051052,
      2.779176422074592,
      1.818628320532962,
      0.5589484459780396,
      2.7790666463369904,
      0.5991185650553629,
      0.8989992708897891,
      0.52283531366053,
      0.6051972673883778,
      0.5441921107650326,
      0.6104472214421213,
      1.6585837154070628,
      0.7458551951737289,
      0.6427612032653204,
      0.5379449592914869,
      1.0189084443163274,
      0.9646838149760406,
      0.7538893314598335,
      0.5756496147552193,
      1.0215613920373547,
      0.5638369186645449,
      0.8572118423168924,
      2.7786084664796893,
      1.207095540419218,
      1.3370397399203782,
      -0.7011469235902933,
      0.9734049744100607,
      0.9925093350677755,
      0.5363058723510337,
      0.5866998016240491,
      0.8821259197700319,
      1.5624831984057919,
      2.7792038616739476,
      0.7069736761761781,
      0.6886867242841235,
      0.4893959217271294,
      0.7499680835094029,
      0.5313511645830596,
      0.6459132750338442,
      0.9212181211949503,
      0.8393523288954212,
      0.5153438930883808,
      0.7500453120117675,
      1.1383974429905461,
      0.5714759036819438,
      0.5788683286660287,
      0.5120169694961266,
      0.6609602917760836,
      0.563243701140398,
      0.539577883345309,
      0.6023855901051052,
      0.5487578285737043,
      2.7786532940417366,
      1.5838446325342015,
      0.5504729571065634,
      0.9423057528958941,
      0.5717088318086876,
      0.7888044930446484,
      0.6356847625472225,
      2.7786012357943903,
      0.5664374921950703,
      0.6190933306267428,
      2.7786532940417366,
      0.9816827273712854,
      1.6782907017180433,
      0.7554174628109362,
      0.5166675590990429,
      0.6306312440205001,
      0.6158448828747021,
      0.5740312677277188,
      2.7789590102873545,
      0.5498611884719428,
      1.1293675957229856,
      0.5536403362313542,
      0.571009672309305,
      0.5490032620257879,
      0.5423273827739744,
      0.551327988003846,
      2.7786149739935304,
      0.6588695922019623,
      0.5490032620257879,
      1.2999646686241553,
      0.5891673905460476,
      0.5833121519830777,
      0.7196626830180467,
      1.7491254009631043,
      0.8540630118664211,
      0.5747255835940733,
      0.579326203755255,
      0.5754187912143601,
      0.677241845946654,
      -0.8664610916297825,
      0.5778363412927441,
      0.5364321758220135,
      1.6427315440817332,
      0.5656117249020587,
      0.5469126431812426,
      1.212799980625567,
      0.70035752782266,
      0.6210723711436259,
      0.763128376799137,
      0.6759615496421694,
      -1.0268721464003014,
      0.6812412373755872,
      2.7789293876331467,
      0.6708949535202102,
      1.249662987360606,
      0.5593080109070125,
      0.6140531059872193,
      0.6490426340861764,
      0.5878231713189551,
      2.0090767825134166,
      0.7262380468026375,
      0.887054378050957,
      0.8624295561060089,
      2.7786793208255416,
      1.9553220772442779,
      0.627263416568221,
      0.5626496722119166,
      2.778729201135188,
      0.8051609015994341,
      -1.2839966563652008,
      0.5345337560051157,
      0.9584683183669436,
      1.1727488389827436,
      0.7192483984479462,
      -1.6020599913279623,
      0.9909600996821993,
      1.1546977935963878,
      1.7233160842704993,
      0.865222456290179,
      0.568201724066995,
      1.309949384259016,
      0.7895807121644255,
      0.5403294747908738,
      0.6842167951388805,
      2.7785715887259683,
      0.5527898501927819,
      1.2120810159921076,
      0.5371892262436446,
      0.6211762817750351,
      0.9644953395550926,
      0.8284020784915931,
      0.8607571230815421,
      -0.7520267336381934,
      1.1914789604435998,
      0.5403294747908738,
      -0.8068754016455384,
      0.5645477117559479,
      0.7611758131557314,
      0.5958267770732232,
      -0.6695862266508091,
      0.6448323288256362,
      0.7923916894982539,
      2.7786446181005107,
      0.9828137621318624,
      0.6907275438703668,
      0.5373152731120097,
      0.5594277997594899,
      0.6287974855667101,
      1.162474790438118,
      0.5509617522981761,
      0.5582284218033257,
      0.5601458398490475,
      0.5250448070368452,
      0.6815125866389622,
      0.5961570809161724,
      0.5915098089946542,
      0.9681092011281979,
      0.7634279935629372,
      0.5700757053216042,
      0.8676442339030985,
      0.5744942682853275,
      0.5338991007965946,
      0.5128177585648731,
      1.2971036501492565,
      0.5631249603380444,
      1.0754739645889464,
      0.6349808000512285,
      0.5185139398778874,
      0.6449307079135874,
      0.5616975326539935,
      0.538070787043172,
      0.6039018317316714,
      0.5444401373176924,
      0.5520595341878843,
      -0.9355420107730815,
      0.8908120989551245,
      0.5110808455391185,
      0.8196097327515852,
      1.0900463224573558,
      0.5370631427816172,
      0.6131015169669126,
      0.5657297878311269,
      -0.6675615400843947,
      0.6033609243483805,
      0.5255630582700669,
      0.5324995860946625,
      -1.8860566476931633,
      1.4874777564388986,
      0.623559390005437,
      1.6939906104607767,
      0.8323811602470409,
      0.5772619535858148,
      2.7787147436640307,
      1.614116471181783,
      0.6736658762457018,
      0.5912872650584993,
      0.6316466629584195,
      0.5110808455391185,
      0.5806969397124367,
      0.49623754516673524,
      0.6015167836500102,
      2.7789171044766077,
      0.5519376953648372,
      1.5469742758332872,
      0.6878855248487055,
      2.7790969818809943,
      0.6400837313731204,
      0.5108130105124962,
      0.5328817194073973,
      2.04612821976937,
      0.5410797677766288,
      0.5200903281128425,
      -1.5228787452803376,
      -1.8860566476931633,
      0.5175917307119078,
      0.7096091210726486,
      0.5729877081982051,
      0.5985716634821411,
      0.9237101943965628,
      0.5451833682154061,
      0.5361795321372252,
      0.608526033577194,
      0.8946483037935171,
      0.6048737705526357,
      0.6129956560323475,
      -0.9030899869919435,
      0.52608069180203,
      0.5846703844643487,
      0.9128063926612923,
      0.9754777631658746,
      -1.1426675035687315,
      0.5593080109070125,
      0.6553305580093409,
      0.5291736032617229,
      0.6092741724045876,
      0.5981336458132377,
      1.0320947130529023,
      0.5527898501927819,
      0.5585885831081994,
      2.778755946188112,
      1.3225500597780138,
      0.6007551496396181,
      2.778864355208123,
      0.5762261374496049,
      0.6804261708581454,
      0.8297539189249751,
      0.5365584425715301,
      0.5852350633657754,
      0.5593080109070125,
      0.9245377177754898,
      0.9371667037150327,
      1.70184418793154,
      0.5683190850951118,
      -1.5686362358410126,
      0.6139474767803498,
      0.5929535715478659,
      0.5739154404215507,
      0.5644293269979835,
      0.6391875599357539,
      0.617629297757842,
      0.5375672571526752,
      0.5347873586294917,
      0.5927317663939622,
      -0.9281179926938746,
      0.519565500880509,
      0.8367670473942054,
      0.8613551601932601,
      0.6877072796248189,
      0.7037211599270199,
      0.5679669068231542,
      0.5612206789339438,
      2.778750886439558,
      0.5431985856376468,
      0.5526682161121932,
      1.7963800366313847,
      0.7330366829335796,
      0.6242820958356683,
      0.5612206789339438,
      0.5278875659527047,
      0.5764565324056202,
      -0.9172146296835499,
      0.6260322478290189,
      2.7787993130435105,
      1.0650192141362542,
      0.6175245348862923,
      0.7773543130842088,
      0.6110857334148726,
      0.6570558528571039,
      0.6573427368146261,
      -1.2291479883578558,
      1.50996824891543,
      0.6946051989335688,
      0.6449307079135874,
      1.3270113597524094,
      0.6207604899942057,
      0.8709303583486958,
      1.4384157599979512,
      -0.7166987712964504,
      0.6072405038317427,
      0.7079957464229291,
      0.9455178220778396,
      0.9094490469812666,
      0.5788683286660287,
      0.5429498488141788,
      0.5843312243675308,
      0.5530330162024399,
      0.5873741720730654,
      0.5622928644564748,
      2.7787263096794588,
      0.9657189702442208,
      0.5612206789339438,
      0.5664374921950703,
      -1.0506099933550872,
      0.5965970956264602,
      0.5501059993475927,
      0.6183619311098781,
      0.5900612308037425,
      0.5609820555862354,
      0.7149999674120424,
      2.778899762958279,
      0.5670263661590603,
      0.5706596700215341,
      1.2268833283909168,
      0.5153438930883808,
      0.5599066250361125,
      1.2399748011169376,
      0.6302244107524323,
      0.5223137951566674,
      0.585799009013001,
      0.5755342183198643,
      0.5633624094866074,
      0.5330090224954854,
      0.579326203755255,
      0.5332635167787149,
      0.6138418218760693,
      0.8309733973226505,
      0.5375672571526752,
      -1.4202164033831899,
      0.5708930362183923,
      0.563243701140398,
      0.6221103603612195,
      0.5601458398490475,
      0.5647843845039867,
      0.5715923833613072,
      0.5961570809161724,
      0.7365558471626359,
      0.5496162395190853,
      0.683587317572767,
      0.5813806887099868,
      1.2281179241368452,
      0.6278776945799714,
      1.3148569577795712,
      0.5726392970428132,
      2.779674397565517,
      0.9429995933660404,
      0.9571761304048462,
      0.8934288417795451,
      0.6609602917760836,
      0.5259513412480125,
      0.5345337560051157,
      0.6234560480699338,
      0.5653755027140737,
      2.7809556805620614,
      0.6972293427597176,
      2.7787371525391817,
      1.3899630364358884,
      1.1030164903283153,
      0.7266457202409118,
      0.5724068675580558,
      -0.8996294548824371,
      0.9738664498353783,
      -1.0087739243075051,
      0.6100210246641453,
      0.49927458189221735,
      0.48215869541127643,
      1.291435454927122
    ]
  }
}