{
  "0": {
    "test_acc": 0.4782608695652174,
    "tp": 0,
    "tn": 11,
    "fp": 0,
    "fn": 12,
    "tpr": 0.0,
    "fpr": 0.0,
    "tnr": 1.0,
    "fnr": 1.0,
    "f1_score": 0.0,
    "precision": 0.0,
    "recall": 0.0
  },
  "1": {
    "test_acc": 0.4782608695652174,
    "tp": 0,
    "tn": 11,
    "fp": 0,
    "fn": 12,
    "tpr": 0.0,
    "fpr": 0.0,
    "tnr": 1.0,
    "fnr": 1.0,
    "f1_score": 0.0,
    "precision": 0.0,
    "recall": 0.0
  },
  "2": {
    "test_acc": 0.4583333333333333,
    "tp": 0,
    "tn": 11,
    "fp": 0,
    "fn": 13,
    "tpr": 0.0,
    "fpr": 0.0,
    "tnr": 1.0,
    "fnr": 1.0,
    "f1_score": 0.0,
    "precision": 0.0,
    "recall": 0.0
  },
  "3": {
    "test_acc": 0.5,
    "tp": 0,
    "tn": 12,
    "fp": 0,
    "fn": 12,
    "tpr": 0.0,
    "fpr": 0.0,
    "tnr": 1.0,
    "fnr": 1.0,
    "f1_score": 0.0,
    "precision": 0.0,
    "recall": 0.0
  },
  "4": {
    "test_acc": 0.4782608695652174,
    "tp": 0,
    "tn": 11,
    "fp": 0,
    "fn": 12,
    "tpr": 0.0,
    "fpr": 0.0,
    "tnr": 1.0,
    "fnr": 1.0,
    "f1_score": 0.0,
    "precision": 0.0,
    "recall": 0.0
  },
  "sum": {
    "tp": 0.0,
    "fp": 0.0,
    "tn": 56.0,
    "fn": 61.0,
    "tpr": 0.0,
    "tnr": 1.0,
    "fpr": 0.0,
    "fnr": 1.0
  },
  "avg": {
    "test_acc": 0.4786231884057971,
    "tp": 0.0,
    "tn": 11.2,
    "fp": 0.0,
    "fn": 12.2,
    "tpr": 0.0,
    "fpr": 0.0,
    "tnr": 1.0,
    "fnr": 1.0,
    "f1_score": 0.0,
    "precision": 0.0,
    "recall": 0.0
  }
}