{
  "0": {
    "sbs": "ABCROWN",
    "sbs_running_time": 37315.196699999986,
    "sbs_solved": 41,
    "vbs_running_time": 36628.56062225574,
    "vbs_solved": 42,
    "algo_select_running_time": 43963.761772179154,
    "algo_select_solved": 39,
    "algo_select_acc": 0.9402985074626866,
    "timeout_acc": 1.0,
    "percentage_ran_in_portfolio": 0.06944444444444445,
    "percentage_ran_with_selected_algo": 0.9305555555555556
  },
  "1": {
    "sbs": "ABCROWN",
    "sbs_running_time": 36255.48780000001,
    "sbs_solved": 42,
    "vbs_running_time": 35948.38863421937,
    "vbs_solved": 42,
    "algo_select_running_time": 39001.22757540415,
    "algo_select_solved": 42,
    "algo_select_acc": 1.0,
    "timeout_acc": 1.0,
    "percentage_ran_in_portfolio": 0.07692307692307693,
    "percentage_ran_with_selected_algo": 0.9230769230769231
  },
  "2": {
    "sbs": "ABCROWN",
    "sbs_running_time": 36681.67579999999,
    "sbs_solved": 41,
    "vbs_running_time": 36146.16581898942,
    "vbs_solved": 42,
    "algo_select_running_time": 40929.944424670415,
    "algo_select_solved": 42,
    "algo_select_acc": 1.0,
    "timeout_acc": 1.0,
    "percentage_ran_in_portfolio": 0.09333333333333334,
    "percentage_ran_with_selected_algo": 0.9066666666666666
  },
  "3": {
    "sbs": "ABCROWN",
    "sbs_running_time": 36972.0105,
    "sbs_solved": 41,
    "vbs_running_time": 36282.03131775729,
    "vbs_solved": 42,
    "algo_select_running_time": 40620.1938303036,
    "algo_select_solved": 41,
    "algo_select_acc": 0.9552238805970149,
    "timeout_acc": 1.0,
    "percentage_ran_in_portfolio": 0.0945945945945946,
    "percentage_ran_with_selected_algo": 0.9054054054054054
  },
  "4": {
    "sbs": "ABCROWN",
    "sbs_running_time": 36636.26529999999,
    "sbs_solved": 42,
    "vbs_running_time": 36215.59068535397,
    "vbs_solved": 42,
    "algo_select_running_time": 42208.49035220598,
    "algo_select_solved": 41,
    "algo_select_acc": 0.9701492537313433,
    "timeout_acc": 1.0,
    "percentage_ran_in_portfolio": 0.10666666666666667,
    "percentage_ran_with_selected_algo": 0.8933333333333333
  },
  "avg": {
    "sbs_running_time": 36772.12722,
    "sbs_solved": 41.4,
    "vbs_running_time": 36244.14741571516,
    "vbs_solved": 42.0,
    "algo_select_running_time": 41344.72359095266,
    "algo_select_solved": 41.0,
    "algo_select_acc": 0.973134328358209,
    "timeout_acc": 1.0,
    "percentage_ran_in_portfolio": 0.0881924231924232,
    "percentage_ran_with_selected_algo": 0.9118075768075767
  },
  "sum": {
    "sbs_running_time": 183860.6361,
    "sbs_solved": 207,
    "vbs_running_time": 181220.7370785758,
    "vbs_solved": 210,
    "algo_select_running_time": 206723.6179547633,
    "algo_select_solved": 205,
    "algo_select_acc": 4.865671641791045,
    "timeout_acc": 5.0,
    "percentage_ran_in_portfolio": 0.440962115962116,
    "percentage_ran_with_selected_algo": 4.559037884037884
  }
}