{
  "0": {
    "sbs": "ABCROWN",
    "sbs_running_time": 37315.196699999986,
    "sbs_solved": 41,
    "vbs_running_time": 36628.56062225574,
    "vbs_solved": 42,
    "algo_select_running_time": 39995.84282672489,
    "algo_select_solved": 38,
    "algo_select_acc": 0.8611111111111112,
    "timeout_acc": 0.9310344827586207,
    "percentage_ran_in_portfolio": 0.0,
    "percentage_ran_with_selected_algo": 1.0
  },
  "1": {
    "sbs": "ABCROWN",
    "sbs_running_time": 36255.48780000001,
    "sbs_solved": 42,
    "vbs_running_time": 35948.38863421937,
    "vbs_solved": 42,
    "algo_select_running_time": 38346.59111929222,
    "algo_select_solved": 41,
    "algo_select_acc": 0.9487179487179487,
    "timeout_acc": 1.0,
    "percentage_ran_in_portfolio": 0.0,
    "percentage_ran_with_selected_algo": 1.0
  },
  "2": {
    "sbs": "ABCROWN",
    "sbs_running_time": 36681.67579999999,
    "sbs_solved": 41,
    "vbs_running_time": 36146.16581898942,
    "vbs_solved": 42,
    "algo_select_running_time": 39227.1844502287,
    "algo_select_solved": 39,
    "algo_select_acc": 0.9054054054054054,
    "timeout_acc": 0.9655172413793104,
    "percentage_ran_in_portfolio": 0.013333333333333334,
    "percentage_ran_with_selected_algo": 0.9866666666666667
  },
  "3": {
    "sbs": "ABCROWN",
    "sbs_running_time": 36972.0105,
    "sbs_solved": 41,
    "vbs_running_time": 36282.03131775729,
    "vbs_solved": 42,
    "algo_select_running_time": 39271.2513401093,
    "algo_select_solved": 39,
    "algo_select_acc": 0.8904109589041096,
    "timeout_acc": 1.0,
    "percentage_ran_in_portfolio": 0.013513513513513514,
    "percentage_ran_with_selected_algo": 0.9864864864864865
  },
  "4": {
    "sbs": "ABCROWN",
    "sbs_running_time": 36636.26529999999,
    "sbs_solved": 42,
    "vbs_running_time": 36215.59068535397,
    "vbs_solved": 42,
    "algo_select_running_time": 39625.86782183298,
    "algo_select_solved": 38,
    "algo_select_acc": 0.88,
    "timeout_acc": 0.9827586206896551,
    "percentage_ran_in_portfolio": 0.0,
    "percentage_ran_with_selected_algo": 1.0
  },
  "avg": {
    "sbs_running_time": 36772.12722,
    "sbs_solved": 41.4,
    "vbs_running_time": 36244.14741571516,
    "vbs_solved": 42.0,
    "algo_select_running_time": 39293.34751163762,
    "algo_select_solved": 39.0,
    "algo_select_acc": 0.8971290848277149,
    "timeout_acc": 0.9758620689655173,
    "percentage_ran_in_portfolio": 0.00536936936936937,
    "percentage_ran_with_selected_algo": 0.9946306306306306
  },
  "sum": {
    "sbs_running_time": 183860.6361,
    "sbs_solved": 207,
    "vbs_running_time": 181220.7370785758,
    "vbs_solved": 210,
    "algo_select_running_time": 196466.7375581881,
    "algo_select_solved": 195,
    "algo_select_acc": 4.485645424138575,
    "timeout_acc": 4.879310344827586,
    "percentage_ran_in_portfolio": 0.02684684684684685,
    "percentage_ran_with_selected_algo": 4.973153153153153
  }
}