{
  "0": {
    "sbs": "ABCROWN",
    "sbs_running_time": 37315.196699999986,
    "sbs_solved": 41,
    "vbs_running_time": 36628.56062225574,
    "vbs_solved": 42,
    "algo_select_running_time": 55047.02367308863,
    "algo_select_solved": 42,
    "algo_select_acc": 1.0,
    "timeout_acc": 1.0,
    "percentage_ran_in_portfolio": 0.2638888888888889,
    "percentage_ran_with_selected_algo": 0.7361111111111112
  },
  "1": {
    "sbs": "ABCROWN",
    "sbs_running_time": 36255.48780000001,
    "sbs_solved": 42,
    "vbs_running_time": 35948.38863421937,
    "vbs_solved": 42,
    "algo_select_running_time": 49825.50574226743,
    "algo_select_solved": 42,
    "algo_select_acc": 1.0,
    "timeout_acc": 1.0,
    "percentage_ran_in_portfolio": 0.28205128205128205,
    "percentage_ran_with_selected_algo": 0.717948717948718
  },
  "2": {
    "sbs": "ABCROWN",
    "sbs_running_time": 36681.67579999999,
    "sbs_solved": 41,
    "vbs_running_time": 36146.16581898942,
    "vbs_solved": 42,
    "algo_select_running_time": 52276.97567490161,
    "algo_select_solved": 42,
    "algo_select_acc": 1.0,
    "timeout_acc": 1.0,
    "percentage_ran_in_portfolio": 0.29333333333333333,
    "percentage_ran_with_selected_algo": 0.7066666666666667
  },
  "3": {
    "sbs": "ABCROWN",
    "sbs_running_time": 36972.0105,
    "sbs_solved": 41,
    "vbs_running_time": 36282.03131775729,
    "vbs_solved": 42,
    "algo_select_running_time": 54593.91510578572,
    "algo_select_solved": 41,
    "algo_select_acc": 0.9807692307692307,
    "timeout_acc": 1.0,
    "percentage_ran_in_portfolio": 0.2972972972972973,
    "percentage_ran_with_selected_algo": 0.7027027027027027
  },
  "4": {
    "sbs": "ABCROWN",
    "sbs_running_time": 36636.26529999999,
    "sbs_solved": 42,
    "vbs_running_time": 36215.59068535397,
    "vbs_solved": 42,
    "algo_select_running_time": 50545.08317272367,
    "algo_select_solved": 41,
    "algo_select_acc": 0.9818181818181818,
    "timeout_acc": 1.0,
    "percentage_ran_in_portfolio": 0.26666666666666666,
    "percentage_ran_with_selected_algo": 0.7333333333333333
  },
  "avg": {
    "sbs_running_time": 36772.12722,
    "sbs_solved": 41.4,
    "vbs_running_time": 36244.14741571516,
    "vbs_solved": 42.0,
    "algo_select_running_time": 52457.70067375341,
    "algo_select_solved": 41.6,
    "algo_select_acc": 0.9925174825174825,
    "timeout_acc": 1.0,
    "percentage_ran_in_portfolio": 0.28064749364749364,
    "percentage_ran_with_selected_algo": 0.7193525063525064
  },
  "sum": {
    "sbs_running_time": 183860.6361,
    "sbs_solved": 207,
    "vbs_running_time": 181220.7370785758,
    "vbs_solved": 210,
    "algo_select_running_time": 262288.50336876704,
    "algo_select_solved": 208,
    "algo_select_acc": 4.962587412587412,
    "timeout_acc": 5.0,
    "percentage_ran_in_portfolio": 1.4032374682374682,
    "percentage_ran_with_selected_algo": 3.596762531762532
  }
}