{
  "0": {
    "test_acc": 0.88,
    "tp": 4,
    "tn": 18,
    "fp": 1,
    "fn": 2,
    "tpr": 0.6666666666666666,
    "fpr": 0.05263157894736842,
    "tnr": 0.9473684210526315,
    "fnr": 0.3333333333333333,
    "f1_score": 0.7272727272727272,
    "precision": 0.8,
    "recall": 0.6666666666666666
  },
  "1": {
    "test_acc": 0.88,
    "tp": 6,
    "tn": 16,
    "fp": 3,
    "fn": 0,
    "tpr": 1.0,
    "fpr": 0.15789473684210525,
    "tnr": 0.8421052631578947,
    "fnr": 0.0,
    "f1_score": 0.8,
    "precision": 0.6666666666666666,
    "recall": 1.0
  },
  "2": {
    "test_acc": 0.88,
    "tp": 7,
    "tn": 15,
    "fp": 3,
    "fn": 0,
    "tpr": 1.0,
    "fpr": 0.16666666666666666,
    "tnr": 0.8333333333333334,
    "fnr": 0.0,
    "f1_score": 0.8235294117647058,
    "precision": 0.7,
    "recall": 1.0
  },
  "3": {
    "test_acc": 0.88,
    "tp": 7,
    "tn": 15,
    "fp": 3,
    "fn": 0,
    "tpr": 1.0,
    "fpr": 0.16666666666666666,
    "tnr": 0.8333333333333334,
    "fnr": 0.0,
    "f1_score": 0.8235294117647058,
    "precision": 0.7,
    "recall": 1.0
  },
  "4": {
    "test_acc": 0.8,
    "tp": 7,
    "tn": 13,
    "fp": 5,
    "fn": 0,
    "tpr": 1.0,
    "fpr": 0.2777777777777778,
    "tnr": 0.7222222222222222,
    "fnr": 0.0,
    "f1_score": 0.7368421052631579,
    "precision": 0.5833333333333334,
    "recall": 1.0
  },
  "sum": {
    "tp": 31.0,
    "fp": 15.0,
    "tn": 77.0,
    "fn": 2.0,
    "tpr": 0.9393939393939394,
    "tnr": 0.8369565217391305,
    "fpr": 0.16304347826086957,
    "fnr": 0.06060606060606061
  },
  "avg": {
    "test_acc": 0.8640000000000001,
    "tp": 6.2,
    "tn": 15.4,
    "fp": 3.0,
    "fn": 0.4,
    "tpr": 0.9333333333333332,
    "fpr": 0.16432748538011693,
    "tnr": 0.835672514619883,
    "fnr": 0.06666666666666667,
    "f1_score": 0.7822347312130593,
    "precision": 0.6900000000000002,
    "recall": 0.9333333333333332
  }
}