{
  "0": {
    "test_acc": 0.7272727272727273,
    "tp": 10,
    "tn": 6,
    "fp": 0,
    "fn": 6,
    "tpr": 0.625,
    "fpr": 0.0,
    "tnr": 1.0,
    "fnr": 0.375,
    "f1_score": 0.7692307692307693,
    "precision": 1.0,
    "recall": 0.625
  },
  "1": {
    "test_acc": 0.5909090909090909,
    "tp": 7,
    "tn": 6,
    "fp": 0,
    "fn": 9,
    "tpr": 0.4375,
    "fpr": 0.0,
    "tnr": 1.0,
    "fnr": 0.5625,
    "f1_score": 0.6086956521739131,
    "precision": 1.0,
    "recall": 0.4375
  },
  "2": {
    "test_acc": 0.6818181818181818,
    "tp": 9,
    "tn": 6,
    "fp": 0,
    "fn": 7,
    "tpr": 0.5625,
    "fpr": 0.0,
    "tnr": 1.0,
    "fnr": 0.4375,
    "f1_score": 0.72,
    "precision": 1.0,
    "recall": 0.5625
  },
  "3": {
    "test_acc": 0.7727272727272727,
    "tp": 12,
    "tn": 5,
    "fp": 0,
    "fn": 5,
    "tpr": 0.7058823529411765,
    "fpr": 0.0,
    "tnr": 1.0,
    "fnr": 0.29411764705882354,
    "f1_score": 0.8275862068965517,
    "precision": 1.0,
    "recall": 0.7058823529411765
  },
  "4": {
    "test_acc": 0.5714285714285714,
    "tp": 7,
    "tn": 5,
    "fp": 0,
    "fn": 9,
    "tpr": 0.4375,
    "fpr": 0.0,
    "tnr": 1.0,
    "fnr": 0.5625,
    "f1_score": 0.6086956521739131,
    "precision": 1.0,
    "recall": 0.4375
  },
  "sum": {
    "tp": 45.0,
    "fp": 0.0,
    "tn": 28.0,
    "fn": 36.0,
    "tpr": 0.5555555555555556,
    "tnr": 1.0,
    "fpr": 0.0,
    "fnr": 0.4444444444444444
  },
  "avg": {
    "test_acc": 0.6688311688311688,
    "tp": 9.0,
    "tn": 5.6,
    "fp": 0.0,
    "fn": 7.2,
    "tpr": 0.5536764705882353,
    "fpr": 0.0,
    "tnr": 1.0,
    "fnr": 0.4463235294117647,
    "f1_score": 0.7068416560950294,
    "precision": 1.0,
    "recall": 0.5536764705882353
  }
}