{
  "0": {
    "test_acc": 1.0,
    "tp": 12,
    "tn": 27,
    "fp": 0,
    "fn": 0,
    "tpr": 1.0,
    "fpr": 0.0,
    "tnr": 1.0,
    "fnr": 0.0,
    "f1_score": 1.0,
    "precision": 1.0,
    "recall": 1.0
  },
  "1": {
    "test_acc": 0.8717948717948718,
    "tp": 7,
    "tn": 27,
    "fp": 0,
    "fn": 5,
    "tpr": 0.5833333333333334,
    "fpr": 0.0,
    "tnr": 1.0,
    "fnr": 0.4166666666666667,
    "f1_score": 0.7368421052631579,
    "precision": 1.0,
    "recall": 0.5833333333333334
  },
  "2": {
    "test_acc": 0.9487179487179487,
    "tp": 10,
    "tn": 27,
    "fp": 0,
    "fn": 2,
    "tpr": 0.8333333333333334,
    "fpr": 0.0,
    "tnr": 1.0,
    "fnr": 0.16666666666666666,
    "f1_score": 0.9090909090909091,
    "precision": 1.0,
    "recall": 0.8333333333333334
  },
  "3": {
    "test_acc": 0.9230769230769231,
    "tp": 10,
    "tn": 26,
    "fp": 0,
    "fn": 3,
    "tpr": 0.7692307692307693,
    "fpr": 0.0,
    "tnr": 1.0,
    "fnr": 0.23076923076923078,
    "f1_score": 0.8695652173913044,
    "precision": 1.0,
    "recall": 0.7692307692307693
  },
  "4": {
    "test_acc": 0.868421052631579,
    "tp": 7,
    "tn": 26,
    "fp": 0,
    "fn": 5,
    "tpr": 0.5833333333333334,
    "fpr": 0.0,
    "tnr": 1.0,
    "fnr": 0.4166666666666667,
    "f1_score": 0.7368421052631579,
    "precision": 1.0,
    "recall": 0.5833333333333334
  },
  "sum": {
    "tp": 46.0,
    "fp": 0.0,
    "tn": 133.0,
    "fn": 15.0,
    "tpr": 0.7540983606557377,
    "tnr": 1.0,
    "fpr": 0.0,
    "fnr": 0.2459016393442623
  },
  "avg": {
    "test_acc": 0.9224021592442645,
    "tp": 9.2,
    "tn": 26.6,
    "fp": 0.0,
    "fn": 3.0,
    "tpr": 0.7538461538461539,
    "fpr": 0.0,
    "tnr": 1.0,
    "fnr": 0.24615384615384617,
    "f1_score": 0.8504680674017058,
    "precision": 1.0,
    "recall": 0.7538461538461539
  }
}