{
  "0": {
    "test_acc": 0.6470588235294118,
    "tp": 0,
    "tn": 11,
    "fp": 0,
    "fn": 6,
    "tpr": 0.0,
    "fpr": 0.0,
    "tnr": 1.0,
    "fnr": 1.0,
    "f1_score": 0.0,
    "precision": 0.0,
    "recall": 0.0
  },
  "1": {
    "test_acc": 0.625,
    "tp": 0,
    "tn": 10,
    "fp": 0,
    "fn": 6,
    "tpr": 0.0,
    "fpr": 0.0,
    "tnr": 1.0,
    "fnr": 1.0,
    "f1_score": 0.0,
    "precision": 0.0,
    "recall": 0.0
  },
  "2": {
    "test_acc": 0.5882352941176471,
    "tp": 0,
    "tn": 10,
    "fp": 0,
    "fn": 7,
    "tpr": 0.0,
    "fpr": 0.0,
    "tnr": 1.0,
    "fnr": 1.0,
    "f1_score": 0.0,
    "precision": 0.0,
    "recall": 0.0
  },
  "3": {
    "test_acc": 0.5882352941176471,
    "tp": 0,
    "tn": 10,
    "fp": 0,
    "fn": 7,
    "tpr": 0.0,
    "fpr": 0.0,
    "tnr": 1.0,
    "fnr": 1.0,
    "f1_score": 0.0,
    "precision": 0.0,
    "recall": 0.0
  },
  "4": {
    "test_acc": 0.5882352941176471,
    "tp": 0,
    "tn": 10,
    "fp": 0,
    "fn": 7,
    "tpr": 0.0,
    "fpr": 0.0,
    "tnr": 1.0,
    "fnr": 1.0,
    "f1_score": 0.0,
    "precision": 0.0,
    "recall": 0.0
  },
  "sum": {
    "tp": 0.0,
    "fp": 0.0,
    "tn": 51.0,
    "fn": 33.0,
    "tpr": 0.0,
    "tnr": 1.0,
    "fpr": 0.0,
    "fnr": 1.0
  },
  "avg": {
    "test_acc": 0.6073529411764707,
    "tp": 0.0,
    "tn": 10.2,
    "fp": 0.0,
    "fn": 6.6,
    "tpr": 0.0,
    "fpr": 0.0,
    "tnr": 1.0,
    "fnr": 1.0,
    "f1_score": 0.0,
    "precision": 0.0,
    "recall": 0.0
  }
}