{
  "0": {
    "test_acc": 0.8536585365853658,
    "tp": 17,
    "tn": 18,
    "fp": 6,
    "fn": 0,
    "tpr": 1.0,
    "fpr": 0.25,
    "tnr": 0.75,
    "fnr": 0.0,
    "f1_score": 0.85,
    "precision": 0.7391304347826086,
    "recall": 1.0
  },
  "1": {
    "test_acc": 0.9024390243902439,
    "tp": 17,
    "tn": 20,
    "fp": 4,
    "fn": 0,
    "tpr": 1.0,
    "fpr": 0.16666666666666666,
    "tnr": 0.8333333333333334,
    "fnr": 0.0,
    "f1_score": 0.8947368421052632,
    "precision": 0.8095238095238095,
    "recall": 1.0
  },
  "2": {
    "test_acc": 0.9,
    "tp": 16,
    "tn": 20,
    "fp": 4,
    "fn": 0,
    "tpr": 1.0,
    "fpr": 0.16666666666666666,
    "tnr": 0.8333333333333334,
    "fnr": 0.0,
    "f1_score": 0.888888888888889,
    "precision": 0.8,
    "recall": 1.0
  },
  "3": {
    "test_acc": 0.85,
    "tp": 16,
    "tn": 18,
    "fp": 6,
    "fn": 0,
    "tpr": 1.0,
    "fpr": 0.25,
    "tnr": 0.75,
    "fnr": 0.0,
    "f1_score": 0.8421052631578948,
    "precision": 0.7272727272727273,
    "recall": 1.0
  },
  "4": {
    "test_acc": 0.875,
    "tp": 16,
    "tn": 19,
    "fp": 5,
    "fn": 0,
    "tpr": 1.0,
    "fpr": 0.20833333333333334,
    "tnr": 0.7916666666666666,
    "fnr": 0.0,
    "f1_score": 0.8648648648648648,
    "precision": 0.7619047619047619,
    "recall": 1.0
  },
  "sum": {
    "tp": 82.0,
    "fp": 25.0,
    "tn": 95.0,
    "fn": 0.0,
    "tpr": 1.0,
    "tnr": 0.7916666666666666,
    "fpr": 0.20833333333333334,
    "fnr": 0.0
  },
  "avg": {
    "test_acc": 0.876219512195122,
    "tp": 16.4,
    "tn": 19.0,
    "fp": 5.0,
    "fn": 0.0,
    "tpr": 1.0,
    "fpr": 0.20833333333333331,
    "tnr": 0.7916666666666667,
    "fnr": 0.0,
    "f1_score": 0.8681191718033823,
    "precision": 0.7675663466967816,
    "recall": 1.0
  }
}