{
  "0": {
    "test_acc": 0.9487179487179487,
    "tp": 61,
    "tn": 13,
    "fp": 4,
    "fn": 0,
    "tpr": 1.0,
    "fpr": 0.23529411764705882,
    "tnr": 0.7647058823529411,
    "fnr": 0.0,
    "f1_score": 0.9682539682539683,
    "precision": 0.9384615384615385,
    "recall": 1.0
  },
  "1": {
    "test_acc": 0.9358974358974359,
    "tp": 61,
    "tn": 12,
    "fp": 5,
    "fn": 0,
    "tpr": 1.0,
    "fpr": 0.29411764705882354,
    "tnr": 0.7058823529411765,
    "fnr": 0.0,
    "f1_score": 0.9606299212598425,
    "precision": 0.9242424242424242,
    "recall": 1.0
  },
  "2": {
    "test_acc": 0.9615384615384616,
    "tp": 61,
    "tn": 14,
    "fp": 3,
    "fn": 0,
    "tpr": 1.0,
    "fpr": 0.17647058823529413,
    "tnr": 0.8235294117647058,
    "fnr": 0.0,
    "f1_score": 0.976,
    "precision": 0.953125,
    "recall": 1.0
  },
  "3": {
    "test_acc": 0.9487179487179487,
    "tp": 61,
    "tn": 13,
    "fp": 4,
    "fn": 0,
    "tpr": 1.0,
    "fpr": 0.23529411764705882,
    "tnr": 0.7647058823529411,
    "fnr": 0.0,
    "f1_score": 0.9682539682539683,
    "precision": 0.9384615384615385,
    "recall": 1.0
  },
  "4": {
    "test_acc": 0.9090909090909091,
    "tp": 61,
    "tn": 9,
    "fp": 7,
    "fn": 0,
    "tpr": 1.0,
    "fpr": 0.4375,
    "tnr": 0.5625,
    "fnr": 0.0,
    "f1_score": 0.9457364341085273,
    "precision": 0.8970588235294118,
    "recall": 1.0
  },
  "sum": {
    "tp": 305.0,
    "fp": 23.0,
    "tn": 61.0,
    "fn": 0.0,
    "tpr": 1.0,
    "tnr": 0.7261904761904762,
    "fpr": 0.27380952380952384,
    "fnr": 0.0
  },
  "avg": {
    "test_acc": 0.9407925407925408,
    "tp": 61.0,
    "tn": 12.2,
    "fp": 4.6,
    "fn": 0.0,
    "tpr": 1.0,
    "fpr": 0.2757352941176471,
    "tnr": 0.7242647058823529,
    "fnr": 0.0,
    "f1_score": 0.9637748583752612,
    "precision": 0.9302698649389827,
    "recall": 1.0
  }
}