{
  "results": {
    "Vanilla Verifier": [
      2.0,
      0.0,
      1.0,
      1.0,
      1.0,
      1.0,
      0.0,
      1.0,
      2.0,
      0.0,
      2.0,
      2.0,
      1.0,
      2.0,
      1.0,
      1.0,
      1.0,
      0.0,
      2.0,
      2.0,
      2.0,
      2.0,
      1.0,
      1.0,
      1.0,
      0.0,
      2.0,
      2.0,
      1.0,
      2.0,
      2.0,
      2.0,
      0.0,
      2.0,
      1.0,
      2.0,
      1.0,
      0.0,
      1.0,
      1.0,
      1.0,
      0.0,
      2.0,
      0.0,
      1.0,
      1.0,
      0.0,
      0.0,
      2.0,
      1.0,
      2.0,
      0.0,
      1.0,
      2.0,
      2.0,
      0.0,
      1.0,
      1.0,
      1.0,
      1.0,
      0.0,
      2.0,
      0.0,
      1.0,
      2.0,
      1.0,
      1.0,
      0.0,
      0.0,
      1.0,
      2.0,
      1.0,
      1.0,
      2.0,
      1.0,
      1.0,
      0.0,
      2.0,
      1.0,
      2.0,
      1.0,
      1.0,
      2.0,
      1.0,
      1.0,
      2.0,
      2.0,
      1.0,
      2.0,
      2.0,
      0.0,
      0.0,
      1.0,
      2.0,
      0.0,
      1.0,
      2.0,
      2.0,
      2.0,
      2.0,
      0.0,
      1.0,
      2.0,
      1.0,
      2.0,
      2.0,
      0.0,
      1.0,
      1.0,
      1.0,
      0.0,
      1.0,
      2.0,
      1.0,
      2.0,
      2.0,
      1.0,
      0.0,
      0.0,
      1.0,
      1.0,
      1.0,
      1.0,
      2.0,
      0.0,
      2.0,
      0.0,
      2.0,
      2.0,
      2.0,
      0.0,
      1.0,
      2.0,
      1.0,
      1.0,
      2.0,
      2.0,
      1.0,
      0.0,
      1.0,
      0.0,
      1.0,
      2.0,
      1.0,
      1.0,
      2.0,
      1.0,
      1.0,
      2.0,
      0.0,
      1.0,
      1.0,
      0.0,
      0.0,
      1.0,
      1.0,
      2.0,
      0.0,
      2.0,
      1.0,
      0.0,
      1.0,
      2.0,
      2.0,
      2.0,
      2.0,
      1.0,
      0.0,
      2.0,
      1.0,
      2.0,
      2.0,
      0.0,
      2.0,
      2.0,
      0.0,
      0.0,
      1.0,
      2.0,
      1.0,
      0.0,
      0.0,
      1.0,
      1.0,
      0.0,
      2.0,
      1.0,
      0.0,
      2.0,
      2.0,
      0.0,
      0.0,
      2.0,
      2.0,
      1.0,
      0.0,
      2.0,
      1.0,
      0.0,
      1.0,
      1.0,
      2.0,
      1.0,
      1.0,
      2.0,
      2.0,
      1.0,
      2.0,
      0.0,
      1.0,
      2.0,
      0.0,
      2.0,
      1.0,
      1.0,
      0.0,
      2.0,
      1.0,
      2.0,
      1.0,
      1.0,
      0.0,
      0.0,
      1.0,
      2.0,
      0.0,
      2.0,
      1.0,
      2.0,
      1.0,
      0.0,
      1.0,
      1.0,
      1.0,
      2.0,
      1.0,
      2.0,
      2.0,
      1.0,
      1.0,
      1.0,
      2.0,
      1.0,
      2.0,
      2.0,
      1.0,
      1.0,
      2.0,
      2.0,
      2.0,
      1.0,
      1.0,
      1.0,
      1.0,
      2.0,
      2.0,
      1.0,
      1.0,
      2.0,
      1.0,
      1.0,
      2.0,
      2.0,
      0.0,
      1.0,
      0.0,
      2.0,
      2.0,
      1.0,
      0.0,
      2.0,
      0.0,
      1.0,
      1.0,
      0.0,
      1.0,
      2.0,
      2.0,
      0.0,
      0.0,
      2.0,
      2.0,
      1.0,
      1.0,
      1.0,
      0.0,
      2.0,
      2.0,
      2.0,
      2.0,
      2.0,
      1.0,
      0.0,
      2.0,
      2.0,
      1.0,
      0.0,
      1.0,
      1.0,
      2.0,
      1.0,
      2.0,
      0.0,
      2.0,
      2.0,
      2.0,
      2.0,
      0.0,
      0.0,
      1.0,
      2.0,
      2.0,
      0.0,
      0.0,
      2.0,
      1.0,
      2.0,
      2.0,
      2.0,
      2.0,
      2.0,
      2.0,
      1.0,
      1.0,
      0.0,
      1.0,
      0.0,
      1.0,
      1.0,
      0.0,
      1.0,
      1.0,
      1.0,
      0.0,
      1.0,
      2.0,
      1.0,
      2.0,
      0.0,
      2.0,
      0.0,
      2.0,
      1.0,
      0.0,
      1.0,
      0.0,
      0.0,
      1.0,
      1.0,
      1.0,
      0.0,
      1.0,
      2.0,
      1.0,
      1.0,
      1.0,
      1.0,
      1.0,
      1.0,
      2.0,
      1.0,
      1.0,
      1.0,
      0.0,
      1.0,
      2.0,
      0.0,
      1.0,
      1.0,
      1.0,
      1.0,
      0.0,
      2.0,
      2.0,
      1.0,
      1.0,
      2.0,
      2.0,
      2.0,
      0.0,
      0.0,
      2.0,
      1.0,
      0.0,
      1.0,
      1.0,
      1.0,
      2.0,
      0.0,
      2.0,
      2.0,
      2.0,
      2.0,
      0.0,
      1.0,
      2.0,
      1.0,
      1.0,
      1.0,
      1.0,
      2.0,
      2.0,
      2.0,
      2.0,
      0.0,
      2.0,
      1.0,
      1.0,
      1.0,
      1.0,
      2.0,
      2.0,
      2.0,
      0.0,
      0.0,
      1.0,
      2.0,
      0.0,
      0.0,
      1.0,
      1.0,
      1.0,
      2.0,
      2.0,
      2.0,
      1.0,
      1.0,
      2.0,
      1.0,
      1.0,
      1.0,
      1.0,
      1.0,
      2.0,
      1.0,
      1.0,
      2.0,
      1.0,
      1.0,
      1.0,
      1.0,
      1.0,
      2.0,
      2.0,
      1.0,
      2.0,
      1.0,
      1.0,
      2.0,
      1.0,
      1.0,
      1.0,
      1.0,
      2.0,
      0.0,
      1.0,
      1.0,
      2.0,
      1.0,
      0.0,
      1.0,
      1.0,
      0.0,
      1.0,
      1.0,
      2.0,
      1.0,
      1.0,
      1.0,
      0.0,
      0.0,
      2.0,
      1.0,
      1.0,
      2.0,
      2.0,
      2.0,
      2.0,
      2.0,
      2.0,
      2.0,
      2.0,
      1.0,
      1.0,
      2.0,
      1.0,
      2.0,
      2.0,
      2.0,
      1.0,
      0.0,
      1.0,
      2.0,
      2.0,
      0.0,
      0.0,
      2.0,
      1.0,
      0.0,
      0.0,
      1.0,
      1.0,
      2.0,
      2.0,
      1.0,
      0.0,
      1.0,
      0.0,
      2.0,
      1.0,
      2.0,
      1.0,
      2.0,
      2.0,
      2.0,
      1.0,
      2.0,
      0.0,
      0.0,
      1.0,
      2.0,
      0.0,
      1.0,
      2.0,
      1.0,
      0.0,
      1.0,
      2.0,
      1.0,
      1.0,
      1.0,
      1.0,
      2.0,
      1.0,
      0.0,
      1.0,
      1.0,
      2.0,
      2.0,
      2.0,
      1.0,
      1.0,
      2.0,
      2.0,
      1.0,
      2.0,
      1.0,
      1.0,
      2.0,
      1.0,
      1.0,
      0.0,
      0.0,
      2.0,
      1.0,
      0.0,
      1.0,
      1.0,
      0.0,
      1.0,
      2.0,
      2.0,
      2.0,
      1.0,
      2.0,
      2.0,
      2.0,
      2.0,
      1.0,
      1.0,
      0.0,
      1.0,
      0.0,
      0.0,
      1.0,
      2.0,
      2.0,
      1.0,
      1.0,
      1.0,
      1.0,
      2.0,
      1.0,
      0.0,
      1.0,
      2.0,
      1.0,
      1.0,
      1.0,
      0.0,
      1.0,
      2.0,
      1.0,
      1.0,
      2.0,
      1.0,
      2.0,
      2.0,
      1.0,
      1.0,
      0.0,
      1.0,
      1.0,
      2.0,
      2.0,
      1.0,
      2.0,
      1.0,
      1.0,
      0.0,
      1.0,
      1.0,
      1.0,
      1.0,
      2.0,
      2.0,
      1.0,
      0.0,
      1.0,
      1.0,
      1.0,
      2.0,
      1.0,
      1.0,
      0.0,
      2.0,
      1.0,
      2.0,
      0.0,
      2.0,
      1.0,
      2.0,
      1.0,
      1.0,
      1.0,
      2.0,
      2.0,
      1.0,
      0.0,
      0.0,
      2.0,
      2.0,
      2.0,
      2.0,
      1.0,
      2.0,
      2.0,
      2.0,
      2.0,
      2.0,
      1.0,
      1.0,
      0.0,
      1.0,
      2.0,
      2.0,
      2.0,
      1.0,
      1.0,
      2.0,
      1.0,
      0.0,
      1.0,
      2.0,
      1.0,
      0.0,
      0.0,
      2.0,
      0.0,
      0.0,
      1.0,
      2.0,
      1.0,
      0.0,
      0.0,
      0.0,
      2.0,
      1.0,
      0.0,
      1.0,
      1.0,
      0.0,
      0.0,
      2.0,
      0.0,
      2.0,
      1.0,
      0.0,
      0.0,
      2.0,
      1.0,
      1.0,
      2.0,
      2.0,
      1.0,
      1.0,
      2.0,
      2.0,
      2.0,
      2.0,
      0.0,
      2.0,
      2.0,
      1.0,
      1.0,
      1.0,
      0.0,
      1.0,
      1.0,
      2.0,
      2.0,
      2.0,
      1.0,
      0.0,
      2.0,
      2.0,
      1.0,
      1.0,
      2.0,
      1.0,
      2.0,
      1.0,
      2.0,
      2.0,
      0.0,
      1.0,
      1.0,
      1.0,
      1.0,
      1.0,
      1.0,
      1.0,
      1.0,
      1.0,
      1.0,
      0.0,
      1.0,
      1.0,
      1.0,
      1.0,
      2.0,
      1.0,
      2.0,
      1.0,
      2.0,
      0.0,
      2.0,
      0.0,
      2.0,
      1.0,
      1.0,
      1.0,
      0.0,
      2.0,
      0.0,
      0.0,
      2.0,
      1.0,
      0.0,
      1.0,
      1.0,
      2.0,
      1.0,
      1.0,
      0.0,
      2.0,
      2.0,
      2.0,
      1.0,
      1.0,
      2.0,
      2.0,
      1.0,
      2.0,
      2.0,
      1.0,
      1.0,
      1.0,
      2.0,
      2.0,
      1.0,
      2.0,
      0.0,
      1.0,
      1.0,
      1.0,
      1.0,
      0.0,
      2.0,
      2.0,
      2.0,
      2.0,
      0.0,
      0.0,
      0.0,
      2.0,
      1.0,
      1.0,
      1.0,
      0.0,
      1.0,
      2.0,
      2.0,
      1.0,
      1.0,
      2.0,
      1.0,
      1.0,
      1.0,
      2.0,
      2.0,
      1.0,
      1.0,
      2.0,
      1.0,
      1.0,
      1.0,
      1.0,
      2.0,
      0.0,
      1.0,
      1.0,
      1.0,
      1.0,
      2.0,
      2.0,
      1.0,
      1.0,
      2.0,
      2.0,
      2.0,
      1.0,
      1.0,
      2.0,
      0.0,
      2.0,
      2.0,
      1.0,
      1.0,
      0.0,
      1.0,
      2.0,
      1.0,
      2.0,
      0.0,
      2.0,
      2.0,
      1.0,
      2.0,
      1.0,
      2.0,
      0.0,
      1.0,
      1.0,
      1.0,
      0.0,
      2.0,
      1.0,
      2.0,
      1.0,
      1.0,
      2.0,
      0.0,
      1.0,
      2.0,
      0.0,
      2.0,
      2.0,
      1.0,
      1.0,
      0.0,
      1.0,
      2.0,
      2.0,
      0.0,
      1.0,
      1.0,
      1.0,
      0.0,
      1.0,
      2.0,
      1.0,
      1.0,
      0.0,
      0.0,
      1.0,
      1.0,
      1.0,
      1.0,
      2.0,
      1.0,
      2.0,
      1.0,
      1.0,
      2.0,
      1.0,
      1.0,
      1.0,
      1.0,
      2.0,
      1.0,
      0.0,
      1.0,
      0.0,
      2.0,
      2.0,
      1.0,
      2.0,
      2.0,
      1.0,
      1.0,
      1.0,
      2.0,
      2.0,
      1.0,
      2.0,
      1.0,
      2.0,
      2.0,
      0.0,
      1.0,
      2.0,
      1.0,
      2.0,
      1.0,
      1.0,
      0.0,
      2.0,
      0.0,
      1.0,
      2.0,
      2.0,
      1.0,
      2.0,
      1.0,
      1.0,
      1.0,
      1.0,
      2.0,
      2.0,
      2.0,
      0.0,
      1.0,
      2.0,
      1.0,
      1.0,
      1.0,
      2.0,
      1.0,
      1.0,
      2.0,
      1.0,
      0.0,
      1.0,
      1.0,
      1.0,
      1.0,
      1.0,
      1.0,
      2.0,
      2.0,
      1.0,
      2.0,
      2.0,
      2.0,
      1.0,
      1.0,
      1.0,
      2.0,
      1.0,
      2.0,
      2.0,
      1.0,
      1.0,
      0.0,
      1.0,
      1.0,
      2.0,
      1.0,
      2.0,
      0.0,
      1.0,
      2.0,
      1.0,
      1.0,
      1.0,
      1.0,
      2.0,
      1.0,
      0.0,
      2.0,
      2.0,
      1.0,
      1.0,
      2.0,
      2.0,
      1.0,
      0.0,
      0.0,
      2.0
    ],
    "Timeout Prediction": [
      2.0,
      0.0,
      1.0,
      1.0,
      2.0,
      1.0,
      0.0,
      1.0,
      2.0,
      0.0,
      2.0,
      2.0,
      1.0,
      2.0,
      1.0,
      1.0,
      1.0,
      0.0,
      2.0,
      2.0,
      2.0,
      2.0,
      1.0,
      1.0,
      1.0,
      0.0,
      2.0,
      2.0,
      1.0,
      2.0,
      2.0,
      2.0,
      0.0,
      2.0,
      1.0,
      2.0,
      1.0,
      0.0,
      1.0,
      1.0,
      1.0,
      0.0,
      2.0,
      0.0,
      1.0,
      1.0,
      0.0,
      0.0,
      2.0,
      1.0,
      2.0,
      0.0,
      1.0,
      2.0,
      2.0,
      0.0,
      1.0,
      1.0,
      1.0,
      1.0,
      0.0,
      2.0,
      0.0,
      1.0,
      2.0,
      1.0,
      1.0,
      0.0,
      0.0,
      1.0,
      2.0,
      1.0,
      1.0,
      2.0,
      1.0,
      1.0,
      0.0,
      2.0,
      1.0,
      2.0,
      1.0,
      1.0,
      2.0,
      1.0,
      1.0,
      2.0,
      2.0,
      1.0,
      2.0,
      2.0,
      0.0,
      0.0,
      1.0,
      2.0,
      0.0,
      1.0,
      2.0,
      2.0,
      2.0,
      2.0,
      0.0,
      1.0,
      2.0,
      1.0,
      2.0,
      2.0,
      0.0,
      1.0,
      1.0,
      1.0,
      0.0,
      1.0,
      2.0,
      1.0,
      2.0,
      2.0,
      1.0,
      0.0,
      0.0,
      1.0,
      1.0,
      1.0,
      1.0,
      2.0,
      0.0,
      2.0,
      0.0,
      2.0,
      2.0,
      2.0,
      0.0,
      1.0,
      2.0,
      1.0,
      1.0,
      2.0,
      2.0,
      1.0,
      0.0,
      1.0,
      0.0,
      1.0,
      2.0,
      1.0,
      1.0,
      2.0,
      1.0,
      1.0,
      2.0,
      0.0,
      1.0,
      1.0,
      0.0,
      0.0,
      1.0,
      1.0,
      2.0,
      0.0,
      2.0,
      2.0,
      0.0,
      1.0,
      2.0,
      2.0,
      2.0,
      2.0,
      1.0,
      0.0,
      2.0,
      1.0,
      2.0,
      2.0,
      0.0,
      2.0,
      2.0,
      0.0,
      0.0,
      1.0,
      2.0,
      1.0,
      0.0,
      0.0,
      1.0,
      1.0,
      0.0,
      2.0,
      1.0,
      0.0,
      2.0,
      2.0,
      0.0,
      0.0,
      2.0,
      2.0,
      1.0,
      0.0,
      2.0,
      1.0,
      0.0,
      1.0,
      1.0,
      2.0,
      1.0,
      1.0,
      2.0,
      2.0,
      1.0,
      2.0,
      0.0,
      1.0,
      2.0,
      0.0,
      2.0,
      1.0,
      1.0,
      0.0,
      2.0,
      1.0,
      2.0,
      1.0,
      1.0,
      0.0,
      0.0,
      1.0,
      2.0,
      0.0,
      2.0,
      1.0,
      2.0,
      1.0,
      0.0,
      1.0,
      1.0,
      1.0,
      2.0,
      1.0,
      2.0,
      2.0,
      1.0,
      1.0,
      1.0,
      2.0,
      1.0,
      2.0,
      2.0,
      1.0,
      1.0,
      2.0,
      2.0,
      2.0,
      1.0,
      1.0,
      1.0,
      1.0,
      2.0,
      2.0,
      1.0,
      1.0,
      2.0,
      1.0,
      1.0,
      2.0,
      2.0,
      0.0,
      1.0,
      0.0,
      2.0,
      2.0,
      1.0,
      0.0,
      2.0,
      0.0,
      1.0,
      1.0,
      0.0,
      1.0,
      2.0,
      2.0,
      0.0,
      0.0,
      2.0,
      2.0,
      1.0,
      1.0,
      1.0,
      0.0,
      2.0,
      2.0,
      2.0,
      2.0,
      2.0,
      1.0,
      0.0,
      2.0,
      2.0,
      1.0,
      0.0,
      1.0,
      1.0,
      2.0,
      1.0,
      2.0,
      0.0,
      2.0,
      2.0,
      2.0,
      2.0,
      0.0,
      0.0,
      1.0,
      2.0,
      2.0,
      0.0,
      0.0,
      2.0,
      1.0,
      2.0,
      2.0,
      2.0,
      2.0,
      2.0,
      2.0,
      1.0,
      1.0,
      0.0,
      1.0,
      0.0,
      1.0,
      1.0,
      0.0,
      1.0,
      1.0,
      1.0,
      0.0,
      1.0,
      2.0,
      1.0,
      2.0,
      0.0,
      2.0,
      0.0,
      2.0,
      1.0,
      0.0,
      1.0,
      0.0,
      0.0,
      1.0,
      1.0,
      1.0,
      0.0,
      1.0,
      2.0,
      1.0,
      1.0,
      1.0,
      1.0,
      1.0,
      1.0,
      2.0,
      1.0,
      1.0,
      1.0,
      0.0,
      1.0,
      2.0,
      0.0,
      1.0,
      1.0,
      1.0,
      1.0,
      0.0,
      2.0,
      2.0,
      1.0,
      1.0,
      2.0,
      2.0,
      2.0,
      0.0,
      0.0,
      2.0,
      1.0,
      0.0,
      1.0,
      1.0,
      1.0,
      2.0,
      0.0,
      2.0,
      2.0,
      2.0,
      2.0,
      0.0,
      1.0,
      2.0,
      1.0,
      1.0,
      1.0,
      1.0,
      2.0,
      2.0,
      2.0,
      2.0,
      0.0,
      2.0,
      1.0,
      1.0,
      1.0,
      1.0,
      2.0,
      2.0,
      2.0,
      0.0,
      0.0,
      1.0,
      2.0,
      0.0,
      0.0,
      1.0,
      1.0,
      1.0,
      2.0,
      2.0,
      2.0,
      1.0,
      1.0,
      2.0,
      1.0,
      1.0,
      1.0,
      1.0,
      1.0,
      2.0,
      1.0,
      1.0,
      2.0,
      1.0,
      1.0,
      1.0,
      1.0,
      1.0,
      2.0,
      2.0,
      1.0,
      2.0,
      1.0,
      1.0,
      2.0,
      1.0,
      1.0,
      1.0,
      1.0,
      2.0,
      0.0,
      1.0,
      1.0,
      2.0,
      1.0,
      0.0,
      1.0,
      1.0,
      0.0,
      1.0,
      1.0,
      2.0,
      1.0,
      1.0,
      1.0,
      0.0,
      0.0,
      2.0,
      1.0,
      1.0,
      2.0,
      2.0,
      2.0,
      2.0,
      2.0,
      2.0,
      2.0,
      2.0,
      1.0,
      1.0,
      2.0,
      1.0,
      2.0,
      2.0,
      2.0,
      1.0,
      0.0,
      1.0,
      2.0,
      2.0,
      0.0,
      0.0,
      2.0,
      1.0,
      0.0,
      0.0,
      1.0,
      1.0,
      2.0,
      2.0,
      1.0,
      0.0,
      1.0,
      0.0,
      2.0,
      1.0,
      2.0,
      1.0,
      2.0,
      2.0,
      2.0,
      1.0,
      2.0,
      0.0,
      0.0,
      1.0,
      2.0,
      0.0,
      1.0,
      2.0,
      1.0,
      0.0,
      1.0,
      2.0,
      1.0,
      1.0,
      1.0,
      1.0,
      2.0,
      1.0,
      0.0,
      1.0,
      1.0,
      2.0,
      2.0,
      2.0,
      1.0,
      1.0,
      2.0,
      2.0,
      1.0,
      2.0,
      1.0,
      1.0,
      2.0,
      1.0,
      1.0,
      0.0,
      0.0,
      2.0,
      1.0,
      0.0,
      1.0,
      1.0,
      0.0,
      1.0,
      2.0,
      2.0,
      2.0,
      1.0,
      2.0,
      2.0,
      2.0,
      2.0,
      1.0,
      1.0,
      0.0,
      1.0,
      0.0,
      0.0,
      1.0,
      2.0,
      2.0,
      1.0,
      1.0,
      1.0,
      1.0,
      2.0,
      1.0,
      0.0,
      1.0,
      2.0,
      1.0,
      1.0,
      1.0,
      0.0,
      1.0,
      2.0,
      1.0,
      1.0,
      2.0,
      1.0,
      2.0,
      2.0,
      1.0,
      1.0,
      0.0,
      1.0,
      1.0,
      2.0,
      2.0,
      1.0,
      2.0,
      1.0,
      1.0,
      0.0,
      1.0,
      1.0,
      1.0,
      1.0,
      2.0,
      2.0,
      1.0,
      0.0,
      1.0,
      1.0,
      1.0,
      2.0,
      1.0,
      1.0,
      0.0,
      2.0,
      1.0,
      2.0,
      0.0,
      2.0,
      1.0,
      2.0,
      1.0,
      1.0,
      1.0,
      2.0,
      2.0,
      1.0,
      0.0,
      0.0,
      2.0,
      2.0,
      2.0,
      2.0,
      1.0,
      2.0,
      2.0,
      2.0,
      2.0,
      2.0,
      1.0,
      1.0,
      0.0,
      1.0,
      2.0,
      2.0,
      2.0,
      1.0,
      1.0,
      2.0,
      1.0,
      0.0,
      1.0,
      2.0,
      1.0,
      0.0,
      0.0,
      2.0,
      0.0,
      0.0,
      1.0,
      2.0,
      1.0,
      0.0,
      0.0,
      0.0,
      2.0,
      1.0,
      0.0,
      1.0,
      1.0,
      0.0,
      0.0,
      2.0,
      0.0,
      2.0,
      1.0,
      0.0,
      0.0,
      2.0,
      1.0,
      1.0,
      2.0,
      2.0,
      1.0,
      1.0,
      2.0,
      2.0,
      2.0,
      2.0,
      0.0,
      2.0,
      2.0,
      1.0,
      1.0,
      1.0,
      0.0,
      1.0,
      1.0,
      2.0,
      2.0,
      2.0,
      1.0,
      0.0,
      2.0,
      2.0,
      1.0,
      1.0,
      2.0,
      1.0,
      2.0,
      1.0,
      2.0,
      2.0,
      0.0,
      1.0,
      1.0,
      1.0,
      1.0,
      1.0,
      1.0,
      1.0,
      1.0,
      2.0,
      1.0,
      0.0,
      1.0,
      1.0,
      1.0,
      1.0,
      2.0,
      1.0,
      2.0,
      1.0,
      2.0,
      0.0,
      2.0,
      0.0,
      2.0,
      1.0,
      1.0,
      1.0,
      0.0,
      2.0,
      0.0,
      0.0,
      2.0,
      1.0,
      0.0,
      1.0,
      1.0,
      2.0,
      1.0,
      1.0,
      0.0,
      2.0,
      2.0,
      2.0,
      1.0,
      1.0,
      2.0,
      2.0,
      1.0,
      2.0,
      2.0,
      1.0,
      1.0,
      1.0,
      2.0,
      2.0,
      1.0,
      2.0,
      0.0,
      1.0,
      1.0,
      1.0,
      1.0,
      0.0,
      2.0,
      2.0,
      2.0,
      2.0,
      0.0,
      0.0,
      0.0,
      2.0,
      1.0,
      1.0,
      1.0,
      0.0,
      1.0,
      2.0,
      2.0,
      1.0,
      1.0,
      2.0,
      1.0,
      1.0,
      1.0,
      2.0,
      2.0,
      1.0,
      1.0,
      2.0,
      1.0,
      1.0,
      1.0,
      1.0,
      2.0,
      0.0,
      1.0,
      1.0,
      1.0,
      1.0,
      2.0,
      2.0,
      1.0,
      1.0,
      2.0,
      2.0,
      2.0,
      1.0,
      1.0,
      2.0,
      0.0,
      2.0,
      2.0,
      1.0,
      1.0,
      0.0,
      1.0,
      2.0,
      1.0,
      2.0,
      0.0,
      2.0,
      2.0,
      1.0,
      2.0,
      1.0,
      2.0,
      0.0,
      1.0,
      1.0,
      1.0,
      0.0,
      2.0,
      1.0,
      2.0,
      1.0,
      1.0,
      2.0,
      0.0,
      1.0,
      2.0,
      0.0,
      2.0,
      2.0,
      1.0,
      1.0,
      0.0,
      1.0,
      2.0,
      2.0,
      0.0,
      1.0,
      1.0,
      1.0,
      0.0,
      1.0,
      2.0,
      1.0,
      1.0,
      0.0,
      0.0,
      1.0,
      1.0,
      1.0,
      1.0,
      2.0,
      1.0,
      2.0,
      1.0,
      1.0,
      2.0,
      1.0,
      1.0,
      1.0,
      1.0,
      2.0,
      1.0,
      0.0,
      1.0,
      0.0,
      2.0,
      2.0,
      1.0,
      2.0,
      2.0,
      1.0,
      1.0,
      1.0,
      2.0,
      2.0,
      1.0,
      2.0,
      1.0,
      2.0,
      2.0,
      0.0,
      1.0,
      2.0,
      1.0,
      2.0,
      1.0,
      1.0,
      0.0,
      2.0,
      0.0,
      1.0,
      2.0,
      2.0,
      1.0,
      2.0,
      1.0,
      1.0,
      1.0,
      1.0,
      2.0,
      2.0,
      2.0,
      0.0,
      1.0,
      2.0,
      1.0,
      1.0,
      1.0,
      2.0,
      1.0,
      1.0,
      2.0,
      1.0,
      0.0,
      1.0,
      1.0,
      1.0,
      1.0,
      1.0,
      1.0,
      2.0,
      2.0,
      1.0,
      2.0,
      2.0,
      2.0,
      1.0,
      1.0,
      1.0,
      2.0,
      1.0,
      2.0,
      2.0,
      1.0,
      1.0,
      0.0,
      1.0,
      1.0,
      2.0,
      1.0,
      2.0,
      0.0,
      1.0,
      2.0,
      1.0,
      1.0,
      1.0,
      1.0,
      2.0,
      1.0,
      0.0,
      2.0,
      2.0,
      1.0,
      1.0,
      2.0,
      2.0,
      1.0,
      0.0,
      0.0,
      2.0
    ]
  },
  "running_times": {
    "Vanilla Verifier": [
      2.778730719141739,
      -1.6270879970298935,
      1.5085647304484537,
      2.5070324947621403,
      2.3331557660953655,
      -0.4495270428934366,
      -1.75448733218585,
      2.5053582540045656,
      2.7792390973536616,
      -1.853871964321762,
      2.778986463626229,
      2.7793234203236263,
      2.4379356532837857,
      2.780710951639195,
      2.2113128062129657,
      -0.49825627037200554,
      -0.5179844235492883,
      -1.5575202309355514,
      2.7793160571550373,
      2.7788948494021914,
      2.7807759239964125,
      2.7790040184043163,
      0.09732673571577281,
      2.085813771590521,
      2.44981582981795,
      -1.1706962271689751,
      2.780651079245467,
      2.779944508785321,
      -0.5054280157698013,
      2.7793220487624684,
      2.779439698521158,
      2.7804923630730523,
      -1.5316526695878427,
      2.7797416887094824,
      -0.5329841815615645,
      2.7799906401933696,
      -0.09248115389337073,
      -1.1791420105603,
      1.7066008739819407,
      2.438760153360124,
      -0.4978461071286392,
      -1.5917600346881504,
      2.779495264319026,
      -1.494850021680094,
      2.575769940578175,
      2.0356490315437736,
      -1.1354889189416082,
      -1.26440110030182,
      2.77956431476042,
      -0.518987579043427,
      2.7794653895658814,
      -1.2992962828549806,
      2.382716935842066,
      2.7793401674578964,
      2.7792822716045222,
      -1.1931419704811825,
      1.8662985655991673,
      2.5653573082768606,
      2.4574823739504095,
      1.749876163692991,
      -1.368556230986828,
      2.779194330220161,
      -1.1475200063631437,
      1.815419009254467,
      2.7798970027300247,
      -0.27967528258255825,
      0.3197512933763195,
      -1.2620126736665693,
      -1.6595558851598817,
      -0.4190750243243807,
      2.7799557537676773,
      1.7849722848676266,
      -0.4165744995934932,
      2.7796504500771406,
      -0.4260845595784493,
      2.2909683422386378,
      -1.3045183235098026,
      2.7793092713793306,
      -0.4500163888403112,
      2.77887237640035,
      -0.37737157387067494,
      -0.45879530931674156,
      2.7812103341822607,
      1.7338943059966307,
      2.4650983846575487,
      2.7792384475411813,
      2.7810566396126926,
      1.857858759508021,
      2.77918501518821,
      2.7795783832532517,
      -1.5451551399914898,
      -1.9507819773298183,
      0.06974207604164477,
      2.779422305687168,
      -1.3925449767853315,
      2.3215501728418815,
      2.780514752405373,
      2.7793478189508622,
      2.7803188246058625,
      2.779257508303251,
      -1.1992829217176149,
      2.079801482139799,
      2.7796332099532584,
      1.6878677036179883,
      2.7795571721204055,
      2.779199601428791,
      -1.1706962271689751,
      -0.3583276267753135,
      2.144039961554863,
      -0.45419824284072385,
      -1.2798406965940432,
      1.7729785203672481,
      2.77943536842014,
      2.4424347694348945,
      2.7799766571278517,
      2.7794278628094355,
      -0.48333244090095706,
      -1.8239087409443189,
      -1.6777807052660807,
      -0.5135695211455662,
      -0.1760695448744361,
      2.47430981677023,
      2.2186906576917265,
      2.779613588561179,
      -1.2441251443275085,
      2.778591763414495,
      -1.58838029403677,
      2.779102759839617,
      2.780349504916008,
      2.7793518611946126,
      -1.6345120151091004,
      2.038192809426648,
      2.781940323179841,
      2.481264717659646,
      2.257565547620539,
      2.7789556146222094,
      2.7791549024389877,
      2.415623968027965,
      -1.8210230527068305,
      1.9468706368465525,
      -1.2915790998652872,
      2.0998846218463054,
      2.7787493685034965,
      -0.5256380239673693,
      -0.4613006204575932,
      2.7793367025865487,
      -0.5104633705179047,
      -0.5368538632736505,
      2.7797625302609186,
      -1.6179829574251317,
      2.4224841256837992,
      2.0526531647980386,
      -1.7212463990471711,
      -1.583359492661719,
      1.709265719798072,
      1.5463884121954214,
      2.779808320468363,
      -1.174573882232177,
      2.781069149997396,
      2.540192781934259,
      -1.4609239012072235,
      -0.38268506670170627,
      2.7806796491937193,
      2.7810337748749716,
      2.779718466148847,
      2.780445492920003,
      -0.5165553519014647,
      -1.5686362358410126,
      2.780111567717838,
      -0.2383728154384173,
      2.779178877267261,
      2.780714549476869,
      -1.2533658010624211,
      2.7793864352780995,
      2.7807244793541956,
      -2.0,
      -1.6363880201078558,
      1.7837435465610396,
      2.7797077198853133,
      -0.5134278494816437,
      -1.6882461389442456,
      -1.586700235918748,
      1.8587879572934378,
      1.6752493531503956,
      -1.8239087409443189,
      2.7792803945524267,
      -0.533577277566208,
      -1.5228787452803376,
      2.780073448193286,
      2.779703031834697,
      -1.7212463990471711,
      -2.050609993355087,
      2.7814595947849083,
      2.7804816359421527,
      2.1007595125229157,
      -1.174573882232177,
      2.7787006471662528,
      2.2136043416374505,
      -1.5590909179347823,
      -0.5394028111023985,
      2.126602800992565,
      2.780519503690777,
      -0.20356444118982547,
      -0.44708854978349116,
      2.779227978206085,
      2.780312342572871,
      -0.47417804784333734,
      2.7791223321032144,
      -1.4788619162959638,
      -0.503485481302255,
      2.779435512757536,
      -1.490797477668897,
      2.779874942005815,
      -0.3786159715183469,
      -0.5266590358140646,
      -1.3946949538588904,
      2.779045771362898,
      -0.3379981206100829,
      2.778793892423401,
      2.1372813007990947,
      2.3725852390952404,
      -1.585026652029182,
      -1.630784142589857,
      -0.4774253673088232,
      2.7803464081755336,
      -1.679853713888946,
      2.780040514265413,
      -0.51173138450454,
      2.778728911990481,
      1.6369430150620987,
      -1.8297382846050425,
      1.7655545654343212,
      -0.5091990479891451,
      2.0428593057539755,
      2.7795977898108126,
      2.456852443788805,
      2.7800280462843454,
      2.7791793827463818,
      -0.5100415205751654,
      2.4597750412335304,
      -0.4696722102219137,
      2.778935023318118,
      -0.4724989890188798,
      2.7800516126295185,
      2.7804498849617283,
      2.258850546991949,
      2.0493405384734804,
      2.780047793094659,
      2.779918413537801,
      2.77872746626406,
      -0.46167766676856004,
      -0.44818417764898444,
      1.8403501596117202,
      2.459313312277566,
      2.77865871641699,
      2.7783676198928657,
      2.4437728862113706,
      -0.46941614035488227,
      2.779094020647406,
      -0.5032086842999576,
      2.3414044493858897,
      2.780132031261941,
      2.77980529197382,
      -1.2335871528876006,
      1.8168627913110444,
      -1.0893755951107988,
      2.781337461312954,
      2.779538485264074,
      -0.3755116374865511,
      -1.5391021572434522,
      2.7813171263468437,
      -1.489454989793388,
      1.7708012183003548,
      -0.4233131947990044,
      -1.1518108830086013,
      -0.3561526897002858,
      2.7805793942251773,
      2.7796551386953894,
      -1.4236586497942072,
      -1.115204636051019,
      2.7793876622826796,
      2.780200116043075,
      2.494126753736251,
      -0.42492767428618755,
      -0.15199572850273174,
      -1.5575202309355514,
      2.7812472760309426,
      2.780268766395371,
      2.7802096974888366,
      2.780589183238756,
      2.781564027580904,
      2.4608372777460494,
      -1.4190750243243806,
      2.7802032138268586,
      2.780470764552592,
      2.0024995409938384,
      -1.5800442515102422,
      2.025045210371338,
      -0.3669357273085008,
      2.780482931851232,
      -0.42354346759437983,
      2.7814687893266523,
      -1.9355420107730816,
      2.7814359610461143,
      2.779140314697041,
      2.7801046502454327,
      2.780182681591988,
      -1.3861581781239307,
      -1.4975728800155672,
      1.7953181981996762,
      2.779159163122643,
      2.7821264839926885,
      -1.6536470255493614,
      -1.243363891754152,
      2.7794028191121822,
      -0.5341711846425635,
      2.780348208608729,
      2.7796074566943494,
      2.779110993297837,
      2.779841055704342,
      2.77977168868865,
      2.779152808189326,
      -0.5032086842999576,
      1.8624992999282166,
      -1.295849483160201,
      2.4449175065156297,
      -2.0315170514460648,
      -0.5039010078674286,
      1.8573397346123155,
      -1.3635121036466347,
      -0.4614262661931443,
      2.4673242046954202,
      2.531259542932268,
      -1.6161846340195687,
      -0.4920092751803086,
      2.779851438171271,
      2.1756810914351736,
      2.7790894704198603,
      -1.269217724333611,
      2.7790317578416417,
      -1.2487208960166578,
      2.779975215549106,
      2.2935528069512974,
      -1.6420651529995463,
      2.462731677403086,
      -1.3736596326249577,
      -1.7878123955960423,
      -0.515557792357593,
      2.423969477317124,
      1.6729923220503131,
      -1.6363880201078558,
      -0.5297365530349215,
      2.7797398857601054,
      1.6161992000122214,
      1.6835387199470249,
      0.10030160401385385,
      2.2122875072871735,
      2.127341651129326,
      1.756854341525101,
      2.7793024854975954,
      1.6071943683212366,
      -0.5121548798885645,
      -0.4796474959166821,
      -1.3829996588791011,
      2.136738635966999,
      2.7788084195329885,
      -1.7033348097384688,
      1.8616920902686662,
      2.144384882445438,
      2.4578427025365923,
      -0.4743074754949891,
      -1.8961962790440432,
      2.7795979340942383,
      2.7795726116190163,
      1.5555635718803877,
      -0.5050110263168319,
      2.7800738805696024,
      2.7798422814251644,
      2.779967863423068,
      -1.5058454059815571,
      -1.6197887582883939,
      2.7806089045519506,
      -0.4932244633933567,
      -1.5512936800949202,
      2.4259816523409325,
      1.8542708108896673,
      -0.4837291172706599,
      2.7799304521479176,
      -1.785156151952302,
      2.7802071760762357,
      2.7809067745786504,
      2.780225329920232,
      2.7801676240027873,
      -1.563837352959244,
      1.749846034477808,
      2.7803515934029295,
      -0.48122293107322517,
      1.7781867163181597,
      -0.4721124340472953,
      -0.5204246898250116,
      2.779947896727318,
      2.7797772413421273,
      2.780412155155212,
      2.780364772243925,
      -1.5361070110140926,
      2.779430605259155,
      0.2996380249790756,
      1.7894685989566232,
      -0.4913356369470573,
      2.1175006486575376,
      2.7807853488577745,
      2.778801842643075,
      2.7803039157853418,
      -1.4179366370882913,
      -1.6439741428068773,
      2.1095107147302037,
      2.7793234203236263,
      -1.3872161432802645,
      -1.7011469235902934,
      -0.5069604116823487,
      -0.5204246898250116,
      2.0853066364801696,
      2.780363547996857,
      2.7785911126327196,
      2.781042762729933,
      -0.4780777551164996,
      1.5800852122340978,
      2.7813393294953004,
      2.103478733439318,
      2.421039965062763,
      -0.5016894462103995,
      2.2304077891884035,
      -0.5162701009999763,
      2.7806551093772165,
      1.779374959008596,
      2.6251367422749237,
      2.782518774461041,
      -0.09701860020249718,
      2.1554456602076453,
      -0.5241835869686818,
      1.868189336792561,
      2.3622218953013494,
      2.7798116373667265,
      2.7808384408201574,
      -0.47172622283295623,
      2.778768523022002,
      -0.5187007266671443,
      2.4563657294265018,
      2.7809370537853635,
      1.8029289492770453,
      -0.5169835798558678,
      1.8336436200601098,
      2.443727864041346,
      2.7804144593595095,
      -1.282329496997738,
      2.533338564114976,
      -0.49498575991589294,
      2.779445327587938,
      -0.4418916983694504,
      -1.6840296545430822,
      -0.5326879370194478,
      -0.09555495892309032,
      -1.6675615400843946,
      2.353445153397171,
      -0.4964816872759253,
      2.780344679752644,
      1.694715732552553,
      1.9878297647840728,
      -0.3920091414528251,
      -1.3757179041643317,
      -1.3467874862246563,
      2.7794039738965535,
      -0.3841551171252979,
      1.9872764760769124,
      2.7793532326616224,
      2.778674332479471,
      2.780335389361757,
      2.780764628282419,
      2.778716695450738,
      2.779636888865584,
      2.7795589758284653,
      2.7803973215473707,
      2.475714615601292,
      -0.3960981682683286,
      2.779584804106208,
      -0.4590451910738673,
      2.7787890499455514,
      2.779818559507799,
      2.780374926160122,
      -0.017367005605150372,
      -1.5451551399914898,
      1.7711367859924525,
      2.7801674799085028,
      2.779239458360175,
      -1.575118363368933,
      -1.5058454059815571,
      2.7804349806397544,
      1.8335009082010618,
      -1.9244530386074692,
      -1.493494967595128,
      2.4339021016400073,
      2.4516215871841056,
      2.7809483450156316,
      2.78007849255686,
      -0.38753403604685766,
      -1.465973893943865,
      1.982313755625787,
      -1.1857524042680798,
      2.781099130314771,
      -0.5104633705179047,
      2.780827578358687,
      -0.520856752021387,
      2.7795521938472887,
      2.7806300643811217,
      2.779241840995638,
      -0.30847647783184556,
      2.7797830102575585,
      -1.5436339668709569,
      -1.3045183235098026,
      -0.5295895090240693,
      2.779832115047811,
      -1.6819366650372385,
      -0.13548891894160814,
      2.7800418835594387,
      1.7641208142518188,
      -1.6615435063953952,
      2.420679244869136,
      2.7800206950526265,
      -0.2340335752142861,
      -0.5181275896893365,
      -0.5371529641683263,
      2.3836457426590942,
      2.7790698244457284,
      1.9660464122469135,
      -1.3946949538588904,
      1.7360584976406706,
      1.7689051065601298,
      2.7805402359642666,
      2.7786985507249358,
      2.7809361188295694,
      1.6971168302184771,
      -0.5178413045887236,
      2.780351161303011,
      2.7808246289017187,
      -0.48678239993206096,
      2.7789579988154065,
      -0.5076587467450255,
      2.271041489407565,
      2.781603596309693,
      -0.48095996135165536,
      2.147922303256891,
      -1.3726341434072673,
      -1.585026652029182,
      2.78247104751679,
      -0.5041782466140943,
      -1.6003262785189618,
      1.6129310681889195,
      -0.47729500726525004,
      -1.3946949538588904,
      -0.5030703519267851,
      2.7803773745866596,
      2.780554632794137,
      2.780907134201569,
      -0.4905286478974515,
      2.778691032369403,
      2.782858945714024,
      2.778912335628096,
      2.779885756226333,
      -0.49295412757267426,
      -0.4296906145641202,
      -1.6615435063953952,
      2.3048372217538162,
      -1.2240256688706308,
      -1.8860566476931633,
      1.9463716870689238,
      2.7816716661947005,
      2.7798008213004195,
      2.240832695151067,
      1.7870734754098234,
      -0.530177984021837,
      -0.5326879370194478,
      2.7789027977739735,
      2.584730162234338,
      -2.0222763947111524,
      -0.5154154707171571,
      2.780835275627646,
      -0.5218665718994825,
      -0.4509967379742122,
      2.3492460472639305,
      -1.0675262353228467,
      -0.20155653964981252,
      2.7807410286452225,
      -0.5212892444872407,
      1.7769073885939688,
      2.779595697695754,
      2.4393323779796154,
      2.779696107851991,
      2.7804758762994606,
      -0.5294425147827259,
      -0.06153031163235465,
      -1.295849483160201,
      2.1098426876803766,
      -0.48744900709578926,
      2.778965512550769,
      2.7804866035726232,
      2.3791644171250974,
      2.780452980964451,
      -0.4277093938485824,
      1.4728836482634802,
      -1.341035157335565,
      1.7627378157544975,
      2.4530613574356717,
      -0.3564486314370549,
      -0.47860037188462434,
      2.7808739757164114,
      2.7802838204782945,
      2.4183032804502216,
      -1.4975728800155672,
      2.524730186113157,
      -0.5184140636323777,
      -0.4705696456330141,
      2.7801420465183537,
      -0.4631891340084585,
      1.6658623002031552,
      -1.3124710387853658,
      2.7803318604015077,
      -0.45518808824222384,
      2.7801851311025816,
      -1.391473966422806,
      2.780213803758025,
      2.2880141241005902,
      2.7786356527791582,
      1.7536205888931562,
      2.4424708322268422,
      1.8467390505961658,
      2.7801108471529368,
      2.7813381798455765,
      2.094879725224353,
      -1.679853713888946,
      -1.173277479831008,
      2.7792292778614036,
      2.779940255799443,
      2.7792857369101545,
      2.7798571340025537,
      -0.4778166823813137,
      2.778344106689021,
      2.7800080823553754,
      2.779704041572952,
      2.779682836576575,
      2.778320302795197,
      2.2893541292699897,
      -0.4667364832212852,
      -1.609064892896621,
      0.023663918197793475,
      2.779285664716569,
      2.7803450398413134,
      2.7795164784756183,
      2.445270804910025,
      2.5202235332845953,
      2.7794690699000832,
      -0.39544996742873867,
      -1.485452247339714,
      -0.4396150770279845,
      2.7798872701957165,
      2.449389062644261,
      -1.665546248849069,
      -1.6615435063953952,
      2.7796149592019255,
      -1.5497508916806388,
      -1.4190750243243806,
      2.3226498599940064,
      2.7810024237809023,
      -0.3808022842070527,
      -1.4034029043735399,
      -1.7166987712964503,
      -1.6108339156354676,
      2.7799267757215396,
      2.2272563919449344,
      -1.9393021596463884,
      1.7949367484075835,
      1.8185821593307272,
      -1.3767507096020994,
      -1.3045183235098026,
      2.7791845819260472,
      -1.5543957967264024,
      2.779226100919314,
      -0.38499738547541174,
      -1.4449055514216809,
      -1.2358238676096693,
      2.7791946912638887,
      -0.3238553196437938,
      2.4828490109889665,
      2.779573838097709,
      2.779120598801815,
      1.8119300706793209,
      2.465068469110996,
      2.7793097767067074,
      2.7795574607141984,
      2.7803579308190076,
      2.779787409004083,
      -1.6736641390712486,
      2.7802605548574655,
      2.7811641165110546,
      -0.438898616350944,
      2.1155862171272206,
      -0.431211787684653,
      -1.2873502983727887,
      -0.5043169323830847,
      2.3859962486024195,
      2.7795153239903576,
      2.778485239147177,
      2.7789590825352604,
      -0.05804158346918638,
      -2.0222763947111524,
      2.7835843841312315,
      2.779499016558211,
      -0.5278288533076368,
      2.5355493038548476,
      2.7794160267751495,
      -0.44830608487277523,
      2.7799157462556696,
      2.460386005478153,
      2.779725245534018,
      2.779953375045691,
      -1.5917600346881504,
      -0.4835968515525968,
      -0.5171264163912462,
      -0.46928816201834306,
      2.466646711354385,
      -0.09625905937846137,
      -0.5379016188648442,
      2.260726630380464,
      2.1270380285582866,
      2.5017035127808613,
      -0.5199930570428494,
      -1.4067139329795428,
      1.586052545837062,
      2.4599217631070474,
      -0.5010006364198468,
      1.7487096425380402,
      2.782299516870124,
      -0.5075189898711233,
      2.779306600353429,
      2.5264608886672355,
      2.7797589966426797,
      -1.1012748184105066,
      2.7795339396909533,
      -1.6020599913279623,
      2.78036304389412,
      2.172285266406748,
      1.6259253820060506,
      -0.5310621943345387,
      -1.5816987086802545,
      2.7792740413928274,
      -1.2365720064370627,
      -1.4723700991286615,
      2.7793100654649443,
      -0.5090587946432132,
      -1.2321023839819094,
      -0.2003149090908996,
      -0.48905305132702726,
      2.7794015199760946,
      -0.5221555236612417,
      2.4597569611864887,
      -1.4509967379742121,
      2.780611135739023,
      2.7793647095052534,
      2.7784388028781986,
      -0.4614262661931443,
      1.6853654855982656,
      2.781152112049968,
      2.7794307495981343,
      -0.5191310763128322,
      2.7798063014743475,
      2.7800175959666746,
      2.163755438886845,
      -0.499763525174361,
      -0.5316526695878427,
      2.7809265533969647,
      2.7803368297454547,
      2.4566467153088736,
      2.779611424382772,
      -1.6716203965612624,
      2.4492975469246394,
      2.389795620761583,
      1.6702569886873067,
      -0.4514877436589645,
      -1.6556077263148892,
      2.7816463207437216,
      2.779294183476795,
      2.779648286082415,
      2.7795819183413433,
      -1.5800442515102422,
      -1.6216020990518623,
      -1.9546770212133426,
      2.7787266711124774,
      -0.5279753022997186,
      1.6304156698563723,
      0.07711343230376036,
      -1.2941362877160807,
      1.8672647304930334,
      2.7795835776584834,
      2.77961813330073,
      2.440415342273212,
      1.8699740805871143,
      2.7798065899026385,
      2.07292563543944,
      -0.5231683714877393,
      0.02329362303660499,
      2.7806687827598178,
      2.7794023860672517,
      1.888102516405859,
      1.7238963106841676,
      2.779101387581404,
      -0.494850021680094,
      1.8050166796440121,
      -0.490663041982356,
      1.7818716495090394,
      2.7796188546835867,
      -1.413412695328245,
      -0.45792185366437443,
      0.21708895147917184,
      -0.5175552080817347,
      -0.39859193946531624,
      2.7795908641500096,
      2.783756908690963,
      -0.48784946307796945,
      2.443795395546255,
      2.7795462775644513,
      2.7794947592074295,
      2.779747674447738,
      1.5032743963350503,
      2.461664319391144,
      2.7802531355274214,
      -1.6055483191737838,
      2.779401953021889,
      2.7800395773775395,
      2.220025668917632,
      2.2171700859687706,
      -1.6840296545430822,
      -0.5246194068566388,
      2.7797366404323656,
      -0.47185492174689364,
      2.780114233797578,
      -1.1463017882238256,
      2.781061672569406,
      2.780063791676723,
      2.0131149999929137,
      2.7803404306837995,
      2.1820752451133205,
      2.779579465426132,
      -1.2549252084179425,
      2.5165213599055933,
      -0.42354346759437983,
      -0.10045306890913301,
      -1.4989407377822486,
      2.778926136243166,
      -0.43415218132648237,
      2.780590982665774,
      -0.38216125228299663,
      -0.35753547975787864,
      2.7794559360154762,
      -1.6536470255493614,
      -0.43842163169903936,
      2.780065377089697,
      -1.359518563029578,
      2.7809709985095075,
      2.780311118177998,
      -0.3885953622884065,
      2.4028241385342857,
      -1.3925449767853315,
      -0.3748934245965324,
      2.7801241053557444,
      2.7796210188249675,
      -1.1390633792999063,
      -0.38142897187987024,
      -0.459545386328588,
      -0.43050904565121695,
      -1.3334820194451191,
      -0.43309134477319655,
      2.7802972894786024,
      -0.39040559077478,
      -0.44502654166676014,
      -1.9030899869919435,
      -1.6595558851598817,
      1.61219875408901,
      -0.5205686628022635,
      -0.5037624548332648,
      1.7643084188215563,
      2.779167467724884,
      -0.253599355508439,
      2.7801904623425866,
      -0.41850545770910075,
      -0.5007254181077827,
      2.778983140419635,
      -0.4799096718871575,
      1.7020296631291174,
      2.670380482053817,
      0.0949251011241623,
      2.7793642042417903,
      1.6363926018904709,
      -1.6777807052660807,
      -0.35242144578754486,
      -1.453457336521869,
      2.783688521693969,
      2.779045771362898,
      -0.18184011360281466,
      2.779065562885514,
      2.7804860996127014,
      1.5392204212417295,
      -0.5394028111023985,
      2.3559433908082026,
      2.7797965669071902,
      2.7790161546261594,
      1.7697029248532812,
      2.7809471943304396,
      -0.4581712332186876,
      2.7794252646832005,
      2.7798132958064086,
      -1.154901959985743,
      1.925627124394577,
      2.780456868936608,
      -0.4652126413705083,
      2.7796111358248363,
      -0.4618034216505458,
      2.455125003863822,
      -1.5934598195660448,
      2.779147247546392,
      -1.5590909179347823,
      -0.5253467466379372,
      2.7825331058527625,
      2.779730221823867,
      -0.5147045612739112,
      2.7796013247409417,
      1.7987521300716762,
      2.0293797188393095,
      -0.5127201835569312,
      -0.5175552080817347,
      2.7799196390403145,
      2.77958473196232,
      2.7795773732227973,
      -1.9829666607012197,
      2.196363574052337,
      2.7827036847524216,
      1.7192492274116176,
      1.589358603548606,
      1.6895104173491886,
      2.7786247350814657,
      -0.4769041617474322,
      -0.4511194373624851,
      2.779340528380405,
      -0.518987579043427,
      -2.0268721464003012,
      -0.5300307905000405,
      2.3487056701202804,
      2.1920670854182256,
      2.4852856360903535,
      -0.4443011052810986,
      2.4624791584559786,
      2.77884990223556,
      2.780501722098346,
      -0.24848994972995866,
      2.7822101048405368,
      2.77966292890302,
      2.7795703029438448,
      2.440507173758195,
      2.4549323196339636,
      2.167004057055689,
      2.779526507937182,
      -0.5145625189236986,
      2.778897522961663,
      2.7803695251704226,
      -0.48958905198982305,
      2.5421758640652174,
      -1.0851281824599497,
      -0.45173345482925475,
      -0.5040396051182948,
      2.779088675930797,
      -0.45259454033251034,
      2.7802396651576533,
      -1.1209041204999273,
      -0.5181275896893365,
      2.7817446068872007,
      2.262981886020288,
      1.684224882484099,
      -0.45580788923496734,
      1.7917236232782185,
      2.7798249768108625,
      1.726983798806851,
      -1.6345120151091004,
      2.7798715534946457,
      2.779006546811835,
      1.7673451326858491,
      -0.22863302914221936,
      2.7787972893532507,
      2.781136009736804,
      -0.5306198641500748,
      -1.5331323796458904,
      -1.978810700930062,
      2.779244729021099
    ],
    "Timeout Prediction": [
      1.3010299956639813,
      -1.6270879970298935,
      1.5085647304484537,
      2.5070324947621403,
      1.3010299956639813,
      -0.4495270428934366,
      -1.75448733218585,
      2.5053582540045656,
      1.3010299956639813,
      -1.853871964321762,
      2.778986463626229,
      1.3010299956639813,
      2.4379356532837857,
      1.3010299956639813,
      2.2113128062129657,
      -0.49825627037200554,
      -0.5179844235492883,
      -1.5575202309355514,
      1.3010299956639813,
      1.3010299956639813,
      1.3010299956639813,
      1.3010299956639813,
      0.09732673571577281,
      2.085813771590521,
      2.44981582981795,
      -1.1706962271689751,
      1.3010299956639813,
      1.3010299956639813,
      -0.5054280157698013,
      1.3010299956639813,
      1.3010299956639813,
      1.3010299956639813,
      -1.5316526695878427,
      1.3010299956639813,
      -0.5329841815615645,
      1.3010299956639813,
      -0.09248115389337073,
      -1.1791420105603,
      1.7066008739819407,
      2.438760153360124,
      -0.4978461071286392,
      -1.5917600346881504,
      2.779495264319026,
      -1.494850021680094,
      2.575769940578175,
      2.0356490315437736,
      -1.1354889189416082,
      -1.26440110030182,
      1.3010299956639813,
      -0.518987579043427,
      1.3010299956639813,
      -1.2992962828549806,
      2.382716935842066,
      2.7793401674578964,
      2.7792822716045222,
      -1.1931419704811825,
      1.8662985655991673,
      2.5653573082768606,
      2.4574823739504095,
      1.749876163692991,
      -1.368556230986828,
      1.3010299956639813,
      -1.1475200063631437,
      1.815419009254467,
      1.3010299956639813,
      -0.27967528258255825,
      0.3197512933763195,
      -1.2620126736665693,
      -1.6595558851598817,
      -0.4190750243243807,
      2.7799557537676773,
      1.7849722848676266,
      -0.4165744995934932,
      1.3010299956639813,
      -0.4260845595784493,
      2.2909683422386378,
      -1.3045183235098026,
      2.7793092713793306,
      -0.4500163888403112,
      1.3010299956639813,
      -0.37737157387067494,
      -0.45879530931674156,
      1.3010299956639813,
      1.7338943059966307,
      2.4650983846575487,
      1.3010299956639813,
      1.3010299956639813,
      1.857858759508021,
      1.3010299956639813,
      1.3010299956639813,
      -1.5451551399914898,
      -1.9507819773298183,
      0.06974207604164477,
      1.3010299956639813,
      -1.3925449767853315,
      2.3215501728418815,
      1.3010299956639813,
      1.3010299956639813,
      2.7803188246058625,
      2.779257508303251,
      -1.1992829217176149,
      2.079801482139799,
      1.3010299956639813,
      1.6878677036179883,
      1.3010299956639813,
      1.3010299956639813,
      -1.1706962271689751,
      -0.3583276267753135,
      2.144039961554863,
      -0.45419824284072385,
      -1.2798406965940432,
      1.7729785203672481,
      1.3010299956639813,
      2.4424347694348945,
      1.3010299956639813,
      1.3010299956639813,
      -0.48333244090095706,
      -1.8239087409443189,
      -1.6777807052660807,
      -0.5135695211455662,
      -0.1760695448744361,
      2.47430981677023,
      2.2186906576917265,
      1.3010299956639813,
      -1.2441251443275085,
      2.778591763414495,
      -1.58838029403677,
      1.3010299956639813,
      1.3010299956639813,
      1.3010299956639813,
      -1.6345120151091004,
      2.038192809426648,
      1.3010299956639813,
      2.481264717659646,
      2.257565547620539,
      2.7789556146222094,
      2.7791549024389877,
      2.415623968027965,
      -1.8210230527068305,
      1.9468706368465525,
      -1.2915790998652872,
      2.0998846218463054,
      1.3010299956639813,
      -0.5256380239673693,
      -0.4613006204575932,
      1.3010299956639813,
      -0.5104633705179047,
      -0.5368538632736505,
      1.3010299956639813,
      -1.6179829574251317,
      2.4224841256837992,
      2.0526531647980386,
      -1.7212463990471711,
      -1.583359492661719,
      1.709265719798072,
      1.5463884121954214,
      1.3010299956639813,
      -1.174573882232177,
      2.781069149997396,
      1.3010299956639813,
      -1.4609239012072235,
      -0.38268506670170627,
      1.3010299956639813,
      1.3010299956639813,
      1.3010299956639813,
      1.3010299956639813,
      -0.5165553519014647,
      -1.5686362358410126,
      1.3010299956639813,
      -0.2383728154384173,
      1.3010299956639813,
      1.3010299956639813,
      -1.2533658010624211,
      1.3010299956639813,
      1.3010299956639813,
      -2.0,
      -1.6363880201078558,
      1.7837435465610396,
      1.3010299956639813,
      -0.5134278494816437,
      -1.6882461389442456,
      -1.586700235918748,
      1.8587879572934378,
      1.6752493531503956,
      -1.8239087409443189,
      1.3010299956639813,
      -0.533577277566208,
      -1.5228787452803376,
      1.3010299956639813,
      1.3010299956639813,
      -1.7212463990471711,
      -2.050609993355087,
      1.3010299956639813,
      1.3010299956639813,
      2.1007595125229157,
      -1.174573882232177,
      1.3010299956639813,
      2.2136043416374505,
      -1.5590909179347823,
      -0.5394028111023985,
      2.126602800992565,
      1.3010299956639813,
      -0.20356444118982547,
      -0.44708854978349116,
      1.3010299956639813,
      1.3010299956639813,
      -0.47417804784333734,
      2.7791223321032144,
      -1.4788619162959638,
      -0.503485481302255,
      2.779435512757536,
      -1.490797477668897,
      1.3010299956639813,
      -0.3786159715183469,
      -0.5266590358140646,
      -1.3946949538588904,
      1.3010299956639813,
      -0.3379981206100829,
      1.3010299956639813,
      2.1372813007990947,
      2.3725852390952404,
      -1.585026652029182,
      -1.630784142589857,
      -0.4774253673088232,
      1.3010299956639813,
      -1.679853713888946,
      2.780040514265413,
      -0.51173138450454,
      1.3010299956639813,
      1.6369430150620987,
      -1.8297382846050425,
      1.7655545654343212,
      -0.5091990479891451,
      2.0428593057539755,
      2.7795977898108126,
      2.456852443788805,
      1.3010299956639813,
      1.3010299956639813,
      -0.5100415205751654,
      2.4597750412335304,
      -0.4696722102219137,
      1.3010299956639813,
      -0.4724989890188798,
      1.3010299956639813,
      1.3010299956639813,
      2.258850546991949,
      2.0493405384734804,
      2.780047793094659,
      2.779918413537801,
      1.3010299956639813,
      -0.46167766676856004,
      -0.44818417764898444,
      1.8403501596117202,
      2.459313312277566,
      2.77865871641699,
      2.7783676198928657,
      2.4437728862113706,
      -0.46941614035488227,
      1.3010299956639813,
      -0.5032086842999576,
      2.3414044493858897,
      1.3010299956639813,
      2.77980529197382,
      -1.2335871528876006,
      1.8168627913110444,
      -1.0893755951107988,
      1.3010299956639813,
      2.779538485264074,
      -0.3755116374865511,
      -1.5391021572434522,
      1.3010299956639813,
      -1.489454989793388,
      1.7708012183003548,
      -0.4233131947990044,
      -1.1518108830086013,
      -0.3561526897002858,
      1.3010299956639813,
      2.7796551386953894,
      -1.4236586497942072,
      -1.115204636051019,
      1.3010299956639813,
      1.3010299956639813,
      2.494126753736251,
      -0.42492767428618755,
      -0.15199572850273174,
      -1.5575202309355514,
      1.3010299956639813,
      1.3010299956639813,
      1.3010299956639813,
      1.3010299956639813,
      1.3010299956639813,
      2.4608372777460494,
      -1.4190750243243806,
      1.3010299956639813,
      1.3010299956639813,
      2.0024995409938384,
      -1.5800442515102422,
      2.025045210371338,
      -0.3669357273085008,
      1.3010299956639813,
      -0.42354346759437983,
      1.3010299956639813,
      -1.9355420107730816,
      1.3010299956639813,
      2.779140314697041,
      1.3010299956639813,
      1.3010299956639813,
      -1.3861581781239307,
      -1.4975728800155672,
      1.7953181981996762,
      1.3010299956639813,
      1.3010299956639813,
      -1.6536470255493614,
      -1.243363891754152,
      1.3010299956639813,
      -0.5341711846425635,
      1.3010299956639813,
      2.7796074566943494,
      2.779110993297837,
      1.3010299956639813,
      1.3010299956639813,
      2.779152808189326,
      -0.5032086842999576,
      1.8624992999282166,
      -1.295849483160201,
      2.4449175065156297,
      -2.0315170514460648,
      -0.5039010078674286,
      1.8573397346123155,
      -1.3635121036466347,
      -0.4614262661931443,
      2.4673242046954202,
      2.531259542932268,
      -1.6161846340195687,
      -0.4920092751803086,
      1.3010299956639813,
      2.1756810914351736,
      1.3010299956639813,
      -1.269217724333611,
      1.3010299956639813,
      -1.2487208960166578,
      1.3010299956639813,
      2.2935528069512974,
      -1.6420651529995463,
      2.462731677403086,
      -1.3736596326249577,
      -1.7878123955960423,
      -0.515557792357593,
      2.423969477317124,
      1.6729923220503131,
      -1.6363880201078558,
      -0.5297365530349215,
      1.3010299956639813,
      1.6161992000122214,
      1.6835387199470249,
      0.10030160401385385,
      2.2122875072871735,
      2.127341651129326,
      1.756854341525101,
      1.3010299956639813,
      1.6071943683212366,
      -0.5121548798885645,
      -0.4796474959166821,
      -1.3829996588791011,
      2.136738635966999,
      1.3010299956639813,
      -1.7033348097384688,
      1.8616920902686662,
      2.144384882445438,
      2.4578427025365923,
      -0.4743074754949891,
      -1.8961962790440432,
      1.3010299956639813,
      1.3010299956639813,
      1.5555635718803877,
      -0.5050110263168319,
      2.7800738805696024,
      1.3010299956639813,
      1.3010299956639813,
      -1.5058454059815571,
      -1.6197887582883939,
      2.7806089045519506,
      -0.4932244633933567,
      -1.5512936800949202,
      2.4259816523409325,
      1.8542708108896673,
      -0.4837291172706599,
      1.3010299956639813,
      -1.785156151952302,
      1.3010299956639813,
      1.3010299956639813,
      1.3010299956639813,
      1.3010299956639813,
      -1.563837352959244,
      1.749846034477808,
      1.3010299956639813,
      -0.48122293107322517,
      1.7781867163181597,
      -0.4721124340472953,
      -0.5204246898250116,
      1.3010299956639813,
      1.3010299956639813,
      1.3010299956639813,
      1.3010299956639813,
      -1.5361070110140926,
      1.3010299956639813,
      0.2996380249790756,
      1.7894685989566232,
      -0.4913356369470573,
      2.1175006486575376,
      1.3010299956639813,
      2.778801842643075,
      1.3010299956639813,
      -1.4179366370882913,
      -1.6439741428068773,
      2.1095107147302037,
      1.3010299956639813,
      -1.3872161432802645,
      -1.7011469235902934,
      -0.5069604116823487,
      -0.5204246898250116,
      2.0853066364801696,
      1.3010299956639813,
      1.3010299956639813,
      1.3010299956639813,
      -0.4780777551164996,
      1.5800852122340978,
      1.3010299956639813,
      2.103478733439318,
      2.421039965062763,
      -0.5016894462103995,
      2.2304077891884035,
      -0.5162701009999763,
      1.3010299956639813,
      1.779374959008596,
      2.6251367422749237,
      1.3010299956639813,
      -0.09701860020249718,
      2.1554456602076453,
      -0.5241835869686818,
      1.868189336792561,
      2.3622218953013494,
      1.3010299956639813,
      1.3010299956639813,
      -0.47172622283295623,
      1.3010299956639813,
      -0.5187007266671443,
      2.4563657294265018,
      1.3010299956639813,
      1.8029289492770453,
      -0.5169835798558678,
      1.8336436200601098,
      2.443727864041346,
      1.3010299956639813,
      -1.282329496997738,
      2.533338564114976,
      -0.49498575991589294,
      1.3010299956639813,
      -0.4418916983694504,
      -1.6840296545430822,
      -0.5326879370194478,
      -0.09555495892309032,
      -1.6675615400843946,
      2.353445153397171,
      -0.4964816872759253,
      2.780344679752644,
      1.694715732552553,
      1.9878297647840728,
      -0.3920091414528251,
      -1.3757179041643317,
      -1.3467874862246563,
      2.7794039738965535,
      -0.3841551171252979,
      1.9872764760769124,
      1.3010299956639813,
      2.778674332479471,
      2.780335389361757,
      1.3010299956639813,
      2.778716695450738,
      1.3010299956639813,
      2.7795589758284653,
      1.3010299956639813,
      2.475714615601292,
      -0.3960981682683286,
      1.3010299956639813,
      -0.4590451910738673,
      2.7787890499455514,
      1.3010299956639813,
      1.3010299956639813,
      -0.017367005605150372,
      -1.5451551399914898,
      1.7711367859924525,
      1.3010299956639813,
      2.779239458360175,
      -1.575118363368933,
      -1.5058454059815571,
      1.3010299956639813,
      1.8335009082010618,
      -1.9244530386074692,
      -1.493494967595128,
      2.4339021016400073,
      2.4516215871841056,
      1.3010299956639813,
      2.78007849255686,
      -0.38753403604685766,
      -1.465973893943865,
      1.982313755625787,
      -1.1857524042680798,
      1.3010299956639813,
      -0.5104633705179047,
      1.3010299956639813,
      -0.520856752021387,
      1.3010299956639813,
      1.3010299956639813,
      1.3010299956639813,
      -0.30847647783184556,
      2.7797830102575585,
      -1.5436339668709569,
      -1.3045183235098026,
      -0.5295895090240693,
      1.3010299956639813,
      -1.6819366650372385,
      -0.13548891894160814,
      1.3010299956639813,
      1.7641208142518188,
      -1.6615435063953952,
      2.420679244869136,
      1.3010299956639813,
      -0.2340335752142861,
      -0.5181275896893365,
      -0.5371529641683263,
      2.3836457426590942,
      1.3010299956639813,
      1.9660464122469135,
      -1.3946949538588904,
      1.7360584976406706,
      1.7689051065601298,
      1.3010299956639813,
      2.7786985507249358,
      1.3010299956639813,
      1.6971168302184771,
      -0.5178413045887236,
      2.780351161303011,
      1.3010299956639813,
      -0.48678239993206096,
      1.3010299956639813,
      -0.5076587467450255,
      2.271041489407565,
      1.3010299956639813,
      -0.48095996135165536,
      2.147922303256891,
      -1.3726341434072673,
      -1.585026652029182,
      2.78247104751679,
      -0.5041782466140943,
      -1.6003262785189618,
      1.6129310681889195,
      -0.47729500726525004,
      -1.3946949538588904,
      -0.5030703519267851,
      1.3010299956639813,
      1.3010299956639813,
      1.3010299956639813,
      -0.4905286478974515,
      2.778691032369403,
      1.3010299956639813,
      2.778912335628096,
      1.3010299956639813,
      -0.49295412757267426,
      -0.4296906145641202,
      -1.6615435063953952,
      2.3048372217538162,
      -1.2240256688706308,
      -1.8860566476931633,
      1.9463716870689238,
      1.3010299956639813,
      1.3010299956639813,
      2.240832695151067,
      1.7870734754098234,
      -0.530177984021837,
      -0.5326879370194478,
      1.3010299956639813,
      2.584730162234338,
      -2.0222763947111524,
      -0.5154154707171571,
      1.3010299956639813,
      -0.5218665718994825,
      -0.4509967379742122,
      2.3492460472639305,
      -1.0675262353228467,
      -0.20155653964981252,
      1.3010299956639813,
      -0.5212892444872407,
      1.7769073885939688,
      1.3010299956639813,
      2.4393323779796154,
      1.3010299956639813,
      1.3010299956639813,
      -0.5294425147827259,
      -0.06153031163235465,
      -1.295849483160201,
      2.1098426876803766,
      -0.48744900709578926,
      1.3010299956639813,
      1.3010299956639813,
      2.3791644171250974,
      1.3010299956639813,
      -0.4277093938485824,
      1.4728836482634802,
      -1.341035157335565,
      1.7627378157544975,
      2.4530613574356717,
      -0.3564486314370549,
      -0.47860037188462434,
      1.3010299956639813,
      1.3010299956639813,
      2.4183032804502216,
      -1.4975728800155672,
      2.524730186113157,
      -0.5184140636323777,
      -0.4705696456330141,
      1.3010299956639813,
      -0.4631891340084585,
      1.6658623002031552,
      -1.3124710387853658,
      1.3010299956639813,
      -0.45518808824222384,
      1.3010299956639813,
      -1.391473966422806,
      1.3010299956639813,
      2.2880141241005902,
      1.3010299956639813,
      1.7536205888931562,
      2.4424708322268422,
      1.8467390505961658,
      1.3010299956639813,
      1.3010299956639813,
      2.094879725224353,
      -1.679853713888946,
      -1.173277479831008,
      1.3010299956639813,
      2.779940255799443,
      1.3010299956639813,
      2.7798571340025537,
      -0.4778166823813137,
      2.778344106689021,
      1.3010299956639813,
      1.3010299956639813,
      1.3010299956639813,
      1.3010299956639813,
      2.2893541292699897,
      -0.4667364832212852,
      -1.609064892896621,
      0.023663918197793475,
      1.3010299956639813,
      1.3010299956639813,
      1.3010299956639813,
      2.445270804910025,
      2.5202235332845953,
      2.7794690699000832,
      -0.39544996742873867,
      -1.485452247339714,
      -0.4396150770279845,
      1.3010299956639813,
      2.449389062644261,
      -1.665546248849069,
      -1.6615435063953952,
      1.3010299956639813,
      -1.5497508916806388,
      -1.4190750243243806,
      2.3226498599940064,
      1.3010299956639813,
      -0.3808022842070527,
      -1.4034029043735399,
      -1.7166987712964503,
      -1.6108339156354676,
      1.3010299956639813,
      2.2272563919449344,
      -1.9393021596463884,
      1.7949367484075835,
      1.8185821593307272,
      -1.3767507096020994,
      -1.3045183235098026,
      2.7791845819260472,
      -1.5543957967264024,
      1.3010299956639813,
      -0.38499738547541174,
      -1.4449055514216809,
      -1.2358238676096693,
      1.3010299956639813,
      -0.3238553196437938,
      2.4828490109889665,
      1.3010299956639813,
      2.779120598801815,
      1.8119300706793209,
      2.465068469110996,
      2.7793097767067074,
      1.3010299956639813,
      2.7803579308190076,
      1.3010299956639813,
      -1.6736641390712486,
      1.3010299956639813,
      1.3010299956639813,
      -0.438898616350944,
      2.1155862171272206,
      -0.431211787684653,
      -1.2873502983727887,
      -0.5043169323830847,
      2.3859962486024195,
      1.3010299956639813,
      2.778485239147177,
      1.3010299956639813,
      -0.05804158346918638,
      -2.0222763947111524,
      1.3010299956639813,
      1.3010299956639813,
      -0.5278288533076368,
      2.5355493038548476,
      1.3010299956639813,
      -0.44830608487277523,
      1.3010299956639813,
      2.460386005478153,
      2.779725245534018,
      1.3010299956639813,
      -1.5917600346881504,
      -0.4835968515525968,
      -0.5171264163912462,
      -0.46928816201834306,
      2.466646711354385,
      -0.09625905937846137,
      -0.5379016188648442,
      2.260726630380464,
      2.1270380285582866,
      1.3010299956639813,
      -0.5199930570428494,
      -1.4067139329795428,
      1.586052545837062,
      2.4599217631070474,
      -0.5010006364198468,
      1.7487096425380402,
      1.3010299956639813,
      -0.5075189898711233,
      1.3010299956639813,
      2.5264608886672355,
      1.3010299956639813,
      -1.1012748184105066,
      1.3010299956639813,
      -1.6020599913279623,
      1.3010299956639813,
      2.172285266406748,
      1.6259253820060506,
      -0.5310621943345387,
      -1.5816987086802545,
      2.7792740413928274,
      -1.2365720064370627,
      -1.4723700991286615,
      2.7793100654649443,
      -0.5090587946432132,
      -1.2321023839819094,
      -0.2003149090908996,
      -0.48905305132702726,
      1.3010299956639813,
      -0.5221555236612417,
      2.4597569611864887,
      -1.4509967379742121,
      2.780611135739023,
      1.3010299956639813,
      2.7784388028781986,
      -0.4614262661931443,
      1.6853654855982656,
      1.3010299956639813,
      2.7794307495981343,
      -0.5191310763128322,
      1.3010299956639813,
      1.3010299956639813,
      2.163755438886845,
      -0.499763525174361,
      -0.5316526695878427,
      1.3010299956639813,
      1.3010299956639813,
      2.4566467153088736,
      1.3010299956639813,
      -1.6716203965612624,
      2.4492975469246394,
      2.389795620761583,
      1.6702569886873067,
      -0.4514877436589645,
      -1.6556077263148892,
      1.3010299956639813,
      1.3010299956639813,
      1.3010299956639813,
      1.3010299956639813,
      -1.5800442515102422,
      -1.6216020990518623,
      -1.9546770212133426,
      1.3010299956639813,
      -0.5279753022997186,
      1.6304156698563723,
      0.07711343230376036,
      -1.2941362877160807,
      1.8672647304930334,
      1.3010299956639813,
      2.77961813330073,
      2.440415342273212,
      1.8699740805871143,
      1.3010299956639813,
      2.07292563543944,
      -0.5231683714877393,
      0.02329362303660499,
      1.3010299956639813,
      1.3010299956639813,
      1.888102516405859,
      1.7238963106841676,
      1.3010299956639813,
      -0.494850021680094,
      1.8050166796440121,
      -0.490663041982356,
      1.7818716495090394,
      1.3010299956639813,
      -1.413412695328245,
      -0.45792185366437443,
      0.21708895147917184,
      -0.5175552080817347,
      -0.39859193946531624,
      1.3010299956639813,
      1.3010299956639813,
      -0.48784946307796945,
      2.443795395546255,
      1.3010299956639813,
      1.3010299956639813,
      1.3010299956639813,
      1.5032743963350503,
      2.461664319391144,
      1.3010299956639813,
      -1.6055483191737838,
      2.779401953021889,
      2.7800395773775395,
      2.220025668917632,
      2.2171700859687706,
      -1.6840296545430822,
      -0.5246194068566388,
      1.3010299956639813,
      -0.47185492174689364,
      1.3010299956639813,
      -1.1463017882238256,
      1.3010299956639813,
      1.3010299956639813,
      2.0131149999929137,
      1.3010299956639813,
      2.1820752451133205,
      1.3010299956639813,
      -1.2549252084179425,
      2.5165213599055933,
      -0.42354346759437983,
      -0.10045306890913301,
      -1.4989407377822486,
      1.3010299956639813,
      -0.43415218132648237,
      1.3010299956639813,
      -0.38216125228299663,
      -0.35753547975787864,
      1.3010299956639813,
      -1.6536470255493614,
      -0.43842163169903936,
      1.3010299956639813,
      -1.359518563029578,
      1.3010299956639813,
      1.3010299956639813,
      -0.3885953622884065,
      2.4028241385342857,
      -1.3925449767853315,
      -0.3748934245965324,
      1.3010299956639813,
      1.3010299956639813,
      -1.1390633792999063,
      -0.38142897187987024,
      -0.459545386328588,
      -0.43050904565121695,
      -1.3334820194451191,
      -0.43309134477319655,
      2.7802972894786024,
      -0.39040559077478,
      -0.44502654166676014,
      -1.9030899869919435,
      -1.6595558851598817,
      1.61219875408901,
      -0.5205686628022635,
      -0.5037624548332648,
      1.7643084188215563,
      1.3010299956639813,
      -0.253599355508439,
      1.3010299956639813,
      -0.41850545770910075,
      -0.5007254181077827,
      1.3010299956639813,
      -0.4799096718871575,
      1.7020296631291174,
      2.670380482053817,
      0.0949251011241623,
      2.7793642042417903,
      1.6363926018904709,
      -1.6777807052660807,
      -0.35242144578754486,
      -1.453457336521869,
      1.3010299956639813,
      1.3010299956639813,
      -0.18184011360281466,
      1.3010299956639813,
      1.3010299956639813,
      1.5392204212417295,
      -0.5394028111023985,
      2.3559433908082026,
      1.3010299956639813,
      2.7790161546261594,
      1.7697029248532812,
      1.3010299956639813,
      -0.4581712332186876,
      2.7794252646832005,
      1.3010299956639813,
      -1.154901959985743,
      1.925627124394577,
      1.3010299956639813,
      -0.4652126413705083,
      2.7796111358248363,
      -0.4618034216505458,
      2.455125003863822,
      -1.5934598195660448,
      1.3010299956639813,
      -1.5590909179347823,
      -0.5253467466379372,
      1.3010299956639813,
      2.779730221823867,
      -0.5147045612739112,
      1.3010299956639813,
      1.7987521300716762,
      2.0293797188393095,
      -0.5127201835569312,
      -0.5175552080817347,
      1.3010299956639813,
      1.3010299956639813,
      1.3010299956639813,
      -1.9829666607012197,
      2.196363574052337,
      1.3010299956639813,
      1.7192492274116176,
      1.589358603548606,
      1.6895104173491886,
      2.7786247350814657,
      -0.4769041617474322,
      -0.4511194373624851,
      1.3010299956639813,
      -0.518987579043427,
      -2.0268721464003012,
      -0.5300307905000405,
      2.3487056701202804,
      2.1920670854182256,
      2.4852856360903535,
      -0.4443011052810986,
      2.4624791584559786,
      1.3010299956639813,
      1.3010299956639813,
      -0.24848994972995866,
      2.7822101048405368,
      1.3010299956639813,
      1.3010299956639813,
      2.440507173758195,
      2.4549323196339636,
      2.167004057055689,
      1.3010299956639813,
      -0.5145625189236986,
      1.3010299956639813,
      1.3010299956639813,
      -0.48958905198982305,
      2.5421758640652174,
      -1.0851281824599497,
      -0.45173345482925475,
      -0.5040396051182948,
      1.3010299956639813,
      -0.45259454033251034,
      1.3010299956639813,
      -1.1209041204999273,
      -0.5181275896893365,
      1.3010299956639813,
      2.262981886020288,
      1.684224882484099,
      -0.45580788923496734,
      1.7917236232782185,
      1.3010299956639813,
      1.726983798806851,
      -1.6345120151091004,
      1.3010299956639813,
      1.3010299956639813,
      1.7673451326858491,
      -0.22863302914221936,
      1.3010299956639813,
      1.3010299956639813,
      -0.5306198641500748,
      -1.5331323796458904,
      -1.978810700930062,
      2.779244729021099
    ]
  }
}