{
  "0": {
    "test_acc": 0.9159663865546218,
    "tp": 67,
    "tn": 42,
    "fp": 5,
    "fn": 5,
    "tpr": 0.9305555555555556,
    "fpr": 0.10638297872340426,
    "tnr": 0.8936170212765957,
    "fnr": 0.06944444444444445,
    "f1_score": 0.9305555555555556,
    "precision": 0.9305555555555556,
    "recall": 0.9305555555555556
  },
  "1": {
    "test_acc": 0.957983193277311,
    "tp": 71,
    "tn": 43,
    "fp": 3,
    "fn": 2,
    "tpr": 0.9726027397260274,
    "fpr": 0.06521739130434782,
    "tnr": 0.9347826086956522,
    "fnr": 0.0273972602739726,
    "f1_score": 0.9659863945578231,
    "precision": 0.9594594594594594,
    "recall": 0.9726027397260274
  },
  "2": {
    "test_acc": 0.9327731092436975,
    "tp": 68,
    "tn": 43,
    "fp": 3,
    "fn": 5,
    "tpr": 0.9315068493150684,
    "fpr": 0.06521739130434782,
    "tnr": 0.9347826086956522,
    "fnr": 0.0684931506849315,
    "f1_score": 0.9444444444444444,
    "precision": 0.9577464788732394,
    "recall": 0.9315068493150684
  },
  "3": {
    "test_acc": 0.9067796610169492,
    "tp": 70,
    "tn": 37,
    "fp": 9,
    "fn": 2,
    "tpr": 0.9722222222222222,
    "fpr": 0.1956521739130435,
    "tnr": 0.8043478260869565,
    "fnr": 0.027777777777777776,
    "f1_score": 0.9271523178807947,
    "precision": 0.8860759493670886,
    "recall": 0.9722222222222222
  },
  "4": {
    "test_acc": 0.940677966101695,
    "tp": 69,
    "tn": 42,
    "fp": 4,
    "fn": 3,
    "tpr": 0.9583333333333334,
    "fpr": 0.08695652173913043,
    "tnr": 0.9130434782608695,
    "fnr": 0.041666666666666664,
    "f1_score": 0.9517241379310345,
    "precision": 0.9452054794520548,
    "recall": 0.9583333333333334
  },
  "sum": {
    "tp": 345.0,
    "fp": 24.0,
    "tn": 207.0,
    "fn": 17.0,
    "tpr": 0.9530386740331491,
    "tnr": 0.8961038961038961,
    "fpr": 0.1038961038961039,
    "fnr": 0.04696132596685083
  },
  "avg": {
    "test_acc": 0.9308360632388547,
    "tp": 69.0,
    "tn": 41.4,
    "fp": 4.8,
    "fn": 3.4,
    "tpr": 0.9530441400304414,
    "fpr": 0.10388529139685479,
    "tnr": 0.8961147086031452,
    "fnr": 0.046955859969558596,
    "f1_score": 0.9439725700739304,
    "precision": 0.9358085845414795,
    "recall": 0.9530441400304414
  }
}